vc_buf_size = 64;
wait_for_tail_credit = 0;
vc_allocator = separable_input_first;
sw_allocator = separable_input_first;
alloc_iters = 1;
credit_delay = 2;
routing_delay = 0;
vc_alloc_delay = 1;
sw_alloc_delay = 1;
st_final_delay = 1;
input_speedup = 1;
output_speedup = 1;
sim_count = 1;
num_vcs = 7;
priority = none;
packet_size = 1;
injection_rate_uses_flits = 1;
internal_speedup = 4.0;
warmup_periods = 3;
sample_period = 1000;
df_a = 8;
df_arrangement = absolute_improved;
df_g = 0;
multitiered_routing_threshold_0 = 10;
multitiered_routing_threshold_1 = 40;
seed = 11;
topology = dragonflyfull;
traffic = group_shift;
df_g = 22;
routing_function = PAR_multi_tiered;
shift_by_group = 4;

defaultText, count, i-rate in config file, i-rate injected, i-rate accepted, packet latency, flit latency, deadlock?
simulation,         1,      0.01,  0.009875, 0.0098669,    11.287,    11.288,         0,  52275,  21068,  |4-> 52275 , |5-> 0 , |6-> 0 ,,  |4-> 21068 , |5-> 0 , |6-> 0 ,,  |1-> 0 , |2-> 50 , |3-> 7614 , |4-> 44611 , |5-> 0 , |6-> 0 ,,  |1-> 0 , |2-> 36 , |3-> 2407 , |4-> 18625 , |5-> 0 , |6-> 0 ,
simulation,         2,      0.99,    0.3647,   0.61014,    577.21,    565.72,         1,  0,  0,  ,  ,  ,  
simulation,         3,       0.5,   0.36375,   0.43548,    334.61,    741.34,         1,  0,  0,  ,  ,  ,  
simulation,         4,      0.25,   0.25024,   0.25022,    16.111,    16.149,         0,  793550,  890844,  |4-> 753501 , |5-> 40049 , |6-> 0 ,,  |4-> 606392 , |5-> 284452 , |6-> 0 ,,  |1-> 0 , |2-> 824 , |3-> 129730 , |4-> 632061 , |5-> 30935 , |6-> 0 ,,  |1-> 0 , |2-> 551 , |3-> 88254 , |4-> 581249 , |5-> 220790 , |6-> 0 ,
simulation,         5,      0.37,   0.36968,   0.37005,    39.697,    40.563,         0,  1488627,  2120159,  |4-> 971642 , |5-> 481605 , |6-> 35380 ,,  |4-> 443284 , |5-> 1524574 , |6-> 152301 ,,  |1-> 0 , |2-> 1033 , |3-> 197760 , |4-> 894515 , |5-> 376462 , |6-> 18857 ,,  |1-> 0 , |2-> 680 , |3-> 122292 , |4-> 732460 , |5-> 1204485 , |6-> 60242 ,
simulation,         6,      0.43,   0.38105,   0.40755,    432.01,    425.95,         1,  0,  0,  ,  ,  ,  
simulation,         7,       0.4,   0.38756,   0.39688,    226.54,    233.27,         0,  2199437,  3707856,  |4-> 818754 , |5-> 818731 , |6-> 561952 ,,  |4-> 307832 , |5-> 1901817 , |6-> 1498207 ,,  |1-> 0 , |2-> 775 , |3-> 191164 , |4-> 908631 , |5-> 811677 , |6-> 287190 ,,  |1-> 0 , |2-> 798 , |3-> 157107 , |4-> 916105 , |5-> 2003853 , |6-> 629993 ,
simulation,         8,      0.41,   0.38607,   0.40281,    395.52,    400.36,         0,  2391232,  4228483,  |4-> 638977 , |5-> 814865 , |6-> 937390 ,,  |4-> 225494 , |5-> 1628204 , |6-> 2374785 ,,  |1-> 0 , |2-> 601 , |3-> 163421 , |4-> 802752 , |5-> 940835 , |6-> 483623 ,,  |1-> 0 , |2-> 870 , |3-> 157638 , |4-> 911397 , |5-> 2159372 , |6-> 999206 ,
simulation,         9,      0.42,   0.38005,   0.40086,    414.22,    386.07,         1,  0,  0,  ,  ,  ,  
simulation,        11,      0.35,   0.34993,   0.35004,    28.083,    28.421,         0,  1195426,  1612149,  |4-> 882686 , |5-> 311168 , |6-> 1572 ,,  |4-> 453760 , |5-> 1150412 , |6-> 7977 ,,  |1-> 0 , |2-> 913 , |3-> 173577 , |4-> 779854 , |5-> 240205 , |6-> 877 ,,  |1-> 0 , |2-> 540 , |3-> 105394 , |4-> 632741 , |5-> 870214 , |6-> 3260 ,
simulation,        12,       0.3,   0.30022,   0.30019,    18.846,    18.912,         0,  927384,  1132158,  |4-> 797403 , |5-> 129981 , |6-> 0 ,,  |4-> 521260 , |5-> 610898 , |6-> 0 ,,  |1-> 0 , |2-> 807 , |3-> 146155 , |4-> 678376 , |5-> 102046 , |6-> 0 ,,  |1-> 0 , |2-> 490 , |3-> 93439 , |4-> 570332 , |5-> 467897 , |6-> 0 ,
