wait_for_tail_credit = 0;
vc_allocator = separable_input_first;
sw_allocator = separable_input_first;
alloc_iters = 1;
credit_delay = 2;
routing_delay = 0;
vc_alloc_delay = 1;
sw_alloc_delay = 1;
st_final_delay = 1;
input_speedup = 1;
output_speedup = 1;
internal_speedup = 4.0;
warmup_periods = 3;
sim_count = 1;
sample_period = 10000;
num_vcs = 8;
priority = none;
packet_size = 1;
injection_rate_uses_flits = 1;
df_a = 8;
df_arrangement = absolute_improved;
df_g = 0;
global_latency = 1;
local_latency = 1;
topology = dragonflyfull;
traffic = df_wc;
ugal_multiply_mode = pathlen_based;
vc_buf_size = 64;
df_g = 17;
df_wc_seed = 57;
routing_function = UGAL_G_restricted_src_and_dst;
seed = 87;

defaultText, count, i-rate in config file, i-rate injected, i-rate accepted, flit latency, deadlock?, average_hop_length
simulation,         1,       0.5,   0.49997,   0.49998,    26.629,     26.63,         0,      5.3534
simulation,         2,      0.74,   0.46786,   0.51337,    1536.2,    796.51,         1,         0.0
simulation,         3,      0.62,   0.50825,   0.54118,    697.93,    498.66,         1,         0.0
simulation,         4,      0.56,   0.51872,   0.52814,    582.39,     325.6,         1,         0.0
simulation,         5,      0.53,   0.52467,   0.52442,    499.95,     153.9,         1,         0.0
simulation,         6,      0.51,   0.50995,   0.50995,    29.404,    29.405,         0,      5.3598
simulation,         7,      0.52,   0.51993,   0.51993,    34.933,    34.935,         0,      5.3664
simulation,         8,       0.1,   0.10017,   0.10017,    12.625,    12.626,         0,      4.9292
simulation,         9,       0.2,   0.20018,   0.20018,    13.867,    13.867,         0,      5.0452
simulation,        10,       0.3,   0.29994,   0.29995,    15.625,    15.625,         0,      5.1843
simulation,        11,       0.4,   0.40002,   0.40002,    18.328,    18.328,         0,      5.2862
simulation,        12,       0.5,   0.49997,   0.49998,    26.629,     26.63,         0,      5.3534
