routing_delay = 0;
alloc_iters = 1;
credit_delay = 2;
num_vcs = 7;
sim_count = 1;
output_speedup = 1;
vc_alloc_delay = 1;
input_speedup = 1;
sample_period = 10000;
packet_size = 1;
internal_speedup = 4.0;
sw_allocator = separable_input_first;
vc_buf_size = 64;
warmup_periods = 3;
injection_rate_uses_flits = 1;
st_final_delay = 1;
vc_allocator = separable_input_first;
sw_alloc_delay = 1;
priority = none;
wait_for_tail_credit = 0;
df_a = 8;
df_arrangement = absolute_improved;
df_g = 0;
global_latency = 10;
local_latency = 10;
multitiered_routing_threshold_0 = 10;
multitiered_routing_threshold_1 = 40;
topology = dragonflyfull;
traffic = uniform;
df_g = 31;
routing_function = PAR;
seed = 4;

defaultText, count, i-rate in config file, i-rate injected, i-rate accepted, packet latency, flit latency, deadlock?
simulation,         1,      0.01, 0.0099798, 0.0099789,    44.452,    44.463,         0,  813656,  189812,  |4-> 0 , |5-> 0 , |6-> 0 ,,  |4-> 0 , |5-> 0 , |6-> 0 ,,  |1-> 0 , |2-> 13406 , |3-> 4568 , |4-> 53532 , |5-> 267724 , |6-> 474426 ,,  |1-> 0 , |2-> 3536 , |3-> 1141 , |4-> 13120 , |5-> 63353 , |6-> 108662 ,
simulation,         2,      0.99,   0.91802,   0.93746,    722.65,    358.85,         1,  0,  0,  ,  ,  ,  
simulation,         3,       0.5,    0.5001,   0.50009,    37.615,    37.619,         0,  52318971,  1822731,  |4-> 0 , |5-> 0 , |6-> 0 ,,  |4-> 0 , |5-> 0 , |6-> 0 ,,  |1-> 0 , |2-> 822397 , |3-> 286867 , |4-> 3442946 , |5-> 17184895 , |6-> 30581866 ,,  |1-> 0 , |2-> 27380 , |3-> 14602 , |4-> 151768 , |5-> 646465 , |6-> 982516 ,
simulation,         4,      0.74,   0.74011,    0.7401,    40.002,    40.004,         0,  79230723,  1459098,  |4-> 0 , |5-> 0 , |6-> 0 ,,  |4-> 0 , |5-> 0 , |6-> 0 ,,  |1-> 0 , |2-> 1238833 , |3-> 434056 , |4-> 5208166 , |5-> 26035047 , |6-> 46314621 ,,  |1-> 0 , |2-> 20656 , |3-> 14887 , |4-> 142027 , |5-> 549068 , |6-> 732460 ,
simulation,         5,      0.86,      0.86,   0.85999,    46.591,    46.594,         0,  92217932,  1617574,  |4-> 0 , |5-> 0 , |6-> 0 ,,  |4-> 0 , |5-> 0 , |6-> 0 ,,  |1-> 0 , |2-> 1440091 , |3-> 504597 , |4-> 6063816 , |5-> 30277368 , |6-> 53932060 ,,  |1-> 0 , |2-> 21949 , |3-> 18093 , |4-> 166383 , |5-> 622671 , |6-> 788478 ,
simulation,         6,      0.92,   0.91466,   0.91543,    400.02,    220.67,         0,  166519547,  6963177,  |4-> 0 , |5-> 0 , |6-> 0 ,,  |4-> 0 , |5-> 0 , |6-> 0 ,,  |1-> 0 , |2-> 2649423 , |3-> 880309 , |4-> 10719603 , |5-> 54359356 , |6-> 97910856 ,,  |1-> 0 , |2-> 80626 , |3-> 87198 , |4-> 785031 , |5-> 2787909 , |6-> 3222413 ,
simulation,         7,      0.95,   0.91849,   0.92077,    760.39,    385.84,         1,  0,  0,  ,  ,  ,  
simulation,         8,      0.93,   0.92035,   0.92092,    533.46,     281.8,         1,  0,  0,  ,  ,  ,  
simulation,         9,       0.9,   0.89999,   0.90001,    55.003,     55.01,         0,  95972343,  2145943,  |4-> 0 , |5-> 0 , |6-> 0 ,,  |4-> 0 , |5-> 0 , |6-> 0 ,,  |1-> 0 , |2-> 1500932 , |3-> 523940 , |4-> 6300866 , |5-> 31499839 , |6-> 56146766 ,,  |1-> 0 , |2-> 28612 , |3-> 22034 , |4-> 211297 , |5-> 813318 , |6-> 1070682 ,
simulation,        10,      0.85,   0.84999,   0.84999,    45.501,    45.505,         0,  91196408,  1567836,  |4-> 0 , |5-> 0 , |6-> 0 ,,  |4-> 0 , |5-> 0 , |6-> 0 ,,  |1-> 0 , |2-> 1424795 , |3-> 499295 , |4-> 5991751 , |5-> 29959375 , |6-> 53321192 ,,  |1-> 0 , |2-> 21702 , |3-> 17456 , |4-> 161784 , |5-> 603758 , |6-> 763136 ,
simulation,        11,       0.8,   0.80003,   0.80003,    42.095,    42.098,         0,  85838791,  1453792,  |4-> 0 , |5-> 0 , |6-> 0 ,,  |4-> 0 , |5-> 0 , |6-> 0 ,,  |1-> 0 , |2-> 1340620 , |3-> 470030 , |4-> 5645116 , |5-> 28191489 , |6-> 50191536 ,,  |1-> 0 , |2-> 20104 , |3-> 15965 , |4-> 147205 , |5-> 556452 , |6-> 714066 ,
simulation,        12,      0.75,   0.75008,   0.75008,     40.27,    40.272,         0,  80332100,  1452835,  |4-> 0 , |5-> 0 , |6-> 0 ,,  |4-> 0 , |5-> 0 , |6-> 0 ,,  |1-> 0 , |2-> 1255506 , |3-> 440802 , |4-> 5281741 , |5-> 26388013 , |6-> 46966038 ,,  |1-> 0 , |2-> 20422 , |3-> 14967 , |4-> 142166 , |5-> 547922 , |6-> 727358 ,
