routing_delay = 0;
alloc_iters = 1;
credit_delay = 2;
num_vcs = 7;
sim_count = 1;
output_speedup = 1;
vc_alloc_delay = 1;
input_speedup = 1;
sample_period = 10000;
packet_size = 1;
internal_speedup = 4.0;
sw_allocator = separable_input_first;
vc_buf_size = 64;
warmup_periods = 3;
injection_rate_uses_flits = 1;
st_final_delay = 1;
vc_allocator = separable_input_first;
sw_alloc_delay = 1;
priority = none;
wait_for_tail_credit = 0;
df_a = 8;
df_arrangement = absolute_improved;
df_g = 0;
global_latency = 10;
local_latency = 10;
multitiered_routing_threshold_0 = 10;
multitiered_routing_threshold_1 = 40;
topology = dragonflyfull;
traffic = uniform;
df_g = 27;
routing_function = min;
seed = 2;

defaultText, count, i-rate in config file, i-rate injected, i-rate accepted, packet latency, flit latency, deadlock?
simulation,         1,      0.01, 0.0099977,  0.009997,    33.499,      33.5,         0,  0,  0,  |4-> 0 , |5-> 0 , |6-> 0 ,,  |4-> 0 , |5-> 0 , |6-> 0 ,,  |1-> 0 , |2-> 0 , |3-> 0 , |4-> 0 , |5-> 0 , |6-> 0 ,,  |1-> 0 , |2-> 0 , |3-> 0 , |4-> 0 , |5-> 0 , |6-> 0 ,
simulation,         2,      0.99,   0.82651,   0.86739,    828.34,    421.43,         1,  0,  0,  ,  ,  ,  
simulation,         3,       0.5,   0.50004,   0.50004,    35.259,    35.261,         0,  0,  0,  |4-> 0 , |5-> 0 , |6-> 0 ,,  |4-> 0 , |5-> 0 , |6-> 0 ,,  |1-> 0 , |2-> 0 , |3-> 0 , |4-> 0 , |5-> 0 , |6-> 0 ,,  |1-> 0 , |2-> 0 , |3-> 0 , |4-> 0 , |5-> 0 , |6-> 0 ,
simulation,         4,      0.74,   0.74004,   0.74004,    39.887,    39.889,         0,  0,  0,  |4-> 0 , |5-> 0 , |6-> 0 ,,  |4-> 0 , |5-> 0 , |6-> 0 ,,  |1-> 0 , |2-> 0 , |3-> 0 , |4-> 0 , |5-> 0 , |6-> 0 ,,  |1-> 0 , |2-> 0 , |3-> 0 , |4-> 0 , |5-> 0 , |6-> 0 ,
simulation,         5,      0.86,   0.82564,   0.82744,     974.0,    470.32,         1,  0,  0,  ,  ,  ,  
simulation,         6,       0.8,   0.80001,   0.80002,    46.687,    46.694,         0,  0,  0,  |4-> 0 , |5-> 0 , |6-> 0 ,,  |4-> 0 , |5-> 0 , |6-> 0 ,,  |1-> 0 , |2-> 0 , |3-> 0 , |4-> 0 , |5-> 0 , |6-> 0 ,,  |1-> 0 , |2-> 0 , |3-> 0 , |4-> 0 , |5-> 0 , |6-> 0 ,
simulation,         7,      0.83,   0.82536,   0.82679,    425.17,    278.53,         0,  0,  0,  |4-> 0 , |5-> 0 , |6-> 0 ,,  |4-> 0 , |5-> 0 , |6-> 0 ,,  |1-> 0 , |2-> 0 , |3-> 0 , |4-> 0 , |5-> 0 , |6-> 0 ,,  |1-> 0 , |2-> 0 , |3-> 0 , |4-> 0 , |5-> 0 , |6-> 0 ,
simulation,         8,      0.84,    0.8255,   0.82818,     578.9,    381.39,         1,  0,  0,  ,  ,  ,  
simulation,        10,      0.75,   0.75004,   0.75004,    40.454,    40.456,         0,  0,  0,  |4-> 0 , |5-> 0 , |6-> 0 ,,  |4-> 0 , |5-> 0 , |6-> 0 ,,  |1-> 0 , |2-> 0 , |3-> 0 , |4-> 0 , |5-> 0 , |6-> 0 ,,  |1-> 0 , |2-> 0 , |3-> 0 , |4-> 0 , |5-> 0 , |6-> 0 ,
simulation,        11,       0.7,   0.70005,   0.70004,    38.283,    38.285,         0,  0,  0,  |4-> 0 , |5-> 0 , |6-> 0 ,,  |4-> 0 , |5-> 0 , |6-> 0 ,,  |1-> 0 , |2-> 0 , |3-> 0 , |4-> 0 , |5-> 0 , |6-> 0 ,,  |1-> 0 , |2-> 0 , |3-> 0 , |4-> 0 , |5-> 0 , |6-> 0 ,
simulation,        12,      0.65,   0.65008,   0.65008,    37.068,    37.069,         0,  0,  0,  |4-> 0 , |5-> 0 , |6-> 0 ,,  |4-> 0 , |5-> 0 , |6-> 0 ,,  |1-> 0 , |2-> 0 , |3-> 0 , |4-> 0 , |5-> 0 , |6-> 0 ,,  |1-> 0 , |2-> 0 , |3-> 0 , |4-> 0 , |5-> 0 , |6-> 0 ,
