vc_buf_size = 64;
wait_for_tail_credit = 0;
vc_allocator = separable_input_first;
sw_allocator = separable_input_first;
alloc_iters = 1;
credit_delay = 2;
routing_delay = 0;
vc_alloc_delay = 1;
sw_alloc_delay = 1;
st_final_delay = 1;
input_speedup = 1;
output_speedup = 1;
sim_count = 1;
num_vcs = 7;
priority = none;
packet_size = 1;
injection_rate_uses_flits = 1;
internal_speedup = 4.0;
warmup_periods = 3;
sample_period = 10000;
df_a = 8;
df_arrangement = absolute_improved;
df_g = 0;
global_latency = 10;
local_latency = 10;
multitiered_routing_threshold_0 = 10;
multitiered_routing_threshold_1 = 40;
seed = 11;
topology = dragonflyfull;
traffic = group_shift;
df_g = 25;
routing_function = UGAL_L;
shift_by_group = 6;

defaultText, count, i-rate in config file, i-rate injected, i-rate accepted, packet latency, flit latency, deadlock?
simulation,         1,      0.01,  0.010034,  0.010034,    47.858,    47.867,         0,  274420,  207853,  |4-> 0 , |5-> 0 , |6-> 0 ,,  |4-> 0 , |5-> 0 , |6-> 0 ,,  |1-> 0 , |2-> 296 , |3-> 3453 , |4-> 23230 , |5-> 74721 , |6-> 172720 ,,  |1-> 0 , |2-> 348 , |3-> 2912 , |4-> 19627 , |5-> 58925 , |6-> 126041 ,
simulation,         2,      0.99,   0.28155,   0.32679,    2830.7,    1331.5,         1,  0,  0,  ,  ,  ,  
simulation,         3,       0.5,   0.32607,   0.36529,    1485.2,    944.01,         1,  0,  0,  ,  ,  ,  
simulation,         4,      0.25,   0.25011,    0.2501,    98.214,    98.378,         0,  2002178,  10091108,  |4-> 0 , |5-> 0 , |6-> 0 ,,  |4-> 0 , |5-> 0 , |6-> 0 ,,  |1-> 0 , |2-> 1487 , |3-> 18819 , |4-> 146730 , |5-> 509188 , |6-> 1325954 ,,  |1-> 0 , |2-> 15120 , |3-> 140222 , |4-> 935300 , |5-> 2828812 , |6-> 6171654 ,
simulation,         5,      0.37,   0.32343,   0.35238,    555.79,    516.26,         1,  0,  0,  ,  ,  ,  
simulation,         6,      0.31,   0.30073,   0.30095,    732.66,    482.75,         1,  0,  0,  ,  ,  ,  
simulation,         7,      0.28,   0.27868,   0.27953,    392.38,    349.39,         0,  3539333,  20313977,  |4-> 0 , |5-> 0 , |6-> 0 ,,  |4-> 0 , |5-> 0 , |6-> 0 ,,  |1-> 0 , |2-> 1801 , |3-> 27970 , |4-> 236582 , |5-> 887538 , |6-> 2385442 ,,  |1-> 0 , |2-> 31002 , |3-> 285446 , |4-> 1896721 , |5-> 5698238 , |6-> 12402570 ,
simulation,         8,      0.29,   0.28648,   0.28748,    464.54,    431.89,         1,  0,  0,  ,  ,  ,  
simulation,        10,       0.2,   0.20008,   0.20007,    91.611,    91.701,         0,  1993823,  7650767,  |4-> 0 , |5-> 0 , |6-> 0 ,,  |4-> 0 , |5-> 0 , |6-> 0 ,,  |1-> 0 , |2-> 2046 , |3-> 22362 , |4-> 159500 , |5-> 514965 , |6-> 1294950 ,,  |1-> 0 , |2-> 11383 , |3-> 104443 , |4-> 703207 , |5-> 2149413 , |6-> 4682321 ,
simulation,        11,      0.15,   0.15012,   0.15012,    85.015,    85.053,         0,  1989859,  5237586,  |4-> 0 , |5-> 0 , |6-> 0 ,,  |4-> 0 , |5-> 0 , |6-> 0 ,,  |1-> 0 , |2-> 2318 , |3-> 23629 , |4-> 164939 , |5-> 518553 , |6-> 1280420 ,,  |1-> 0 , |2-> 7757 , |3-> 71796 , |4-> 479904 , |5-> 1476682 , |6-> 3201447 ,
simulation,        12,       0.1,   0.10015,   0.10015,    68.703,     68.72,         0,  1923510,  2893863,  |4-> 0 , |5-> 0 , |6-> 0 ,,  |4-> 0 , |5-> 0 , |6-> 0 ,,  |1-> 0 , |2-> 2356 , |3-> 23527 , |4-> 163638 , |5-> 506969 , |6-> 1227020 ,,  |1-> 0 , |2-> 4433 , |3-> 39811 , |4-> 268524 , |5-> 821838 , |6-> 1759257 ,
