vc_buf_size = 64;
wait_for_tail_credit = 0;
vc_allocator = separable_input_first;
sw_allocator = separable_input_first;
alloc_iters = 1;
credit_delay = 2;
routing_delay = 0;
vc_alloc_delay = 1;
sw_alloc_delay = 1;
st_final_delay = 1;
input_speedup = 1;
output_speedup = 1;
sim_count = 1;
num_vcs = 7;
priority = none;
packet_size = 1;
injection_rate_uses_flits = 1;
internal_speedup = 4.0;
warmup_periods = 3;
sample_period = 1000;
df_a = 8;
df_arrangement = absolute_improved;
global_latency = 1;
local_latency = 1;
multitiered_routing_threshold_0 = 10;
multitiered_routing_threshold_1 = 40;
topology = dragonflyfull;
traffic = uniform;
df_g = 29;
routing_function = UGAL_L;
seed = 20;

defaultText, count, i-rate in config file, i-rate injected, i-rate accepted, packet latency, flit latency, deadlock?
simulation,         1,      0.01,  0.010082,  0.010082,    9.6781,    9.6769,         0,  52498,  2921,  |4-> 0 , |5-> 0 , |6-> 0 ,,  |4-> 0 , |5-> 0 , |6-> 0 ,,  |1-> 0 , |2-> 1597 , |3-> 278 , |4-> 3657 , |5-> 17199 , |6-> 29767 ,,  |1-> 0 , |2-> 92 , |3-> 12 , |4-> 196 , |5-> 982 , |6-> 1639 ,
simulation,         2,      0.99,   0.85385,   0.88584,    506.36,    430.73,         1,  0,  0,  ,  ,  ,  
simulation,         3,       0.5,   0.50019,   0.50017,    12.457,    12.459,         0,  2386018,  399843,  |4-> 0 , |5-> 0 , |6-> 0 ,,  |4-> 0 , |5-> 0 , |6-> 0 ,,  |1-> 0 , |2-> 71496 , |3-> 14229 , |4-> 161183 , |5-> 783251 , |6-> 1355859 ,,  |1-> 0 , |2-> 13114 , |3-> 2584 , |4-> 28719 , |5-> 134112 , |6-> 221314 ,
simulation,         4,      0.74,   0.73975,    0.7397,    17.352,    17.358,         0,  3667929,  462716,  |4-> 0 , |5-> 0 , |6-> 0 ,,  |4-> 0 , |5-> 0 , |6-> 0 ,,  |1-> 0 , |2-> 111867 , |3-> 21900 , |4-> 248592 , |5-> 1204574 , |6-> 2080996 ,,  |1-> 0 , |2-> 14658 , |3-> 3026 , |4-> 33766 , |5-> 155012 , |6-> 256254 ,
simulation,         5,      0.86,   0.85516,   0.85978,    111.62,    113.71,         0,  5743285,  610925,  |4-> 0 , |5-> 0 , |6-> 0 ,,  |4-> 0 , |5-> 0 , |6-> 0 ,,  |1-> 0 , |2-> 179499 , |3-> 32871 , |4-> 381297 , |5-> 1870236 , |6-> 3279382 ,,  |1-> 0 , |2-> 14149 , |3-> 5367 , |4-> 53898 , |5-> 220182 , |6-> 317329 ,
simulation,         6,      0.92,   0.86009,     0.887,    455.69,     381.6,         0,  9567454,  946206,  |4-> 0 , |5-> 0 , |6-> 0 ,,  |4-> 0 , |5-> 0 , |6-> 0 ,,  |1-> 0 , |2-> 294094 , |3-> 51165 , |4-> 612108 , |5-> 3080901 , |6-> 5529186 ,,  |1-> 0 , |2-> 26749 , |3-> 11878 , |4-> 108635 , |5-> 376944 , |6-> 422000 ,
simulation,         7,      0.95,   0.85308,   0.88273,    511.96,    407.47,         1,  0,  0,  ,  ,  ,  
simulation,         8,      0.93,   0.85452,   0.88092,    484.44,    381.22,         1,  0,  0,  ,  ,  ,  
simulation,         9,       0.9,   0.86521,   0.88862,    300.98,     292.1,         0,  9118725,  827075,  |4-> 0 , |5-> 0 , |6-> 0 ,,  |4-> 0 , |5-> 0 , |6-> 0 ,,  |1-> 0 , |2-> 280550 , |3-> 49360 , |4-> 586840 , |5-> 2942597 , |6-> 5259378 ,,  |1-> 0 , |2-> 22713 , |3-> 10374 , |4-> 93522 , |5-> 327908 , |6-> 372558 ,
simulation,        10,      0.85,    0.8473,   0.84978,    95.587,     96.73,         0,  5710558,  667217,  |4-> 0 , |5-> 0 , |6-> 0 ,,  |4-> 0 , |5-> 0 , |6-> 0 ,,  |1-> 0 , |2-> 178736 , |3-> 33116 , |4-> 383605 , |5-> 1864467 , |6-> 3250634 ,,  |1-> 0 , |2-> 15297 , |3-> 5081 , |4-> 54310 , |5-> 234101 , |6-> 358428 ,
simulation,        11,       0.8,   0.79988,   0.79965,    26.143,    26.187,         0,  3998685,  535000,  |4-> 0 , |5-> 0 , |6-> 0 ,,  |4-> 0 , |5-> 0 , |6-> 0 ,,  |1-> 0 , |2-> 123602 , |3-> 23917 , |4-> 274149 , |5-> 1314547 , |6-> 2262470 ,,  |1-> 0 , |2-> 15070 , |3-> 3186 , |4-> 36841 , |5-> 176753 , |6-> 303150 ,
simulation,        12,      0.75,   0.74972,   0.74968,    17.939,    17.953,         0,  3726667,  468515,  |4-> 0 , |5-> 0 , |6-> 0 ,,  |4-> 0 , |5-> 0 , |6-> 0 ,,  |1-> 0 , |2-> 113046 , |3-> 22346 , |4-> 253735 , |5-> 1222821 , |6-> 2114719 ,,  |1-> 0 , |2-> 14645 , |3-> 3148 , |4-> 33603 , |5-> 156649 , |6-> 260470 ,
