vc_buf_size = 64;
wait_for_tail_credit = 0;
vc_allocator = separable_input_first;
sw_allocator = separable_input_first;
alloc_iters = 1;
credit_delay = 2;
routing_delay = 0;
vc_alloc_delay = 1;
sw_alloc_delay = 1;
st_final_delay = 1;
input_speedup = 1;
output_speedup = 1;
sim_count = 1;
num_vcs = 7;
priority = none;
packet_size = 1;
injection_rate_uses_flits = 1;
internal_speedup = 4.0;
warmup_periods = 3;
sample_period = 1000;
df_a = 8;
df_arrangement = absolute_improved;
df_g = 33;
global_latency = 1;
local_latency = 1;
multitiered_routing_threshold_0 = 10;
multitiered_routing_threshold_1 = 40;
topology = dragonflyfull;
traffic = randperm;
df_g = 25;
perm_seed = 60;
routing_function = UGAL_L;

defaultText, count, i-rate in config file, i-rate injected, i-rate accepted, packet latency, flit latency, deadlock?
simulation,         1,      0.01,  0.010029,   0.01003,    9.8254,    9.8254,         0,  43816,  4004,  |4-> 0 , |5-> 0 , |6-> 0 ,,  |4-> 0 , |5-> 0 , |6-> 0 ,,  |1-> 0 , |2-> 1932 , |3-> 249 , |4-> 2933 , |5-> 14007 , |6-> 24695 ,,  |1-> 0 , |2-> 184 , |3-> 29 , |4-> 271 , |5-> 1334 , |6-> 2186 ,
simulation,         2,      0.99,   0.56887,   0.58043,    786.08,    723.25,         1,  0,  0,  ,  ,  ,  
simulation,         3,       0.5,    0.4988,   0.49944,    52.792,    53.248,         0,  2359707,  1535470,  |4-> 0 , |5-> 0 , |6-> 0 ,,  |4-> 0 , |5-> 0 , |6-> 0 ,,  |1-> 0 , |2-> 112104 , |3-> 13730 , |4-> 157200 , |5-> 755290 , |6-> 1321383 ,,  |1-> 0 , |2-> 60062 , |3-> 9641 , |4-> 107850 , |5-> 509430 , |6-> 848487 ,
simulation,         4,      0.74,   0.56229,   0.59022,    430.79,     428.3,         1,  0,  0,  ,  ,  ,  
simulation,         5,      0.62,   0.55022,    0.5581,    402.99,    359.72,         1,  0,  0,  ,  ,  ,  
simulation,         6,      0.56,   0.53678,   0.54165,    216.87,    189.91,         1,  0,  0,  ,  ,  ,  
simulation,         7,      0.53,   0.52199,   0.52524,    166.48,    126.22,         0,  5225113,  4118631,  |4-> 0 , |5-> 0 , |6-> 0 ,,  |4-> 0 , |5-> 0 , |6-> 0 ,,  |1-> 0 , |2-> 253675 , |3-> 30014 , |4-> 344719 , |5-> 1672890 , |6-> 2923815 ,,  |1-> 0 , |2-> 164440 , |3-> 25578 , |4-> 289161 , |5-> 1361536 , |6-> 2277916 ,
simulation,         8,      0.54,   0.52773,   0.53169,    240.08,    157.21,         0,  5676860,  4699193,  |4-> 0 , |5-> 0 , |6-> 0 ,,  |4-> 0 , |5-> 0 , |6-> 0 ,,  |1-> 0 , |2-> 276567 , |3-> 32869 , |4-> 374252 , |5-> 1817190 , |6-> 3175982 ,,  |1-> 0 , |2-> 190716 , |3-> 28890 , |4-> 328712 , |5-> 1549417 , |6-> 2601458 ,
simulation,         9,      0.55,    0.5323,   0.53663,     343.6,    191.51,         0,  6236100,  5415573,  |4-> 0 , |5-> 0 , |6-> 0 ,,  |4-> 0 , |5-> 0 , |6-> 0 ,,  |1-> 0 , |2-> 303665 , |3-> 36396 , |4-> 410475 , |5-> 1996097 , |6-> 3489467 ,,  |1-> 0 , |2-> 225426 , |3-> 33338 , |4-> 379011 , |5-> 1781037 , |6-> 2996761 ,
simulation,        12,      0.45,   0.44947,   0.44949,      30.8,    31.066,         0,  1732101,  871802,  |4-> 0 , |5-> 0 , |6-> 0 ,,  |4-> 0 , |5-> 0 , |6-> 0 ,,  |1-> 0 , |2-> 77994 , |3-> 10107 , |4-> 115024 , |5-> 556464 , |6-> 972512 ,,  |1-> 0 , |2-> 37019 , |3-> 5439 , |4-> 62074 , |5-> 288260 , |6-> 479010 ,
simulation,        13,       0.4,    0.3996,   0.39974,    21.149,    21.318,         0,  1366077,  612793,  |4-> 0 , |5-> 0 , |6-> 0 ,,  |4-> 0 , |5-> 0 , |6-> 0 ,,  |1-> 0 , |2-> 59133 , |3-> 7943 , |4-> 90588 , |5-> 441487 , |6-> 766926 ,,  |1-> 0 , |2-> 28171 , |3-> 3902 , |4-> 43895 , |5-> 202247 , |6-> 334578 ,
