vc_buf_size = 64;
wait_for_tail_credit = 0;
vc_allocator = separable_input_first;
sw_allocator = separable_input_first;
alloc_iters = 1;
credit_delay = 2;
routing_delay = 0;
vc_alloc_delay = 1;
sw_alloc_delay = 1;
st_final_delay = 1;
input_speedup = 1;
output_speedup = 1;
sim_count = 1;
num_vcs = 7;
priority = none;
packet_size = 1;
injection_rate_uses_flits = 1;
internal_speedup = 4.0;
warmup_periods = 3;
sample_period = 1000;
df_a = 16;
df_arrangement = absolute_improved;
df_g = 27;
global_latency = 1;
local_latency = 1;
multitiered_routing_threshold_0 = 10;
multitiered_routing_threshold_1 = 40;
topology = dragonflyfull;
traffic = uniform;
routing_function = UGAL_L;
seed = 16;

defaultText, count, i-rate in config file, i-rate injected, i-rate accepted, packet latency, flit latency, deadlock?
simulation,         1,      0.01, 0.0099761, 0.0099739,    9.9201,     9.921,         0,  196141,  11189,  |4-> 0 , |5-> 0 , |6-> 0 ,,  |4-> 0 , |5-> 0 , |6-> 0 ,,  |1-> 0 , |2-> 6826 , |3-> 154 , |4-> 3762 , |5-> 39390 , |6-> 146009 ,,  |1-> 0 , |2-> 400 , |3-> 12 , |4-> 233 , |5-> 2287 , |6-> 8257 ,
simulation,         2,      0.99,   0.88475,   0.90305,    541.09,    337.99,         1,  0,  0,  ,  ,  ,  
simulation,         3,       0.5,   0.49982,   0.49986,    12.808,    12.811,         0,  8876826,  1522011,  |4-> 0 , |5-> 0 , |6-> 0 ,,  |4-> 0 , |5-> 0 , |6-> 0 ,,  |1-> 0 , |2-> 307528 , |3-> 7428 , |4-> 172572 , |5-> 1759675 , |6-> 6629623 ,,  |1-> 0 , |2-> 55769 , |3-> 1436 , |4-> 32308 , |5-> 312710 , |6-> 1119788 ,
simulation,         4,      0.74,   0.73975,   0.73978,    16.752,    16.758,         0,  13817404,  1643683,  |4-> 0 , |5-> 0 , |6-> 0 ,,  |4-> 0 , |5-> 0 , |6-> 0 ,,  |1-> 0 , |2-> 479335 , |3-> 11503 , |4-> 268648 , |5-> 2738939 , |6-> 10318979 ,,  |1-> 0 , |2-> 59185 , |3-> 1672 , |4-> 36356 , |5-> 343457 , |6-> 1203013 ,
simulation,         5,      0.86,   0.86011,   0.85994,    29.545,    29.644,         0,  16461650,  1813034,  |4-> 0 , |5-> 0 , |6-> 0 ,,  |4-> 0 , |5-> 0 , |6-> 0 ,,  |1-> 0 , |2-> 575465 , |3-> 13250 , |4-> 313779 , |5-> 3242381 , |6-> 12316775 ,,  |1-> 0 , |2-> 61303 , |3-> 2194 , |4-> 45508 , |5-> 403734 , |6-> 1300295 ,
simulation,         6,      0.92,   0.91173,   0.91897,     100.0,     104.5,         0,  34714663,  3351056,  |4-> 0 , |5-> 0 , |6-> 0 ,,  |4-> 0 , |5-> 0 , |6-> 0 ,,  |1-> 0 , |2-> 1228029 , |3-> 24145 , |4-> 601262 , |5-> 6570679 , |6-> 26290548 ,,  |1-> 0 , |2-> 98081 , |3-> 8412 , |4-> 146833 , |5-> 1015677 , |6-> 2082053 ,
simulation,         7,      0.95,   0.90099,   0.92579,    308.36,    267.22,         0,  35849861,  3899833,  |4-> 0 , |5-> 0 , |6-> 0 ,,  |4-> 0 , |5-> 0 , |6-> 0 ,,  |1-> 0 , |2-> 1269321 , |3-> 22346 , |4-> 584064 , |5-> 6627305 , |6-> 27346825 ,,  |1-> 0 , |2-> 113640 , |3-> 11161 , |4-> 198421 , |5-> 1294438 , |6-> 2282173 ,
simulation,         8,      0.97,   0.89026,   0.91291,    438.25,    306.39,         1,  0,  0,  ,  ,  ,  
simulation,         9,      0.96,   0.89575,   0.92117,     394.8,    304.54,         0,  36314314,  4124888,  |4-> 0 , |5-> 0 , |6-> 0 ,,  |4-> 0 , |5-> 0 , |6-> 0 ,,  |1-> 0 , |2-> 1287625 , |3-> 22249 , |4-> 586752 , |5-> 6700036 , |6-> 27717652 ,,  |1-> 0 , |2-> 121412 , |3-> 12291 , |4-> 207227 , |5-> 1361976 , |6-> 2421982 ,
simulation,        11,       0.9,    0.8994,   0.89989,    49.201,    49.309,         0,  17667304,  1846782,  |4-> 0 , |5-> 0 , |6-> 0 ,,  |4-> 0 , |5-> 0 , |6-> 0 ,,  |1-> 0 , |2-> 621047 , |3-> 13438 , |4-> 326547 , |5-> 3433834 , |6-> 13272438 ,,  |1-> 0 , |2-> 58732 , |3-> 2996 , |4-> 57426 , |5-> 458737 , |6-> 1268891 ,
simulation,        12,      0.85,    0.8498,   0.84995,    27.634,    27.722,         0,  16270305,  1789856,  |4-> 0 , |5-> 0 , |6-> 0 ,,  |4-> 0 , |5-> 0 , |6-> 0 ,,  |1-> 0 , |2-> 568138 , |3-> 13143 , |4-> 312003 , |5-> 3208875 , |6-> 12168146 ,,  |1-> 0 , |2-> 60773 , |3-> 2084 , |4-> 43413 , |5-> 392227 , |6-> 1291359 ,
simulation,        13,       0.8,    0.7998,   0.79975,    20.135,    20.152,         0,  15102806,  1683344,  |4-> 0 , |5-> 0 , |6-> 0 ,,  |4-> 0 , |5-> 0 , |6-> 0 ,,  |1-> 0 , |2-> 525592 , |3-> 12562 , |4-> 292681 , |5-> 2991754 , |6-> 11280217 ,,  |1-> 0 , |2-> 59136 , |3-> 1628 , |4-> 37897 , |5-> 355164 , |6-> 1229519 ,
