vc_buf_size = 64;
wait_for_tail_credit = 0;
vc_allocator = separable_input_first;
sw_allocator = separable_input_first;
alloc_iters = 1;
credit_delay = 2;
routing_delay = 0;
vc_alloc_delay = 1;
sw_alloc_delay = 1;
st_final_delay = 1;
input_speedup = 1;
output_speedup = 1;
sim_count = 1;
num_vcs = 7;
priority = none;
packet_size = 1;
injection_rate_uses_flits = 1;
internal_speedup = 4.0;
warmup_periods = 3;
sample_period = 10000;
df_a = 8;
df_arrangement = absolute_improved;
df_g = 0;
global_latency = 10;
local_latency = 10;
multitiered_routing_threshold_0 = 10;
multitiered_routing_threshold_1 = 40;
seed = 11;
topology = dragonflyfull;
traffic = group_shift;
df_g = 27;
routing_function = UGAL_L;
shift_by_group = 6;

defaultText, count, i-rate in config file, i-rate injected, i-rate accepted, packet latency, flit latency, deadlock?
simulation,         1,      0.01,  0.010035,  0.010034,    48.117,    48.123,         0,  292488,  228210,  |4-> 0 , |5-> 0 , |6-> 0 ,,  |4-> 0 , |5-> 0 , |6-> 0 ,,  |1-> 0 , |2-> 20 , |3-> 3524 , |4-> 21283 , |5-> 89735 , |6-> 177926 ,,  |1-> 0 , |2-> 20 , |3-> 3081 , |4-> 18339 , |5-> 71371 , |6-> 135399 ,
simulation,         2,      0.99,   0.30829,   0.35307,    2695.9,    1215.6,         1,  0,  0,  ,  ,  ,  
simulation,         3,       0.5,   0.35169,   0.39111,    1297.2,    862.51,         1,  0,  0,  ,  ,  ,  
simulation,         4,      0.25,    0.2501,    0.2501,    94.994,    95.135,         0,  2120292,  10923247,  |4-> 0 , |5-> 0 , |6-> 0 ,,  |4-> 0 , |5-> 0 , |6-> 0 ,,  |1-> 0 , |2-> 104 , |3-> 23889 , |4-> 144372 , |5-> 625989 , |6-> 1325938 ,,  |1-> 0 , |2-> 919 , |3-> 143023 , |4-> 849331 , |5-> 3403806 , |6-> 6526168 ,
simulation,         5,      0.37,   0.34499,   0.35583,    602.88,    446.57,         1,  0,  0,  ,  ,  ,  
simulation,         6,      0.31,   0.30668,    0.3074,    518.92,    378.64,         1,  0,  0,  ,  ,  ,  
simulation,         7,      0.28,   0.28011,   0.28011,    99.365,    99.555,         0,  2128449,  12527309,  |4-> 0 , |5-> 0 , |6-> 0 ,,  |4-> 0 , |5-> 0 , |6-> 0 ,,  |1-> 0 , |2-> 102 , |3-> 21687 , |4-> 136140 , |5-> 620282 , |6-> 1350238 ,,  |1-> 0 , |2-> 1108 , |3-> 166422 , |4-> 979488 , |5-> 3906813 , |6-> 7473478 ,
simulation,         8,      0.29,   0.29011,   0.29014,    104.63,    104.92,         0,  2169424,  13296099,  |4-> 0 , |5-> 0 , |6-> 0 ,,  |4-> 0 , |5-> 0 , |6-> 0 ,,  |1-> 0 , |2-> 128 , |3-> 21189 , |4-> 135137 , |5-> 627658 , |6-> 1385312 ,,  |1-> 0 , |2-> 1155 , |3-> 177301 , |4-> 1042427 , |5-> 4147755 , |6-> 7927461 ,
simulation,         9,       0.3,   0.29965,   0.30005,    205.32,    202.08,         0,  3347326,  21328771,  |4-> 0 , |5-> 0 , |6-> 0 ,,  |4-> 0 , |5-> 0 , |6-> 0 ,,  |1-> 0 , |2-> 182 , |3-> 30630 , |4-> 201437 , |5-> 964177 , |6-> 2150900 ,,  |1-> 0 , |2-> 1822 , |3-> 286227 , |4-> 1675622 , |5-> 6660477 , |6-> 12704623 ,
simulation,        12,       0.2,   0.20004,   0.20005,    90.093,    90.173,         0,  2114967,  8302982,  |4-> 0 , |5-> 0 , |6-> 0 ,,  |4-> 0 , |5-> 0 , |6-> 0 ,,  |1-> 0 , |2-> 111 , |3-> 25699 , |4-> 150637 , |5-> 631537 , |6-> 1306983 ,,  |1-> 0 , |2-> 755 , |3-> 108461 , |4-> 641417 , |5-> 2586880 , |6-> 4965469 ,
simulation,        13,      0.15,   0.15007,   0.15007,    84.278,    84.317,         0,  2110575,  5694493,  |4-> 0 , |5-> 0 , |6-> 0 ,,  |4-> 0 , |5-> 0 , |6-> 0 ,,  |1-> 0 , |2-> 87 , |3-> 25636 , |4-> 152921 , |5-> 634461 , |6-> 1297470 ,,  |1-> 0 , |2-> 542 , |3-> 74669 , |4-> 441967 , |5-> 1776595 , |6-> 3400720 ,
