df_a , df_g , topology , df_arrangement , num_vcs , vc_allocation_mode , vc_buf_size , internal_speedup , warmup_periods , sample_period , seed , traffic , perm_seed , df_wc_seed , shift_by_group , shift_percentage , shift_offset , routing_function , five_hop_percentage , ugal_multiply_mode , global_latency , local_latency , saturationPoint , irate_vs_packet_latency , irate_vs_flit_latency , avg_hop_len
8,17, dragonflyfull , absolute_improved ,4, optimum ,32,2,3,10000,80, pe_based_shift_uniform ,-1,-1,-1,75,2, UGAL_L ,-1, pathlen_based ,15,10,0.22, 0.05->57.249 | 0.1->57.329 | 0.13->60.233 | 0.15->66.862 | 0.19->81.629 | 0.2->84.768 | 0.22->319.06 , 0.05->57.261 | 0.1->57.339 | 0.13->60.239 | 0.15->66.868 | 0.19->81.652 | 0.2->84.796 | 0.22->107.55 , 0.05->4.7655 | 0.1->4.726 | 0.13->4.7557 | 0.15->4.8479 | 0.19->5.0441 | 0.2->5.0815 | 0.22->5.1433
8,17, dragonflyfull , absolute_improved ,4, optimum ,32,2,3,10000,80, pe_based_shift_uniform ,-1,-1,-1,75,2, UGAL_L_restricted_src_only ,-1, pathlen_based ,15,10,0.25, 0.05->53.507 | 0.1->53.456 | 0.15->56.79 | 0.2->68.652 | 0.25->222.76 | 0.25->222.76 , 0.05->53.513 | 0.1->53.463 | 0.15->56.794 | 0.2->68.661 | 0.25->83.349 | 0.25->83.349 , 0.05->4.4371 | 0.1->4.4036 | 0.15->4.4254 | 0.2->4.5329 | 0.25->4.6016 | 0.25->4.6016
8,17, dragonflyfull , absolute_improved ,4, optimum ,32,2,3,10000,80, pe_based_shift_uniform ,-1,-1,-1,75,2, UGAL_G ,-1, pathlen_based ,15,10,0.2, 0.05->60.033 | 0.1->60.635 | 0.13->61.479 | 0.15->62.133 | 0.19->63.244 | 0.2->65.051 | 0.2->65.051 , 0.05->60.047 | 0.1->60.646 | 0.13->61.491 | 0.15->62.145 | 0.19->63.257 | 0.2->65.056 | 0.2->65.056 , 0.05->4.9569 | 0.1->4.9472 | 0.13->4.9477 | 0.15->4.9466 | 0.19->4.9342 | 0.2->4.9323 | 0.2->4.9323
8,17, dragonflyfull , absolute_improved ,4, optimum ,32,2,3,10000,80, pe_based_shift_uniform ,-1,-1,-1,75,2, UGAL_G_restricted_src_only ,-1, pathlen_based ,15,10,0.26, 0.05->54.737 | 0.1->55.157 | 0.15->56.259 | 0.2->57.269 | 0.25->60.653 | 0.25->60.653 | 0.26->99.101 , 0.05->54.742 | 0.1->55.163 | 0.15->56.266 | 0.2->57.274 | 0.25->60.659 | 0.25->60.659 | 0.26->70.979 , 0.05->4.4973 | 0.1->4.486 | 0.15->4.4815 | 0.2->4.474 | 0.25->4.4619 | 0.25->4.4619 | 0.26->4.475
8,17, dragonflyfull , absolute_improved ,5, optimum ,32,2,3,10000,80, pe_based_shift_uniform ,-1,-1,-1,75,2, PAR ,-1, pathlen_based ,15,10,0.25, 0.05->66.701 | 0.1->66.064 | 0.15->66.331 | 0.2->67.496 | 0.25->342.19 | 0.25->342.19 , 0.05->66.718 | 0.1->66.081 | 0.15->66.349 | 0.2->67.512 | 0.25->84.767 | 0.25->84.767 , 0.05->5.471 | 0.1->5.3961 | 0.15->5.3608 | 0.2->5.3473 | 0.25->5.3585 | 0.25->5.3585
8,17, dragonflyfull , absolute_improved ,5, optimum ,32,2,3,10000,80, pe_based_shift_uniform ,-1,-1,-1,75,2, PAR_restricted_src_only ,-1, pathlen_based ,15,10,0.3, 0.05->60.94 | 0.1->60.671 | 0.15->61.003 | 0.2->61.863 | 0.25->63.226 | 0.25->63.226 | 0.28->65.871 | 0.29->87.081 | 0.3->360.05 | 0.3->360.05 , 0.05->60.948 | 0.1->60.681 | 0.15->61.014 | 0.2->61.873 | 0.25->63.236 | 0.25->63.236 | 0.28->65.881 | 0.29->71.531 | 0.3->84.569 | 0.3->84.569 , 0.05->4.976 | 0.1->4.9368 | 0.15->4.9218 | 0.2->4.9174 | 0.25->4.9173 | 0.25->4.9173 | 0.28->4.9158 | 0.29->4.9123 | 0.3->4.9031 | 0.3->4.9031
