vc_buf_size = 64;
wait_for_tail_credit = 0;
vc_allocator = separable_input_first;
sw_allocator = separable_input_first;
alloc_iters = 1;
credit_delay = 2;
routing_delay = 0;
vc_alloc_delay = 1;
sw_alloc_delay = 1;
st_final_delay = 1;
input_speedup = 1;
output_speedup = 1;
sim_count = 1;
num_vcs = 7;
priority = none;
packet_size = 1;
injection_rate_uses_flits = 1;
internal_speedup = 4.0;
warmup_periods = 3;
sample_period = 10000;
df_a = 8;
df_arrangement = absolute_improved;
df_g = 0;
global_latency = 10;
local_latency = 10;
multitiered_routing_threshold_0 = 10;
multitiered_routing_threshold_1 = 40;
seed = 11;
topology = dragonflyfull;
traffic = randperm;
df_g = 13;
perm_seed = 64;
routing_function = UGAL_L_multi_tiered;

defaultText, count, i-rate in config file, i-rate injected, i-rate accepted, packet latency, flit latency, deadlock?
simulation,         1,      0.01,  0.010039,   0.01004,    34.718,    34.722,         0,  199567,  48560,  |4-> 184248 , |5-> 0 , |6-> 0 ,,  |4-> 43420 , |5-> 0 , |6-> 0 ,,  |1-> 0 , |2-> 15931 , |3-> 25303 , |4-> 158333 , |5-> 0 , |6-> 0 ,,  |1-> 0 , |2-> 5276 , |3-> 6061 , |4-> 37223 , |5-> 0 , |6-> 0 ,
simulation,         2,      0.99,   0.71306,   0.75637,    1091.3,    515.31,         1,  0,  0,  ,  ,  ,  
simulation,         3,       0.5,   0.50023,   0.50023,    40.358,    40.367,         0,  10178918,  2221121,  |4-> 2092749 , |5-> 7350176 , |6-> 1022 ,,  |4-> 48281 , |5-> 1864944 , |6-> 20896 ,,  |1-> 0 , |2-> 754095 , |3-> 687355 , |4-> 4449657 , |5-> 4287731 , |6-> 80 ,,  |1-> 0 , |2-> 289764 , |3-> 109564 , |4-> 743088 , |5-> 1075770 , |6-> 2935 ,
simulation,         4,      0.74,   0.70588,   0.70558,    890.79,    231.63,         1,  0,  0,  ,  ,  ,  
simulation,         5,      0.62,   0.61996,   0.61997,    70.712,    53.802,         0,  15745346,  4101988,  |4-> 987638 , |5-> 13247689 , |6-> 359093 ,,  |4-> 7887 , |5-> 2908552 , |6-> 699196 ,,  |1-> 0 , |2-> 1175799 , |3-> 855280 , |4-> 5713849 , |5-> 7927604 , |6-> 72814 ,,  |1-> 0 , |2-> 490671 , |3-> 193845 , |4-> 1322722 , |5-> 1976299 , |6-> 118451 ,
simulation,         6,      0.68,   0.67689,   0.67692,    469.55,    89.766,         0,  31415339,  10597080,  |4-> 710448 , |5-> 24318029 , |6-> 4100295 ,,  |4-> 3396 , |5-> 4289623 , |6-> 5106958 ,,  |1-> 0 , |2-> 2332065 , |3-> 1539802 , |4-> 10452776 , |5-> 16228674 , |6-> 862022 ,,  |1-> 0 , |2-> 1208503 , |3-> 477116 , |4-> 3249118 , |5-> 4795412 , |6-> 866931 ,
simulation,         7,      0.71,   0.69714,   0.69708,    526.53,    147.44,         1,  0,  0,  ,  ,  ,  
simulation,         8,      0.69,   0.68474,   0.68474,    482.15,    106.82,         1,  0,  0,  ,  ,  ,  
simulation,         9,      0.65,   0.64963,   0.64963,    131.33,     60.98,         0,  23704282,  6843654,  |4-> 955248 , |5-> 19787148 , |6-> 1230854 ,,  |4-> 5515 , |5-> 4049891 , |6-> 1996766 ,,  |1-> 0 , |2-> 1767769 , |3-> 1227142 , |4-> 8273395 , |5-> 12187026 , |6-> 248950 ,,  |1-> 0 , |2-> 798657 , |3-> 318911 , |4-> 2164927 , |5-> 3218293 , |6-> 342866 ,
simulation,        10,       0.6,   0.60025,   0.60023,    48.104,     48.13,         0,  12012702,  2979125,  |4-> 963692 , |5-> 10010202 , |6-> 161676 ,,  |4-> 9241 , |5-> 2264574 , |6-> 346292 ,,  |1-> 0 , |2-> 896466 , |3-> 675002 , |4-> 4472742 , |5-> 5934892 , |6-> 33600 ,,  |1-> 0 , |2-> 362348 , |3-> 142245 , |4-> 970382 , |5-> 1447336 , |6-> 56814 ,
simulation,        11,      0.55,   0.55027,   0.55027,    42.884,    42.899,         0,  11120842,  2536681,  |4-> 1487601 , |5-> 8813392 , |6-> 12487 ,,  |4-> 22445 , |5-> 2126151 , |6-> 69634 ,,  |1-> 0 , |2-> 826410 , |3-> 680874 , |4-> 4455611 , |5-> 5155502 , |6-> 2445 ,,  |1-> 0 , |2-> 321504 , |3-> 122599 , |4-> 838074 , |5-> 1244176 , |6-> 10328 ,
