vc_buf_size = 64;
wait_for_tail_credit = 0;
vc_allocator = separable_input_first;
sw_allocator = separable_input_first;
alloc_iters = 1;
credit_delay = 2;
routing_delay = 0;
vc_alloc_delay = 1;
sw_alloc_delay = 1;
st_final_delay = 1;
input_speedup = 1;
output_speedup = 1;
sim_count = 1;
num_vcs = 7;
priority = none;
packet_size = 1;
injection_rate_uses_flits = 1;
internal_speedup = 4.0;
warmup_periods = 3;
sample_period = 1000;
df_a = 16;
df_arrangement = absolute_improved;
global_latency = 10;
local_latency = 1;
multitiered_routing_threshold_0 = 10;
multitiered_routing_threshold_1 = 40;
seed = 11;
topology = dragonflyfull;
traffic = randperm;
df_g = 27;
perm_seed = 60;
routing_function = UGAL_L;

defaultText, count, i-rate in config file, i-rate injected, i-rate accepted, packet latency, flit latency, deadlock?
simulation,         1,      0.01,  0.010036,  0.010039,    19.361,    19.367,         0,  193613,  15114,  |4-> 0 , |5-> 0 , |6-> 0 ,,  |4-> 0 , |5-> 0 , |6-> 0 ,,  |1-> 0 , |2-> 6378 , |3-> 189 , |4-> 3775 , |5-> 38698 , |6-> 144573 ,,  |1-> 0 , |2-> 720 , |3-> 12 , |4-> 302 , |5-> 2871 , |6-> 11209 ,
simulation,         2,      0.99,   0.66697,   0.68744,    658.35,    569.79,         1,  0,  0,  ,  ,  ,  
simulation,         3,       0.5,   0.50016,   0.50016,    25.902,    25.931,         0,  8351237,  2286102,  |4-> 0 , |5-> 0 , |6-> 0 ,,  |4-> 0 , |5-> 0 , |6-> 0 ,,  |1-> 0 , |2-> 242888 , |3-> 8543 , |4-> 185685 , |5-> 1760761 , |6-> 6153360 ,,  |1-> 0 , |2-> 114477 , |3-> 543 , |4-> 24455 , |5-> 363980 , |6-> 1782647 ,
simulation,         4,      0.74,     0.673,   0.68048,    459.27,    312.19,         1,  0,  0,  ,  ,  ,  
simulation,         5,      0.62,   0.61993,   0.62006,    44.932,    45.229,         0,  10717072,  3391347,  |4-> 0 , |5-> 0 , |6-> 0 ,,  |4-> 0 , |5-> 0 , |6-> 0 ,,  |1-> 0 , |2-> 288887 , |3-> 11176 , |4-> 239639 , |5-> 2268692 , |6-> 7908678 ,,  |1-> 0 , |2-> 185038 , |3-> 992 , |4-> 38362 , |5-> 547385 , |6-> 2619570 ,
simulation,         6,      0.68,    0.6606,   0.66524,    298.12,    175.08,         0,  36511759,  14205792,  |4-> 0 , |5-> 0 , |6-> 0 ,,  |4-> 0 , |5-> 0 , |6-> 0 ,,  |1-> 0 , |2-> 935722 , |3-> 34088 , |4-> 772488 , |5-> 7542240 , |6-> 27227221 ,,  |1-> 0 , |2-> 808219 , |3-> 8687 , |4-> 227439 , |5-> 2570876 , |6-> 10590571 ,
simulation,         7,      0.71,    0.6687,   0.67508,    314.64,    237.34,         1,  0,  0,  ,  ,  ,  
simulation,         8,      0.69,   0.66408,   0.66934,    384.02,    207.05,         0,  40398502,  16012258,  |4-> 0 , |5-> 0 , |6-> 0 ,,  |4-> 0 , |5-> 0 , |6-> 0 ,,  |1-> 0 , |2-> 1034374 , |3-> 37370 , |4-> 843313 , |5-> 8300486 , |6-> 30182959 ,,  |1-> 0 , |2-> 921244 , |3-> 10388 , |4-> 267663 , |5-> 2943863 , |6-> 11869100 ,
simulation,         9,       0.7,   0.66699,   0.67249,    269.23,    208.67,         1,  0,  0,  ,  ,  ,  
simulation,        11,      0.65,   0.64584,   0.64756,     103.0,    87.297,         0,  25998766,  9319676,  |4-> 0 , |5-> 0 , |6-> 0 ,,  |4-> 0 , |5-> 0 , |6-> 0 ,,  |1-> 0 , |2-> 679853 , |3-> 25661 , |4-> 571190 , |5-> 5460014 , |6-> 19262048 ,,  |1-> 0 , |2-> 512803 , |3-> 3895 , |4-> 124471 , |5-> 1586810 , |6-> 7091697 ,
simulation,        12,       0.6,   0.60006,   0.60007,    37.876,    38.023,         0,  10116492,  3013430,  |4-> 0 , |5-> 0 , |6-> 0 ,,  |4-> 0 , |5-> 0 , |6-> 0 ,,  |1-> 0 , |2-> 278875 , |3-> 10405 , |4-> 226583 , |5-> 2141368 , |6-> 7459261 ,,  |1-> 0 , |2-> 162323 , |3-> 828 , |4-> 33018 , |5-> 480255 , |6-> 2337006 ,
simulation,        13,      0.55,   0.55011,   0.55012,    29.656,    29.726,         0,  9214004,  2555365,  |4-> 0 , |5-> 0 , |6-> 0 ,,  |4-> 0 , |5-> 0 , |6-> 0 ,,  |1-> 0 , |2-> 262744 , |3-> 9456 , |4-> 204588 , |5-> 1942837 , |6-> 6794379 ,,  |1-> 0 , |2-> 132618 , |3-> 595 , |4-> 27199 , |5-> 406183 , |6-> 1988770 ,
