routing_delay = 0;
alloc_iters = 1;
credit_delay = 2;
num_vcs = 7;
sim_count = 1;
output_speedup = 1;
vc_alloc_delay = 1;
input_speedup = 1;
sample_period = 10000;
packet_size = 1;
internal_speedup = 4.0;
sw_allocator = separable_input_first;
vc_buf_size = 64;
warmup_periods = 3;
injection_rate_uses_flits = 1;
st_final_delay = 1;
vc_allocator = separable_input_first;
sw_alloc_delay = 1;
priority = none;
wait_for_tail_credit = 0;
df_a = 8;
df_arrangement = absolute_improved;
df_g = 0;
global_latency = 10;
local_latency = 10;
multitiered_routing_threshold_0 = 10;
multitiered_routing_threshold_1 = 40;
topology = dragonflyfull;
traffic = uniform;
df_g = 23;
routing_function = PAR_multi_tiered;
seed = 8;

defaultText, count, i-rate in config file, i-rate injected, i-rate accepted, packet latency, flit latency, deadlock?
simulation,         1,      0.01, 0.0099799, 0.0099788,    38.657,     38.66,         0,  608302,  138696,  |4-> 594378 , |5-> 0 , |6-> 0 ,,  |4-> 135699 , |5-> 0 , |6-> 0 ,,  |1-> 0 , |2-> 15637 , |3-> 65497 , |4-> 527168 , |5-> 0 , |6-> 0 ,,  |1-> 0 , |2-> 3375 , |3-> 14913 , |4-> 120408 , |5-> 0 , |6-> 0 ,
simulation,         2,      0.99,   0.74276,   0.78878,    1193.4,    529.28,         1,  0,  0,  ,  ,  ,  
simulation,         3,       0.5,   0.50016,   0.50015,    38.211,    38.215,         0,  37453701,  2220234,  |4-> 9598053 , |5-> 27047200 , |6-> 0 ,,  |4-> 39686 , |5-> 2147028 , |6-> 0 ,,  |1-> 0 , |2-> 857618 , |3-> 1635130 , |4-> 14286793 , |5-> 20674160 , |6-> 0 ,,  |1-> 0 , |2-> 36307 , |3-> 68936 , |4-> 560292 , |5-> 1554699 , |6-> 0 ,
simulation,         4,      0.74,    0.7404,   0.74037,      47.3,    47.305,         0,  55604035,  3563513,  |4-> 859305 , |5-> 52012892 , |6-> 1518433 ,,  |4-> 2692 , |5-> 2856585 , |6-> 672834 ,,  |1-> 0 , |2-> 1256095 , |3-> 1250855 , |4-> 12005274 , |5-> 40390156 , |6-> 701655 ,,  |1-> 0 , |2-> 35425 , |3-> 98855 , |4-> 800342 , |5-> 2318839 , |6-> 310052 ,
simulation,         5,      0.86,   0.74835,   0.79244,    585.62,    416.51,         1,  0,  0,  ,  ,  ,  
simulation,         6,       0.8,    0.7541,    0.7719,    498.25,    334.26,         1,  0,  0,  ,  ,  ,  
simulation,         7,      0.77,   0.75999,     0.761,    555.78,    233.88,         1,  0,  0,  ,  ,  ,  
simulation,         8,      0.75,   0.75032,   0.75034,    51.439,    51.446,         0,  55807513,  4187308,  |4-> 543097 , |5-> 50067639 , |6-> 3964636 ,,  |4-> 2794 , |5-> 2542874 , |6-> 1608468 ,,  |1-> 0 , |2-> 1273345 , |3-> 1204372 , |4-> 11583940 , |5-> 39894103 , |6-> 1851753 ,,  |1-> 0 , |2-> 37306 , |3-> 103572 , |4-> 849658 , |5-> 2483484 , |6-> 713288 ,
simulation,         9,      0.76,   0.76025,   0.76029,    70.399,    70.415,         0,  54219879,  6342854,  |4-> 144933 , |5-> 39788739 , |6-> 13050835 ,,  |4-> 2783 , |5-> 890758 , |6-> 5401987 ,,  |1-> 0 , |2-> 1270864 , |3-> 1039102 , |4-> 10050752 , |5-> 35637198 , |6-> 6221963 ,,  |1-> 0 , |2-> 51804 , |3-> 114323 , |4-> 982440 , |5-> 2961045 , |6-> 2233242 ,
simulation,        11,       0.7,   0.70032,   0.70031,    42.422,    42.425,         0,  53153129,  2779350,  |4-> 1913244 , |5-> 50004861 , |6-> 88207 ,,  |4-> 2979 , |5-> 2684771 , |6-> 61494 ,,  |1-> 0 , |2-> 1190293 , |3-> 1304993 , |4-> 12365884 , |5-> 38251623 , |6-> 40336 ,,  |1-> 0 , |2-> 33641 , |3-> 85758 , |4-> 686718 , |5-> 1943742 , |6-> 29491 ,
simulation,        12,      0.65,   0.65026,   0.65027,    40.272,    40.275,         0,  49396195,  2466246,  |4-> 3352470 , |5-> 44977670 , |6-> 2980 ,,  |4-> 3673 , |5-> 2428268 , |6-> 4194 ,,  |1-> 0 , |2-> 1107408 , |3-> 1349580 , |4-> 12564166 , |5-> 34373662 , |6-> 1379 ,,  |1-> 0 , |2-> 33265 , |3-> 77713 , |4-> 617268 , |5-> 1735985 , |6-> 2015 ,
simulation,        13,       0.6,   0.60031,    0.6003,    39.209,    39.213,         0,  45463546,  2332979,  |4-> 5102871 , |5-> 39381716 , |6-> 88 ,,  |4-> 6554 , |5-> 2295391 , |6-> 276 ,,  |1-> 0 , |2-> 1023659 , |3-> 1416908 , |4-> 12935432 , |5-> 30087508 , |6-> 39 ,,  |1-> 0 , |2-> 33766 , |3-> 72629 , |4-> 581990 , |5-> 1644466 , |6-> 128 ,
