vc_buf_size = 64;
wait_for_tail_credit = 0;
vc_allocator = separable_input_first;
sw_allocator = separable_input_first;
alloc_iters = 1;
credit_delay = 2;
routing_delay = 0;
vc_alloc_delay = 1;
sw_alloc_delay = 1;
st_final_delay = 1;
input_speedup = 1;
output_speedup = 1;
sim_count = 1;
num_vcs = 7;
priority = none;
packet_size = 1;
injection_rate_uses_flits = 1;
internal_speedup = 4.0;
warmup_periods = 3;
sample_period = 1000;
df_a = 16;
df_arrangement = absolute_improved;
df_g = 21;
multitiered_routing_threshold_0 = 10;
multitiered_routing_threshold_1 = 40;
seed = 11;
topology = dragonflyfull;
traffic = randperm;
perm_seed = 60;
routing_function = UGAL_L_multi_tiered;

defaultText, count, i-rate in config file, i-rate injected, i-rate accepted, packet latency, flit latency, deadlock?
simulation,         1,      0.01,  0.010004,  0.010006,    9.7193,    9.7198,         0,  151920,  9686,  |4-> 145531 , |5-> 0 , |6-> 0 ,,  |4-> 8992 , |5-> 0 , |6-> 0 ,,  |1-> 0 , |2-> 6613 , |3-> 10675 , |4-> 134632 , |5-> 0 , |6-> 0 ,,  |1-> 0 , |2-> 713 , |3-> 692 , |4-> 8281 , |5-> 0 , |6-> 0 ,
simulation,         2,      0.99,   0.74603,   0.77367,    485.05,    427.74,         1,  0,  0,  ,  ,  ,  
simulation,         3,       0.5,   0.49977,   0.49978,    12.296,      12.3,         0,  6641207,  1517192,  |4-> 6403462 , |5-> 2544 , |6-> 0 ,,  |4-> 1372570 , |5-> 17879 , |6-> 475 ,,  |1-> 0 , |2-> 244918 , |3-> 473587 , |4-> 5921425 , |5-> 1277 , |6-> 0 ,,  |1-> 0 , |2-> 128091 , |3-> 96272 , |4-> 1283014 , |5-> 9758 , |6-> 57 ,
simulation,         4,      0.74,   0.73401,   0.73564,    103.25,    76.182,         0,  24704390,  9027021,  |4-> 13469521 , |5-> 9577087 , |6-> 873050 ,,  |4-> 1184226 , |5-> 5803464 , |6-> 1322124 ,,  |1-> 0 , |2-> 812117 , |3-> 1307640 , |4-> 16962494 , |5-> 5496138 , |6-> 126001 ,,  |1-> 0 , |2-> 724807 , |3-> 357274 , |4-> 4370647 , |5-> 3431619 , |6-> 142674 ,
simulation,         5,      0.86,   0.75675,   0.76628,    431.55,    315.63,         1,  0,  0,  ,  ,  ,  
simulation,         6,       0.8,    0.7535,   0.75932,    300.92,    206.19,         1,  0,  0,  ,  ,  ,  
simulation,         7,      0.77,   0.74721,   0.75203,    292.84,    165.22,         0,  75347636,  31261061,  |4-> 26508254 , |5-> 36834604 , |6-> 9653155 ,,  |4-> 1646098 , |5-> 17193414 , |6-> 9982170 ,,  |1-> 0 , |2-> 2421055 , |3-> 3340587 , |4-> 44184617 , |5-> 24045118 , |6-> 1356259 ,,  |1-> 0 , |2-> 2464499 , |3-> 1160218 , |4-> 13898774 , |5-> 12702986 , |6-> 1034584 ,
simulation,         8,      0.78,   0.74933,   0.75452,    216.01,    161.69,         1,  0,  0,  ,  ,  ,  
simulation,         9,      0.75,    0.7403,   0.74268,    147.59,    98.001,         0,  29226889,  11256093,  |4-> 13765434 , |5-> 12719760 , |6-> 1820395 ,,  |4-> 1076803 , |5-> 6938599 , |6-> 2357532 ,,  |1-> 0 , |2-> 951755 , |3-> 1450809 , |4-> 18951425 , |5-> 7611652 , |6-> 261248 ,,  |1-> 0 , |2-> 892385 , |3-> 434119 , |4-> 5258041 , |5-> 4421911 , |6-> 249637 ,
simulation,        10,       0.7,   0.69973,   0.69975,    32.508,     32.76,         0,  9266809,  2622815,  |4-> 7613271 , |5-> 1340115 , |6-> 10897 ,,  |4-> 1031920 , |5-> 1253879 , |6-> 112118 ,,  |1-> 0 , |2-> 314743 , |3-> 600395 , |4-> 7639104 , |5-> 711125 , |6-> 1442 ,,  |1-> 0 , |2-> 227290 , |3-> 122844 , |4-> 1574534 , |5-> 684500 , |6-> 13647 ,
simulation,        11,      0.65,   0.64982,   0.64979,    21.923,    22.041,         0,  8699424,  2086326,  |4-> 8099568 , |5-> 305223 , |6-> 360 ,,  |4-> 1401529 , |5-> 456358 , |6-> 44245 ,,  |1-> 0 , |2-> 306413 , |3-> 607297 , |4-> 7626615 , |5-> 159099 , |6-> 0 ,,  |1-> 0 , |2-> 186336 , |3-> 115983 , |4-> 1522190 , |5-> 256293 , |6-> 5524 ,
simulation,        12,       0.6,   0.59977,   0.59976,    16.966,    17.026,         0,  8060276,  1813399,  |4-> 7721770 , |5-> 60026 , |6-> 11 ,,  |4-> 1483589 , |5-> 148256 , |6-> 22107 ,,  |1-> 0 , |2-> 290014 , |3-> 571743 , |4-> 7167940 , |5-> 30579 , |6-> 0 ,,  |1-> 0 , |2-> 161452 , |3-> 109183 , |4-> 1452488 , |5-> 87676 , |6-> 2600 ,
