vc_buf_size = 64;
wait_for_tail_credit = 0;
vc_allocator = separable_input_first;
sw_allocator = separable_input_first;
alloc_iters = 1;
credit_delay = 2;
routing_delay = 0;
vc_alloc_delay = 1;
sw_alloc_delay = 1;
st_final_delay = 1;
input_speedup = 1;
output_speedup = 1;
sim_count = 1;
num_vcs = 7;
priority = none;
packet_size = 1;
injection_rate_uses_flits = 1;
internal_speedup = 4.0;
warmup_periods = 3;
sample_period = 10000;
df_a = 8;
df_arrangement = absolute_improved;
df_g = 0;
global_latency = 10;
local_latency = 10;
multitiered_routing_threshold_0 = 10;
multitiered_routing_threshold_1 = 40;
seed = 11;
topology = dragonflyfull;
traffic = group_shift;
df_g = 9;
routing_function = UGAL_L;
shift_by_group = 6;

defaultText, count, i-rate in config file, i-rate injected, i-rate accepted, packet latency, flit latency, deadlock?
simulation,         1,      0.01,  0.010012,  0.010011,    43.172,    43.178,         0,  124844,  48477,  |4-> 0 , |5-> 0 , |6-> 0 ,,  |4-> 0 , |5-> 0 , |6-> 0 ,,  |1-> 0 , |2-> 43 , |3-> 665 , |4-> 8760 , |5-> 41698 , |6-> 73678 ,,  |1-> 0 , |2-> 13 , |3-> 339 , |4-> 3885 , |5-> 16723 , |6-> 27517 ,
simulation,         2,      0.99,   0.33364,   0.38339,    3254.2,    1306.4,         1,  0,  0,  ,  ,  ,  
simulation,         3,       0.5,   0.33753,   0.38723,    1498.8,    1081.0,         1,  0,  0,  ,  ,  ,  
simulation,         4,      0.25,   0.24986,   0.24987,    107.74,    107.81,         0,  2172478,  2164591,  |4-> 0 , |5-> 0 , |6-> 0 ,,  |4-> 0 , |5-> 0 , |6-> 0 ,,  |1-> 0 , |2-> 309 , |3-> 5587 , |4-> 103580 , |5-> 662062 , |6-> 1400940 ,,  |1-> 0 , |2-> 1425 , |3-> 20168 , |4-> 210285 , |5-> 795078 , |6-> 1137635 ,
simulation,         5,      0.37,   0.33046,   0.35813,    500.84,    487.69,         1,  0,  0,  ,  ,  ,  
simulation,         6,      0.31,   0.30965,   0.30971,    147.42,    147.98,         0,  2216689,  3259099,  |4-> 0 , |5-> 0 , |6-> 0 ,,  |4-> 0 , |5-> 0 , |6-> 0 ,,  |1-> 0 , |2-> 79 , |3-> 3408 , |4-> 87977 , |5-> 653012 , |6-> 1472213 ,,  |1-> 0 , |2-> 2079 , |3-> 29050 , |4-> 308164 , |5-> 1186748 , |6-> 1733058 ,
simulation,         7,      0.34,   0.32303,   0.33573,    506.59,    481.83,         1,  0,  0,  ,  ,  ,  
simulation,         8,      0.32,   0.31694,   0.31786,    506.14,    426.65,         1,  0,  0,  ,  ,  ,  
simulation,         9,       0.3,   0.29975,   0.29976,    133.87,    134.12,         0,  2182777,  3039107,  |4-> 0 , |5-> 0 , |6-> 0 ,,  |4-> 0 , |5-> 0 , |6-> 0 ,,  |1-> 0 , |2-> 123 , |3-> 3895 , |4-> 90354 , |5-> 649152 , |6-> 1439253 ,,  |1-> 0 , |2-> 1889 , |3-> 26988 , |4-> 286099 , |5-> 1106156 , |6-> 1617975 ,
simulation,        11,       0.2,   0.19983,   0.19983,    81.773,    81.783,         0,  2167589,  1298406,  |4-> 0 , |5-> 0 , |6-> 0 ,,  |4-> 0 , |5-> 0 , |6-> 0 ,,  |1-> 0 , |2-> 451 , |3-> 7563 , |4-> 118884 , |5-> 681643 , |6-> 1359048 ,,  |1-> 0 , |2-> 868 , |3-> 12982 , |4-> 131215 , |5-> 483524 , |6-> 669817 ,
simulation,        12,      0.15,   0.14986,   0.14985,    46.412,    46.418,         0,  1735114,  860740,  |4-> 0 , |5-> 0 , |6-> 0 ,,  |4-> 0 , |5-> 0 , |6-> 0 ,,  |1-> 0 , |2-> 474 , |3-> 7040 , |4-> 102786 , |5-> 556535 , |6-> 1068279 ,,  |1-> 0 , |2-> 618 , |3-> 8342 , |4-> 84624 , |5-> 315303 , |6-> 451853 ,
