vc_buf_size = 64;
wait_for_tail_credit = 0;
vc_allocator = separable_input_first;
sw_allocator = separable_input_first;
alloc_iters = 1;
credit_delay = 2;
routing_delay = 0;
vc_alloc_delay = 1;
sw_alloc_delay = 1;
st_final_delay = 1;
input_speedup = 1;
output_speedup = 1;
sim_count = 1;
num_vcs = 7;
priority = none;
packet_size = 1;
injection_rate_uses_flits = 1;
internal_speedup = 4.0;
warmup_periods = 3;
sample_period = 10000;
df_a = 8;
df_arrangement = absolute_improved;
df_g = 0;
global_latency = 10;
local_latency = 10;
multitiered_routing_threshold_0 = 10;
multitiered_routing_threshold_1 = 40;
seed = 11;
topology = dragonflyfull;
traffic = randperm;
df_g = 33;
perm_seed = 60;
routing_function = PAR;

defaultText, count, i-rate in config file, i-rate injected, i-rate accepted, packet latency, flit latency, deadlock?
simulation,         1,      0.01, 0.0099885,   0.00999,    46.693,    46.703,         0,  766886,  256443,  |4-> 0 , |5-> 0 , |6-> 0 ,,  |4-> 0 , |5-> 0 , |6-> 0 ,,  |1-> 0 , |2-> 15881 , |3-> 4093 , |4-> 49336 , |5-> 252629 , |6-> 444947 ,,  |1-> 0 , |2-> 5925 , |3-> 1388 , |4-> 17228 , |5-> 86222 , |6-> 145680 ,
simulation,         2,      0.99,   0.54703,    0.6016,    1862.4,    865.58,         1,  0,  0,  ,  ,  ,  
simulation,         3,       0.5,   0.50014,   0.50014,    65.669,    65.696,         0,  36592543,  13623810,  |4-> 0 , |5-> 0 , |6-> 0 ,,  |4-> 0 , |5-> 0 , |6-> 0 ,,  |1-> 0 , |2-> 819605 , |3-> 185878 , |4-> 2288593 , |5-> 11893603 , |6-> 21404864 ,,  |1-> 0 , |2-> 275369 , |3-> 88868 , |4-> 987066 , |5-> 4699542 , |6-> 7572965 ,
simulation,         4,      0.74,   0.55005,   0.59501,    1000.4,    654.24,         1,  0,  0,  ,  ,  ,  
simulation,         5,      0.62,   0.55151,   0.58076,    468.89,    393.82,         1,  0,  0,  ,  ,  ,  
simulation,         6,      0.56,   0.55545,   0.55551,    500.42,    201.75,         1,  0,  0,  ,  ,  ,  
simulation,         7,      0.53,   0.53014,   0.53014,    83.667,    83.725,         0,  35702933,  16367272,  |4-> 0 , |5-> 0 , |6-> 0 ,,  |4-> 0 , |5-> 0 , |6-> 0 ,,  |1-> 0 , |2-> 843197 , |3-> 178768 , |4-> 2223281 , |5-> 11575682 , |6-> 20882005 ,,  |1-> 0 , |2-> 317908 , |3-> 105887 , |4-> 1179942 , |5-> 5625510 , |6-> 9138025 ,
simulation,         8,      0.54,   0.53996,   0.53995,    111.01,    101.42,         0,  37035076,  18903811,  |4-> 0 , |5-> 0 , |6-> 0 ,,  |4-> 0 , |5-> 0 , |6-> 0 ,,  |1-> 0 , |2-> 898320 , |3-> 185008 , |4-> 2300493 , |5-> 11994853 , |6-> 21656402 ,,  |1-> 0 , |2-> 364846 , |3-> 121347 , |4-> 1357105 , |5-> 6489454 , |6-> 10571059 ,
simulation,         9,      0.55,   0.54929,   0.54925,    216.58,    124.26,         0,  54416454,  32572939,  |4-> 0 , |5-> 0 , |6-> 0 ,,  |4-> 0 , |5-> 0 , |6-> 0 ,,  |1-> 0 , |2-> 1367395 , |3-> 267833 , |4-> 3367015 , |5-> 17568650 , |6-> 31845561 ,,  |1-> 0 , |2-> 632028 , |3-> 207938 , |4-> 2332268 , |5-> 11161389 , |6-> 18239316 ,
simulation,        12,      0.45,   0.45016,   0.45016,    53.611,    53.627,         0,  35012896,  11002833,  |4-> 0 , |5-> 0 , |6-> 0 ,,  |4-> 0 , |5-> 0 , |6-> 0 ,,  |1-> 0 , |2-> 755701 , |3-> 178008 , |4-> 2194514 , |5-> 11405234 , |6-> 20479439 ,,  |1-> 0 , |2-> 228268 , |3-> 72301 , |4-> 804497 , |5-> 3804982 , |6-> 6092785 ,
simulation,        13,       0.4,   0.40012,   0.40011,    49.224,    49.237,         0,  31856862,  9375264,  |4-> 0 , |5-> 0 , |6-> 0 ,,  |4-> 0 , |5-> 0 , |6-> 0 ,,  |1-> 0 , |2-> 676372 , |3-> 162380 , |4-> 1998660 , |5-> 10386689 , |6-> 18632761 ,,  |1-> 0 , |2-> 197682 , |3-> 61703 , |4-> 684701 , |5-> 3237045 , |6-> 5194133 ,
