vc_buf_size = 64;
wait_for_tail_credit = 0;
vc_allocator = separable_input_first;
sw_allocator = separable_input_first;
alloc_iters = 1;
credit_delay = 2;
routing_delay = 0;
vc_alloc_delay = 1;
sw_alloc_delay = 1;
st_final_delay = 1;
input_speedup = 1;
output_speedup = 1;
internal_speedup = 4.0;
warmup_periods = 3;
sim_count = 1;
sample_period = 5000;
num_vcs = 7;
priority = none;
packet_size = 1;
injection_rate_uses_flits = 1;
df_a = 8;
df_arrangement = absolute_improved;
df_g = 0;
global_latency = 1;
local_latency = 1;
topology = dragonflyfull;
traffic = randperm;
ugal_multiply_mode = pathlen_based;
df_g = 25;
perm_seed = 62;
routing_function = UGAL_L_restricted;
seed = 92;

defaultText, count, i-rate in config file, i-rate injected, i-rate accepted, flit latency, deadlock?, average_hop_length
simulation,         1,       0.5,    0.4999,   0.49988,    34.447,    34.542,         0,      4.4029
simulation,         2,      0.74,   0.55863,   0.59676,    806.17,    489.27,         1,         0.0
simulation,         3,      0.62,   0.55925,   0.56396,    716.73,    352.68,         1,         0.0
simulation,         4,      0.56,   0.55682,   0.55687,    311.76,    76.724,         0,       4.513
simulation,         5,      0.59,   0.57171,   0.57183,    510.62,    199.39,         1,         0.0
simulation,         6,      0.57,   0.56524,   0.56524,    467.76,    97.668,         0,      4.5405
simulation,         7,      0.58,   0.57037,   0.57046,    424.72,    143.28,         1,         0.0
simulation,         8,       0.1,  0.099976,  0.099978,    10.925,    10.925,         0,       4.335
simulation,         9,       0.2,   0.19988,   0.19988,    11.364,    11.364,         0,      4.3666
simulation,        10,       0.3,   0.29978,   0.29978,    11.881,    11.882,         0,      4.3369
simulation,        11,       0.4,   0.39974,   0.39976,    15.377,    15.387,         0,      4.3297
simulation,        12,       0.5,    0.4999,   0.49988,    34.447,    34.542,         0,      4.4029
