vc_buf_size = 64;
wait_for_tail_credit = 0;
vc_allocator = separable_input_first;
sw_allocator = separable_input_first;
alloc_iters = 1;
credit_delay = 2;
routing_delay = 0;
vc_alloc_delay = 1;
sw_alloc_delay = 1;
st_final_delay = 1;
input_speedup = 1;
output_speedup = 1;
sim_count = 1;
num_vcs = 7;
priority = none;
packet_size = 1;
injection_rate_uses_flits = 1;
internal_speedup = 4.0;
warmup_periods = 3;
sample_period = 10000;
df_a = 8;
df_arrangement = absolute_improved;
df_g = 0;
global_latency = 10;
local_latency = 10;
multitiered_routing_threshold_0 = 10;
multitiered_routing_threshold_1 = 40;
seed = 11;
topology = dragonflyfull;
traffic = randperm;
df_g = 9;
perm_seed = 62;
routing_function = PAR;

defaultText, count, i-rate in config file, i-rate injected, i-rate accepted, packet latency, flit latency, deadlock?
simulation,         1,      0.01,   0.01001,  0.010011,    41.966,    41.977,         0,  226558,  54176,  |4-> 0 , |5-> 0 , |6-> 0 ,,  |4-> 0 , |5-> 0 , |6-> 0 ,,  |1-> 0 , |2-> 15455 , |3-> 1296 , |4-> 14614 , |5-> 70626 , |6-> 124567 ,,  |1-> 0 , |2-> 5550 , |3-> 335 , |4-> 3505 , |5-> 16622 , |6-> 28164 ,
simulation,         2,      0.99,   0.73941,    0.7855,    1033.0,    527.53,         1,  0,  0,  ,  ,  ,  
simulation,         3,       0.5,   0.49996,   0.49997,    38.592,      38.6,         0,  13394356,  1325200,  |4-> 0 , |5-> 0 , |6-> 0 ,,  |4-> 0 , |5-> 0 , |6-> 0 ,,  |1-> 0 , |2-> 825964 , |3-> 74609 , |4-> 835428 , |5-> 4173085 , |6-> 7485270 ,,  |1-> 0 , |2-> 227915 , |3-> 12118 , |4-> 109694 , |5-> 419601 , |6-> 555872 ,
simulation,         4,      0.74,   0.73989,   0.73995,    56.383,      56.4,         0,  18666025,  2765341,  |4-> 0 , |5-> 0 , |6-> 0 ,,  |4-> 0 , |5-> 0 , |6-> 0 ,,  |1-> 0 , |2-> 971690 , |3-> 102281 , |4-> 1161471 , |5-> 5847402 , |6-> 10583181 ,,  |1-> 0 , |2-> 590292 , |3-> 23893 , |4-> 217008 , |5-> 830187 , |6-> 1103961 ,
simulation,         5,      0.86,   0.75701,   0.79044,    494.86,    341.36,         1,  0,  0,  ,  ,  ,  
simulation,         6,       0.8,   0.76504,   0.76513,    905.92,    295.23,         1,  0,  0,  ,  ,  ,  
simulation,         7,      0.77,     0.768,   0.76807,    258.08,    119.55,         0,  39921223,  8922581,  |4-> 0 , |5-> 0 , |6-> 0 ,,  |4-> 0 , |5-> 0 , |6-> 0 ,,  |1-> 0 , |2-> 1926575 , |3-> 203245 , |4-> 2391840 , |5-> 12406566 , |6-> 22992997 ,,  |1-> 0 , |2-> 1710620 , |3-> 84076 , |4-> 745458 , |5-> 2795936 , |6-> 3586491 ,
simulation,         8,      0.78,   0.76767,   0.76776,    527.44,    193.73,         1,  0,  0,  ,  ,  ,  
simulation,         9,      0.75,   0.74989,      0.75,    61.582,      61.6,         0,  18611995,  3014053,  |4-> 0 , |5-> 0 , |6-> 0 ,,  |4-> 0 , |5-> 0 , |6-> 0 ,,  |1-> 0 , |2-> 948796 , |3-> 101150 , |4-> 1151942 , |5-> 5829762 , |6-> 10580345 ,,  |1-> 0 , |2-> 636416 , |3-> 26071 , |4-> 235415 , |5-> 907140 , |6-> 1209011 ,
simulation,        10,       0.7,    0.6999,   0.69989,    46.844,    46.853,         0,  18326176,  2170013,  |4-> 0 , |5-> 0 , |6-> 0 ,,  |4-> 0 , |5-> 0 , |6-> 0 ,,  |1-> 0 , |2-> 1018983 , |3-> 101475 , |4-> 1144407 , |5-> 5733822 , |6-> 10327489 ,,  |1-> 0 , |2-> 457360 , |3-> 19369 , |4-> 173003 , |5-> 658692 , |6-> 861589 ,
simulation,        11,      0.65,   0.64993,   0.64994,    42.252,    42.261,         0,  17338451,  1790135,  |4-> 0 , |5-> 0 , |6-> 0 ,,  |4-> 0 , |5-> 0 , |6-> 0 ,,  |1-> 0 , |2-> 1018587 , |3-> 96059 , |4-> 1083256 , |5-> 5411294 , |6-> 9729255 ,,  |1-> 0 , |2-> 352512 , |3-> 16342 , |4-> 147111 , |5-> 555455 , |6-> 718715 ,
simulation,        12,       0.6,   0.59991,   0.59992,    40.127,    40.134,         0,  16111356,  1571562,  |4-> 0 , |5-> 0 , |6-> 0 ,,  |4-> 0 , |5-> 0 , |6-> 0 ,,  |1-> 0 , |2-> 972706 , |3-> 89645 , |4-> 1006167 , |5-> 5024170 , |6-> 9018668 ,,  |1-> 0 , |2-> 292512 , |3-> 14685 , |4-> 131152 , |5-> 492905 , |6-> 640308 ,
