vc_buf_size = 64;
wait_for_tail_credit = 0;
vc_allocator = separable_input_first;
sw_allocator = separable_input_first;
alloc_iters = 1;
credit_delay = 2;
routing_delay = 0;
vc_alloc_delay = 1;
sw_alloc_delay = 1;
st_final_delay = 1;
input_speedup = 1;
output_speedup = 1;
sim_count = 1;
num_vcs = 7;
priority = none;
packet_size = 1;
injection_rate_uses_flits = 1;
internal_speedup = 4.0;
warmup_periods = 3;
sample_period = 1000;
df_a = 16;
df_arrangement = absolute_improved;
df_g = 21;
multitiered_routing_threshold_0 = 10;
multitiered_routing_threshold_1 = 40;
seed = 11;
topology = dragonflyfull;
traffic = group_shift;
routing_function = UGAL_L_multi_tiered;
shift_by_group = 16;

defaultText, count, i-rate in config file, i-rate injected, i-rate accepted, packet latency, flit latency, deadlock?
simulation,         1,      0.01,  0.010004,  0.010006,     10.18,     10.18,         0,  141278,  20537,  |4-> 141278 , |5-> 0 , |6-> 0 ,,  |4-> 20537 , |5-> 0 , |6-> 0 ,,  |1-> 0 , |2-> 1655 , |3-> 9284 , |4-> 130339 , |5-> 0 , |6-> 0 ,,  |1-> 0 , |2-> 295 , |3-> 1395 , |4-> 18847 , |5-> 0 , |6-> 0 ,
simulation,         2,      0.99,   0.23116,    0.4751,    552.87,    547.07,         1,  0,  0,  ,  ,  ,  
simulation,         3,       0.5,   0.21554,   0.29015,    955.67,    954.51,         1,  0,  0,  ,  ,  ,  
simulation,         4,      0.25,   0.22769,   0.24465,    343.73,     353.4,         1,  0,  0,  ,  ,  ,  
simulation,         5,      0.13,   0.12994,   0.12993,    47.644,    48.132,         0,  968784,  1544941,  |4-> 968744 , |5-> 40 , |6-> 0 ,,  |4-> 1387711 , |5-> 1502 , |6-> 155728 ,,  |1-> 0 , |2-> 10381 , |3-> 59003 , |4-> 899375 , |5-> 25 , |6-> 0 ,,  |1-> 0 , |2-> 19645 , |3-> 102590 , |4-> 1336826 , |5-> 57613 , |6-> 28267 ,
simulation,         6,      0.19,   0.18919,   0.18988,    69.282,    78.699,         0,  1966204,  5470091,  |4-> 1683656 , |5-> 245216 , |6-> 37332 ,,  |4-> 4067342 , |5-> 865395 , |6-> 537354 ,,  |1-> 0 , |2-> 14724 , |3-> 96309 , |4-> 1696322 , |5-> 151758 , |6-> 7091 ,,  |1-> 0 , |2-> 68158 , |3-> 344316 , |4-> 4423399 , |5-> 543995 , |6-> 90223 ,
simulation,         7,      0.22,    0.2131,   0.21939,     235.0,    312.76,         0,  2754900,  8873975,  |4-> 1280115 , |5-> 1018545 , |6-> 456240 ,,  |4-> 3399643 , |5-> 3635258 , |6-> 1839074 ,,  |1-> 0 , |2-> 9908 , |3-> 85901 , |4-> 1785871 , |5-> 763879 , |6-> 109341 ,,  |1-> 0 , |2-> 98119 , |3-> 464376 , |4-> 6021728 , |5-> 2034103 , |6-> 255649 ,
simulation,         8,      0.23,   0.21904,   0.22866,    202.49,    207.95,         1,  0,  0,  ,  ,  ,  
simulation,         9,       0.2,   0.19838,   0.19983,    92.823,    112.97,         0,  2329777,  6899478,  |4-> 1723748 , |5-> 501047 , |6-> 104982 ,,  |4-> 4342601 , |5-> 1746283 , |6-> 810594 ,,  |1-> 0 , |2-> 14647 , |3-> 101077 , |4-> 1868566 , |5-> 324336 , |6-> 21151 ,,  |1-> 0 , |2-> 83624 , |3-> 412808 , |4-> 5294028 , |5-> 982672 , |6-> 126346 ,
simulation,        10,      0.15,    0.1499,   0.14989,    48.896,    49.528,         0,  975703,  1938419,  |4-> 974160 , |5-> 1543 , |6-> 0 ,,  |4-> 1748346 , |5-> 9121 , |6-> 180952 ,,  |1-> 0 , |2-> 9897 , |3-> 57382 , |4-> 907611 , |5-> 813 , |6-> 0 ,,  |1-> 0 , |2-> 24541 , |3-> 129533 , |4-> 1681195 , |5-> 70028 , |6-> 33122 ,
simulation,        11,       0.1,  0.099904,  0.099889,    45.751,    46.131,         0,  823840,  823748,  |4-> 823840 , |5-> 0 , |6-> 0 ,,  |4-> 721076 , |5-> 2388 , |6-> 100284 ,,  |1-> 0 , |2-> 9509 , |3-> 52670 , |4-> 761661 , |5-> 0 , |6-> 0 ,,  |1-> 0 , |2-> 9863 , |3-> 53027 , |4-> 704406 , |5-> 38103 , |6-> 18349 ,
simulation,        12,      0.05,  0.049977,  0.049976,    11.222,    11.223,         0,  543616,  266171,  |4-> 543616 , |5-> 0 , |6-> 0 ,,  |4-> 265723 , |5-> 448 , |6-> 0 ,,  |1-> 0 , |2-> 6406 , |3-> 35851 , |4-> 501359 , |5-> 0 , |6-> 0 ,,  |1-> 0 , |2-> 3362 , |3-> 18082 , |4-> 244530 , |5-> 197 , |6-> 0 ,
