routing_delay = 0;
alloc_iters = 1;
credit_delay = 2;
num_vcs = 7;
sim_count = 1;
output_speedup = 1;
vc_alloc_delay = 1;
input_speedup = 1;
sample_period = 10000;
packet_size = 1;
internal_speedup = 4.0;
sw_allocator = separable_input_first;
vc_buf_size = 64;
warmup_periods = 3;
injection_rate_uses_flits = 1;
st_final_delay = 1;
vc_allocator = separable_input_first;
sw_alloc_delay = 1;
priority = none;
wait_for_tail_credit = 0;
df_a = 8;
df_arrangement = absolute_improved;
df_g = 0;
global_latency = 10;
local_latency = 10;
multitiered_routing_threshold_0 = 10;
multitiered_routing_threshold_1 = 40;
topology = dragonflyfull;
traffic = uniform;
df_g = 27;
routing_function = UGAL_L;
seed = 8;

defaultText, count, i-rate in config file, i-rate injected, i-rate accepted, packet latency, flit latency, deadlock?
simulation,         1,      0.01, 0.0099974, 0.0099972,    38.546,     38.55,         0,  428064,  88919,  |4-> 0 , |5-> 0 , |6-> 0 ,,  |4-> 0 , |5-> 0 , |6-> 0 ,,  |1-> 0 , |2-> 13860 , |3-> 2492 , |4-> 28993 , |5-> 140541 , |6-> 242178 ,,  |1-> 0 , |2-> 3100 , |3-> 579 , |4-> 6403 , |5-> 29275 , |6-> 49562 ,
simulation,         2,      0.99,   0.80415,    0.8479,    899.29,    454.74,         1,  0,  0,  ,  ,  ,  
simulation,         3,       0.5,   0.50005,   0.50005,    36.552,    36.555,         0,  24801277,  1039036,  |4-> 0 , |5-> 0 , |6-> 0 ,,  |4-> 0 , |5-> 0 , |6-> 0 ,,  |1-> 0 , |2-> 812236 , |3-> 146025 , |4-> 1669683 , |5-> 8102656 , |6-> 14070677 ,,  |1-> 0 , |2-> 33400 , |3-> 9718 , |4-> 96424 , |5-> 377948 , |6-> 521546 ,
simulation,         4,      0.74,   0.74032,   0.74032,     40.77,    40.772,         0,  37184052,  1068602,  |4-> 0 , |5-> 0 , |6-> 0 ,,  |4-> 0 , |5-> 0 , |6-> 0 ,,  |1-> 0 , |2-> 1223414 , |3-> 218689 , |4-> 2500404 , |5-> 12144152 , |6-> 21097393 ,,  |1-> 0 , |2-> 29855 , |3-> 12385 , |4-> 114571 , |5-> 412681 , |6-> 499110 ,
simulation,         5,      0.86,   0.81188,   0.82993,     503.6,    325.89,         1,  0,  0,  ,  ,  ,  
simulation,         6,       0.8,   0.80022,   0.80023,    47.044,    47.048,         0,  39924111,  1444119,  |4-> 0 , |5-> 0 , |6-> 0 ,,  |4-> 0 , |5-> 0 , |6-> 0 ,,  |1-> 0 , |2-> 1321982 , |3-> 234391 , |4-> 2686387 , |5-> 13042869 , |6-> 22638482 ,,  |1-> 0 , |2-> 33127 , |3-> 14561 , |4-> 138931 , |5-> 537581 , |6-> 719919 ,
simulation,         7,      0.83,   0.81055,   0.81265,    573.03,     311.6,         1,  0,  0,  ,  ,  ,  
simulation,         8,      0.81,   0.81024,   0.81022,    50.556,     50.56,         0,  40201210,  1700443,  |4-> 0 , |5-> 0 , |6-> 0 ,,  |4-> 0 , |5-> 0 , |6-> 0 ,,  |1-> 0 , |2-> 1335534 , |3-> 237149 , |4-> 2707435 , |5-> 13135805 , |6-> 22785287 ,,  |1-> 0 , |2-> 35226 , |3-> 15109 , |4-> 152878 , |5-> 616957 , |6-> 880273 ,
simulation,         9,      0.82,    0.8139,   0.81498,    388.39,     203.9,         0,  69573326,  4932690,  |4-> 0 , |5-> 0 , |6-> 0 ,,  |4-> 0 , |5-> 0 , |6-> 0 ,,  |1-> 0 , |2-> 2327028 , |3-> 389028 , |4-> 4544271 , |5-> 22513702 , |6-> 39799297 ,,  |1-> 0 , |2-> 114525 , |3-> 58897 , |4-> 546488 , |5-> 1939041 , |6-> 2273739 ,
simulation,        11,      0.75,   0.75033,   0.75033,    41.331,    41.333,         0,  37684109,  1092332,  |4-> 0 , |5-> 0 , |6-> 0 ,,  |4-> 0 , |5-> 0 , |6-> 0 ,,  |1-> 0 , |2-> 1241263 , |3-> 221075 , |4-> 2535339 , |5-> 12301292 , |6-> 21385140 ,,  |1-> 0 , |2-> 29635 , |3-> 12564 , |4-> 116715 , |5-> 421419 , |6-> 511999 ,
simulation,        12,       0.7,   0.70025,   0.70025,     39.22,    39.221,         0,  35169423,  1015769,  |4-> 0 , |5-> 0 , |6-> 0 ,,  |4-> 0 , |5-> 0 , |6-> 0 ,,  |1-> 0 , |2-> 1156963 , |3-> 206381 , |4-> 2366179 , |5-> 11480461 , |6-> 19959439 ,,  |1-> 0 , |2-> 29338 , |3-> 11607 , |4-> 107860 , |5-> 391330 , |6-> 475634 ,
simulation,        13,      0.65,   0.65015,   0.65015,    38.067,    38.069,         0,  32596838,  997903,  |4-> 0 , |5-> 0 , |6-> 0 ,,  |4-> 0 , |5-> 0 , |6-> 0 ,,  |1-> 0 , |2-> 1071832 , |3-> 191741 , |4-> 2194444 , |5-> 10642838 , |6-> 18495983 ,,  |1-> 0 , |2-> 29915 , |3-> 11135 , |4-> 103431 , |5-> 379240 , |6-> 474182 ,
