vc_buf_size = 64;
wait_for_tail_credit = 0;
vc_allocator = separable_input_first;
sw_allocator = separable_input_first;
alloc_iters = 1;
credit_delay = 2;
routing_delay = 0;
vc_alloc_delay = 1;
sw_alloc_delay = 1;
st_final_delay = 1;
input_speedup = 1;
output_speedup = 1;
sim_count = 1;
num_vcs = 7;
priority = none;
packet_size = 1;
injection_rate_uses_flits = 1;
internal_speedup = 4.0;
warmup_periods = 3;
sample_period = 1000;
df_a = 8;
df_arrangement = absolute_improved;
df_g = 0;
multitiered_routing_threshold_0 = 10;
multitiered_routing_threshold_1 = 40;
topology = dragonflyfull;
traffic = uniform;
df_g = 25;
routing_function = UGAL_L;
seed = 6;

defaultText, count, i-rate in config file, i-rate injected, i-rate accepted, packet latency, flit latency, deadlock?
simulation,         1,      0.01,  0.010068,  0.010068,    9.6493,    9.6507,         0,  45763,  2443,  |4-> 0 , |5-> 0 , |6-> 0 ,,  |4-> 0 , |5-> 0 , |6-> 0 ,,  |1-> 0 , |2-> 1627 , |3-> 248 , |4-> 3138 , |5-> 14737 , |6-> 26013 ,,  |1-> 0 , |2-> 103 , |3-> 18 , |4-> 182 , |5-> 782 , |6-> 1358 ,
simulation,         2,      0.99,   0.76117,   0.76899,    603.35,     542.6,         1,  0,  0,  ,  ,  ,  
simulation,         3,       0.5,   0.49969,   0.49971,    12.589,    12.592,         0,  2048012,  351153,  |4-> 0 , |5-> 0 , |6-> 0 ,,  |4-> 0 , |5-> 0 , |6-> 0 ,,  |1-> 0 , |2-> 71681 , |3-> 12315 , |4-> 138134 , |5-> 666886 , |6-> 1158996 ,,  |1-> 0 , |2-> 13786 , |3-> 2293 , |4-> 25319 , |5-> 116498 , |6-> 193257 ,
simulation,         4,      0.74,   0.73938,   0.74003,    47.744,    47.911,         0,  3638758,  661836,  |4-> 0 , |5-> 0 , |6-> 0 ,,  |4-> 0 , |5-> 0 , |6-> 0 ,,  |1-> 0 , |2-> 130946 , |3-> 22255 , |4-> 248119 , |5-> 1186648 , |6-> 2050790 ,,  |1-> 0 , |2-> 21328 , |3-> 3816 , |4-> 44968 , |5-> 218727 , |6-> 372997 ,
simulation,         5,      0.86,   0.76665,   0.79505,    505.24,    409.41,         1,  0,  0,  ,  ,  ,  
simulation,         6,       0.8,   0.77322,    0.7903,    255.03,    243.93,         0,  6773240,  1389311,  |4-> 0 , |5-> 0 , |6-> 0 ,,  |4-> 0 , |5-> 0 , |6-> 0 ,,  |1-> 0 , |2-> 234618 , |3-> 37779 , |4-> 437061 , |5-> 2171660 , |6-> 3892122 ,,  |1-> 0 , |2-> 54899 , |3-> 11736 , |4-> 120793 , |5-> 495647 , |6-> 706236 ,
simulation,         7,      0.83,   0.76872,   0.79371,    407.96,    337.46,         1,  0,  0,  ,  ,  ,  
simulation,         8,      0.81,   0.77316,   0.79343,    328.94,    297.59,         0,  7033957,  1481291,  |4-> 0 , |5-> 0 , |6-> 0 ,,  |4-> 0 , |5-> 0 , |6-> 0 ,,  |1-> 0 , |2-> 242036 , |3-> 38555 , |4-> 450439 , |5-> 2248943 , |6-> 4053984 ,,  |1-> 0 , |2-> 59247 , |3-> 12959 , |4-> 131819 , |5-> 531230 , |6-> 746036 ,
simulation,         9,      0.82,   0.77173,    0.7947,    408.06,    348.25,         0,  7174688,  1555725,  |4-> 0 , |5-> 0 , |6-> 0 ,,  |4-> 0 , |5-> 0 , |6-> 0 ,,  |1-> 0 , |2-> 246152 , |3-> 38957 , |4-> 454117 , |5-> 2291608 , |6-> 4143854 ,,  |1-> 0 , |2-> 62324 , |3-> 13877 , |4-> 139258 , |5-> 560549 , |6-> 779717 ,
simulation,        11,      0.75,   0.74895,   0.75011,    59.871,    60.306,         0,  3692246,  695585,  |4-> 0 , |5-> 0 , |6-> 0 ,,  |4-> 0 , |5-> 0 , |6-> 0 ,,  |1-> 0 , |2-> 131945 , |3-> 22262 , |4-> 251159 , |5-> 1201552 , |6-> 2085328 ,,  |1-> 0 , |2-> 22817 , |3-> 4159 , |4-> 49414 , |5-> 230614 , |6-> 388581 ,
simulation,        12,       0.7,   0.69994,   0.69988,    19.773,    19.805,         0,  2951405,  449534,  |4-> 0 , |5-> 0 , |6-> 0 ,,  |4-> 0 , |5-> 0 , |6-> 0 ,,  |1-> 0 , |2-> 105013 , |3-> 17903 , |4-> 201714 , |5-> 961279 , |6-> 1665496 ,,  |1-> 0 , |2-> 15551 , |3-> 2666 , |4-> 31110 , |5-> 148682 , |6-> 251525 ,
simulation,        13,      0.65,   0.64989,   0.64993,    15.474,    15.477,         0,  2727763,  402587,  |4-> 0 , |5-> 0 , |6-> 0 ,,  |4-> 0 , |5-> 0 , |6-> 0 ,,  |1-> 0 , |2-> 96030 , |3-> 16483 , |4-> 185666 , |5-> 890296 , |6-> 1539288 ,,  |1-> 0 , |2-> 14909 , |3-> 2483 , |4-> 29057 , |5-> 134319 , |6-> 221819 ,
