vc_buf_size = 64;
wait_for_tail_credit = 0;
vc_allocator = separable_input_first;
sw_allocator = separable_input_first;
alloc_iters = 1;
credit_delay = 2;
routing_delay = 0;
vc_alloc_delay = 1;
sw_alloc_delay = 1;
st_final_delay = 1;
input_speedup = 1;
output_speedup = 1;
sim_count = 1;
num_vcs = 7;
priority = none;
packet_size = 1;
injection_rate_uses_flits = 1;
internal_speedup = 4.0;
warmup_periods = 3;
sample_period = 1000;
df_a = 8;
df_arrangement = absolute_improved;
df_g = 0;
multitiered_routing_threshold_0 = 10;
multitiered_routing_threshold_1 = 40;
seed = 11;
topology = dragonflyfull;
traffic = group_shift;
df_g = 33;
routing_function = UGAL_L_multi_tiered;
shift_by_group = 4;

defaultText, count, i-rate in config file, i-rate injected, i-rate accepted, packet latency, flit latency, deadlock?
simulation,         1,      0.01, 0.0099694, 0.0099681,    10.293,    10.295,         0,  46815,  16643,  |4-> 46815 , |5-> 0 , |6-> 0 ,,  |4-> 16643 , |5-> 0 , |6-> 0 ,,  |1-> 0 , |2-> 0 , |3-> 9353 , |4-> 37462 , |5-> 0 , |6-> 0 ,,  |1-> 0 , |2-> 0 , |3-> 3276 , |4-> 13367 , |5-> 0 , |6-> 0 ,
simulation,         2,      0.99,   0.33046,   0.53875,     465.6,    454.09,         1,  0,  0,  ,  ,  ,  
simulation,         3,       0.5,   0.38186,   0.45311,     248.4,    648.92,         1,  0,  0,  ,  ,  ,  
simulation,         4,      0.25,   0.25014,   0.25015,    31.244,    31.683,         0,  246305,  1689498,  |4-> 102044 , |5-> 141875 , |6-> 2386 ,,  |4-> 276194 , |5-> 1150159 , |6-> 263145 ,,  |1-> 0 , |2-> 0 , |3-> 25993 , |4-> 100820 , |5-> 119001 , |6-> 491 ,,  |1-> 0 , |2-> 0 , |3-> 128451 , |4-> 502942 , |5-> 893184 , |6-> 164921 ,
simulation,         5,      0.37,   0.35025,   0.35723,    232.35,    216.92,         1,  0,  0,  ,  ,  ,  
simulation,         6,      0.31,   0.30898,   0.30994,     52.67,    54.668,         0,  518268,  4540057,  |4-> 29269 , |5-> 441162 , |6-> 47837 ,,  |4-> 54144 , |5-> 3488232 , |6-> 997681 ,,  |1-> 0 , |2-> 0 , |3-> 18813 , |4-> 87647 , |5-> 387331 , |6-> 24477 ,,  |1-> 0 , |2-> 0 , |3-> 239427 , |4-> 948088 , |5-> 2731696 , |6-> 620846 ,
simulation,         7,      0.34,   0.33054,   0.33368,    264.33,    157.02,         0,  652398,  6133495,  |4-> 12171 , |5-> 479336 , |6-> 160891 ,,  |4-> 20564 , |5-> 4100827 , |6-> 2012104 ,,  |1-> 0 , |2-> 0 , |3-> 16386 , |4-> 80680 , |5-> 460940 , |6-> 94392 ,,  |1-> 0 , |2-> 0 , |3-> 294352 , |4-> 1160462 , |5-> 3437068 , |6-> 1241613 ,
simulation,         8,      0.35,   0.33788,   0.34161,    345.18,    197.59,         0,  698526,  6720381,  |4-> 9520 , |5-> 471556 , |6-> 217450 ,,  |4-> 15509 , |5-> 4165343 , |6-> 2539529 ,,  |1-> 0 , |2-> 0 , |3-> 16084 , |4-> 79368 , |5-> 471859 , |6-> 131215 ,,  |1-> 0 , |2-> 0 , |3-> 310369 , |4-> 1219680 , |5-> 3626679 , |6-> 1563653 ,
simulation,         9,      0.36,   0.34476,    0.3497,     178.1,    171.39,         1,  0,  0,  ,  ,  ,  
simulation,        11,       0.3,   0.30021,   0.30021,    34.241,    34.745,         0,  283957,  2389446,  |4-> 25400 , |5-> 244174 , |6-> 14383 ,,  |4-> 47271 , |5-> 1890065 , |6-> 452110 ,,  |1-> 0 , |2-> 0 , |3-> 12368 , |4-> 55572 , |5-> 209739 , |6-> 6278 ,,  |1-> 0 , |2-> 0 , |3-> 130173 , |4-> 518658 , |5-> 1458315 , |6-> 282300 ,
simulation,        13,       0.2,   0.20026,   0.20027,    30.457,    30.834,         0,  245227,  1302451,  |4-> 205988 , |5-> 38873 , |6-> 366 ,,  |4-> 748262 , |5-> 358567 , |6-> 195622 ,,  |1-> 0 , |2-> 0 , |3-> 45847 , |4-> 166303 , |5-> 33031 , |6-> 46 ,,  |1-> 0 , |2-> 0 , |3-> 175081 , |4-> 686480 , |5-> 318315 , |6-> 122575 ,
