vc_buf_size = 64;
wait_for_tail_credit = 0;
vc_allocator = separable_input_first;
sw_allocator = separable_input_first;
alloc_iters = 1;
credit_delay = 2;
routing_delay = 0;
vc_alloc_delay = 1;
sw_alloc_delay = 1;
st_final_delay = 1;
input_speedup = 1;
output_speedup = 1;
sim_count = 1;
num_vcs = 7;
priority = none;
packet_size = 1;
injection_rate_uses_flits = 1;
internal_speedup = 4.0;
warmup_periods = 3;
sample_period = 10000;
df_a = 8;
df_arrangement = absolute_improved;
df_g = 0;
global_latency = 10;
local_latency = 10;
multitiered_routing_threshold_0 = 10;
multitiered_routing_threshold_1 = 40;
seed = 11;
topology = dragonflyfull;
traffic = randperm;
df_g = 33;
perm_seed = 64;
routing_function = PAR_multi_tiered;

defaultText, count, i-rate in config file, i-rate injected, i-rate accepted, packet latency, flit latency, deadlock?
simulation,         1,      0.01, 0.0099888,   0.00999,    40.398,    40.403,         0,  785868,  256259,  |4-> 774050 , |5-> 0 , |6-> 0 ,,  |4-> 252351 , |5-> 0 , |6-> 0 ,,  |1-> 0 , |2-> 13299 , |3-> 70464 , |4-> 702105 , |5-> 0 , |6-> 0 ,,  |1-> 0 , |2-> 4463 , |3-> 23094 , |4-> 228702 , |5-> 0 , |6-> 0 ,
simulation,         2,      0.99,   0.53989,   0.59414,    1907.8,    875.07,         1,  0,  0,  ,  ,  ,  
simulation,         3,       0.5,   0.50014,   0.50014,    56.974,    56.993,         0,  38170852,  13362459,  |4-> 233281 , |5-> 36681099 , |6-> 630462 ,,  |4-> 7278 , |5-> 11498898 , |6-> 1698186 ,,  |1-> 0 , |2-> 646227 , |3-> 601828 , |4-> 6479185 , |5-> 30068894 , |6-> 374718 ,,  |1-> 0 , |2-> 164987 , |3-> 166147 , |4-> 1968489 , |5-> 10065023 , |6-> 997813 ,
simulation,         4,      0.74,   0.54615,   0.59145,    1028.8,     664.3,         1,  0,  0,  ,  ,  ,  
simulation,         5,      0.62,   0.54948,   0.58031,    487.27,    407.39,         1,  0,  0,  ,  ,  ,  
simulation,         6,      0.56,   0.55473,   0.55471,    498.87,    209.64,         1,  0,  0,  ,  ,  ,  
simulation,         7,      0.53,   0.53015,   0.53014,    69.085,    69.112,         0,  38139746,  15487389,  |4-> 71157 , |5-> 34137515 , |6-> 3275438 ,,  |4-> 6842 , |5-> 9409800 , |6-> 5894850 ,,  |1-> 0 , |2-> 674408 , |3-> 561733 , |4-> 6061471 , |5-> 28903349 , |6-> 1938785 ,,  |1-> 0 , |2-> 182697 , |3-> 166330 , |4-> 1943067 , |5-> 9739487 , |6-> 3455808 ,
simulation,         8,      0.54,   0.54012,   0.54013,      78.9,    78.948,         0,  37151299,  16733577,  |4-> 47160 , |5-> 30264640 , |6-> 6182048 ,,  |4-> 6858 , |5-> 7122462 , |6-> 9414114 ,,  |1-> 0 , |2-> 674643 , |3-> 512308 , |4-> 5553578 , |5-> 26726711 , |6-> 3684059 ,,  |1-> 0 , |2-> 196769 , |3-> 161289 , |4-> 1840588 , |5-> 9039922 , |6-> 5495009 ,
simulation,         9,      0.55,    0.5497,    0.5497,    145.41,     105.0,         0,  45569548,  24999839,  |4-> 37163 , |5-> 28801486 , |6-> 15881141 ,,  |4-> 6951 , |5-> 4789693 , |6-> 19911980 ,,  |1-> 0 , |2-> 867838 , |3-> 543484 , |4-> 5908451 , |5-> 28703759 , |6-> 9546016 ,,  |1-> 0 , |2-> 298931 , |3-> 199960 , |4-> 2257401 , |5-> 10718549 , |6-> 11524998 ,
simulation,        12,      0.45,   0.45016,   0.45016,    49.972,    49.982,         0,  35534951,  11321671,  |4-> 1001014 , |5-> 33918044 , |6-> 53581 ,,  |4-> 15225 , |5-> 10973597 , |6-> 190604 ,,  |1-> 0 , |2-> 583112 , |3-> 623373 , |4-> 6685304 , |5-> 27610544 , |6-> 32618 ,,  |1-> 0 , |2-> 148706 , |3-> 151584 , |4-> 1788821 , |5-> 9122096 , |6-> 110464 ,
simulation,        13,       0.4,   0.40011,   0.40011,    46.871,    46.879,         0,  31894420,  9847225,  |4-> 2676866 , |5-> 28716655 , |6-> 4242 ,,  |4-> 58874 , |5-> 9631061 , |6-> 28689 ,,  |1-> 0 , |2-> 517860 , |3-> 690996 , |4-> 7315256 , |5-> 23367482 , |6-> 2826 ,,  |1-> 0 , |2-> 134309 , |3-> 136372 , |4-> 1605012 , |5-> 7956085 , |6-> 15447 ,
