vc_buf_size = 64;
wait_for_tail_credit = 0;
vc_allocator = separable_input_first;
sw_allocator = separable_input_first;
alloc_iters = 1;
credit_delay = 2;
routing_delay = 0;
vc_alloc_delay = 1;
sw_alloc_delay = 1;
st_final_delay = 1;
input_speedup = 1;
output_speedup = 1;
sim_count = 1;
num_vcs = 7;
priority = none;
packet_size = 1;
injection_rate_uses_flits = 1;
internal_speedup = 4.0;
warmup_periods = 3;
sample_period = 10000;
df_a = 8;
df_arrangement = absolute_improved;
df_g = 0;
global_latency = 10;
local_latency = 10;
multitiered_routing_threshold_0 = 10;
multitiered_routing_threshold_1 = 40;
seed = 11;
topology = dragonflyfull;
traffic = randperm;
df_g = 19;
perm_seed = 66;
routing_function = PAR;

defaultText, count, i-rate in config file, i-rate injected, i-rate accepted, packet latency, flit latency, deadlock?
simulation,         1,      0.01,  0.010055,  0.010055,    45.197,    45.212,         0,  463170,  134704,  |4-> 0 , |5-> 0 , |6-> 0 ,,  |4-> 0 , |5-> 0 , |6-> 0 ,,  |1-> 0 , |2-> 12965 , |3-> 2479 , |4-> 30271 , |5-> 150083 , |6-> 267372 ,,  |1-> 0 , |2-> 5044 , |3-> 754 , |4-> 9044 , |5-> 44195 , |6-> 75667 ,
simulation,         2,      0.99,   0.57109,   0.62168,    1691.2,    764.52,         1,  0,  0,  ,  ,  ,  
simulation,         3,       0.5,   0.50024,   0.50022,    48.123,    48.135,         0,  25331061,  5268983,  |4-> 0 , |5-> 0 , |6-> 0 ,,  |4-> 0 , |5-> 0 , |6-> 0 ,,  |1-> 0 , |2-> 677314 , |3-> 133071 , |4-> 1613770 , |5-> 8167559 , |6-> 14739347 ,,  |1-> 0 , |2-> 230206 , |3-> 34921 , |4-> 392746 , |5-> 1772288 , |6-> 2838822 ,
simulation,         4,      0.74,   0.58415,   0.62473,    757.07,    522.41,         1,  0,  0,  ,  ,  ,  
simulation,         5,      0.62,    0.5978,   0.59973,    548.43,    264.22,         1,  0,  0,  ,  ,  ,  
simulation,         6,      0.56,   0.56036,   0.56033,     56.57,    56.589,         0,  27214273,  6617503,  |4-> 0 , |5-> 0 , |6-> 0 ,,  |4-> 0 , |5-> 0 , |6-> 0 ,,  |1-> 0 , |2-> 718160 , |3-> 142503 , |4-> 1737212 , |5-> 8762462 , |6-> 15853936 ,,  |1-> 0 , |2-> 299692 , |3-> 43285 , |4-> 487854 , |5-> 2219702 , |6-> 3566970 ,
simulation,         7,      0.59,   0.59033,   0.59031,    69.872,    69.911,         0,  27158949,  7950226,  |4-> 0 , |5-> 0 , |6-> 0 ,,  |4-> 0 , |5-> 0 , |6-> 0 ,,  |1-> 0 , |2-> 705808 , |3-> 141985 , |4-> 1732161 , |5-> 8737629 , |6-> 15841366 ,,  |1-> 0 , |2-> 369242 , |3-> 50446 , |4-> 579179 , |5-> 2651290 , |6-> 4300069 ,
simulation,         8,       0.6,   0.60017,   0.60015,    96.558,    85.837,         0,  28883218,  9530270,  |4-> 0 , |5-> 0 , |6-> 0 ,,  |4-> 0 , |5-> 0 , |6-> 0 ,,  |1-> 0 , |2-> 748191 , |3-> 150555 , |4-> 1838415 , |5-> 9285924 , |6-> 16860133 ,,  |1-> 0 , |2-> 443874 , |3-> 59797 , |4-> 688001 , |5-> 3172696 , |6-> 5165902 ,
simulation,         9,      0.61,   0.60542,   0.60554,    410.35,    150.07,         1,  0,  0,  ,  ,  ,  
simulation,        11,      0.55,   0.55032,   0.55032,    54.422,    54.437,         0,  27035872,  6319814,  |4-> 0 , |5-> 0 , |6-> 0 ,,  |4-> 0 , |5-> 0 , |6-> 0 ,,  |1-> 0 , |2-> 716276 , |3-> 141039 , |4-> 1725931 , |5-> 8708876 , |6-> 15743750 ,,  |1-> 0 , |2-> 283513 , |3-> 41205 , |4-> 466729 , |5-> 2120567 , |6-> 3407800 ,
simulation,        13,      0.45,   0.45025,   0.45024,    45.686,    45.698,         0,  23045525,  4596602,  |4-> 0 , |5-> 0 , |6-> 0 ,,  |4-> 0 , |5-> 0 , |6-> 0 ,,  |1-> 0 , |2-> 615634 , |3-> 120659 , |4-> 1472240 , |5-> 7432428 , |6-> 13404564 ,,  |1-> 0 , |2-> 201144 , |3-> 30568 , |4-> 345248 , |5-> 1546201 , |6-> 2473441 ,
