routing_delay = 0;
alloc_iters = 1;
credit_delay = 2;
num_vcs = 7;
sim_count = 1;
output_speedup = 1;
vc_alloc_delay = 1;
input_speedup = 1;
sample_period = 10000;
packet_size = 1;
internal_speedup = 4.0;
sw_allocator = separable_input_first;
vc_buf_size = 64;
warmup_periods = 3;
injection_rate_uses_flits = 1;
st_final_delay = 1;
vc_allocator = separable_input_first;
sw_alloc_delay = 1;
priority = none;
wait_for_tail_credit = 0;
df_a = 8;
df_arrangement = absolute_improved;
df_g = 0;
global_latency = 10;
local_latency = 10;
multitiered_routing_threshold_0 = 10;
multitiered_routing_threshold_1 = 40;
topology = dragonflyfull;
traffic = uniform;
df_g = 33;
routing_function = PAR;
seed = 2;

defaultText, count, i-rate in config file, i-rate injected, i-rate accepted, packet latency, flit latency, deadlock?
simulation,         1,      0.01, 0.0099972, 0.0099974,    44.321,    44.328,         0,  872597,  200047,  |4-> 0 , |5-> 0 , |6-> 0 ,,  |4-> 0 , |5-> 0 , |6-> 0 ,,  |1-> 0 , |2-> 13729 , |3-> 5126 , |4-> 57079 , |5-> 287266 , |6-> 509397 ,,  |1-> 0 , |2-> 3529 , |3-> 1200 , |4-> 13538 , |5-> 66877 , |6-> 114903 ,
simulation,         2,      0.99,   0.98989,   0.98997,    156.67,    156.79,         0,  112799428,  2201413,  |4-> 0 , |5-> 0 , |6-> 0 ,,  |4-> 0 , |5-> 0 , |6-> 0 ,,  |1-> 0 , |2-> 1672577 , |3-> 601766 , |4-> 7141696 , |5-> 36848296 , |6-> 66535093 ,,  |1-> 0 , |2-> 31467 , |3-> 54908 , |4-> 433147 , |5-> 1151504 , |6-> 530387 ,
