vc_buf_size = 64;
wait_for_tail_credit = 0;
vc_allocator = separable_input_first;
sw_allocator = separable_input_first;
alloc_iters = 1;
credit_delay = 2;
routing_delay = 0;
vc_alloc_delay = 1;
sw_alloc_delay = 1;
st_final_delay = 1;
input_speedup = 1;
output_speedup = 1;
sim_count = 1;
num_vcs = 7;
priority = none;
packet_size = 1;
injection_rate_uses_flits = 1;
internal_speedup = 4.0;
warmup_periods = 3;
sample_period = 10000;
df_a = 8;
df_arrangement = absolute_improved;
df_g = 0;
global_latency = 10;
local_latency = 10;
multitiered_routing_threshold_0 = 10;
multitiered_routing_threshold_1 = 40;
seed = 11;
topology = dragonflyfull;
traffic = randperm;
df_g = 25;
perm_seed = 66;
routing_function = PAR_multi_tiered;

defaultText, count, i-rate in config file, i-rate injected, i-rate accepted, packet latency, flit latency, deadlock?
simulation,         1,      0.01,  0.010034,  0.010034,    39.794,    39.797,         0,  602867,  187383,  |4-> 587255 , |5-> 0 , |6-> 0 ,,  |4-> 182072 , |5-> 0 , |6-> 0 ,,  |1-> 0 , |2-> 16788 , |3-> 61526 , |4-> 524553 , |5-> 0 , |6-> 0 ,,  |1-> 0 , |2-> 5652 , |3-> 19744 , |4-> 161987 , |5-> 0 , |6-> 0 ,
simulation,         2,      0.99,   0.55602,   0.60697,    1720.6,    800.25,         1,  0,  0,  ,  ,  ,  
simulation,         3,       0.5,   0.50019,   0.50019,    53.366,    53.381,         0,  29926133,  9379533,  |4-> 1185310 , |5-> 27243758 , |6-> 710568 ,,  |4-> 10042 , |5-> 7657861 , |6-> 1443080 ,,  |1-> 0 , |2-> 801874 , |3-> 666928 , |4-> 6581682 , |5-> 21513504 , |6-> 362145 ,,  |1-> 0 , |2-> 271851 , |3-> 187517 , |4-> 1733307 , |5-> 6503324 , |6-> 683534 ,
simulation,         4,      0.74,   0.55805,   0.59919,    920.44,    593.92,         1,  0,  0,  ,  ,  ,  
simulation,         5,      0.62,   0.55577,   0.56942,    777.31,    420.86,         1,  0,  0,  ,  ,  ,  
simulation,         6,      0.56,   0.55633,   0.55637,    407.62,    154.73,         1,  0,  0,  ,  ,  ,  
simulation,         7,      0.53,   0.53022,    0.5302,    62.733,    62.755,         0,  30372320,  10805389,  |4-> 620896 , |5-> 26574993 , |6-> 2355397 ,,  |4-> 5938 , |5-> 6484115 , |6-> 4016806 ,,  |1-> 0 , |2-> 834891 , |3-> 603451 , |4-> 6067400 , |5-> 21664357 , |6-> 1202221 ,,  |1-> 0 , |2-> 302082 , |3-> 196192 , |4-> 1791766 , |5-> 6623924 , |6-> 1891425 ,
simulation,         8,      0.54,   0.54025,   0.54022,    71.367,    71.309,         0,  30140322,  11631871,  |4-> 457511 , |5-> 25179761 , |6-> 3672971 ,,  |4-> 5436 , |5-> 5495010 , |6-> 5815523 ,,  |1-> 0 , |2-> 843258 , |3-> 568644 , |4-> 5755727 , |5-> 21098011 , |6-> 1874682 ,,  |1-> 0 , |2-> 319650 , |3-> 197418 , |4-> 1801653 , |5-> 6582150 , |6-> 2731000 ,
simulation,         9,      0.55,   0.54965,   0.54965,    142.09,    87.017,         0,  46403004,  20018355,  |4-> 493112 , |5-> 35804567 , |6-> 8795229 ,,  |4-> 5473 , |5-> 6761611 , |6-> 12712491 ,,  |1-> 0 , |2-> 1328660 , |3-> 813719 , |4-> 8352903 , |5-> 31431837 , |6-> 4475885 ,,  |1-> 0 , |2-> 545232 , |3-> 312965 , |4-> 2851019 , |5-> 10345885 , |6-> 5963254 ,
simulation,        12,      0.45,   0.45018,   0.45018,    47.481,     47.49,         0,  27685440,  7971476,  |4-> 2371753 , |5-> 24531733 , |6-> 65617 ,,  |4-> 30783 , |5-> 7529894 , |6-> 178884 ,,  |1-> 0 , |2-> 732407 , |3-> 730966 , |4-> 7070329 , |5-> 19122166 , |6-> 29572 ,,  |1-> 0 , |2-> 234863 , |3-> 170052 , |4-> 1580957 , |5-> 5899211 , |6-> 86393 ,
simulation,        13,       0.4,   0.40012,   0.40011,    45.529,    45.537,         0,  24807040,  6951485,  |4-> 3970287 , |5-> 20193830 , |6-> 2098 ,,  |4-> 92188 , |5-> 6642599 , |6-> 15508 ,,  |1-> 0 , |2-> 658324 , |3-> 804839 , |4-> 7637994 , |5-> 15704662 , |6-> 1221 ,,  |1-> 0 , |2-> 203933 , |3-> 153633 , |4-> 1435574 , |5-> 5151331 , |6-> 7014 ,
