vc_buf_size = 64;
wait_for_tail_credit = 0;
vc_allocator = separable_input_first;
sw_allocator = separable_input_first;
alloc_iters = 1;
credit_delay = 2;
routing_delay = 0;
vc_alloc_delay = 1;
sw_alloc_delay = 1;
st_final_delay = 1;
input_speedup = 1;
output_speedup = 1;
internal_speedup = 4.0;
warmup_periods = 3;
sim_count = 1;
sample_period = 1000;
num_vcs = 7;
priority = none;
packet_size = 1;
injection_rate_uses_flits = 1;
df_a = 16;
df_arrangement = absolute_improved;
df_g = 35;
seed = 11;
topology = dragonflyfull;
traffic = randperm;
perm_seed = 68;
routing_function = UGAL_L_threshold;
routing_threshold = 40;

defaultText, count, i-rate in config file, i-rate injected, i-rate accepted, packet latency, flit latency, deadlock?
simulation,         1,      0.01,  0.010044,  0.010042,    10.018,    10.019,         0
simulation,         2,      0.99,    0.6283,    0.6451,    716.46,    629.05,         1
simulation,         3,       0.5,   0.50025,   0.50027,    17.209,    17.271,         0
simulation,         4,      0.74,   0.63666,   0.65319,    407.49,    393.04,         1
simulation,         5,      0.62,   0.61906,   0.61982,    53.467,    52.008,         0
simulation,         6,      0.68,   0.63841,   0.64668,    301.01,    238.31,         1
simulation,         7,      0.65,   0.63589,   0.64037,    225.41,     145.2,         0
simulation,         8,      0.66,   0.63775,    0.6435,    335.27,    186.22,         0
simulation,         9,      0.67,   0.63855,   0.64561,    243.02,    198.39,         1
simulation,        11,       0.6,   0.60015,   0.60029,    35.091,    35.552,         0
simulation,        12,      0.55,   0.55024,   0.55032,    22.346,    22.488,         0
