vc_buf_size = 64;
wait_for_tail_credit = 0;
vc_allocator = separable_input_first;
sw_allocator = separable_input_first;
alloc_iters = 1;
credit_delay = 2;
routing_delay = 0;
vc_alloc_delay = 1;
sw_alloc_delay = 1;
st_final_delay = 1;
input_speedup = 1;
output_speedup = 1;
sim_count = 1;
num_vcs = 7;
priority = none;
packet_size = 1;
injection_rate_uses_flits = 1;
internal_speedup = 4.0;
warmup_periods = 3;
sample_period = 10000;
df_a = 8;
df_arrangement = absolute_improved;
df_g = 0;
global_latency = 10;
local_latency = 10;
multitiered_routing_threshold_0 = 10;
multitiered_routing_threshold_1 = 40;
seed = 11;
topology = dragonflyfull;
traffic = randperm;
df_g = 27;
perm_seed = 64;
routing_function = UGAL_L;

defaultText, count, i-rate in config file, i-rate injected, i-rate accepted, packet latency, flit latency, deadlock?
simulation,         1,      0.01,  0.010034,  0.010034,    40.733,    40.739,         0,  390229,  126752,  |4-> 0 , |5-> 0 , |6-> 0 ,,  |4-> 0 , |5-> 0 , |6-> 0 ,,  |1-> 0 , |2-> 10343 , |3-> 2355 , |4-> 26408 , |5-> 127812 , |6-> 223311 ,,  |1-> 0 , |2-> 3600 , |3-> 805 , |4-> 9156 , |5-> 42462 , |6-> 70729 ,
simulation,         2,      0.99,   0.55732,   0.60484,    1535.7,    737.01,         1,  0,  0,  ,  ,  ,  
simulation,         3,       0.5,   0.49758,   0.49759,    311.29,     111.8,         1,  0,  0,  ,  ,  ,  
simulation,         4,      0.25,   0.25009,    0.2501,    42.535,    42.543,         0,  9472739,  3420334,  |4-> 0 , |5-> 0 , |6-> 0 ,,  |4-> 0 , |5-> 0 , |6-> 0 ,,  |1-> 0 , |2-> 255118 , |3-> 55552 , |4-> 635132 , |5-> 3107125 , |6-> 5419812 ,,  |1-> 0 , |2-> 93611 , |3-> 22035 , |4-> 251123 , |5-> 1156709 , |6-> 1896856 ,
simulation,         5,      0.37,   0.37016,   0.37016,    49.782,      49.8,         0,  13878330,  5244138,  |4-> 0 , |5-> 0 , |6-> 0 ,,  |4-> 0 , |5-> 0 , |6-> 0 ,,  |1-> 0 , |2-> 386692 , |3-> 80756 , |4-> 925016 , |5-> 4540167 , |6-> 7945699 ,,  |1-> 0 , |2-> 129939 , |3-> 34442 , |4-> 389909 , |5-> 1783137 , |6-> 2906711 ,
simulation,         6,      0.43,   0.42999,      0.43,    69.236,    62.933,         0,  17093501,  7336430,  |4-> 0 , |5-> 0 , |6-> 0 ,,  |4-> 0 , |5-> 0 , |6-> 0 ,,  |1-> 0 , |2-> 494532 , |3-> 98977 , |4-> 1139324 , |5-> 5583863 , |6-> 9776805 ,,  |1-> 0 , |2-> 164446 , |3-> 47947 , |4-> 541945 , |5-> 2492885 , |6-> 4089207 ,
simulation,         7,      0.46,   0.45963,   0.45963,    164.67,    75.732,         0,  29431306,  14208473,  |4-> 0 , |5-> 0 , |6-> 0 ,,  |4-> 0 , |5-> 0 , |6-> 0 ,,  |1-> 0 , |2-> 880215 , |3-> 169549 , |4-> 1953658 , |5-> 9601406 , |6-> 16826478 ,,  |1-> 0 , |2-> 297874 , |3-> 92601 , |4-> 1044884 , |5-> 4827523 , |6-> 7945591 ,
simulation,         8,      0.48,   0.47892,   0.47892,    327.17,    89.224,         0,  43955007,  23523149,  |4-> 0 , |5-> 0 , |6-> 0 ,,  |4-> 0 , |5-> 0 , |6-> 0 ,,  |1-> 0 , |2-> 1347030 , |3-> 253981 , |4-> 2909881 , |5-> 14327856 , |6-> 25116259 ,,  |1-> 0 , |2-> 478134 , |3-> 152022 , |4-> 1725584 , |5-> 7985032 , |6-> 13182377 ,
simulation,         9,      0.49,   0.48854,   0.48854,    414.98,    95.285,         0,  46326499,  26435515,  |4-> 0 , |5-> 0 , |6-> 0 ,,  |4-> 0 , |5-> 0 , |6-> 0 ,,  |1-> 0 , |2-> 1440297 , |3-> 267639 , |4-> 3065639 , |5-> 15094850 , |6-> 26458074 ,,  |1-> 0 , |2-> 527143 , |3-> 170209 , |4-> 1932265 , |5-> 8970851 , |6-> 14835047 ,
simulation,        10,      0.45,   0.44982,   0.44982,    123.92,    70.512,         0,  26918151,  12432600,  |4-> 0 , |5-> 0 , |6-> 0 ,,  |4-> 0 , |5-> 0 , |6-> 0 ,,  |1-> 0 , |2-> 794295 , |3-> 156116 , |4-> 1787164 , |5-> 8792004 , |6-> 15388572 ,,  |1-> 0 , |2-> 267750 , |3-> 80909 , |4-> 915787 , |5-> 4223257 , |6-> 6944897 ,
simulation,        11,       0.4,   0.40013,   0.40013,    53.554,    53.577,         0,  14799157,  5885450,  |4-> 0 , |5-> 0 , |6-> 0 ,,  |4-> 0 , |5-> 0 , |6-> 0 ,,  |1-> 0 , |2-> 419371 , |3-> 86031 , |4-> 984910 , |5-> 4836736 , |6-> 8472109 ,,  |1-> 0 , |2-> 139316 , |3-> 39128 , |4-> 435706 , |5-> 2000707 , |6-> 3270593 ,
simulation,        12,      0.35,   0.35014,   0.35014,    47.604,    47.619,         0,  13202283,  4878250,  |4-> 0 , |5-> 0 , |6-> 0 ,,  |4-> 0 , |5-> 0 , |6-> 0 ,,  |1-> 0 , |2-> 364699 , |3-> 76440 , |4-> 881369 , |5-> 4321771 , |6-> 7558004 ,,  |1-> 0 , |2-> 124060 , |3-> 31987 , |4-> 361292 , |5-> 1660445 , |6-> 2700466 ,
simulation,        13,       0.3,   0.30016,   0.30017,    44.341,    44.351,         0,  11381237,  4098849,  |4-> 0 , |5-> 0 , |6-> 0 ,,  |4-> 0 , |5-> 0 , |6-> 0 ,,  |1-> 0 , |2-> 309257 , |3-> 66262 , |4-> 759705 , |5-> 3728267 , |6-> 6517746 ,,  |1-> 0 , |2-> 109719 , |3-> 26662 , |4-> 301976 , |5-> 1389588 , |6-> 2270904 ,
