vc_buf_size = 64;
wait_for_tail_credit = 0;
vc_allocator = separable_input_first;
sw_allocator = separable_input_first;
alloc_iters = 1;
credit_delay = 2;
routing_delay = 0;
vc_alloc_delay = 1;
sw_alloc_delay = 1;
st_final_delay = 1;
input_speedup = 1;
output_speedup = 1;
sim_count = 1;
num_vcs = 7;
priority = none;
packet_size = 1;
injection_rate_uses_flits = 1;
internal_speedup = 4.0;
warmup_periods = 3;
sample_period = 1000;
df_a = 8;
df_arrangement = absolute_improved;
global_latency = 1;
local_latency = 1;
multitiered_routing_threshold_0 = 10;
multitiered_routing_threshold_1 = 40;
topology = dragonflyfull;
traffic = uniform;
df_g = 25;
routing_function = UGAL_L_multi_tiered;
seed = 10;

defaultText, count, i-rate in config file, i-rate injected, i-rate accepted, packet latency, flit latency, deadlock?
simulation,         1,      0.01, 0.0099804, 0.0099858,    9.4909,    9.4922,         0,  45342,  2572,  |4-> 43761 , |5-> 0 , |6-> 0 ,,  |4-> 2472 , |5-> 0 , |6-> 0 ,,  |1-> 0 , |2-> 1718 , |3-> 4659 , |4-> 38965 , |5-> 0 , |6-> 0 ,,  |1-> 0 , |2-> 106 , |3-> 291 , |4-> 2175 , |5-> 0 , |6-> 0 ,
simulation,         2,      0.99,   0.75787,   0.76733,    605.54,    543.85,         1,  0,  0,  ,  ,  ,  
simulation,         3,       0.5,   0.49942,   0.49942,    11.718,    11.719,         0,  2019884,  375438,  |4-> 1949776 , |5-> 398 , |6-> 0 ,,  |4-> 358913 , |5-> 1873 , |6-> 0 ,,  |1-> 0 , |2-> 75215 , |3-> 209496 , |4-> 1734869 , |5-> 304 , |6-> 0 ,,  |1-> 0 , |2-> 15611 , |3-> 37648 , |4-> 320719 , |5-> 1460 , |6-> 0 ,
simulation,         4,      0.74,   0.73936,   0.73937,     17.89,    17.905,         0,  3091422,  487900,  |4-> 2812491 , |5-> 169350 , |6-> 0 ,,  |4-> 315764 , |5-> 153932 , |6-> 1318 ,,  |1-> 0 , |2-> 117604 , |3-> 307381 , |4-> 2538238 , |5-> 128199 , |6-> 0 ,,  |1-> 0 , |2-> 17875 , |3-> 36176 , |4-> 310881 , |5-> 122347 , |6-> 621 ,
simulation,         5,      0.86,   0.76933,   0.79965,     481.3,    392.56,         1,  0,  0,  ,  ,  ,  
simulation,         6,       0.8,   0.78067,   0.79447,    188.96,    193.26,         0,  6739045,  1754252,  |4-> 1694953 , |5-> 2827594 , |6-> 1975748 ,,  |4-> 118594 , |5-> 835729 , |6-> 742031 ,,  |1-> 0 , |2-> 247548 , |3-> 247619 , |4-> 2256252 , |5-> 2994592 , |6-> 993034 ,,  |1-> 0 , |2-> 59773 , |3-> 52855 , |4-> 419804 , |5-> 913832 , |6-> 307988 ,
simulation,         7,      0.83,    0.7738,   0.79783,    453.58,     361.9,         0,  7259842,  1992811,  |4-> 1304420 , |5-> 2378427 , |6-> 3320531 ,,  |4-> 74635 , |5-> 650616 , |6-> 1197984 ,,  |1-> 0 , |2-> 262178 , |3-> 205077 , |4-> 1925813 , |5-> 3149472 , |6-> 1717302 ,,  |1-> 0 , |2-> 71543 , |3-> 53530 , |4-> 421826 , |5-> 992582 , |6-> 453330 ,
simulation,         8,      0.84,   0.77033,   0.79499,    448.88,    352.82,         1,  0,  0,  ,  ,  ,  
simulation,        10,      0.75,   0.74932,   0.74923,    20.321,    20.344,         0,  3129033,  511733,  |4-> 2793857 , |5-> 224116 , |6-> 14 ,,  |4-> 298359 , |5-> 187581 , |6-> 8437 ,,  |1-> 0 , |2-> 119059 , |3-> 306382 , |4-> 2534456 , |5-> 169136 , |6-> 0 ,,  |1-> 0 , |2-> 18331 , |3-> 35124 , |4-> 301474 , |5-> 152637 , |6-> 4167 ,
simulation,        11,       0.7,   0.69951,   0.69951,    15.138,    15.141,         0,  2913878,  446620,  |4-> 2744485 , |5-> 67326 , |6-> 0 ,,  |4-> 352095 , |5-> 78247 , |6-> 0 ,,  |1-> 0 , |2-> 110107 , |3-> 297316 , |4-> 2455385 , |5-> 51070 , |6-> 0 ,,  |1-> 0 , |2-> 17349 , |3-> 38653 , |4-> 328907 , |5-> 61711 , |6-> 0 ,
simulation,        12,      0.65,   0.64957,   0.64958,    13.668,    13.672,         0,  2693920,  424357,  |4-> 2579492 , |5-> 20677 , |6-> 0 ,,  |4-> 374047 , |5-> 34260 , |6-> 0 ,,  |1-> 0 , |2-> 100922 , |3-> 278655 , |4-> 2298677 , |5-> 15666 , |6-> 0 ,,  |1-> 0 , |2-> 17108 , |3-> 39964 , |4-> 340279 , |5-> 27006 , |6-> 0 ,
