routing_delay = 0;
alloc_iters = 1;
credit_delay = 2;
num_vcs = 7;
sim_count = 1;
output_speedup = 1;
vc_alloc_delay = 1;
input_speedup = 1;
sample_period = 10000;
packet_size = 1;
internal_speedup = 4.0;
sw_allocator = separable_input_first;
vc_buf_size = 64;
warmup_periods = 3;
injection_rate_uses_flits = 1;
st_final_delay = 1;
vc_allocator = separable_input_first;
sw_alloc_delay = 1;
priority = none;
wait_for_tail_credit = 0;
df_a = 8;
df_arrangement = absolute_improved;
df_g = 0;
global_latency = 10;
local_latency = 10;
multitiered_routing_threshold_0 = 10;
multitiered_routing_threshold_1 = 40;
topology = dragonflyfull;
traffic = uniform;
df_g = 25;
routing_function = PAR;
seed = 8;

defaultText, count, i-rate in config file, i-rate injected, i-rate accepted, packet latency, flit latency, deadlock?
simulation,         1,      0.01, 0.0099926, 0.0099924,    44.341,     44.35,         0,  652486,  154284,  |4-> 0 , |5-> 0 , |6-> 0 ,,  |4-> 0 , |5-> 0 , |6-> 0 ,,  |1-> 0 , |2-> 13530 , |3-> 3643 , |4-> 42710 , |5-> 214113 , |6-> 378490 ,,  |1-> 0 , |2-> 3398 , |3-> 991 , |4-> 10787 , |5-> 51489 , |6-> 87619 ,
simulation,         2,      0.99,   0.78122,   0.82656,    1023.4,    492.04,         1,  0,  0,  ,  ,  ,  
simulation,         3,       0.5,   0.50006,   0.50007,    38.234,    38.238,         0,  41477209,  1841026,  |4-> 0 , |5-> 0 , |6-> 0 ,,  |4-> 0 , |5-> 0 , |6-> 0 ,,  |1-> 0 , |2-> 814979 , |3-> 237831 , |4-> 2734348 , |5-> 13568679 , |6-> 24121372 ,,  |1-> 0 , |2-> 35510 , |3-> 15296 , |4-> 156020 , |5-> 653992 , |6-> 980208 ,
simulation,         4,      0.74,   0.74035,   0.74035,    44.878,    44.882,         0,  62066161,  2393690,  |4-> 0 , |5-> 0 , |6-> 0 ,,  |4-> 0 , |5-> 0 , |6-> 0 ,,  |1-> 0 , |2-> 1221683 , |3-> 356043 , |4-> 4086376 , |5-> 20305753 , |6-> 36096306 ,,  |1-> 0 , |2-> 38066 , |3-> 20507 , |4-> 209845 , |5-> 863557 , |6-> 1261715 ,
simulation,         5,      0.86,   0.78455,   0.80526,    808.94,    419.73,         1,  0,  0,  ,  ,  ,  
simulation,         6,       0.8,   0.79073,   0.79136,    524.02,    212.66,         1,  0,  0,  ,  ,  ,  
simulation,         7,      0.77,   0.77031,   0.77029,    51.745,    51.758,         0,  63745025,  3255750,  |4-> 0 , |5-> 0 , |6-> 0 ,,  |4-> 0 , |5-> 0 , |6-> 0 ,,  |1-> 0 , |2-> 1262794 , |3-> 366276 , |4-> 4208799 , |5-> 20859604 , |6-> 37047552 ,,  |1-> 0 , |2-> 45206 , |3-> 24717 , |4-> 261689 , |5-> 1142794 , |6-> 1781344 ,
simulation,         8,      0.78,   0.78029,   0.78028,    61.554,    61.568,         0,  63362888,  4393930,  |4-> 0 , |5-> 0 , |6-> 0 ,,  |4-> 0 , |5-> 0 , |6-> 0 ,,  |1-> 0 , |2-> 1272173 , |3-> 365538 , |4-> 4190329 , |5-> 20748321 , |6-> 36786527 ,,  |1-> 0 , |2-> 54479 , |3-> 28979 , |4-> 325420 , |5-> 1502754 , |6-> 2482298 ,
simulation,         9,      0.79,   0.79013,   0.79028,    100.19,     100.3,         0,  61459636,  6669753,  |4-> 0 , |5-> 0 , |6-> 0 ,,  |4-> 0 , |5-> 0 , |6-> 0 ,,  |1-> 0 , |2-> 1254612 , |3-> 354167 , |4-> 4053866 , |5-> 20092400 , |6-> 35704591 ,,  |1-> 0 , |2-> 94869 , |3-> 43322 , |4-> 486666 , |5-> 2271581 , |6-> 3773315 ,
simulation,        10,      0.75,   0.75034,   0.75033,    46.244,    46.252,         0,  62755483,  2564597,  |4-> 0 , |5-> 0 , |6-> 0 ,,  |4-> 0 , |5-> 0 , |6-> 0 ,,  |1-> 0 , |2-> 1237165 , |3-> 359861 , |4-> 4135213 , |5-> 20531000 , |6-> 36492244 ,,  |1-> 0 , |2-> 39620 , |3-> 21455 , |4-> 219852 , |5-> 920584 , |6-> 1363086 ,
simulation,        11,       0.7,   0.70029,   0.70029,    41.785,     41.79,         0,  58924175,  2059185,  |4-> 0 , |5-> 0 , |6-> 0 ,,  |4-> 0 , |5-> 0 , |6-> 0 ,,  |1-> 0 , |2-> 1156024 , |3-> 337162 , |4-> 3882084 , |5-> 19277909 , |6-> 34270996 ,,  |1-> 0 , |2-> 34894 , |3-> 18447 , |4-> 185522 , |5-> 750894 , |6-> 1069428 ,
simulation,        12,      0.65,   0.65023,   0.65023,    39.982,    39.985,         0,  54675734,  1904738,  |4-> 0 , |5-> 0 , |6-> 0 ,,  |4-> 0 , |5-> 0 , |6-> 0 ,,  |1-> 0 , |2-> 1071520 , |3-> 313955 , |4-> 3602333 , |5-> 17887007 , |6-> 31800919 ,,  |1-> 0 , |2-> 33801 , |3-> 17086 , |4-> 171525 , |5-> 693257 , |6-> 989069 ,
simulation,        13,       0.6,   0.60025,   0.60025,    39.056,    39.059,         0,  50315250,  1855130,  |4-> 0 , |5-> 0 , |6-> 0 ,,  |4-> 0 , |5-> 0 , |6-> 0 ,,  |1-> 0 , |2-> 986251 , |3-> 288554 , |4-> 3313328 , |5-> 16459939 , |6-> 29267178 ,,  |1-> 0 , |2-> 33905 , |3-> 16281 , |4-> 164838 , |5-> 671188 , |6-> 968918 ,
