vc_buf_size = 64;
wait_for_tail_credit = 0;
vc_allocator = separable_input_first;
sw_allocator = separable_input_first;
alloc_iters = 1;
credit_delay = 2;
routing_delay = 0;
vc_alloc_delay = 1;
sw_alloc_delay = 1;
st_final_delay = 1;
input_speedup = 1;
output_speedup = 1;
sim_count = 1;
num_vcs = 7;
priority = none;
packet_size = 1;
injection_rate_uses_flits = 1;
internal_speedup = 4.0;
warmup_periods = 3;
sample_period = 10000;
df_a = 8;
df_arrangement = absolute_improved;
df_g = 0;
global_latency = 10;
local_latency = 10;
multitiered_routing_threshold_0 = 10;
multitiered_routing_threshold_1 = 40;
seed = 11;
topology = dragonflyfull;
traffic = group_shift;
df_g = 33;
routing_function = PAR;
shift_by_group = 4;

defaultText, count, i-rate in config file, i-rate injected, i-rate accepted, packet latency, flit latency, deadlock?
simulation,         1,      0.01, 0.0099885,   0.00999,    59.469,    59.478,         0,  509581,  462188,  |4-> 0 , |5-> 0 , |6-> 0 ,,  |4-> 0 , |5-> 0 , |6-> 0 ,,  |1-> 0 , |2-> 8 , |3-> 6816 , |4-> 35202 , |5-> 150291 , |6-> 317264 ,,  |1-> 0 , |2-> 12 , |3-> 6127 , |4-> 35960 , |5-> 144505 , |6-> 275584 ,
simulation,         2,      0.99,   0.35411,   0.40155,    3155.5,    1171.5,         1,  0,  0,  ,  ,  ,  
simulation,         3,       0.5,   0.41011,   0.44202,    654.48,    514.24,         1,  0,  0,  ,  ,  ,  
simulation,         4,      0.25,   0.24998,   0.24998,    71.886,    71.888,         0,  9008105,  13882510,  |4-> 0 , |5-> 0 , |6-> 0 ,,  |4-> 0 , |5-> 0 , |6-> 0 ,,  |1-> 0 , |2-> 0 , |3-> 152803 , |4-> 688500 , |5-> 2548772 , |6-> 5618030 ,,  |1-> 0 , |2-> 478 , |3-> 169678 , |4-> 1011626 , |5-> 4334892 , |6-> 8365836 ,
simulation,         5,      0.37,   0.37013,   0.37012,    88.385,    88.393,         0,  8563473,  21536712,  |4-> 0 , |5-> 0 , |6-> 0 ,,  |4-> 0 , |5-> 0 , |6-> 0 ,,  |1-> 0 , |2-> 0 , |3-> 146060 , |4-> 655655 , |5-> 2418108 , |6-> 5343650 ,,  |1-> 0 , |2-> 472 , |3-> 325254 , |4-> 1645742 , |5-> 6430896 , |6-> 13134348 ,
simulation,         6,      0.43,    0.4261,   0.42614,    525.96,    168.97,         1,  0,  0,  ,  ,  ,  
simulation,         7,       0.4,   0.40011,   0.40011,    95.258,    95.273,         0,  7723514,  23478687,  |4-> 0 , |5-> 0 , |6-> 0 ,,  |4-> 0 , |5-> 0 , |6-> 0 ,,  |1-> 0 , |2-> 0 , |3-> 123633 , |4-> 564440 , |5-> 2180385 , |6-> 4855056 ,,  |1-> 0 , |2-> 400 , |3-> 384190 , |4-> 1848857 , |5-> 6909968 , |6-> 14335272 ,
simulation,         8,      0.41,   0.41013,   0.41013,    98.829,    98.854,         0,  7437732,  24132226,  |4-> 0 , |5-> 0 , |6-> 0 ,,  |4-> 0 , |5-> 0 , |6-> 0 ,,  |1-> 0 , |2-> 0 , |3-> 115981 , |4-> 532753 , |5-> 2097248 , |6-> 4691750 ,,  |1-> 0 , |2-> 358 , |3-> 404359 , |4-> 1917050 , |5-> 7069847 , |6-> 14740612 ,
simulation,         9,      0.42,   0.41934,   0.41941,    185.41,    123.72,         0,  13717059,  47508408,  |4-> 0 , |5-> 0 , |6-> 0 ,,  |4-> 0 , |5-> 0 , |6-> 0 ,,  |1-> 0 , |2-> 0 , |3-> 206267 , |4-> 954290 , |5-> 3870178 , |6-> 8686324 ,,  |1-> 0 , |2-> 645 , |3-> 815214 , |4-> 3821613 , |5-> 13855868 , |6-> 29015068 ,
simulation,        11,      0.35,   0.35009,   0.35008,    84.574,    84.575,         0,  9071839,  20250963,  |4-> 0 , |5-> 0 , |6-> 0 ,,  |4-> 0 , |5-> 0 , |6-> 0 ,,  |1-> 0 , |2-> 0 , |3-> 159618 , |4-> 709988 , |5-> 2559167 , |6-> 5643066 ,,  |1-> 0 , |2-> 490 , |3-> 288074 , |4-> 1514472 , |5-> 6111327 , |6-> 12336600 ,
simulation,        12,       0.3,   0.30005,   0.30005,    77.011,    77.011,         0,  9730367,  17065303,  |4-> 0 , |5-> 0 , |6-> 0 ,,  |4-> 0 , |5-> 0 , |6-> 0 ,,  |1-> 0 , |2-> 0 , |3-> 174800 , |4-> 775095 , |5-> 2746907 , |6-> 6033565 ,,  |1-> 0 , |2-> 532 , |3-> 211540 , |4-> 1227967 , |5-> 5271198 , |6-> 10354066 ,
