vc_buf_size = 64;
wait_for_tail_credit = 0;
vc_allocator = separable_input_first;
sw_allocator = separable_input_first;
alloc_iters = 1;
credit_delay = 2;
routing_delay = 0;
vc_alloc_delay = 1;
sw_alloc_delay = 1;
st_final_delay = 1;
input_speedup = 1;
output_speedup = 1;
sim_count = 1;
num_vcs = 7;
priority = none;
packet_size = 1;
injection_rate_uses_flits = 1;
internal_speedup = 4.0;
warmup_periods = 3;
sample_period = 1000;
df_a = 8;
df_arrangement = absolute_improved;
df_g = 0;
multitiered_routing_threshold_0 = 10;
multitiered_routing_threshold_1 = 40;
seed = 11;
topology = dragonflyfull;
traffic = randperm;
df_g = 17;
perm_seed = 64;
routing_function = UGAL_L_multi_tiered;

defaultText, count, i-rate in config file, i-rate injected, i-rate accepted, packet latency, flit latency, deadlock?
simulation,         1,      0.01, 0.0098799, 0.0098689,    9.4883,    9.4881,         0,  30163,  2366,  |4-> 28804 , |5-> 0 , |6-> 0 ,,  |4-> 2215 , |5-> 0 , |6-> 0 ,,  |1-> 0 , |2-> 1457 , |3-> 3398 , |4-> 25308 , |5-> 0 , |6-> 0 ,,  |1-> 0 , |2-> 159 , |3-> 249 , |4-> 1958 , |5-> 0 , |6-> 0 ,
simulation,         2,      0.99,   0.66151,   0.68652,    679.83,    618.57,         1,  0,  0,  ,  ,  ,  
simulation,         3,       0.5,   0.49978,   0.49972,    14.972,    15.035,         0,  1239215,  412328,  |4-> 1185680 , |5-> 5147 , |6-> 0 ,,  |4-> 359654 , |5-> 21686 , |6-> 3159 ,,  |1-> 0 , |2-> 52211 , |3-> 142899 , |4-> 1040676 , |5-> 3429 , |6-> 0 ,,  |1-> 0 , |2-> 28735 , |3-> 40861 , |4-> 325388 , |5-> 16204 , |6-> 1140 ,
simulation,         4,      0.74,   0.66544,   0.67618,    442.76,    333.07,         1,  0,  0,  ,  ,  ,  
simulation,         5,      0.62,   0.62006,   0.62004,    32.341,    32.626,         0,  1471425,  620208,  |4-> 1246958 , |5-> 161849 , |6-> 3410 ,,  |4-> 285863 , |5-> 254044 , |6-> 43024 ,,  |1-> 0 , |2-> 63413 , |3-> 155932 , |4-> 1141754 , |5-> 109443 , |6-> 883 ,,  |1-> 0 , |2-> 38304 , |3-> 42342 , |4-> 334213 , |5-> 191681 , |6-> 13668 ,
simulation,         6,      0.68,   0.66379,   0.66927,     223.0,    150.11,         0,  3825933,  2353840,  |4-> 1620156 , |5-> 1609662 , |6-> 436918 ,,  |4-> 200822 , |5-> 1306487 , |6-> 718094 ,,  |1-> 0 , |2-> 167255 , |3-> 254260 , |4-> 1986775 , |5-> 1272852 , |6-> 144791 ,,  |1-> 0 , |2-> 130806 , |3-> 89916 , |4-> 707393 , |5-> 1211790 , |6-> 213935 ,
simulation,         7,      0.71,   0.66753,   0.67508,    301.61,    230.54,         1,  0,  0,  ,  ,  ,  
simulation,         8,      0.69,   0.66558,   0.67264,    318.98,    190.59,         0,  4023381,  2599966,  |4-> 1423371 , |5-> 1805837 , |6-> 626774 ,,  |4-> 159277 , |5-> 1354117 , |6-> 942832 ,,  |1-> 0 , |2-> 175179 , |3-> 242131 , |4-> 1906708 , |5-> 1491240 , |6-> 208123 ,,  |1-> 0 , |2-> 146252 , |3-> 93101 , |4-> 732278 , |5-> 1347163 , |6-> 281172 ,
simulation,         9,       0.7,   0.66744,   0.67339,    249.91,    199.16,         1,  0,  0,  ,  ,  ,  
simulation,        11,      0.65,   0.64805,   0.64912,    61.952,      57.9,         0,  2599858,  1334112,  |4-> 1748896 , |5-> 672373 , |6-> 71860 ,,  |4-> 305751 , |5-> 724414 , |6-> 228754 ,,  |1-> 0 , |2-> 113348 , |3-> 233144 , |4-> 1748927 , |5-> 482605 , |6-> 21834 ,,  |1-> 0 , |2-> 76870 , |3-> 66124 , |4-> 525499 , |5-> 593881 , |6-> 71738 ,
simulation,        12,       0.6,   0.60006,   0.59993,    27.312,    27.583,         0,  1438127,  561315,  |4-> 1286090 , |5-> 93976 , |6-> 713 ,,  |4-> 321497 , |5-> 179874 , |6-> 25036 ,,  |1-> 0 , |2-> 61523 , |3-> 157691 , |4-> 1155838 , |5-> 62911 , |6-> 164 ,,  |1-> 0 , |2-> 35934 , |3-> 42693 , |4-> 340676 , |5-> 133726 , |6-> 8286 ,
simulation,        13,      0.55,   0.54986,    0.5498,    18.477,    18.601,         0,  1351753,  469463,  |4-> 1273869 , |5-> 24679 , |6-> 73 ,,  |4-> 363496 , |5-> 67456 , |6-> 7633 ,,  |1-> 0 , |2-> 57153 , |3-> 153383 , |4-> 1124857 , |5-> 16343 , |6-> 17 ,,  |1-> 0 , |2-> 31832 , |3-> 42635 , |4-> 342966 , |5-> 49445 , |6-> 2585 ,
