df_a , df_g , topology , df_arrangement , num_vcs , vc_allocation_mode , vc_buf_size , internal_speedup , warmup_periods , sample_period , seed , traffic , perm_seed , df_wc_seed , shift_by_group , shift_percentage , shift_offset , routing_function , five_hop_percentage , ugal_multiply_mode , global_latency , local_latency , saturationPoint , irate_vs_packet_latency , irate_vs_flit_latency , avg_hop_len
8 , 9 , dragonflyfull , absolute_improved , 2 , optimum , 16 , 2.0 , 3 , 8192 , 1290 , df_wc , -1 , 50 , -1 , -1 , -1 , min , -1 , one_vs_two , 1 , 1 , 0.10 , 0.01->13.297 | 0.04->13.506 | 0.07->13.938 | 0.1->15.324 , 0.01->13.297 | 0.04->13.507 | 0.07->13.938 | 0.1->15.323 , 0.01->3.7489 | 0.04->3.749 | 0.07->3.7492 | 0.1->3.7505
8 , 9 , dragonflyfull , absolute_improved , 4 , optimum , 16 , 2.0 , 3 , 8192 , 1290 , df_wc , -1 , 50 , -1 , -1 , -1 , vlb , -1 , one_vs_two , 1 , 1 , 0.40 , 0.01->21.564 | 0.04->21.748 | 0.07->21.954 | 0.1->22.215 | 0.13->22.523 | 0.16->22.888 | 0.19->23.337 | 0.22->23.898 | 0.25->24.621 | 0.28->25.594 | 0.31->26.96 | 0.34->29.043 | 0.37->32.696 | 0.4->41.695 , 0.01->21.565 | 0.04->21.748 | 0.07->21.954 | 0.1->22.215 | 0.13->22.523 | 0.16->22.888 | 0.19->23.337 | 0.22->23.897 | 0.25->24.621 | 0.28->25.594 | 0.31->26.96 | 0.34->29.043 | 0.37->32.696 | 0.4->41.687 , 0.01->6.5028 | 0.04->6.5025 | 0.07->6.499 | 0.1->6.5008 | 0.13->6.5016 | 0.16->6.5001 | 0.19->6.4997 | 0.22->6.4993 | 0.25->6.4993 | 0.28->6.5004 | 0.31->6.4995 | 0.34->6.4999 | 0.37->6.4996 | 0.4->6.5002
8 , 9 , dragonflyfull , absolute_improved , 4 , optimum , 16 , 2.0 , 3 , 8192 , 1290 , df_wc , -1 , 50 , -1 , -1 , -1 , UGAL_L , -1 , one_vs_two , 1 , 1 , 0.25 , 0.01->14.271 | 0.04->15.806 | 0.07->16.423 | 0.1->16.823 | 0.13->17.274 | 0.16->18.107 | 0.19->21.03 | 0.22->31.937 | 0.25->41.941 , 0.01->14.272 | 0.04->15.806 | 0.07->16.424 | 0.1->16.823 | 0.13->17.275 | 0.16->18.107 | 0.19->21.029 | 0.22->31.94 | 0.25->41.954 , 0.01->4.0755 | 0.04->4.5415 | 0.07->4.689 | 0.1->4.7431 | 0.13->4.7681 | 0.16->4.7886 | 0.19->4.8521 | 0.22->5.0557 | 0.25->5.2226
8 , 9 , dragonflyfull , absolute_improved , 4 , optimum , 16 , 2.0 , 3 , 8192 , 1290 , df_wc , -1 , 50 , -1 , -1 , -1 , UGAL_G , -1 , one_vs_two , 1 , 1 , 0.28 , 0.01->15.639 | 0.04->16.762 | 0.07->17.076 | 0.1->17.357 | 0.13->17.69 | 0.16->18.126 | 0.19->18.823 | 0.22->20.661 | 0.25->24.748 | 0.28->27.187 , 0.01->15.639 | 0.04->16.763 | 0.07->17.076 | 0.1->17.357 | 0.13->17.69 | 0.16->18.126 | 0.19->18.824 | 0.22->20.662 | 0.25->24.749 | 0.28->27.189 , 0.01->4.5322 | 0.04->4.8616 | 0.07->4.9081 | 0.1->4.9249 | 0.13->4.9311 | 0.16->4.9321 | 0.19->4.9285 | 0.22->4.9573 | 0.25->5.0786 | 0.28->5.2251
8 , 9 , dragonflyfull , absolute_improved , 5 , optimum , 16 , 2.0 , 3 , 8192 , 1290 , df_wc , -1 , 50 , -1 , -1 , -1 , PAR , -1 , one_vs_two , 1 , 1 , 0.40 , 0.01->16.216 | 0.04->18.421 | 0.07->18.918 | 0.1->19.202 | 0.13->19.486 | 0.16->19.84 | 0.19->20.289 | 0.22->20.872 | 0.25->21.657 | 0.28->22.708 | 0.31->24.136 | 0.34->25.959 | 0.37->28.187 | 0.4->31.546 , 0.01->16.217 | 0.04->18.422 | 0.07->18.919 | 0.1->19.203 | 0.13->19.487 | 0.16->19.841 | 0.19->20.29 | 0.22->20.874 | 0.25->21.658 | 0.28->22.709 | 0.31->24.137 | 0.34->25.959 | 0.37->28.187 | 0.4->31.545 , 0.01->4.7228 | 0.04->5.4072 | 0.07->5.5146 | 0.1->5.5385 | 0.13->5.5463 | 0.16->5.5571 | 0.19->5.5733 | 0.22->5.5964 | 0.25->5.6306 | 0.28->5.6807 | 0.31->5.7541 | 0.34->5.8441 | 0.37->5.9346 | 0.4->6.0112

8 , 9 , dragonflyfull , absolute_improved , 2 , optimum , 64 , 2.0 , 3 , 8192 , 1290 , df_wc , -1 , 50 , -1 , -1 , -1 , min , -1 , one_vs_two , 10 , 10 , 0.10 , 0.01->38.069 | 0.04->38.264 | 0.07->38.678 | 0.1->40.063 , 0.01->38.071 | 0.04->38.265 | 0.07->38.68 | 0.1->40.064 , 0.01->3.7517 | 0.04->3.7504 | 0.07->3.7491 | 0.1->3.7498
8 , 9 , dragonflyfull , absolute_improved , 4 , optimum , 64 , 2.0 , 3 , 8192 , 1290 , df_wc , -1 , 50 , -1 , -1 , -1 , vlb , -1 , one_vs_two , 10 , 10 , 0.43 , 0.01->71.088 | 0.04->71.224 | 0.07->71.447 | 0.1->71.72 | 0.13->72.006 | 0.16->72.386 | 0.19->72.855 | 0.22->73.404 | 0.25->74.132 | 0.28->75.115 | 0.31->76.499 | 0.34->78.578 | 0.37->82.235 | 0.4->90.965 | 0.43->177.98 , 0.01->71.096 | 0.04->71.225 | 0.07->71.451 | 0.1->71.722 | 0.13->72.008 | 0.16->72.387 | 0.19->72.856 | 0.22->73.405 | 0.25->74.132 | 0.28->75.115 | 0.31->76.5 | 0.34->78.576 | 0.37->82.227 | 0.4->90.949 | 0.43->178.34 , 0.01->6.5028 | 0.04->6.4987 | 0.07->6.4992 | 0.1->6.5005 | 0.13->6.4989 | 0.16->6.4998 | 0.19->6.5011 | 0.22->6.5002 | 0.25->6.4997 | 0.28->6.5002 | 0.31->6.5 | 0.34->6.5005 | 0.37->6.5006 | 0.4->6.4998 | 0.43->6.4997
8 , 9 , dragonflyfull , absolute_improved , 4 , optimum , 64 , 2.0 , 3 , 8192 , 1290 , df_wc , -1 , 50 , -1 , -1 , -1 , UGAL_L , -1 , one_vs_two , 10 , 10 , 0.28 , 0.01->47.526 | 0.04->50.05 | 0.07->50.078 | 0.1->50.241 | 0.13->50.613 | 0.16->51.981 | 0.19->84.725 | 0.22->107.11 | 0.25->124.4 | 0.28->147.39 , 0.01->47.531 | 0.04->50.061 | 0.07->50.089 | 0.1->50.249 | 0.13->50.621 | 0.16->51.989 | 0.19->84.711 | 0.22->107.15 | 0.25->124.51 | 0.28->147.67 , 0.01->4.5407 | 0.04->4.7402 | 0.07->4.7276 | 0.1->4.7187 | 0.13->4.7086 | 0.16->4.7132 | 0.19->4.8025 | 0.22->5.0464 | 0.25->5.2337 | 0.28->5.369
8 , 9 , dragonflyfull , absolute_improved , 4 , optimum , 64 , 2.0 , 3 , 8192 , 1290 , df_wc , -1 , 50 , -1 , -1 , -1 , UGAL_G , -1 , one_vs_two , 10 , 10 , 0.31 , 0.01->51.333 | 0.04->52.245 | 0.07->52.417 | 0.1->52.614 | 0.13->53.023 | 0.16->53.68 | 0.19->54.764 | 0.22->57.062 | 0.25->65.657 | 0.28->70.873 | 0.31->74.99 , 0.01->51.344 | 0.04->52.259 | 0.07->52.429 | 0.1->52.627 | 0.13->53.033 | 0.16->53.691 | 0.19->54.775 | 0.22->57.069 | 0.25->65.665 | 0.28->70.896 | 0.31->74.997 , 0.01->4.858 | 0.04->4.9229 | 0.07->4.9226 | 0.1->4.9166 | 0.13->4.9118 | 0.16->4.9034 | 0.19->4.892 | 0.22->4.8926 | 0.25->5.0101 | 0.28->5.1658 | 0.31->5.2957
8 , 9 , dragonflyfull , absolute_improved , 5 , optimum , 64 , 2.0 , 3 , 8192 , 1290 , df_wc , -1 , 50 , -1 , -1 , -1 , PAR , -1 , one_vs_two , 10 , 10 , 0.43 , 0.01->58.151 | 0.04->59.553 | 0.07->59.773 | 0.1->59.99 | 0.13->60.356 | 0.16->60.942 | 0.19->61.812 | 0.22->63.01 | 0.25->64.557 | 0.28->66.823 | 0.31->70.341 | 0.34->74.726 | 0.37->80.056 | 0.4->88.407 | 0.43->106.23 , 0.01->58.173 | 0.04->59.57 | 0.07->59.79 | 0.1->60.008 | 0.13->60.372 | 0.16->60.959 | 0.19->61.829 | 0.22->63.028 | 0.25->64.574 | 0.28->66.836 | 0.31->70.348 | 0.34->74.733 | 0.37->80.06 | 0.4->88.399 | 0.43->106.21 , 0.01->5.4255 | 0.04->5.5302 | 0.07->5.5332 | 0.1->5.5316 | 0.13->5.5347 | 0.16->5.543 | 0.19->5.5571 | 0.22->5.5805 | 0.25->5.6139 | 0.28->5.6732 | 0.31->5.7744 | 0.34->5.8991 | 0.37->6.0095 | 0.4->6.0953 | 0.43->6.1383

8 , 9 , dragonflyfull , absolute_improved , 2 , optimum , 16 , 2.0 , 3 , 8192 , 1290 , uniform , -1 , -1 , -1 , -1 , -1 , min , -1 , one_vs_two , 1 , 1 , 0.79 , 0.01->12.651 | 0.04->12.693 | 0.07->12.741 | 0.1->12.794 | 0.13->12.859 | 0.16->12.931 | 0.19->13.0 | 0.22->13.08 | 0.25->13.168 | 0.28->13.27 | 0.31->13.382 | 0.34->13.506 | 0.37->13.64 | 0.4->13.794 | 0.43->13.978 | 0.46->14.176 | 0.49->14.416 | 0.52->14.694 | 0.55->15.018 | 0.58->15.416 | 0.61->15.894 | 0.64->16.509 | 0.67->17.306 | 0.7->18.38 | 0.73->19.945 | 0.76->23.116 | 0.79->193.51 , 0.01->12.651 | 0.04->12.693 | 0.07->12.742 | 0.1->12.794 | 0.13->12.859 | 0.16->12.931 | 0.19->13.0 | 0.22->13.08 | 0.25->13.168 | 0.28->13.27 | 0.31->13.382 | 0.34->13.507 | 0.37->13.64 | 0.4->13.795 | 0.43->13.978 | 0.46->14.177 | 0.49->14.416 | 0.52->14.694 | 0.55->15.018 | 0.58->15.416 | 0.61->15.894 | 0.64->16.509 | 0.67->17.307 | 0.7->18.381 | 0.73->19.945 | 0.76->23.058 | 0.79->48.118 , 0.01->3.5455 | 0.04->3.5431 | 0.07->3.5423 | 0.1->3.541 | 0.13->3.5421 | 0.16->3.5436 | 0.19->3.5423 | 0.22->3.5418 | 0.25->3.5411 | 0.28->3.542 | 0.31->3.5418 | 0.34->3.5422 | 0.37->3.5418 | 0.4->3.5413 | 0.43->3.5419 | 0.46->3.5414 | 0.49->3.5415 | 0.52->3.5416 | 0.55->3.5416 | 0.58->3.5415 | 0.61->3.5417 | 0.64->3.542 | 0.67->3.542 | 0.7->3.5419 | 0.73->3.5412 | 0.76->3.5418 | 0.79->3.5416
8 , 9 , dragonflyfull , absolute_improved , 4 , optimum , 16 , 2.0 , 3 , 8192 , 1290 , uniform , -1 , -1 , -1 , -1 , -1 , vlb , -1 , one_vs_two , 1 , 1 , 0.49 , 0.01->20.307 | 0.04->20.458 | 0.07->20.627 | 0.1->20.836 | 0.13->21.062 | 0.16->21.348 | 0.19->21.675 | 0.22->22.05 | 0.25->22.517 | 0.28->23.082 | 0.31->23.793 | 0.34->24.721 | 0.37->25.979 | 0.4->27.766 | 0.43->30.537 | 0.46->35.383 | 0.49->48.187 , 0.01->20.308 | 0.04->20.459 | 0.07->20.627 | 0.1->20.836 | 0.13->21.064 | 0.16->21.348 | 0.19->21.676 | 0.22->22.051 | 0.25->22.517 | 0.28->23.083 | 0.31->23.794 | 0.34->24.722 | 0.37->25.98 | 0.4->27.767 | 0.43->30.537 | 0.46->35.382 | 0.49->48.286 , 0.01->6.087 | 0.04->6.0845 | 0.07->6.0819 | 0.1->6.0835 | 0.13->6.0814 | 0.16->6.0843 | 0.19->6.0857 | 0.22->6.084 | 0.25->6.0853 | 0.28->6.0842 | 0.31->6.0832 | 0.34->6.083 | 0.37->6.0837 | 0.4->6.0845 | 0.43->6.0842 | 0.46->6.0832 | 0.49->6.0829
8 , 9 , dragonflyfull , absolute_improved , 4 , optimum , 16 , 2.0 , 3 , 8192 , 1290 , uniform , -1 , -1 , -1 , -1 , -1 , UGAL_L , -1 , one_vs_two , 1 , 1 , 0.79 , 0.01->13.016 | 0.04->13.96 | 0.07->14.446 | 0.1->14.674 | 0.13->14.75 | 0.16->14.797 | 0.19->14.805 | 0.22->14.842 | 0.25->14.879 | 0.28->14.936 | 0.31->14.999 | 0.34->15.085 | 0.37->15.191 | 0.4->15.323 | 0.43->15.467 | 0.46->15.638 | 0.49->15.857 | 0.52->16.105 | 0.55->16.393 | 0.58->16.753 | 0.61->17.189 | 0.64->17.734 | 0.67->18.439 | 0.7->19.378 | 0.73->20.66 | 0.76->22.604 | 0.79->26.186 , 0.01->13.017 | 0.04->13.961 | 0.07->14.447 | 0.1->14.675 | 0.13->14.751 | 0.16->14.799 | 0.19->14.806 | 0.22->14.843 | 0.25->14.879 | 0.28->14.937 | 0.31->14.999 | 0.34->15.086 | 0.37->15.192 | 0.4->15.323 | 0.43->15.467 | 0.46->15.639 | 0.49->15.857 | 0.52->16.105 | 0.55->16.393 | 0.58->16.754 | 0.61->17.189 | 0.64->17.735 | 0.67->18.439 | 0.7->19.378 | 0.73->20.661 | 0.76->22.605 | 0.79->26.187 , 0.01->3.6666 | 0.04->3.9598 | 0.07->4.0961 | 0.1->4.1433 | 0.13->4.1393 | 0.16->4.1236 | 0.19->4.0944 | 0.22->4.071 | 0.25->4.0458 | 0.28->4.024 | 0.31->3.9999 | 0.34->3.9799 | 0.37->3.9613 | 0.4->3.9438 | 0.43->3.9251 | 0.46->3.9085 | 0.49->3.8935 | 0.52->3.8772 | 0.55->3.862 | 0.58->3.8482 | 0.61->3.8344 | 0.64->3.8217 | 0.67->3.8097 | 0.7->3.799 | 0.73->3.7889 | 0.76->3.7803 | 0.79->3.7696
8 , 9 , dragonflyfull , absolute_improved , 4 , optimum , 16 , 2.0 , 3 , 8192 , 1290 , uniform , -1 , -1 , -1 , -1 , -1 , UGAL_G , -1 , one_vs_two , 1 , 1 , 0.79 , 0.01->13.426 | 0.04->14.002 | 0.07->14.01 | 0.1->13.943 | 0.13->13.895 | 0.16->13.866 | 0.19->13.845 | 0.22->13.851 | 0.25->13.87 | 0.28->13.91 | 0.31->13.964 | 0.34->14.036 | 0.37->14.12 | 0.4->14.237 | 0.43->14.372 | 0.46->14.526 | 0.49->14.722 | 0.52->14.951 | 0.55->15.227 | 0.58->15.566 | 0.61->15.964 | 0.64->16.487 | 0.67->17.15 | 0.7->18.013 | 0.73->19.214 | 0.76->21.04 | 0.79->24.156 , 0.01->13.427 | 0.04->14.002 | 0.07->14.011 | 0.1->13.944 | 0.13->13.896 | 0.16->13.866 | 0.19->13.845 | 0.22->13.851 | 0.25->13.871 | 0.28->13.91 | 0.31->13.964 | 0.34->14.036 | 0.37->14.121 | 0.4->14.237 | 0.43->14.372 | 0.46->14.526 | 0.49->14.722 | 0.52->14.951 | 0.55->15.227 | 0.58->15.566 | 0.61->15.965 | 0.64->16.488 | 0.67->17.151 | 0.7->18.014 | 0.73->19.214 | 0.76->21.041 | 0.79->24.159 , 0.01->3.8028 | 0.04->3.974 | 0.07->3.9544 | 0.1->3.9095 | 0.13->3.8701 | 0.16->3.8357 | 0.19->3.8032 | 0.22->3.7757 | 0.25->3.7513 | 0.28->3.7314 | 0.31->3.7121 | 0.34->3.6953 | 0.37->3.6797 | 0.4->3.6673 | 0.43->3.656 | 0.46->3.6448 | 0.49->3.6355 | 0.52->3.6272 | 0.55->3.6197 | 0.58->3.6136 | 0.61->3.6077 | 0.64->3.6037 | 0.67->3.5993 | 0.7->3.5959 | 0.73->3.5946 | 0.76->3.5943 | 0.79->3.5941
8 , 9 , dragonflyfull , absolute_improved , 5 , optimum , 16 , 2.0 , 3 , 8192 , 1290 , uniform , -1 , -1 , -1 , -1 , -1 , PAR , -1 , one_vs_two , 1 , 1 , 0.85 , 0.01->13.443 | 0.04->15.286 | 0.07->16.061 | 0.1->16.297 | 0.13->16.334 | 0.16->16.309 | 0.19->16.293 | 0.22->16.275 | 0.25->16.285 | 0.28->16.309 | 0.31->16.352 | 0.34->16.407 | 0.37->16.492 | 0.4->16.596 | 0.43->16.72 | 0.46->16.88 | 0.49->17.06 | 0.52->17.284 | 0.55->17.531 | 0.58->17.84 | 0.61->18.217 | 0.64->18.646 | 0.67->19.205 | 0.7->19.91 | 0.73->20.775 | 0.76->21.925 | 0.79->23.458 | 0.82->25.61 | 0.85->28.907 , 0.01->13.444 | 0.04->15.287 | 0.07->16.062 | 0.1->16.299 | 0.13->16.335 | 0.16->16.311 | 0.19->16.295 | 0.22->16.276 | 0.25->16.287 | 0.28->16.311 | 0.31->16.353 | 0.34->16.408 | 0.37->16.493 | 0.4->16.597 | 0.43->16.721 | 0.46->16.881 | 0.49->17.062 | 0.52->17.284 | 0.55->17.533 | 0.58->17.841 | 0.61->18.219 | 0.64->18.647 | 0.67->19.207 | 0.7->19.912 | 0.73->20.776 | 0.76->21.927 | 0.79->23.459 | 0.82->25.611 | 0.85->28.909 , 0.01->3.8085 | 0.04->4.3945 | 0.07->4.6158 | 0.1->4.6567 | 0.13->4.6305 | 0.16->4.5827 | 0.19->4.5357 | 0.22->4.4866 | 0.25->4.4433 | 0.28->4.4014 | 0.31->4.3619 | 0.34->4.3232 | 0.37->4.2881 | 0.4->4.2549 | 0.43->4.2213 | 0.46->4.1914 | 0.49->4.1619 | 0.52->4.133 | 0.55->4.1043 | 0.58->4.0765 | 0.61->4.0513 | 0.64->4.0253 | 0.67->4.0017 | 0.7->3.98 | 0.73->3.957 | 0.76->3.9378 | 0.79->3.9169 | 0.82->3.8971 | 0.85->3.875

8 , 9 , dragonflyfull , absolute_improved , 2 , optimum , 64 , 2.0 , 3 , 8192 , 1290 , uniform , -1 , -1 , -1 , -1 , -1 , min , -1 , one_vs_two , 10 , 10 , 0.82 , 0.01->35.502 | 0.04->35.549 | 0.07->35.611 | 0.1->35.678 | 0.13->35.735 | 0.16->35.788 | 0.19->35.888 | 0.22->35.958 | 0.25->36.045 | 0.28->36.143 | 0.31->36.249 | 0.34->36.381 | 0.37->36.516 | 0.4->36.677 | 0.43->36.841 | 0.46->37.051 | 0.49->37.3 | 0.52->37.568 | 0.55->37.895 | 0.58->38.291 | 0.61->38.772 | 0.64->39.374 | 0.67->40.183 | 0.7->41.227 | 0.73->42.725 | 0.76->45.086 | 0.79->49.158 | 0.82->60.83 , 0.01->35.505 | 0.04->35.553 | 0.07->35.615 | 0.1->35.681 | 0.13->35.739 | 0.16->35.792 | 0.19->35.891 | 0.22->35.961 | 0.25->36.049 | 0.28->36.146 | 0.31->36.252 | 0.34->36.384 | 0.37->36.519 | 0.4->36.68 | 0.43->36.845 | 0.46->37.056 | 0.49->37.303 | 0.52->37.571 | 0.55->37.899 | 0.58->38.294 | 0.61->38.774 | 0.64->39.378 | 0.67->40.186 | 0.7->41.232 | 0.73->42.729 | 0.76->45.088 | 0.79->49.163 | 0.82->60.809 , 0.01->3.5406 | 0.04->3.5405 | 0.07->3.5415 | 0.1->3.5424 | 0.13->3.5418 | 0.16->3.5407 | 0.19->3.5429 | 0.22->3.5419 | 0.25->3.5417 | 0.28->3.5415 | 0.31->3.5414 | 0.34->3.5421 | 0.37->3.5419 | 0.4->3.542 | 0.43->3.541 | 0.46->3.5416 | 0.49->3.5424 | 0.52->3.5418 | 0.55->3.5417 | 0.58->3.5416 | 0.61->3.5419 | 0.64->3.5417 | 0.67->3.5419 | 0.7->3.5417 | 0.73->3.5415 | 0.76->3.542 | 0.79->3.5414 | 0.82->3.5413
8 , 9 , dragonflyfull , absolute_improved , 4 , optimum , 64 , 2.0 , 3 , 8192 , 1290 , uniform , -1 , -1 , -1 , -1 , -1 , vlb , -1 , one_vs_two , 10 , 10 , 0.52 , 0.01->66.058 | 0.04->66.248 | 0.07->66.389 | 0.1->66.591 | 0.13->66.82 | 0.16->67.108 | 0.19->67.415 | 0.22->67.826 | 0.25->68.261 | 0.28->68.829 | 0.31->69.537 | 0.34->70.452 | 0.37->71.704 | 0.4->73.517 | 0.43->76.271 | 0.46->81.103 | 0.49->92.464 | 0.52->167.94 , 0.01->66.075 | 0.04->66.255 | 0.07->66.397 | 0.1->66.601 | 0.13->66.83 | 0.16->67.118 | 0.19->67.424 | 0.22->67.835 | 0.25->68.271 | 0.28->68.838 | 0.31->69.547 | 0.34->70.462 | 0.37->71.712 | 0.4->73.524 | 0.43->76.276 | 0.46->81.105 | 0.49->92.465 | 0.52->167.99 , 0.01->6.0842 | 0.04->6.0868 | 0.07->6.0839 | 0.1->6.0837 | 0.13->6.0834 | 0.16->6.0846 | 0.19->6.0832 | 0.22->6.0856 | 0.25->6.0835 | 0.28->6.0834 | 0.31->6.0826 | 0.34->6.0825 | 0.37->6.0819 | 0.4->6.0834 | 0.43->6.0833 | 0.46->6.0814 | 0.49->6.0835 | 0.52->6.0834
8 , 9 , dragonflyfull , absolute_improved , 4 , optimum , 64 , 2.0 , 3 , 8192 , 1290 , uniform , -1 , -1 , -1 , -1 , -1 , UGAL_L , -1 , one_vs_two , 10 , 10 , 0.85 , 0.01->40.53 | 0.04->42.313 | 0.07->41.221 | 0.1->40.444 | 0.13->39.857 | 0.16->39.385 | 0.19->39.026 | 0.22->38.741 | 0.25->38.501 | 0.28->38.354 | 0.31->38.236 | 0.34->38.129 | 0.37->38.115 | 0.4->38.113 | 0.43->38.122 | 0.46->38.199 | 0.49->38.322 | 0.52->38.478 | 0.55->38.704 | 0.58->38.999 | 0.61->39.361 | 0.64->39.829 | 0.67->40.504 | 0.7->41.378 | 0.73->42.614 | 0.76->44.531 | 0.79->47.712 | 0.82->54.269 | 0.85->83.198 , 0.01->40.534 | 0.04->42.324 | 0.07->41.231 | 0.1->40.452 | 0.13->39.867 | 0.16->39.393 | 0.19->39.032 | 0.22->38.748 | 0.25->38.508 | 0.28->38.36 | 0.31->38.243 | 0.34->38.134 | 0.37->38.119 | 0.4->38.117 | 0.43->38.126 | 0.46->38.203 | 0.49->38.327 | 0.52->38.483 | 0.55->38.708 | 0.58->39.003 | 0.61->39.365 | 0.64->39.833 | 0.67->40.508 | 0.7->41.382 | 0.73->42.618 | 0.76->44.535 | 0.79->47.716 | 0.82->54.279 | 0.85->83.232 , 0.01->3.9593 | 0.04->4.1022 | 0.07->4.006 | 0.1->3.9357 | 0.13->3.8811 | 0.16->3.8356 | 0.19->3.7992 | 0.22->3.7686 | 0.25->3.741 | 0.28->3.7205 | 0.31->3.7015 | 0.34->3.6826 | 0.37->3.6698 | 0.4->3.6568 | 0.43->3.6437 | 0.46->3.634 | 0.49->3.6254 | 0.52->3.6175 | 0.55->3.6103 | 0.58->3.6044 | 0.61->3.5984 | 0.64->3.5925 | 0.67->3.5892 | 0.7->3.5852 | 0.73->3.5828 | 0.76->3.5813 | 0.79->3.5827 | 0.82->3.5901 | 0.85->3.6129
8 , 9 , dragonflyfull , absolute_improved , 4 , optimum , 64 , 2.0 , 3 , 8192 , 1290 , uniform , -1 , -1 , -1 , -1 , -1 , UGAL_G , -1 , one_vs_two , 10 , 10 , 0.85 , 0.01->40.648 | 0.04->39.026 | 0.07->37.966 | 0.1->37.345 | 0.13->36.96 | 0.16->36.75 | 0.19->36.618 | 0.22->36.518 | 0.25->36.499 | 0.28->36.514 | 0.31->36.567 | 0.34->36.632 | 0.37->36.718 | 0.4->36.824 | 0.43->36.984 | 0.46->37.15 | 0.49->37.353 | 0.52->37.599 | 0.55->37.889 | 0.58->38.234 | 0.61->38.655 | 0.64->39.21 | 0.67->39.893 | 0.7->40.868 | 0.73->42.142 | 0.76->44.1 | 0.79->47.421 | 0.82->54.329 | 0.85->86.093 , 0.01->40.659 | 0.04->39.033 | 0.07->37.97 | 0.1->37.351 | 0.13->36.966 | 0.16->36.755 | 0.19->36.622 | 0.22->36.522 | 0.25->36.503 | 0.28->36.518 | 0.31->36.57 | 0.34->36.635 | 0.37->36.721 | 0.4->36.828 | 0.43->36.987 | 0.46->37.153 | 0.49->37.357 | 0.52->37.602 | 0.55->37.892 | 0.58->38.237 | 0.61->38.658 | 0.64->39.214 | 0.67->39.896 | 0.7->40.872 | 0.73->42.146 | 0.76->44.102 | 0.79->47.424 | 0.82->54.331 | 0.85->86.128 , 0.01->3.9689 | 0.04->3.8292 | 0.07->3.7364 | 0.1->3.68 | 0.13->3.6429 | 0.16->3.6199 | 0.19->3.603 | 0.22->3.5881 | 0.25->3.5794 | 0.28->3.5726 | 0.31->3.5681 | 0.34->3.5638 | 0.37->3.5601 | 0.4->3.5568 | 0.43->3.5557 | 0.46->3.5536 | 0.49->3.5523 | 0.52->3.5512 | 0.55->3.5501 | 0.58->3.5487 | 0.61->3.5475 | 0.64->3.5474 | 0.67->3.5467 | 0.7->3.5468 | 0.73->3.5468 | 0.76->3.5471 | 0.79->3.5469 | 0.82->3.5502 | 0.85->3.5604
8 , 9 , dragonflyfull , absolute_improved , 5 , optimum , 64 , 2.0 , 3 , 8192 , 1290 , uniform , -1 , -1 , -1 , -1 , -1 , PAR , -1 , one_vs_two , 10 , 10 , 0.94 , 0.01->45.898 | 0.04->47.936 | 0.07->45.916 | 0.1->44.461 | 0.13->43.387 | 0.16->42.456 | 0.19->41.767 | 0.22->41.171 | 0.25->40.656 | 0.28->40.285 | 0.31->39.953 | 0.34->39.717 | 0.37->39.502 | 0.4->39.361 | 0.43->39.254 | 0.46->39.207 | 0.49->39.183 | 0.52->39.235 | 0.55->39.328 | 0.58->39.467 | 0.61->39.669 | 0.64->39.956 | 0.67->40.332 | 0.7->40.802 | 0.73->41.46 | 0.76->42.323 | 0.79->43.5 | 0.82->45.103 | 0.85->47.484 | 0.88->51.308 | 0.91->58.51 | 0.94->80.633 , 0.01->45.927 | 0.04->47.952 | 0.07->45.934 | 0.1->44.475 | 0.13->43.399 | 0.16->42.47 | 0.19->41.78 | 0.22->41.183 | 0.25->40.665 | 0.28->40.295 | 0.31->39.962 | 0.34->39.726 | 0.37->39.511 | 0.4->39.368 | 0.43->39.26 | 0.46->39.214 | 0.49->39.19 | 0.52->39.241 | 0.55->39.333 | 0.58->39.473 | 0.61->39.674 | 0.64->39.962 | 0.67->40.337 | 0.7->40.806 | 0.73->41.464 | 0.76->42.328 | 0.79->43.505 | 0.82->45.108 | 0.85->47.486 | 0.88->51.309 | 0.91->58.516 | 0.94->80.652 , 0.01->4.406 | 0.04->4.5687 | 0.07->4.394 | 0.1->4.2665 | 0.13->4.1708 | 0.16->4.0866 | 0.19->4.0225 | 0.22->3.9652 | 0.25->3.9148 | 0.28->3.8754 | 0.31->3.839 | 0.34->3.8093 | 0.37->3.7807 | 0.4->3.7569 | 0.43->3.7349 | 0.46->3.7161 | 0.49->3.6977 | 0.52->3.6829 | 0.55->3.6696 | 0.58->3.6565 | 0.61->3.6448 | 0.64->3.6347 | 0.67->3.6261 | 0.7->3.6172 | 0.73->3.6113 | 0.76->3.6056 | 0.79->3.6016 | 0.82->3.5983 | 0.85->3.5978 | 0.88->3.6003 | 0.91->3.6121 | 0.94->3.6581

