vc_buf_size = 64;
wait_for_tail_credit = 0;
vc_allocator = separable_input_first;
sw_allocator = separable_input_first;
alloc_iters = 1;
credit_delay = 2;
routing_delay = 0;
vc_alloc_delay = 1;
sw_alloc_delay = 1;
st_final_delay = 1;
input_speedup = 1;
output_speedup = 1;
sim_count = 1;
num_vcs = 7;
priority = none;
packet_size = 1;
injection_rate_uses_flits = 1;
internal_speedup = 4.0;
warmup_periods = 3;
sample_period = 10000;
df_a = 8;
df_arrangement = absolute_improved;
df_g = 0;
global_latency = 10;
local_latency = 10;
multitiered_routing_threshold_0 = 10;
multitiered_routing_threshold_1 = 40;
seed = 11;
topology = dragonflyfull;
traffic = randperm;
df_g = 31;
perm_seed = 64;
routing_function = PAR_multi_tiered;

defaultText, count, i-rate in config file, i-rate injected, i-rate accepted, packet latency, flit latency, deadlock?
simulation,         1,      0.01, 0.0099996,  0.010001,    40.233,    40.235,         0,  739560,  240506,  |4-> 725774 , |5-> 0 , |6-> 0 ,,  |4-> 235743 , |5-> 0 , |6-> 0 ,,  |1-> 0 , |2-> 15343 , |3-> 65665 , |4-> 658552 , |5-> 0 , |6-> 0 ,,  |1-> 0 , |2-> 5286 , |3-> 21458 , |4-> 213762 , |5-> 0 , |6-> 0 ,
simulation,         2,      0.99,   0.54484,   0.59885,    1832.2,    864.83,         1,  0,  0,  ,  ,  ,  
simulation,         3,       0.5,   0.50013,   0.50013,    55.461,    55.476,         0,  36050415,  12523015,  |4-> 421548 , |5-> 34188554 , |6-> 722405 ,,  |4-> 7392 , |5-> 10574130 , |6-> 1725810 ,,  |1-> 0 , |2-> 736335 , |3-> 566632 , |4-> 6420831 , |5-> 27916896 , |6-> 409721 ,,  |1-> 0 , |2-> 220484 , |3-> 164148 , |4-> 1934383 , |5-> 9232586 , |6-> 971414 ,
simulation,         4,      0.74,   0.54492,   0.58996,    1017.0,    663.05,         1,  0,  0,  ,  ,  ,  
simulation,         5,      0.62,   0.54543,   0.57634,    492.43,    408.48,         1,  0,  0,  ,  ,  ,  
simulation,         6,      0.56,   0.55047,   0.55059,    497.37,    251.09,         1,  0,  0,  ,  ,  ,  
simulation,         7,      0.53,   0.53014,   0.53014,    66.493,     66.52,         0,  36267539,  14480500,  |4-> 177481 , |5-> 31977165 , |6-> 3366372 ,,  |4-> 6350 , |5-> 8562373 , |6-> 5667176 ,,  |1-> 0 , |2-> 763518 , |3-> 521774 , |4-> 5984200 , |5-> 27054049 , |6-> 1943998 ,,  |1-> 0 , |2-> 249849 , |3-> 167663 , |4-> 1915677 , |5-> 8966400 , |6-> 3180911 ,
simulation,         8,      0.54,   0.54016,   0.54014,    75.939,    75.963,         0,  35387055,  15689687,  |4-> 126528 , |5-> 28501740 , |6-> 6013922 ,,  |4-> 6279 , |5-> 6636399 , |6-> 8781114 ,,  |1-> 0 , |2-> 760395 , |3-> 480176 , |4-> 5505798 , |5-> 25153143 , |6-> 3487543 ,,  |1-> 0 , |2-> 271071 , |3-> 164323 , |4-> 1846274 , |5-> 8498707 , |6-> 4909312 ,
simulation,         9,      0.55,   0.54981,   0.54972,    138.75,    118.75,         0,  36261776,  20969526,  |4-> 90956 , |5-> 20461646 , |6-> 14906916 ,,  |4-> 6807 , |5-> 3300408 , |6-> 17290992 ,,  |1-> 0 , |2-> 815433 , |3-> 402053 , |4-> 4687139 , |5-> 21711224 , |6-> 8645927 ,,  |1-> 0 , |2-> 376311 , |3-> 174569 , |4-> 1963605 , |5-> 8841594 , |6-> 9613447 ,
simulation,        12,      0.45,   0.45013,   0.45014,    49.202,     49.21,         0,  33477285,  10621847,  |4-> 1253044 , |5-> 31506971 , |6-> 66068 ,,  |4-> 17723 , |5-> 10132351 , |6-> 283864 ,,  |1-> 0 , |2-> 669634 , |3-> 593559 , |4-> 6662901 , |5-> 25512421 , |6-> 38770 ,,  |1-> 0 , |2-> 192184 , |3-> 147396 , |4-> 1753617 , |5-> 8369450 , |6-> 159200 ,
simulation,        13,       0.4,    0.4001,    0.4001,    46.689,    46.696,         0,  30055868,  9255419,  |4-> 2838203 , |5-> 26633047 , |6-> 5180 ,,  |4-> 63503 , |5-> 8973601 , |6-> 52555 ,,  |1-> 0 , |2-> 598890 , |3-> 663081 , |4-> 7242522 , |5-> 21548249 , |6-> 3126 ,,  |1-> 0 , |2-> 169681 , |3-> 133157 , |4-> 1580695 , |5-> 7340811 , |6-> 31075 ,
