vc_buf_size = 64;
wait_for_tail_credit = 0;
vc_allocator = separable_input_first;
sw_allocator = separable_input_first;
alloc_iters = 1;
credit_delay = 2;
routing_delay = 0;
vc_alloc_delay = 1;
sw_alloc_delay = 1;
st_final_delay = 1;
input_speedup = 1;
output_speedup = 1;
sim_count = 1;
num_vcs = 7;
priority = none;
packet_size = 1;
injection_rate_uses_flits = 1;
internal_speedup = 4.0;
warmup_periods = 3;
sample_period = 1000;
df_a = 8;
df_arrangement = absolute_improved;
df_g = 0;
multitiered_routing_threshold_0 = 10;
multitiered_routing_threshold_1 = 40;
seed = 11;
topology = dragonflyfull;
traffic = randperm;
df_g = 13;
perm_seed = 66;
routing_function = UGAL_L;

defaultText, count, i-rate in config file, i-rate injected, i-rate accepted, packet latency, flit latency, deadlock?
simulation,         1,      0.01, 0.0099711, 0.0099688,    9.5998,    9.5991,         0,  23243,  1624,  |4-> 0 , |5-> 0 , |6-> 0 ,,  |4-> 0 , |5-> 0 , |6-> 0 ,,  |1-> 0 , |2-> 1650 , |3-> 140 , |4-> 1575 , |5-> 7295 , |6-> 12583 ,,  |1-> 0 , |2-> 147 , |3-> 12 , |4-> 106 , |5-> 511 , |6-> 848 ,
simulation,         2,      0.99,   0.66946,   0.68836,    657.51,    594.96,         1,  0,  0,  ,  ,  ,  
simulation,         3,       0.5,   0.50039,   0.50048,    16.237,    16.303,         0,  969303,  283383,  |4-> 0 , |5-> 0 , |6-> 0 ,,  |4-> 0 , |5-> 0 , |6-> 0 ,,  |1-> 0 , |2-> 62822 , |3-> 5503 , |4-> 63439 , |5-> 303923 , |6-> 533616 ,,  |1-> 0 , |2-> 28694 , |3-> 1963 , |4-> 20183 , |5-> 90000 , |6-> 142543 ,
simulation,         4,      0.74,   0.66543,   0.67561,    443.55,    336.16,         1,  0,  0,  ,  ,  ,  
simulation,         5,      0.62,   0.62032,   0.62057,    34.995,     35.36,         0,  1205872,  451234,  |4-> 0 , |5-> 0 , |6-> 0 ,,  |4-> 0 , |5-> 0 , |6-> 0 ,,  |1-> 0 , |2-> 78080 , |3-> 6556 , |4-> 77030 , |5-> 376424 , |6-> 667782 ,,  |1-> 0 , |2-> 43111 , |3-> 3354 , |4-> 33182 , |5-> 144893 , |6-> 226694 ,
simulation,         6,      0.68,   0.65885,   0.66442,    288.02,     174.9,         0,  3227783,  1742538,  |4-> 0 , |5-> 0 , |6-> 0 ,,  |4-> 0 , |5-> 0 , |6-> 0 ,,  |1-> 0 , |2-> 205263 , |3-> 16438 , |4-> 196413 , |5-> 993301 , |6-> 1816368 ,,  |1-> 0 , |2-> 167446 , |3-> 13473 , |4-> 132005 , |5-> 564512 , |6-> 865102 ,
simulation,         7,      0.71,   0.66349,   0.67134,    327.76,    251.44,         1,  0,  0,  ,  ,  ,  
simulation,         8,      0.69,    0.6605,   0.66741,    400.01,    215.15,         0,  3572196,  1974211,  |4-> 0 , |5-> 0 , |6-> 0 ,,  |4-> 0 , |5-> 0 , |6-> 0 ,,  |1-> 0 , |2-> 227429 , |3-> 18039 , |4-> 216773 , |5-> 1098870 , |6-> 2011085 ,,  |1-> 0 , |2-> 192238 , |3-> 15475 , |4-> 151121 , |5-> 639250 , |6-> 976127 ,
simulation,         9,       0.7,   0.66291,    0.6707,    274.74,    218.64,         1,  0,  0,  ,  ,  ,  
simulation,        11,      0.65,   0.64712,   0.64936,    75.638,    73.882,         0,  2067089,  943166,  |4-> 0 , |5-> 0 , |6-> 0 ,,  |4-> 0 , |5-> 0 , |6-> 0 ,,  |1-> 0 , |2-> 132136 , |3-> 11190 , |4-> 130085 , |5-> 640779 , |6-> 1152899 ,,  |1-> 0 , |2-> 88308 , |3-> 7207 , |4-> 70242 , |5-> 304597 , |6-> 472812 ,
simulation,        12,       0.6,   0.60049,   0.60051,    27.277,    27.545,         0,  1147344,  397012,  |4-> 0 , |5-> 0 , |6-> 0 ,,  |4-> 0 , |5-> 0 , |6-> 0 ,,  |1-> 0 , |2-> 74113 , |3-> 6473 , |4-> 73771 , |5-> 358429 , |6-> 634558 ,,  |1-> 0 , |2-> 38855 , |3-> 2947 , |4-> 28678 , |5-> 126729 , |6-> 199803 ,
simulation,        13,      0.55,   0.55031,    0.5504,    19.567,    19.717,         0,  1083477,  332712,  |4-> 0 , |5-> 0 , |6-> 0 ,,  |4-> 0 , |5-> 0 , |6-> 0 ,,  |1-> 0 , |2-> 69731 , |3-> 6154 , |4-> 70346 , |5-> 339859 , |6-> 597387 ,,  |1-> 0 , |2-> 33735 , |3-> 2401 , |4-> 24036 , |5-> 105254 , |6-> 167286 ,
