vc_buf_size = 64;
wait_for_tail_credit = 0;
vc_allocator = separable_input_first;
sw_allocator = separable_input_first;
alloc_iters = 1;
credit_delay = 2;
routing_delay = 0;
vc_alloc_delay = 1;
sw_alloc_delay = 1;
st_final_delay = 1;
input_speedup = 1;
output_speedup = 1;
sim_count = 1;
num_vcs = 7;
priority = none;
packet_size = 1;
injection_rate_uses_flits = 1;
internal_speedup = 4.0;
warmup_periods = 3;
sample_period = 10000;
df_a = 8;
df_arrangement = absolute_improved;
df_g = 0;
global_latency = 10;
local_latency = 10;
multitiered_routing_threshold_0 = 10;
multitiered_routing_threshold_1 = 40;
seed = 11;
topology = dragonflyfull;
traffic = group_shift;
df_g = 19;
routing_function = PAR_multi_tiered;
shift_by_group = 6;

defaultText, count, i-rate in config file, i-rate injected, i-rate accepted, packet latency, flit latency, deadlock?
simulation,         1,      0.01,  0.010055,  0.010055,    45.852,    45.856,         0,  343357,  242857,  |4-> 343357 , |5-> 0 , |6-> 0 ,,  |4-> 242857 , |5-> 0 , |6-> 0 ,,  |1-> 0 , |2-> 693 , |3-> 44702 , |4-> 297962 , |5-> 0 , |6-> 0 ,,  |1-> 0 , |2-> 455 , |3-> 28065 , |4-> 214337 , |5-> 0 , |6-> 0 ,
simulation,         2,      0.99,   0.34506,   0.39448,    3091.6,    1239.6,         1,  0,  0,  ,  ,  ,  
simulation,         3,       0.5,   0.35633,   0.40145,    1202.9,     884.8,         1,  0,  0,  ,  ,  ,  
simulation,         4,      0.25,   0.25012,   0.25012,    59.657,    59.662,         0,  7354994,  7108990,  |4-> 625412 , |5-> 6700256 , |6-> 29326 ,,  |4-> 45829 , |5-> 6448703 , |6-> 614458 ,,  |1-> 0 , |2-> 3421 , |3-> 309401 , |4-> 2217941 , |5-> 4811802 , |6-> 12429 ,,  |1-> 0 , |2-> 4194 , |3-> 202056 , |4-> 1712886 , |5-> 4961850 , |6-> 228004 ,
simulation,         5,      0.37,   0.36243,   0.36174,    565.69,    321.16,         1,  0,  0,  ,  ,  ,  
simulation,         6,      0.31,    0.3102,   0.31019,    67.538,    67.544,         0,  8726795,  9227296,  |4-> 53915 , |5-> 7651042 , |6-> 1021838 ,,  |4-> 4709 , |5-> 4583444 , |6-> 4639143 ,,  |1-> 0 , |2-> 3097 , |3-> 281511 , |4-> 2096977 , |5-> 5889099 , |6-> 456111 ,,  |1-> 0 , |2-> 4762 , |3-> 227796 , |4-> 1887534 , |5-> 5443069 , |6-> 1664135 ,
simulation,         7,      0.34,   0.34014,   0.34016,    92.337,    92.479,         0,  9282448,  10394177,  |4-> 13830 , |5-> 7419408 , |6-> 1849210 ,,  |4-> 4025 , |5-> 3887285 , |6-> 6502867 ,,  |1-> 0 , |2-> 3014 , |3-> 285826 , |4-> 2123475 , |5-> 6035152 , |6-> 834981 ,,  |1-> 0 , |2-> 5135 , |3-> 246928 , |4-> 2026518 , |5-> 5812472 , |6-> 2303124 ,
simulation,         8,      0.35,   0.35018,   0.35015,    106.92,    107.11,         0,  9383422,  10774408,  |4-> 9918 , |5-> 7213428 , |6-> 2160076 ,,  |4-> 4092 , |5-> 3825793 , |6-> 6944523 ,,  |1-> 0 , |2-> 2854 , |3-> 282647 , |4-> 2101875 , |5-> 6018854 , |6-> 977192 ,,  |1-> 0 , |2-> 5223 , |3-> 255528 , |4-> 2094268 , |5-> 5971854 , |6-> 2447535 ,
simulation,         9,      0.36,    0.3599,   0.35988,    150.29,    136.77,         0,  11905086,  14544674,  |4-> 7524 , |5-> 8183037 , |6-> 3714525 ,,  |4-> 4210 , |5-> 4817138 , |6-> 9723326 ,,  |1-> 0 , |2-> 3617 , |3-> 340541 , |4-> 2532429 , |5-> 7364085 , |6-> 1664414 ,,  |1-> 0 , |2-> 6427 , |3-> 352658 , |4-> 2843523 , |5-> 7960496 , |6-> 3381570 ,
simulation,        11,       0.3,   0.30023,   0.30023,    65.647,     65.65,         0,  8529251,  8863741,  |4-> 88622 , |5-> 7770597 , |6-> 670032 ,,  |4-> 5721 , |5-> 5252578 , |6-> 3605442 ,,  |1-> 0 , |2-> 3163 , |3-> 281982 , |4-> 2108512 , |5-> 5838183 , |6-> 297411 ,,  |1-> 0 , |2-> 4798 , |3-> 224445 , |4-> 1880122 , |5-> 5450323 , |6-> 1304053 ,
simulation,        13,       0.2,   0.20009,   0.20009,    57.096,    57.101,         0,  6009283,  5551102,  |4-> 1803887 , |5-> 4205191 , |6-> 205 ,,  |4-> 279324 , |5-> 5177048 , |6-> 94730 ,,  |1-> 0 , |2-> 4543 , |3-> 390542 , |4-> 2580139 , |5-> 3033966 , |6-> 93 ,,  |1-> 0 , |2-> 3454 , |3-> 181679 , |4-> 1526965 , |5-> 3803786 , |6-> 35218 ,
