vc_buf_size = 64;
wait_for_tail_credit = 0;
vc_allocator = separable_input_first;
sw_allocator = separable_input_first;
alloc_iters = 1;
credit_delay = 2;
routing_delay = 0;
vc_alloc_delay = 1;
sw_alloc_delay = 1;
st_final_delay = 1;
input_speedup = 1;
output_speedup = 1;
sim_count = 1;
num_vcs = 7;
priority = none;
packet_size = 1;
injection_rate_uses_flits = 1;
internal_speedup = 4.0;
warmup_periods = 3;
sample_period = 10000;
df_a = 8;
df_arrangement = absolute_improved;
df_g = 0;
global_latency = 10;
local_latency = 10;
multitiered_routing_threshold_0 = 10;
multitiered_routing_threshold_1 = 40;
seed = 11;
topology = dragonflyfull;
traffic = group_shift;
df_g = 21;
routing_function = UGAL_L;
shift_by_group = 2;

defaultText, count, i-rate in config file, i-rate injected, i-rate accepted, packet latency, flit latency, deadlock?
simulation,         1,      0.01,  0.010063,  0.010061,    46.472,    46.482,         0,  248834,  156556,  |4-> 0 , |5-> 0 , |6-> 0 ,,  |4-> 0 , |5-> 0 , |6-> 0 ,,  |1-> 0 , |2-> 324 , |3-> 2235 , |4-> 20061 , |5-> 72663 , |6-> 153551 ,,  |1-> 0 , |2-> 235 , |3-> 1618 , |4-> 14534 , |5-> 47219 , |6-> 92950 ,
simulation,         2,      0.99,   0.25711,   0.30432,    3160.8,    1507.9,         1,  0,  0,  ,  ,  ,  
simulation,         3,       0.5,   0.30704,   0.34923,    1600.0,    1059.1,         1,  0,  0,  ,  ,  ,  
simulation,         4,      0.25,   0.24743,   0.24745,    478.06,    244.82,         1,  0,  0,  ,  ,  ,  
simulation,         5,      0.13,   0.13017,   0.13017,     80.22,    80.234,         0,  2229320,  3032651,  |4-> 0 , |5-> 0 , |6-> 0 ,,  |4-> 0 , |5-> 0 , |6-> 0 ,,  |1-> 0 , |2-> 2865 , |3-> 16694 , |4-> 168205 , |5-> 630151 , |6-> 1411405 ,,  |1-> 0 , |2-> 4356 , |3-> 32333 , |4-> 281029 , |5-> 926823 , |6-> 1788110 ,
simulation,         6,      0.19,   0.19009,   0.19009,    94.197,    94.261,         0,  2234186,  5461918,  |4-> 0 , |5-> 0 , |6-> 0 ,,  |4-> 0 , |5-> 0 , |6-> 0 ,,  |1-> 0 , |2-> 2743 , |3-> 15308 , |4-> 164871 , |5-> 618675 , |6-> 1432589 ,,  |1-> 0 , |2-> 7643 , |3-> 56334 , |4-> 494640 , |5-> 1655016 , |6-> 3248285 ,
simulation,         7,      0.22,   0.22009,    0.2201,    101.78,    102.03,         0,  2280157,  6807456,  |4-> 0 , |5-> 0 , |6-> 0 ,,  |4-> 0 , |5-> 0 , |6-> 0 ,,  |1-> 0 , |2-> 2793 , |3-> 14902 , |4-> 162537 , |5-> 625152 , |6-> 1474773 ,,  |1-> 0 , |2-> 9486 , |3-> 69874 , |4-> 615253 , |5-> 2062331 , |6-> 4050512 ,
simulation,         8,      0.23,    0.2293,   0.22948,    255.93,    191.99,         0,  4678791,  14777468,  |4-> 0 , |5-> 0 , |6-> 0 ,,  |4-> 0 , |5-> 0 , |6-> 0 ,,  |1-> 0 , |2-> 5838 , |3-> 29600 , |4-> 330403 , |5-> 1277889 , |6-> 3035061 ,,  |1-> 0 , |2-> 20552 , |3-> 152335 , |4-> 1332463 , |5-> 4475469 , |6-> 8796649 ,
simulation,         9,      0.24,   0.23691,   0.23699,    501.23,    244.76,         1,  0,  0,  ,  ,  ,  
simulation,        10,       0.2,   0.20009,   0.20009,    96.136,    96.221,         0,  2236219,  5870197,  |4-> 0 , |5-> 0 , |6-> 0 ,,  |4-> 0 , |5-> 0 , |6-> 0 ,,  |1-> 0 , |2-> 2854 , |3-> 15025 , |4-> 163028 , |5-> 616711 , |6-> 1438601 ,,  |1-> 0 , |2-> 8096 , |3-> 60278 , |4-> 529168 , |5-> 1779788 , |6-> 3492867 ,
simulation,        11,      0.15,   0.15015,   0.15015,    85.799,    85.826,         0,  2230460,  3841032,  |4-> 0 , |5-> 0 , |6-> 0 ,,  |4-> 0 , |5-> 0 , |6-> 0 ,,  |1-> 0 , |2-> 2847 , |3-> 16164 , |4-> 167646 , |5-> 626661 , |6-> 1417142 ,,  |1-> 0 , |2-> 5463 , |3-> 40392 , |4-> 351730 , |5-> 1169754 , |6-> 2273693 ,
simulation,        12,       0.1,   0.10018,   0.10018,    56.539,     56.55,         0,  2053504,  1992393,  |4-> 0 , |5-> 0 , |6-> 0 ,,  |4-> 0 , |5-> 0 , |6-> 0 ,,  |1-> 0 , |2-> 2480 , |3-> 16250 , |4-> 159180 , |5-> 585555 , |6-> 1290039 ,,  |1-> 0 , |2-> 2895 , |3-> 21415 , |4-> 186654 , |5-> 611812 , |6-> 1169617 ,
simulation,        13,      0.05,  0.050178,  0.050176,    49.169,    49.176,         0,  1091466,  932287,  |4-> 0 , |5-> 0 , |6-> 0 ,,  |4-> 0 , |5-> 0 , |6-> 0 ,,  |1-> 0 , |2-> 1297 , |3-> 8734 , |4-> 84832 , |5-> 314843 , |6-> 681760 ,,  |1-> 0 , |2-> 1481 , |3-> 10082 , |4-> 87674 , |5-> 283392 , |6-> 549658 ,
