routing_delay = 0;
alloc_iters = 1;
credit_delay = 2;
num_vcs = 7;
sim_count = 1;
output_speedup = 1;
vc_alloc_delay = 1;
input_speedup = 1;
sample_period = 10000;
packet_size = 1;
internal_speedup = 4.0;
sw_allocator = separable_input_first;
vc_buf_size = 64;
warmup_periods = 3;
injection_rate_uses_flits = 1;
st_final_delay = 1;
vc_allocator = separable_input_first;
sw_alloc_delay = 1;
priority = none;
wait_for_tail_credit = 0;
df_a = 8;
df_arrangement = absolute_improved;
df_g = 0;
global_latency = 10;
local_latency = 10;
multitiered_routing_threshold_0 = 10;
multitiered_routing_threshold_1 = 40;
topology = dragonflyfull;
traffic = uniform;
df_g = 27;
routing_function = UGAL_L;
seed = 6;

defaultText, count, i-rate in config file, i-rate injected, i-rate accepted, packet latency, flit latency, deadlock?
simulation,         1,      0.01, 0.0099992, 0.0099977,    38.565,    38.573,         0,  428308,  89015,  |4-> 0 , |5-> 0 , |6-> 0 ,,  |4-> 0 , |5-> 0 , |6-> 0 ,,  |1-> 0 , |2-> 13805 , |3-> 2626 , |4-> 29139 , |5-> 139606 , |6-> 243132 ,,  |1-> 0 , |2-> 3225 , |3-> 564 , |4-> 6242 , |5-> 29637 , |6-> 49347 ,
simulation,         2,      0.99,   0.80399,   0.84791,     902.2,    453.58,         1,  0,  0,  ,  ,  ,  
simulation,         3,       0.5,   0.50013,   0.50013,    36.551,    36.553,         0,  24803156,  1036421,  |4-> 0 , |5-> 0 , |6-> 0 ,,  |4-> 0 , |5-> 0 , |6-> 0 ,,  |1-> 0 , |2-> 813106 , |3-> 145572 , |4-> 1671254 , |5-> 8099533 , |6-> 14073691 ,,  |1-> 0 , |2-> 33000 , |3-> 9763 , |4-> 95798 , |5-> 377965 , |6-> 519895 ,
simulation,         4,      0.74,   0.74004,   0.74003,    40.758,     40.76,         0,  37182033,  1067389,  |4-> 0 , |5-> 0 , |6-> 0 ,,  |4-> 0 , |5-> 0 , |6-> 0 ,,  |1-> 0 , |2-> 1222199 , |3-> 218358 , |4-> 2500616 , |5-> 12143573 , |6-> 21097287 ,,  |1-> 0 , |2-> 29514 , |3-> 12439 , |4-> 114115 , |5-> 412387 , |6-> 498934 ,
simulation,         5,      0.86,    0.8121,   0.83027,    500.95,    324.77,         1,  0,  0,  ,  ,  ,  
simulation,         6,       0.8,   0.80008,   0.80006,    47.005,    47.008,         0,  39932160,  1440543,  |4-> 0 , |5-> 0 , |6-> 0 ,,  |4-> 0 , |5-> 0 , |6-> 0 ,,  |1-> 0 , |2-> 1321188 , |3-> 235356 , |4-> 2689071 , |5-> 13043453 , |6-> 22643092 ,,  |1-> 0 , |2-> 33172 , |3-> 14502 , |4-> 139055 , |5-> 536414 , |6-> 717400 ,
simulation,         7,      0.83,   0.81192,   0.81327,    582.47,    307.09,         1,  0,  0,  ,  ,  ,  
simulation,         8,      0.81,   0.81008,   0.81006,    50.482,    50.486,         0,  40191124,  1700862,  |4-> 0 , |5-> 0 , |6-> 0 ,,  |4-> 0 , |5-> 0 , |6-> 0 ,,  |1-> 0 , |2-> 1336811 , |3-> 237347 , |4-> 2712283 , |5-> 13123889 , |6-> 22780794 ,,  |1-> 0 , |2-> 35262 , |3-> 15290 , |4-> 152084 , |5-> 617889 , |6-> 880337 ,
simulation,         9,      0.82,   0.81396,   0.81502,    385.83,    205.93,         0,  70245440,  4987084,  |4-> 0 , |5-> 0 , |6-> 0 ,,  |4-> 0 , |5-> 0 , |6-> 0 ,,  |1-> 0 , |2-> 2347811 , |3-> 392804 , |4-> 4587966 , |5-> 22733002 , |6-> 40183857 ,,  |1-> 0 , |2-> 115892 , |3-> 59640 , |4-> 551687 , |5-> 1960847 , |6-> 2299018 ,
simulation,        11,      0.75,   0.75008,   0.75007,    41.326,    41.329,         0,  37668444,  1094506,  |4-> 0 , |5-> 0 , |6-> 0 ,,  |4-> 0 , |5-> 0 , |6-> 0 ,,  |1-> 0 , |2-> 1238218 , |3-> 221158 , |4-> 2532619 , |5-> 12300945 , |6-> 21375504 ,,  |1-> 0 , |2-> 29833 , |3-> 12487 , |4-> 116640 , |5-> 421836 , |6-> 513710 ,
simulation,        12,       0.7,   0.70005,   0.70004,    39.219,    39.221,         0,  35163986,  1014242,  |4-> 0 , |5-> 0 , |6-> 0 ,,  |4-> 0 , |5-> 0 , |6-> 0 ,,  |1-> 0 , |2-> 1156795 , |3-> 206225 , |4-> 2366276 , |5-> 11479698 , |6-> 19954992 ,,  |1-> 0 , |2-> 29290 , |3-> 11431 , |4-> 107909 , |5-> 390998 , |6-> 474614 ,
simulation,        13,      0.65,   0.64995,   0.64995,    38.064,    38.066,         0,  32590048,  997425,  |4-> 0 , |5-> 0 , |6-> 0 ,,  |4-> 0 , |5-> 0 , |6-> 0 ,,  |1-> 0 , |2-> 1071294 , |3-> 191087 , |4-> 2197012 , |5-> 10640204 , |6-> 18490451 ,,  |1-> 0 , |2-> 29819 , |3-> 11037 , |4-> 103192 , |5-> 378804 , |6-> 474573 ,
