vc_buf_size = 64;
wait_for_tail_credit = 0;
vc_allocator = separable_input_first;
sw_allocator = separable_input_first;
alloc_iters = 1;
credit_delay = 2;
routing_delay = 0;
vc_alloc_delay = 1;
sw_alloc_delay = 1;
st_final_delay = 1;
input_speedup = 1;
output_speedup = 1;
sim_count = 1;
num_vcs = 7;
priority = none;
packet_size = 1;
injection_rate_uses_flits = 1;
internal_speedup = 4.0;
warmup_periods = 3;
sample_period = 10000;
df_a = 8;
df_arrangement = absolute_improved;
df_g = 0;
global_latency = 10;
local_latency = 10;
multitiered_routing_threshold_0 = 10;
multitiered_routing_threshold_1 = 40;
seed = 11;
topology = dragonflyfull;
traffic = randperm;
df_g = 19;
perm_seed = 60;
routing_function = PAR_multi_tiered;

defaultText, count, i-rate in config file, i-rate injected, i-rate accepted, packet latency, flit latency, deadlock?
simulation,         1,      0.01,  0.010055,  0.010055,    39.064,    39.069,         0,  470307,  132133,  |4-> 459428 , |5-> 0 , |6-> 0 ,,  |4-> 128391 , |5-> 0 , |6-> 0 ,,  |1-> 0 , |2-> 12522 , |3-> 52686 , |4-> 405099 , |5-> 0 , |6-> 0 ,,  |1-> 0 , |2-> 4228 , |3-> 14656 , |4-> 113249 , |5-> 0 , |6-> 0 ,
simulation,         2,      0.99,   0.58262,   0.63303,    1695.7,    755.97,         1,  0,  0,  ,  ,  ,  
simulation,         3,       0.5,   0.50023,   0.50022,    45.387,    45.395,         0,  25135214,  5525621,  |4-> 1916211 , |5-> 22603191 , |6-> 49896 ,,  |4-> 15389 , |5-> 5204416 , |6-> 150480 ,,  |1-> 0 , |2-> 599667 , |3-> 874601 , |4-> 7451117 , |5-> 16189621 , |6-> 20208 ,,  |1-> 0 , |2-> 159643 , |3-> 149284 , |4-> 1355653 , |5-> 3806912 , |6-> 54129 ,
simulation,         4,      0.74,   0.59076,   0.63239,    789.63,    532.65,         1,  0,  0,  ,  ,  ,  
simulation,         5,      0.62,   0.58853,   0.58861,    830.37,     405.9,         1,  0,  0,  ,  ,  ,  
simulation,         6,      0.56,   0.56032,   0.56033,     51.03,    51.041,         0,  27509991,  6651175,  |4-> 775535 , |5-> 25632097 , |6-> 481838 ,,  |4-> 4949 , |5-> 5477479 , |6-> 980316 ,,  |1-> 0 , |2-> 654399 , |3-> 839929 , |4-> 7277394 , |5-> 18554470 , |6-> 183799 ,,  |1-> 0 , |2-> 193263 , |3-> 171504 , |4-> 1554476 , |5-> 4378329 , |6-> 353603 ,
simulation,         7,      0.59,   0.59034,   0.59031,    59.058,    59.075,         0,  27975207,  7662487,  |4-> 356071 , |5-> 25251353 , |6-> 1727891 ,,  |4-> 3656 , |5-> 4674137 , |6-> 2772365 ,,  |1-> 0 , |2-> 672986 , |3-> 800180 , |4-> 6992770 , |5-> 18846200 , |6-> 663071 ,,  |1-> 0 , |2-> 217712 , |3-> 184385 , |4-> 1652889 , |5-> 4619111 , |6-> 988390 ,
simulation,         8,       0.6,   0.60032,    0.6003,    64.443,    64.468,         0,  27871017,  8211097,  |4-> 241806 , |5-> 24408595 , |6-> 2576057 ,,  |4-> 3523 , |5-> 4185580 , |6-> 3798261 ,,  |1-> 0 , |2-> 676557 , |3-> 776596 , |4-> 6797314 , |5-> 18631659 , |6-> 988891 ,,  |1-> 0 , |2-> 229500 , |3-> 191044 , |4-> 1706531 , |5-> 4729138 , |6-> 1354884 ,
simulation,         9,      0.61,    0.6103,    0.6103,    77.003,    77.062,         0,  27189494,  9112912,  |4-> 137389 , |5-> 22093303 , |6-> 4320309 ,,  |4-> 3459 , |5-> 3233869 , |6-> 5630229 ,,  |1-> 0 , |2-> 668328 , |3-> 723112 , |4-> 6370950 , |5-> 17773827 , |6-> 1653277 ,,  |1-> 0 , |2-> 251871 , |3-> 200936 , |4-> 1777819 , |5-> 4870773 , |6-> 2011513 ,
simulation,        11,      0.55,   0.55032,   0.55032,    49.505,    49.517,         0,  27179325,  6409828,  |4-> 937747 , |5-> 25302845 , |6-> 325548 ,,  |4-> 5860 , |5-> 5513570 , |6-> 709517 ,,  |1-> 0 , |2-> 646725 , |3-> 845856 , |4-> 7320004 , |5-> 18241636 , |6-> 125104 ,,  |1-> 0 , |2-> 185523 , |3-> 166776 , |4-> 1518573 , |5-> 4282710 , |6-> 256246 ,
simulation,        13,      0.45,   0.45024,   0.45024,    43.504,    43.511,         0,  22709805,  4898497,  |4-> 3209100 , |5-> 18983894 , |6-> 7361 ,,  |4-> 43116 , |5-> 4682724 , |6-> 33097 ,,  |1-> 0 , |2-> 543975 , |3-> 915743 , |4-> 7671108 , |5-> 13576031 , |6-> 2948 ,,  |1-> 0 , |2-> 143653 , |3-> 135385 , |4-> 1231264 , |5-> 3376453 , |6-> 11742 ,
