vc_buf_size = 64;
wait_for_tail_credit = 0;
vc_allocator = separable_input_first;
sw_allocator = separable_input_first;
alloc_iters = 1;
credit_delay = 2;
routing_delay = 0;
vc_alloc_delay = 1;
sw_alloc_delay = 1;
st_final_delay = 1;
input_speedup = 1;
output_speedup = 1;
sim_count = 1;
num_vcs = 7;
priority = none;
packet_size = 1;
injection_rate_uses_flits = 1;
internal_speedup = 4.0;
warmup_periods = 3;
sample_period = 10000;
df_a = 8;
df_arrangement = absolute_improved;
df_g = 0;
global_latency = 10;
local_latency = 10;
multitiered_routing_threshold_0 = 10;
multitiered_routing_threshold_1 = 40;
seed = 11;
topology = dragonflyfull;
traffic = randperm;
df_g = 15;
perm_seed = 60;
routing_function = UGAL_L_multi_tiered;

defaultText, count, i-rate in config file, i-rate injected, i-rate accepted, packet latency, flit latency, deadlock?
simulation,         1,      0.01,  0.010056,  0.010058,    35.521,    35.523,         0,  230913,  57160,  |4-> 219119 , |5-> 0 , |6-> 0 ,,  |4-> 53496 , |5-> 0 , |6-> 0 ,,  |1-> 0 , |2-> 12675 , |3-> 26073 , |4-> 192165 , |5-> 0 , |6-> 0 ,,  |1-> 0 , |2-> 3910 , |3-> 6467 , |4-> 46783 , |5-> 0 , |6-> 0 ,
simulation,         2,      0.99,   0.66158,   0.70739,    1310.4,    597.03,         1,  0,  0,  ,  ,  ,  
simulation,         3,       0.5,   0.50029,   0.50028,     45.98,    45.994,         0,  11615946,  2784146,  |4-> 2055655 , |5-> 8931730 , |6-> 8879 ,,  |4-> 38643 , |5-> 2455316 , |6-> 126602 ,,  |1-> 0 , |2-> 638990 , |3-> 593862 , |4-> 4634052 , |5-> 5745995 , |6-> 3047 ,,  |1-> 0 , |2-> 168829 , |3-> 102695 , |4-> 866866 , |5-> 1608916 , |6-> 36840 ,
simulation,         4,      0.74,    0.6525,   0.67931,    467.02,    323.46,         1,  0,  0,  ,  ,  ,  
simulation,         5,      0.62,   0.61787,   0.61789,    490.89,    90.919,         0,  43340983,  16067767,  |4-> 1100292 , |5-> 34305552 , |6-> 5456389 ,,  |4-> 3849 , |5-> 7329542 , |6-> 7969985 ,,  |1-> 0 , |2-> 2535143 , |3-> 1564350 , |4-> 12973724 , |5-> 24754523 , |6-> 1513243 ,,  |1-> 0 , |2-> 790556 , |3-> 547568 , |4-> 4490828 , |5-> 8401307 , |6-> 1837508 ,
simulation,         6,      0.68,   0.64436,   0.64449,    999.27,     271.9,         1,  0,  0,  ,  ,  ,  
simulation,         7,      0.65,    0.6364,   0.63648,    573.76,    186.83,         1,  0,  0,  ,  ,  ,  
simulation,         8,      0.63,   0.62627,   0.62628,    350.59,    107.97,         1,  0,  0,  ,  ,  ,  
simulation,         9,       0.6,   0.59918,   0.59917,     272.1,    69.478,         0,  38211741,  12555547,  |4-> 1560474 , |5-> 32268512 , |6-> 2217363 ,,  |4-> 6831 , |5-> 7768789 , |6-> 4180802 ,,  |1-> 0 , |2-> 2218374 , |3-> 1468601 , |4-> 12048800 , |5-> 21863523 , |6-> 612443 ,,  |1-> 0 , |2-> 620376 , |3-> 438898 , |4-> 3634788 , |5-> 6876216 , |6-> 985269 ,
simulation,        10,      0.55,   0.55034,   0.55033,    53.282,    53.318,         0,  12489685,  3377986,  |4-> 1188369 , |5-> 10511716 , |6-> 102244 ,,  |4-> 12037 , |5-> 2731469 , |6-> 458801 ,,  |1-> 0 , |2-> 706193 , |3-> 550468 , |4-> 4396892 , |5-> 6808080 , |6-> 28052 ,,  |1-> 0 , |2-> 181900 , |3-> 121585 , |4-> 1018658 , |5-> 1935044 , |6-> 120799 ,
simulation,        12,      0.45,   0.45025,   0.45023,    41.093,      41.1,         0,  10539294,  2402789,  |4-> 3000631 , |5-> 6984273 , |6-> 629 ,,  |4-> 93409 , |5-> 2148027 , |6-> 10940 ,,  |1-> 0 , |2-> 573722 , |3-> 636793 , |4-> 4843883 , |5-> 4484670 , |6-> 226 ,,  |1-> 0 , |2-> 155114 , |3-> 93569 , |4-> 785681 , |5-> 1365471 , |6-> 2954 ,
