vc_buf_size = 64;
wait_for_tail_credit = 0;
vc_allocator = separable_input_first;
sw_allocator = separable_input_first;
alloc_iters = 1;
credit_delay = 2;
routing_delay = 0;
vc_alloc_delay = 1;
sw_alloc_delay = 1;
st_final_delay = 1;
input_speedup = 1;
output_speedup = 1;
sim_count = 1;
num_vcs = 7;
priority = none;
packet_size = 1;
injection_rate_uses_flits = 1;
internal_speedup = 4.0;
warmup_periods = 3;
sample_period = 1000;
df_a = 8;
df_arrangement = absolute_improved;
df_g = 33;
global_latency = 1;
local_latency = 1;
multitiered_routing_threshold_0 = 10;
multitiered_routing_threshold_1 = 40;
topology = dragonflyfull;
traffic = randperm;
df_g = 25;
perm_seed = 66;
routing_function = UGAL_L;

defaultText, count, i-rate in config file, i-rate injected, i-rate accepted, packet latency, flit latency, deadlock?
simulation,         1,      0.01,  0.010034,   0.01003,    9.8117,    9.8138,         0,  43895,  4032,  |4-> 0 , |5-> 0 , |6-> 0 ,,  |4-> 0 , |5-> 0 , |6-> 0 ,,  |1-> 0 , |2-> 1908 , |3-> 277 , |4-> 2957 , |5-> 14195 , |6-> 24558 ,,  |1-> 0 , |2-> 188 , |3-> 33 , |4-> 300 , |5-> 1330 , |6-> 2181 ,
simulation,         2,      0.99,   0.55947,   0.56897,    793.19,     728.0,         1,  0,  0,  ,  ,  ,  
simulation,         3,       0.5,   0.49672,   0.49811,    97.153,    81.187,         0,  3762385,  2591509,  |4-> 0 , |5-> 0 , |6-> 0 ,,  |4-> 0 , |5-> 0 , |6-> 0 ,,  |1-> 0 , |2-> 182783 , |3-> 21904 , |4-> 244513 , |5-> 1206263 , |6-> 2106922 ,,  |1-> 0 , |2-> 98576 , |3-> 16641 , |4-> 182753 , |5-> 864342 , |6-> 1429197 ,
simulation,         4,      0.74,   0.55498,    0.5873,    440.88,     438.1,         1,  0,  0,  ,  ,  ,  
simulation,         5,      0.62,   0.54471,   0.55192,    413.02,    368.57,         1,  0,  0,  ,  ,  ,  
simulation,         6,      0.56,   0.53215,   0.53655,    238.54,    203.46,         1,  0,  0,  ,  ,  ,  
simulation,         7,      0.53,    0.5177,   0.52021,    256.67,     140.4,         0,  5115259,  4086917,  |4-> 0 , |5-> 0 , |6-> 0 ,,  |4-> 0 , |5-> 0 , |6-> 0 ,,  |1-> 0 , |2-> 255043 , |3-> 29784 , |4-> 333112 , |5-> 1641008 , |6-> 2856312 ,,  |1-> 0 , |2-> 158672 , |3-> 25846 , |4-> 284220 , |5-> 1355186 , |6-> 2262993 ,
simulation,         8,      0.54,   0.52345,   0.52653,    338.36,    168.31,         0,  5687069,  4793028,  |4-> 0 , |5-> 0 , |6-> 0 ,,  |4-> 0 , |5-> 0 , |6-> 0 ,,  |1-> 0 , |2-> 288664 , |3-> 33266 , |4-> 370413 , |5-> 1821654 , |6-> 3173072 ,,  |1-> 0 , |2-> 184147 , |3-> 30740 , |4-> 333044 , |5-> 1588420 , |6-> 2656677 ,
simulation,         9,      0.55,   0.52804,   0.53187,    201.31,    174.85,         1,  0,  0,  ,  ,  ,  
simulation,        12,      0.45,   0.44957,   0.44966,    33.911,    34.336,         0,  1459343,  787326,  |4-> 0 , |5-> 0 , |6-> 0 ,,  |4-> 0 , |5-> 0 , |6-> 0 ,,  |1-> 0 , |2-> 67349 , |3-> 8460 , |4-> 94902 , |5-> 469539 , |6-> 819093 ,,  |1-> 0 , |2-> 31617 , |3-> 5211 , |4-> 55797 , |5-> 263132 , |6-> 431569 ,
simulation,        13,       0.4,   0.39957,   0.39974,    23.303,    23.514,         0,  1341162,  631954,  |4-> 0 , |5-> 0 , |6-> 0 ,,  |4-> 0 , |5-> 0 , |6-> 0 ,,  |1-> 0 , |2-> 59858 , |3-> 7792 , |4-> 88382 , |5-> 431914 , |6-> 753216 ,,  |1-> 0 , |2-> 27246 , |3-> 4062 , |4-> 44584 , |5-> 209989 , |6-> 346073 ,
