routing_delay = 0;
alloc_iters = 1;
credit_delay = 2;
num_vcs = 7;
sim_count = 1;
output_speedup = 1;
vc_alloc_delay = 1;
input_speedup = 1;
sample_period = 10000;
packet_size = 1;
internal_speedup = 4.0;
sw_allocator = separable_input_first;
vc_buf_size = 64;
warmup_periods = 3;
injection_rate_uses_flits = 1;
st_final_delay = 1;
vc_allocator = separable_input_first;
sw_alloc_delay = 1;
priority = none;
wait_for_tail_credit = 0;
df_a = 8;
df_arrangement = absolute_improved;
df_g = 0;
global_latency = 10;
local_latency = 10;
multitiered_routing_threshold_0 = 10;
multitiered_routing_threshold_1 = 40;
topology = dragonflyfull;
traffic = uniform;
df_g = 25;
routing_function = UGAL_L;
seed = 2;

defaultText, count, i-rate in config file, i-rate injected, i-rate accepted, packet latency, flit latency, deadlock?
simulation,         1,      0.01,  0.010006,  0.010006,    38.469,    38.476,         0,  396893,  82213,  |4-> 0 , |5-> 0 , |6-> 0 ,,  |4-> 0 , |5-> 0 , |6-> 0 ,,  |1-> 0 , |2-> 13772 , |3-> 2371 , |4-> 26996 , |5-> 129189 , |6-> 224565 ,,  |1-> 0 , |2-> 3108 , |3-> 563 , |4-> 6084 , |5-> 27289 , |6-> 45169 ,
simulation,         2,      0.99,    0.7686,    0.8131,    1072.4,    490.24,         1,  0,  0,  ,  ,  ,  
simulation,         3,       0.5,   0.50002,   0.50001,    36.674,    36.677,         0,  22857479,  1051212,  |4-> 0 , |5-> 0 , |6-> 0 ,,  |4-> 0 , |5-> 0 , |6-> 0 ,,  |1-> 0 , |2-> 809301 , |3-> 136576 , |4-> 1541189 , |5-> 7434261 , |6-> 12936152 ,,  |1-> 0 , |2-> 37746 , |3-> 9408 , |4-> 93252 , |5-> 376378 , |6-> 534428 ,
simulation,         4,      0.74,   0.74007,   0.74006,    43.638,    43.642,         0,  34059822,  1355161,  |4-> 0 , |5-> 0 , |6-> 0 ,,  |4-> 0 , |5-> 0 , |6-> 0 ,,  |1-> 0 , |2-> 1212646 , |3-> 204329 , |4-> 2295567 , |5-> 11079969 , |6-> 19267311 ,,  |1-> 0 , |2-> 39156 , |3-> 12341 , |4-> 123271 , |5-> 490357 , |6-> 690036 ,
simulation,         5,      0.86,   0.77062,   0.79138,    952.97,    436.59,         1,  0,  0,  ,  ,  ,  
simulation,         6,       0.8,   0.77573,   0.77776,     615.1,    318.01,         1,  0,  0,  ,  ,  ,  
simulation,         7,      0.77,   0.77008,   0.77004,    58.179,    58.196,         0,  34631348,  2266168,  |4-> 0 , |5-> 0 , |6-> 0 ,,  |4-> 0 , |5-> 0 , |6-> 0 ,,  |1-> 0 , |2-> 1254799 , |3-> 208494 , |4-> 2349749 , |5-> 11277900 , |6-> 19540406 ,,  |1-> 0 , |2-> 49603 , |3-> 14904 , |4-> 169659 , |5-> 775501 , |6-> 1256501 ,
simulation,         8,      0.78,   0.77918,   0.77935,    125.11,    104.96,         0,  42697346,  4261137,  |4-> 0 , |5-> 0 , |6-> 0 ,,  |4-> 0 , |5-> 0 , |6-> 0 ,,  |1-> 0 , |2-> 1520448 , |3-> 246099 , |4-> 2811761 , |5-> 13779248 , |6-> 24339790 ,,  |1-> 0 , |2-> 138743 , |3-> 39718 , |4-> 397018 , |5-> 1563075 , |6-> 2122583 ,
simulation,         9,      0.79,   0.77854,   0.77931,     546.4,    232.76,         1,  0,  0,  ,  ,  ,  
simulation,        10,      0.75,   0.75008,   0.75006,    45.318,    45.322,         0,  34424519,  1470283,  |4-> 0 , |5-> 0 , |6-> 0 ,,  |4-> 0 , |5-> 0 , |6-> 0 ,,  |1-> 0 , |2-> 1227128 , |3-> 206476 , |4-> 2326020 , |5-> 11191732 , |6-> 19473163 ,,  |1-> 0 , |2-> 40357 , |3-> 12419 , |4-> 129094 , |5-> 526653 , |6-> 761760 ,
simulation,        11,       0.7,   0.70008,   0.70007,    40.363,    40.365,         0,  32327576,  1154979,  |4-> 0 , |5-> 0 , |6-> 0 ,,  |4-> 0 , |5-> 0 , |6-> 0 ,,  |1-> 0 , |2-> 1146601 , |3-> 192467 , |4-> 2179690 , |5-> 10509913 , |6-> 18298905 ,,  |1-> 0 , |2-> 37161 , |3-> 11159 , |4-> 110001 , |5-> 426792 , |6-> 569866 ,
simulation,        12,      0.65,   0.65011,    0.6501,    38.583,    38.585,         0,  30015327,  1072468,  |4-> 0 , |5-> 0 , |6-> 0 ,,  |4-> 0 , |5-> 0 , |6-> 0 ,,  |1-> 0 , |2-> 1062309 , |3-> 178375 , |4-> 2021415 , |5-> 9761880 , |6-> 16991348 ,,  |1-> 0 , |2-> 35842 , |3-> 10464 , |4-> 103277 , |5-> 394668 , |6-> 528217 ,
simulation,        13,       0.6,   0.60013,   0.60012,     37.64,    37.642,         0,  27645021,  1052585,  |4-> 0 , |5-> 0 , |6-> 0 ,,  |4-> 0 , |5-> 0 , |6-> 0 ,,  |1-> 0 , |2-> 978765 , |3-> 164729 , |4-> 1862077 , |5-> 8991908 , |6-> 15647542 ,,  |1-> 0 , |2-> 36723 , |3-> 10076 , |4-> 99309 , |5-> 384896 , |6-> 521581 ,
