vc_buf_size = 64;
wait_for_tail_credit = 0;
vc_allocator = separable_input_first;
sw_allocator = separable_input_first;
alloc_iters = 1;
credit_delay = 2;
routing_delay = 0;
vc_alloc_delay = 1;
sw_alloc_delay = 1;
st_final_delay = 1;
input_speedup = 1;
output_speedup = 1;
sim_count = 1;
num_vcs = 7;
priority = none;
packet_size = 1;
injection_rate_uses_flits = 1;
internal_speedup = 4.0;
warmup_periods = 3;
sample_period = 1000;
df_a = 8;
df_arrangement = absolute_improved;
df_g = 33;
global_latency = 1;
local_latency = 1;
multitiered_routing_threshold_0 = 10;
multitiered_routing_threshold_1 = 40;
topology = dragonflyfull;
traffic = randperm;
df_g = 29;
perm_seed = 60;
routing_function = UGAL_L_multi_tiered;

defaultText, count, i-rate in config file, i-rate injected, i-rate accepted, packet latency, flit latency, deadlock?
simulation,         1,      0.01,  0.010004,  0.010002,    9.6033,    9.6037,         0,  50621,  4926,  |4-> 49205 , |5-> 0 , |6-> 0 ,,  |4-> 4806 , |5-> 0 , |6-> 0 ,,  |1-> 0 , |2-> 1551 , |3-> 5124 , |4-> 43946 , |5-> 0 , |6-> 0 ,,  |1-> 0 , |2-> 135 , |3-> 518 , |4-> 4273 , |5-> 0 , |6-> 0 ,
simulation,         2,      0.99,   0.55561,   0.56552,    806.21,    739.09,         1,  0,  0,  ,  ,  ,  
simulation,         3,       0.5,   0.49973,   0.49969,    37.488,    37.912,         0,  1840922,  1114006,  |4-> 1606696 , |5-> 173803 , |6-> 5078 ,,  |4-> 624947 , |5-> 389942 , |6-> 71518 ,,  |1-> 0 , |2-> 60304 , |3-> 174493 , |4-> 1467386 , |5-> 136762 , |6-> 1977 ,,  |1-> 0 , |2-> 29228 , |3-> 67560 , |4-> 638128 , |5-> 339162 , |6-> 39928 ,
simulation,         4,      0.74,   0.55389,   0.58983,    446.74,    444.69,         1,  0,  0,  ,  ,  ,  
simulation,         5,      0.62,   0.55113,   0.56008,    434.22,    361.63,         1,  0,  0,  ,  ,  ,  
simulation,         6,      0.56,   0.55008,   0.55429,    193.79,    139.52,         0,  7374448,  7261489,  |4-> 3244948 , |5-> 2968718 , |6-> 911157 ,,  |4-> 736868 , |5-> 4012088 , |6-> 2344286 ,,  |1-> 0 , |2-> 261337 , |3-> 410223 , |4-> 3550804 , |5-> 2672001 , |6-> 480083 ,,  |1-> 0 , |2-> 172861 , |3-> 166274 , |4-> 1600482 , |5-> 4050821 , |6-> 1271051 ,
simulation,         7,      0.59,   0.55151,   0.55968,    299.03,    253.93,         1,  0,  0,  ,  ,  ,  
simulation,         8,      0.57,   0.55173,    0.5575,    334.99,    198.93,         0,  8524804,  8992346,  |4-> 3039951 , |5-> 3527425 , |6-> 1667493 ,,  |4-> 620655 , |5-> 4357206 , |6-> 3796506 ,,  |1-> 0 , |2-> 301981 , |3-> 406181 , |4-> 3530867 , |5-> 3393105 , |6-> 892670 ,,  |1-> 0 , |2-> 222971 , |3-> 173002 , |4-> 1685820 , |5-> 4864159 , |6-> 2046394 ,
simulation,         9,      0.58,   0.55151,   0.55984,    233.02,    206.68,         1,  0,  0,  ,  ,  ,  
simulation,        10,      0.55,    0.5459,   0.54841,    95.022,    89.722,         0,  4756753,  4222850,  |4-> 2594863 , |5-> 1730986 , |6-> 272248 ,,  |4-> 674734 , |5-> 2556143 , |6-> 896498 ,,  |1-> 0 , |2-> 167747 , |3-> 310781 , |4-> 2680622 , |5-> 1457718 , |6-> 139885 ,,  |1-> 0 , |2-> 98722 , |3-> 119983 , |4-> 1153358 , |5-> 2359489 , |6-> 491298 ,
simulation,        12,      0.45,   0.44964,   0.44956,    25.505,    25.764,         0,  1739530,  890850,  |4-> 1648563 , |5-> 40695 , |6-> 1152 ,,  |4-> 701284 , |5-> 129628 , |6-> 35202 ,,  |1-> 0 , |2-> 54290 , |3-> 177197 , |4-> 1476409 , |5-> 31326 , |6-> 308 ,,  |1-> 0 , |2-> 26455 , |3-> 69320 , |4-> 658022 , |5-> 117055 , |6-> 19998 ,
simulation,        13,       0.4,   0.39976,   0.39977,    18.977,    19.131,         0,  1575583,  737815,  |4-> 1524540 , |5-> 7333 , |6-> 702 ,,  |4-> 658369 , |5-> 38555 , |6-> 18910 ,,  |1-> 0 , |2-> 47706 , |3-> 162933 , |4-> 1358849 , |5-> 5861 , |6-> 234 ,,  |1-> 0 , |2-> 23561 , |3-> 63785 , |4-> 602130 , |5-> 37698 , |6-> 10641 ,
