vc_buf_size = 64;
wait_for_tail_credit = 0;
vc_allocator = separable_input_first;
sw_allocator = separable_input_first;
alloc_iters = 1;
credit_delay = 2;
routing_delay = 0;
vc_alloc_delay = 1;
sw_alloc_delay = 1;
st_final_delay = 1;
input_speedup = 1;
output_speedup = 1;
sim_count = 1;
num_vcs = 7;
priority = none;
packet_size = 1;
injection_rate_uses_flits = 1;
internal_speedup = 4.0;
warmup_periods = 3;
sample_period = 1000;
df_a = 8;
df_arrangement = absolute_improved;
global_latency = 1;
local_latency = 1;
multitiered_routing_threshold_0 = 10;
multitiered_routing_threshold_1 = 40;
topology = dragonflyfull;
traffic = uniform;
df_g = 13;
routing_function = UGAL_L_multi_tiered;
seed = 10;

defaultText, count, i-rate in config file, i-rate injected, i-rate accepted, packet latency, flit latency, deadlock?
simulation,         1,      0.01, 0.0099872, 0.0099896,    9.3242,    9.3257,         0,  23523,  1298,  |4-> 21862 , |5-> 0 , |6-> 0 ,,  |4-> 1205 , |5-> 0 , |6-> 0 ,,  |1-> 0 , |2-> 1751 , |3-> 2839 , |4-> 18933 , |5-> 0 , |6-> 0 ,,  |1-> 0 , |2-> 100 , |3-> 170 , |4-> 1028 , |5-> 0 , |6-> 0 ,
simulation,         2,      0.99,   0.88498,   0.90227,    527.11,    338.08,         1,  0,  0,  ,  ,  ,  
simulation,         3,       0.5,   0.50009,   0.50009,    11.341,    11.343,         0,  1051902,  188594,  |4-> 981734 , |5-> 72 , |6-> 0 ,,  |4-> 173937 , |5-> 397 , |6-> 0 ,,  |1-> 0 , |2-> 74241 , |3-> 128185 , |4-> 849430 , |5-> 46 , |6-> 0 ,,  |1-> 0 , |2-> 14951 , |3-> 22290 , |4-> 151105 , |5-> 248 , |6-> 0 ,
simulation,         4,      0.74,   0.73934,   0.73942,    14.442,    14.444,         0,  1623272,  214111,  |4-> 1492513 , |5-> 21700 , |6-> 0 ,,  |4-> 170233 , |5-> 27750 , |6-> 0 ,,  |1-> 0 , |2-> 115457 , |3-> 195151 , |4-> 1300114 , |5-> 12550 , |6-> 0 ,,  |1-> 0 , |2-> 16862 , |3-> 22983 , |4-> 157890 , |5-> 16376 , |6-> 0 ,
simulation,         5,      0.86,   0.85945,   0.85947,     31.01,    31.119,         0,  1893911,  278083,  |4-> 1410175 , |5-> 352796 , |6-> 1788 ,,  |4-> 81586 , |5-> 144617 , |6-> 34294 ,,  |1-> 0 , |2-> 135790 , |3-> 201143 , |4-> 1354458 , |5-> 202502 , |6-> 18 ,,  |1-> 0 , |2-> 18299 , |3-> 19265 , |4-> 133162 , |5-> 100524 , |6-> 6833 ,
simulation,         6,      0.92,   0.91083,   0.91849,    107.13,     109.1,         0,  3401897,  631841,  |4-> 633969 , |5-> 1910246 , |6-> 624390 ,,  |4-> 14719 , |5-> 346315 , |6-> 229254 ,,  |1-> 0 , |2-> 240101 , |3-> 196206 , |4-> 1419209 , |5-> 1421735 , |6-> 124646 ,,  |1-> 0 , |2-> 42949 , |3-> 35468 , |4-> 231840 , |5-> 284131 , |6-> 37453 ,
simulation,         7,      0.95,   0.90201,   0.92203,    331.17,    261.59,         0,  4253420,  894083,  |4-> 437888 , |5-> 1770140 , |6-> 1753181 ,,  |4-> 7545 , |5-> 278438 , |6-> 549197 ,,  |1-> 0 , |2-> 299121 , |3-> 200557 , |4-> 1499385 , |5-> 1893042 , |6-> 361315 ,,  |1-> 0 , |2-> 61037 , |3-> 51265 , |4-> 324855 , |5-> 383067 , |6-> 73859 ,
simulation,         8,      0.97,   0.89094,   0.91121,    425.53,    294.93,         1,  0,  0,  ,  ,  ,  
simulation,         9,      0.96,   0.89606,   0.91585,     428.4,    295.04,         0,  4295067,  943568,  |4-> 415492 , |5-> 1709080 , |6-> 1877835 ,,  |4-> 6780 , |5-> 258781 , |6-> 615722 ,,  |1-> 0 , |2-> 299539 , |3-> 198049 , |4-> 1489803 , |5-> 1917572 , |6-> 390104 ,,  |1-> 0 , |2-> 64591 , |3-> 54805 , |4-> 342216 , |5-> 400667 , |6-> 81289 ,
simulation,        11,       0.9,   0.89962,   0.89948,    51.295,    51.469,         0,  2023667,  356158,  |4-> 744251 , |5-> 1106067 , |6-> 33510 ,,  |4-> 23108 , |5-> 244543 , |6-> 66096 ,,  |1-> 0 , |2-> 145082 , |3-> 150977 , |4-> 1059884 , |5-> 661904 , |6-> 5820 ,,  |1-> 0 , |2-> 23191 , |3-> 20450 , |4-> 136873 , |5-> 162512 , |6-> 13132 ,
simulation,        12,      0.85,   0.84904,   0.84954,    25.734,    25.826,         0,  1892061,  262473,  |4-> 1527196 , |5-> 235174 , |6-> 568 ,,  |4-> 100499 , |5-> 124421 , |6-> 20399 ,,  |1-> 0 , |2-> 136060 , |3-> 210779 , |4-> 1411773 , |5-> 133445 , |6-> 4 ,,  |1-> 0 , |2-> 17828 , |3-> 19755 , |4-> 137577 , |5-> 83343 , |6-> 3970 ,
simulation,        13,       0.8,    0.7995,   0.79952,    16.892,    16.901,         0,  1765963,  226292,  |4-> 1572666 , |5-> 73762 , |6-> 0 ,,  |4-> 144854 , |5-> 65078 , |6-> 50 ,,  |1-> 0 , |2-> 126335 , |3-> 208081 , |4-> 1389598 , |5-> 41949 , |6-> 0 ,,  |1-> 0 , |2-> 17083 , |3-> 21608 , |4-> 148711 , |5-> 38878 , |6-> 12 ,
