vc_buf_size = 64;
wait_for_tail_credit = 0;
vc_allocator = separable_input_first;
sw_allocator = separable_input_first;
alloc_iters = 1;
credit_delay = 2;
routing_delay = 0;
vc_alloc_delay = 1;
sw_alloc_delay = 1;
st_final_delay = 1;
input_speedup = 1;
output_speedup = 1;
sim_count = 1;
num_vcs = 7;
priority = none;
packet_size = 1;
injection_rate_uses_flits = 1;
internal_speedup = 4.0;
warmup_periods = 3;
sample_period = 1000;
df_a = 8;
df_arrangement = absolute_improved;
global_latency = 1;
local_latency = 1;
multitiered_routing_threshold_0 = 10;
multitiered_routing_threshold_1 = 40;
topology = dragonflyfull;
traffic = group_shift;
df_g = 9;
routing_function = UGAL_L_multi_tiered;
shift_by_group = 4;

defaultText, count, i-rate in config file, i-rate injected, i-rate accepted, packet latency, flit latency, deadlock?
simulation,         1,      0.01, 0.0099572, 0.0099606,      9.83,    9.8315,         0,  15305,  1945,  |4-> 15305 , |5-> 0 , |6-> 0 ,,  |4-> 1945 , |5-> 0 , |6-> 0 ,,  |1-> 0 , |2-> 234 , |3-> 2351 , |4-> 12720 , |5-> 0 , |6-> 0 ,,  |1-> 0 , |2-> 25 , |3-> 293 , |4-> 1627 , |5-> 0 , |6-> 0 ,
simulation,         2,      0.99,   0.47003,   0.69867,    408.71,    398.09,         1,  0,  0,  ,  ,  ,  
simulation,         3,       0.5,   0.44508,   0.46335,    412.57,    428.47,         1,  0,  0,  ,  ,  ,  
simulation,         4,      0.25,    0.2501,   0.25011,    46.183,    46.529,         0,  222222,  217174,  |4-> 222194 , |5-> 28 , |6-> 0 ,,  |4-> 162509 , |5-> 1544 , |6-> 53121 ,,  |1-> 0 , |2-> 2965 , |3-> 32599 , |4-> 186646 , |5-> 12 , |6-> 0 ,,  |1-> 0 , |2-> 3075 , |3-> 30442 , |4-> 159095 , |5-> 21068 , |6-> 3494 ,
simulation,         5,      0.37,   0.36898,   0.36981,    66.798,    70.008,         0,  366348,  698463,  |4-> 178055 , |5-> 173530 , |6-> 14763 ,,  |4-> 211557 , |5-> 332635 , |6-> 154271 ,,  |1-> 0 , |2-> 2343 , |3-> 33395 , |4-> 237252 , |5-> 92122 , |6-> 1236 ,,  |1-> 0 , |2-> 9018 , |3-> 87710 , |4-> 449317 , |5-> 143728 , |6-> 8690 ,
simulation,         6,      0.43,   0.41328,   0.42356,    304.83,    276.16,         0,  542357,  1224336,  |4-> 116715 , |5-> 276940 , |6-> 148702 ,,  |4-> 124224 , |5-> 634801 , |6-> 465311 ,,  |1-> 0 , |2-> 1814 , |3-> 33806 , |4-> 286392 , |5-> 200976 , |6-> 19369 ,,  |1-> 0 , |2-> 14575 , |3-> 140642 , |4-> 713757 , |5-> 339782 , |6-> 15580 ,
simulation,         7,      0.46,   0.42891,   0.44241,    360.37,     328.7,         1,  0,  0,  ,  ,  ,  
simulation,         8,      0.44,   0.41864,   0.43116,    374.65,    332.12,         0,  561648,  1288017,  |4-> 103174 , |5-> 280780 , |6-> 177694 ,,  |4-> 106449 , |5-> 655972 , |6-> 525596 ,,  |1-> 0 , |2-> 1802 , |3-> 32845 , |4-> 287949 , |5-> 216009 , |6-> 23043 ,,  |1-> 0 , |2-> 15114 , |3-> 146127 , |4-> 742994 , |5-> 366606 , |6-> 17176 ,
simulation,         9,      0.45,   0.42551,   0.43903,    432.37,    360.41,         0,  556574,  1302095,  |4-> 84436 , |5-> 268658 , |6-> 203480 ,,  |4-> 84202 , |5-> 636494 , |6-> 581399 ,,  |1-> 0 , |2-> 1581 , |3-> 30565 , |4-> 274733 , |5-> 220900 , |6-> 28795 ,,  |1-> 0 , |2-> 15327 , |3-> 146186 , |4-> 741128 , |5-> 381003 , |6-> 18451 ,
simulation,        11,       0.4,   0.39293,    0.3991,    150.02,    161.47,         0,  484994,  1016818,  |4-> 159746 , |5-> 256593 , |6-> 68655 ,,  |4-> 185003 , |5-> 543463 , |6-> 288352 ,,  |1-> 0 , |2-> 2376 , |3-> 36250 , |4-> 282418 , |5-> 156326 , |6-> 7624 ,,  |1-> 0 , |2-> 12821 , |3-> 122250 , |4-> 620309 , |5-> 249028 , |6-> 12410 ,
simulation,        12,      0.35,   0.34958,   0.34968,    53.849,    54.697,         0,  229278,  400574,  |4-> 147516 , |5-> 81746 , |6-> 16 ,,  |4-> 171446 , |5-> 150669 , |6-> 78459 ,,  |1-> 0 , |2-> 1924 , |3-> 24429 , |4-> 162713 , |5-> 40208 , |6-> 4 ,,  |1-> 0 , |2-> 5331 , |3-> 52158 , |4-> 269048 , |5-> 68952 , |6-> 5085 ,
simulation,        13,       0.3,   0.29973,   0.29968,    48.045,    48.578,         0,  224771,  306596,  |4-> 217514 , |5-> 7257 , |6-> 0 ,,  |4-> 223924 , |5-> 17156 , |6-> 65516 ,,  |1-> 0 , |2-> 2716 , |3-> 31091 , |4-> 187496 , |5-> 3468 , |6-> 0 ,,  |1-> 0 , |2-> 4416 , |3-> 43094 , |4-> 224775 , |5-> 30260 , |6-> 4051 ,
