vc_buf_size = 64;
wait_for_tail_credit = 0;
vc_allocator = separable_input_first;
sw_allocator = separable_input_first;
alloc_iters = 1;
credit_delay = 2;
routing_delay = 0;
vc_alloc_delay = 1;
sw_alloc_delay = 1;
st_final_delay = 1;
input_speedup = 1;
output_speedup = 1;
sim_count = 1;
num_vcs = 7;
priority = none;
packet_size = 1;
injection_rate_uses_flits = 1;
internal_speedup = 4.0;
warmup_periods = 3;
sample_period = 10000;
df_a = 8;
df_arrangement = absolute_improved;
df_g = 0;
global_latency = 10;
local_latency = 10;
multitiered_routing_threshold_0 = 10;
multitiered_routing_threshold_1 = 40;
seed = 11;
topology = dragonflyfull;
traffic = group_shift;
df_g = 17;
routing_function = UGAL_L_multi_tiered;
shift_by_group = 8;

defaultText, count, i-rate in config file, i-rate injected, i-rate accepted, packet latency, flit latency, deadlock?
simulation,         1,      0.01,  0.010052,  0.010053,    39.275,    39.275,         0,  206135,  121639,  |4-> 206135 , |5-> 0 , |6-> 0 ,,  |4-> 121639 , |5-> 0 , |6-> 0 ,,  |1-> 0 , |2-> 1854 , |3-> 32947 , |4-> 171334 , |5-> 0 , |6-> 0 ,,  |1-> 0 , |2-> 904 , |3-> 20528 , |4-> 100207 , |5-> 0 , |6-> 0 ,
simulation,         2,      0.99,   0.38103,   0.42684,    2843.7,    1058.8,         1,  0,  0,  ,  ,  ,  
simulation,         3,       0.5,    0.3884,   0.42462,    956.42,    693.63,         1,  0,  0,  ,  ,  ,  
simulation,         4,      0.25,   0.25012,   0.25011,    91.044,    91.165,         0,  2055181,  6145217,  |4-> 4903 , |5-> 2045470 , |6-> 4808 ,,  |4-> 3197 , |5-> 5099644 , |6-> 1042376 ,,  |1-> 0 , |2-> 4150 , |3-> 102719 , |4-> 619285 , |5-> 1327683 , |6-> 1344 ,,  |1-> 0 , |2-> 23873 , |3-> 342431 , |4-> 1925557 , |5-> 3475831 , |6-> 377525 ,
simulation,         5,      0.37,   0.34706,   0.34936,    1030.8,    764.47,         1,  0,  0,  ,  ,  ,  
simulation,         6,      0.31,   0.31019,   0.31018,    101.64,    101.87,         0,  2062382,  8129478,  |4-> 3817 , |5-> 1322623 , |6-> 735942 ,,  |4-> 2992 , |5-> 4127102 , |6-> 3999384 ,,  |1-> 0 , |2-> 2859 , |3-> 71201 , |4-> 494689 , |5-> 1183183 , |6-> 310450 ,,  |1-> 0 , |2-> 27174 , |3-> 409417 , |4-> 2247263 , |5-> 4083778 , |6-> 1361846 ,
simulation,         7,      0.34,   0.33873,     0.339,    279.41,    196.56,         0,  4058691,  17875642,  |4-> 6747 , |5-> 794061 , |6-> 3257883 ,,  |4-> 2957 , |5-> 2669583 , |6-> 15203102 ,,  |1-> 0 , |2-> 1538 , |3-> 76717 , |4-> 645498 , |5-> 1863115 , |6-> 1471823 ,,  |1-> 0 , |2-> 48605 , |3-> 794281 , |4-> 4293588 , |5-> 7759448 , |6-> 4979720 ,
simulation,         8,      0.35,   0.34535,   0.34688,    535.61,    431.78,         1,  0,  0,  ,  ,  ,  
simulation,        10,       0.3,   0.30022,   0.30022,    98.454,    98.654,         0,  2060667,  7798308,  |4-> 4042 , |5-> 1655087 , |6-> 401538 ,,  |4-> 2924 , |5-> 5068760 , |6-> 2726624 ,,  |1-> 0 , |2-> 3313 , |3-> 82534 , |4-> 549661 , |5-> 1264035 , |6-> 161124 ,,  |1-> 0 , |2-> 27509 , |3-> 411791 , |4-> 2279261 , |5-> 4128898 , |6-> 950849 ,
simulation,        12,       0.2,    0.2001,    0.2001,    84.763,    84.823,         0,  2050579,  4500942,  |4-> 43076 , |5-> 2007502 , |6-> 1 ,,  |4-> 21251 , |5-> 3661603 , |6-> 818088 ,,  |1-> 0 , |2-> 5514 , |3-> 112581 , |4-> 654819 , |5-> 1277665 , |6-> 0 ,,  |1-> 0 , |2-> 17277 , |3-> 250418 , |4-> 1412310 , |5-> 2525132 , |6-> 295805 ,
