vc_buf_size = 64;
wait_for_tail_credit = 0;
vc_allocator = separable_input_first;
sw_allocator = separable_input_first;
alloc_iters = 1;
credit_delay = 2;
routing_delay = 0;
vc_alloc_delay = 1;
sw_alloc_delay = 1;
st_final_delay = 1;
input_speedup = 1;
output_speedup = 1;
sim_count = 1;
num_vcs = 7;
priority = none;
packet_size = 1;
injection_rate_uses_flits = 1;
internal_speedup = 4.0;
warmup_periods = 3;
sample_period = 1000;
df_a = 8;
df_arrangement = absolute_improved;
df_g = 33;
global_latency = 1;
local_latency = 1;
multitiered_routing_threshold_0 = 10;
multitiered_routing_threshold_1 = 40;
topology = dragonflyfull;
traffic = randperm;
df_g = 25;
perm_seed = 66;
routing_function = UGAL_L_multi_tiered;

defaultText, count, i-rate in config file, i-rate injected, i-rate accepted, packet latency, flit latency, deadlock?
simulation,         1,      0.01,  0.010035,   0.01003,     9.562,    9.5633,         0,  43845,  4064,  |4-> 41940 , |5-> 0 , |6-> 0 ,,  |4-> 3878 , |5-> 0 , |6-> 0 ,,  |1-> 0 , |2-> 1983 , |3-> 4471 , |4-> 37391 , |5-> 0 , |6-> 0 ,,  |1-> 0 , |2-> 195 , |3-> 370 , |4-> 3499 , |5-> 0 , |6-> 0 ,
simulation,         2,      0.99,   0.56638,     0.581,    769.02,     703.4,         1,  0,  0,  ,  ,  ,  
simulation,         3,       0.5,   0.49956,   0.49964,    30.858,    31.243,         0,  1594780,  911809,  |4-> 1387962 , |5-> 128678 , |6-> 6355 ,,  |4-> 519328 , |5-> 300305 , |6-> 53838 ,,  |1-> 0 , |2-> 74416 , |3-> 152568 , |4-> 1264635 , |5-> 100246 , |6-> 2915 ,,  |1-> 0 , |2-> 39301 , |3-> 61061 , |4-> 531314 , |5-> 254498 , |6-> 25635 ,
simulation,         4,      0.74,   0.56435,   0.60115,    395.31,    393.56,         1,  0,  0,  ,  ,  ,  
simulation,         5,      0.62,   0.56274,   0.56926,    368.91,    289.25,         1,  0,  0,  ,  ,  ,  
simulation,         6,      0.56,   0.55008,   0.55279,    183.06,    112.31,         0,  4652566,  3627140,  |4-> 2911490 , |5-> 1163667 , |6-> 350955 ,,  |4-> 756320 , |5-> 1823980 , |6-> 905186 ,,  |1-> 0 , |2-> 231632 , |3-> 338287 , |4-> 2880226 , |5-> 1028594 , |6-> 173827 ,,  |1-> 0 , |2-> 143720 , |3-> 130946 , |4-> 1153774 , |5-> 1774669 , |6-> 424031 ,
simulation,         7,      0.59,   0.56141,    0.5657,     220.4,     181.8,         1,  0,  0,  ,  ,  ,  
simulation,         8,      0.57,   0.55503,   0.55899,    269.49,    149.59,         0,  5805333,  4799529,  |4-> 3270975 , |5-> 1612402 , |6-> 631205 ,,  |4-> 780854 , |5-> 2355300 , |6-> 1477887 ,,  |1-> 0 , |2-> 296693 , |3-> 389200 , |4-> 3322524 , |5-> 1488688 , |6-> 308228 ,,  |1-> 0 , |2-> 187904 , |3-> 153514 , |4-> 1348335 , |5-> 2415282 , |6-> 694494 ,
simulation,         9,      0.58,   0.55896,   0.56315,    380.62,    175.48,         0,  6565700,  5730042,  |4-> 3303493 , |5-> 2055804 , |6-> 870255 ,,  |4-> 719647 , |5-> 2808388 , |6-> 1981679 ,,  |1-> 0 , |2-> 342331 , |3-> 403840 , |4-> 3466077 , |5-> 1934268 , |6-> 419184 ,,  |1-> 0 , |2-> 222895 , |3-> 163002 , |4-> 1443830 , |5-> 2961539 , |6-> 938776 ,
simulation,        10,      0.55,   0.54448,   0.54659,    117.83,    87.414,         0,  4926498,  3642594,  |4-> 3354255 , |5-> 1085771 , |6-> 250131 ,,  |4-> 939126 , |5-> 1819267 , |6-> 740974 ,,  |1-> 0 , |2-> 242036 , |3-> 383626 , |4-> 3251500 , |5-> 928448 , |6-> 120888 ,,  |1-> 0 , |2-> 145633 , |3-> 147918 , |4-> 1298577 , |5-> 1701136 , |6-> 349330 ,
simulation,        12,      0.45,   0.44965,   0.44966,    22.703,    22.897,         0,  1475753,  733789,  |4-> 1378837 , |5-> 31852 , |6-> 1657 ,,  |4-> 573165 , |5-> 104714 , |6-> 22212 ,,  |1-> 0 , |2-> 66168 , |3-> 151115 , |4-> 1233057 , |5-> 24600 , |6-> 813 ,,  |1-> 0 , |2-> 34564 , |3-> 61425 , |4-> 535826 , |5-> 91475 , |6-> 10499 ,
simulation,        13,       0.4,   0.39963,   0.39974,    18.214,    18.327,         0,  1342195,  616595,  |4-> 1278478 , |5-> 7334 , |6-> 0 ,,  |4-> 547044 , |5-> 30403 , |6-> 9352 ,,  |1-> 0 , |2-> 58966 , |3-> 139942 , |4-> 1137896 , |5-> 5391 , |6-> 0 ,,  |1-> 0 , |2-> 30606 , |3-> 57147 , |4-> 496374 , |5-> 27934 , |6-> 4534 ,
