vc_buf_size = 64;
wait_for_tail_credit = 0;
vc_allocator = separable_input_first;
sw_allocator = separable_input_first;
alloc_iters = 1;
credit_delay = 2;
routing_delay = 0;
vc_alloc_delay = 1;
sw_alloc_delay = 1;
st_final_delay = 1;
input_speedup = 1;
output_speedup = 1;
sim_count = 1;
num_vcs = 7;
priority = none;
packet_size = 1;
injection_rate_uses_flits = 1;
internal_speedup = 4.0;
warmup_periods = 3;
sample_period = 1000;
df_a = 8;
df_arrangement = absolute_improved;
global_latency = 1;
local_latency = 1;
multitiered_routing_threshold_0 = 10;
multitiered_routing_threshold_1 = 40;
topology = dragonflyfull;
traffic = uniform;
df_g = 25;
routing_function = UGAL_L;
seed = 16;

defaultText, count, i-rate in config file, i-rate injected, i-rate accepted, packet latency, flit latency, deadlock?
simulation,         1,      0.01,  0.010025,  0.010033,    9.6497,    9.6515,         0,  45419,  2554,  |4-> 0 , |5-> 0 , |6-> 0 ,,  |4-> 0 , |5-> 0 , |6-> 0 ,,  |1-> 0 , |2-> 1643 , |3-> 291 , |4-> 3133 , |5-> 14909 , |6-> 25443 ,,  |1-> 0 , |2-> 116 , |3-> 22 , |4-> 172 , |5-> 820 , |6-> 1424 ,
simulation,         2,      0.99,   0.75903,   0.77134,    615.99,    547.41,         1,  0,  0,  ,  ,  ,  
simulation,         3,       0.5,   0.50032,   0.50031,    12.603,    12.606,         0,  2046987,  351562,  |4-> 0 , |5-> 0 , |6-> 0 ,,  |4-> 0 , |5-> 0 , |6-> 0 ,,  |1-> 0 , |2-> 70945 , |3-> 12232 , |4-> 138997 , |5-> 667450 , |6-> 1157363 ,,  |1-> 0 , |2-> 13606 , |3-> 2258 , |4-> 25494 , |5-> 117024 , |6-> 193180 ,
simulation,         4,      0.74,   0.73875,   0.74007,    47.355,    47.547,         0,  3602919,  650938,  |4-> 0 , |5-> 0 , |6-> 0 ,,  |4-> 0 , |5-> 0 , |6-> 0 ,,  |1-> 0 , |2-> 129236 , |3-> 22130 , |4-> 246389 , |5-> 1175223 , |6-> 2029941 ,,  |1-> 0 , |2-> 20822 , |3-> 3730 , |4-> 44620 , |5-> 214396 , |6-> 367370 ,
simulation,         5,      0.86,   0.76624,   0.79537,    511.27,     414.1,         1,  0,  0,  ,  ,  ,  
simulation,         6,       0.8,   0.77324,   0.79028,    257.12,     246.2,         0,  6665896,  1368843,  |4-> 0 , |5-> 0 , |6-> 0 ,,  |4-> 0 , |5-> 0 , |6-> 0 ,,  |1-> 0 , |2-> 230676 , |3-> 37447 , |4-> 430254 , |5-> 2137093 , |6-> 3830426 ,,  |1-> 0 , |2-> 53969 , |3-> 11524 , |4-> 119371 , |5-> 487504 , |6-> 696475 ,
simulation,         7,      0.83,   0.76961,   0.79366,    413.27,     340.6,         1,  0,  0,  ,  ,  ,  
simulation,         8,      0.81,   0.77252,   0.79336,    333.37,    301.48,         0,  6932622,  1463132,  |4-> 0 , |5-> 0 , |6-> 0 ,,  |4-> 0 , |5-> 0 , |6-> 0 ,,  |1-> 0 , |2-> 238359 , |3-> 38078 , |4-> 443390 , |5-> 2218719 , |6-> 3994076 ,,  |1-> 0 , |2-> 58174 , |3-> 12887 , |4-> 129912 , |5-> 523609 , |6-> 738550 ,
simulation,         9,      0.82,   0.77044,   0.79376,    417.09,    348.58,         0,  7078432,  1545156,  |4-> 0 , |5-> 0 , |6-> 0 ,,  |4-> 0 , |5-> 0 , |6-> 0 ,,  |1-> 0 , |2-> 242632 , |3-> 39013 , |4-> 451508 , |5-> 2261146 , |6-> 4084133 ,,  |1-> 0 , |2-> 61698 , |3-> 13741 , |4-> 138635 , |5-> 555432 , |6-> 775650 ,
simulation,        11,      0.75,   0.74859,   0.75003,    60.969,    61.488,         0,  3799928,  714892,  |4-> 0 , |5-> 0 , |6-> 0 ,,  |4-> 0 , |5-> 0 , |6-> 0 ,,  |1-> 0 , |2-> 136182 , |3-> 23006 , |4-> 257508 , |5-> 1237070 , |6-> 2146162 ,,  |1-> 0 , |2-> 23459 , |3-> 4419 , |4-> 51041 , |5-> 238761 , |6-> 397212 ,
simulation,        12,       0.7,   0.70001,   0.70003,    19.776,    19.807,         0,  2950046,  449677,  |4-> 0 , |5-> 0 , |6-> 0 ,,  |4-> 0 , |5-> 0 , |6-> 0 ,,  |1-> 0 , |2-> 104786 , |3-> 17776 , |4-> 199417 , |5-> 962004 , |6-> 1666063 ,,  |1-> 0 , |2-> 15690 , |3-> 2685 , |4-> 31225 , |5-> 148723 , |6-> 251354 ,
simulation,        13,      0.65,   0.65011,   0.65009,    15.484,    15.489,         0,  2724325,  403473,  |4-> 0 , |5-> 0 , |6-> 0 ,,  |4-> 0 , |5-> 0 , |6-> 0 ,,  |1-> 0 , |2-> 95917 , |3-> 16391 , |4-> 185033 , |5-> 886499 , |6-> 1540485 ,,  |1-> 0 , |2-> 14930 , |3-> 2541 , |4-> 29239 , |5-> 133899 , |6-> 222864 ,
