topology , vc_buf_size , internal_speedup , warmup_periods , sample_period , seed , traffic , perm_seed , shift_offset , shift_percentage , routing_function , multitiered_routing_threshold_0 , multitiered_routing_threshold_1 , saturationPoint , irate_vs_packet_latency , irate_vs_flit_latency
edison , 64 , 4.0 , 5 , 1000 , 73 , pe_based_shift_uniform ,  , 3072 , 25 , min , 10 , 50 , 0.20 , 0.05->52.612 | 0.1->52.824 | 0.13->53.021 | 0.15->53.271 | 0.19->92.605 | 0.2->147.85 , 0.05->52.643 | 0.1->52.856 | 0.13->53.052 | 0.15->53.303 | 0.19->116.64 | 0.2->204.69
edison , 64 , 4.0 , 5 , 1000 , 73 , pe_based_shift_uniform ,  , 3072 , 25 , vlb , 10 , 50 , 0.46 , 0.25->103.28 | 0.3->104.37 | 0.35->106.14 | 0.37->107.38 | 0.4->110.85 | 0.43->126.1 | 0.45->239.41 | 0.46->376.3 , 0.25->103.35 | 0.3->104.43 | 0.35->106.2 | 0.37->107.44 | 0.4->110.91 | 0.43->126.22 | 0.45->265.76 | 0.46->529.89
edison , 64 , 4.0 , 5 , 1000 , 73 , pe_based_shift_uniform ,  , 3072 , 25 , UGAL_L , 10 , 50 , 0.55 , 0.4->131.15 | 0.45->142.87 | 0.5->160.83 | 0.53->193.27 | 0.54->210.16 | 0.55->233.1 , 0.4->134.43 | 0.45->149.28 | 0.5->187.94 | 0.53->239.52 | 0.54->260.68 | 0.55->291.24
edison , 64 , 4.0 , 5 , 1000 , 73 , pe_based_shift_uniform ,  , 3072 , 25 , UGAL_mt_src , 10 , 50 , 0.58 , 0.4->126.9 | 0.45->130.62 | 0.5->135.59 | 0.55->157.16 | 0.56->161.33 | 0.57->180.64 | 0.58->218.69 , 0.4->129.97 | 0.45->134.25 | 0.5->138.81 | 0.55->172.44 | 0.56->180.8 | 0.57->213.77 | 0.58->295.83
edison , 64 , 4.0 , 5 , 1000 , 73 , pe_based_shift_uniform ,  , 3072 , 25 , PAR , 10 , 50 , 0.48 , 0.25->98.303 | 0.3->99.599 | 0.35->101.54 | 0.37->102.61 | 0.4->105.98 | 0.43->114.86 | 0.45->127.89 | 0.46->143.43 | 0.48->220.84 , 0.25->98.7 | 0.3->100.01 | 0.35->101.95 | 0.37->103.02 | 0.4->106.43 | 0.43->115.1 | 0.45->128.12 | 0.46->143.88 | 0.48->279.79
edison , 64 , 4.0 , 5 , 1000 , 73 , pe_based_shift_uniform ,  , 3072 , 25 , PAR_mt_src , 10 , 50 , 0.48 , 0.25->85.079 | 0.3->86.309 | 0.35->87.849 | 0.37->88.785 | 0.4->91.651 | 0.43->99.675 | 0.45->114.43 | 0.46->131.22 | 0.48->247.33 , 0.25->85.311 | 0.3->86.534 | 0.35->88.079 | 0.37->89.003 | 0.4->91.882 | 0.43->100.03 | 0.45->116.26 | 0.46->146.25 | 0.48->325.36

edison , 64 , 4.0 , 5 , 1000 , 73 , pe_based_shift_uniform ,  , 3072 , 50 , min , 10 , 50 , 0.12 , 0.05->53.196 | 0.07->53.41 | 0.1->54.999 | 0.11->94.023 | 0.12->215.29 , 0.05->53.227 | 0.07->53.441 | 0.1->55.03 | 0.11->105.95 | 0.12->320.74
edison , 64 , 4.0 , 5 , 1000 , 73 , pe_based_shift_uniform ,  , 3072 , 50 , vlb , 10 , 50 , 0.44 , 0.25->104.33 | 0.3->105.53 | 0.35->107.76 | 0.37->109.48 | 0.4->115.99 | 0.43->233.69 | 0.44->369.4 , 0.25->104.39 | 0.3->105.58 | 0.35->107.81 | 0.37->109.52 | 0.4->116.01 | 0.43->292.99 | 0.44->550.92
edison , 64 , 4.0 , 5 , 1000 , 73 , pe_based_shift_uniform ,  , 3072 , 50 , UGAL_L , 10 , 50 , 0.41 , 0.25->179.58 | 0.3->193.59 | 0.35->208.24 | 0.37->217.18 | 0.4->241.91 | 0.41->256.18 , 0.25->185.31 | 0.3->200.63 | 0.35->216.06 | 0.37->226.6 | 0.4->276.24 | 0.41->339.99
edison , 64 , 4.0 , 5 , 1000 , 73 , pe_based_shift_uniform ,  , 3072 , 50 , UGAL_mt_src , 10 , 50 , 0.49 , 0.25->184.38 | 0.3->183.48 | 0.35->189.83 | 0.37->191.3 | 0.4->194.31 | 0.43->198.55 | 0.45->204.14 | 0.46->210.48 | 0.48->232.32 | 0.49->252.87 , 0.25->190.63 | 0.3->190.75 | 0.35->197.94 | 0.37->199.51 | 0.4->202.51 | 0.43->206.79 | 0.45->214.35 | 0.46->229.63 | 0.48->289.05 | 0.49->342.36
edison , 64 , 4.0 , 5 , 1000 , 73 , pe_based_shift_uniform ,  , 3072 , 50 , PAR , 10 , 50 , 0.47 , 0.25->102.08 | 0.3->104.13 | 0.35->106.85 | 0.37->108.28 | 0.4->113.91 | 0.43->133.63 | 0.45->165.42 | 0.46->187.97 | 0.47->234.15 , 0.25->102.42 | 0.3->104.47 | 0.35->107.18 | 0.37->108.61 | 0.4->114.31 | 0.43->133.33 | 0.45->165.92 | 0.46->189.58 | 0.47->288.17
edison , 64 , 4.0 , 5 , 1000 , 73 , pe_based_shift_uniform ,  , 3072 , 50 , PAR_mt_src , 10 , 50 , 0.47 , 0.25->89.436 | 0.3->90.917 | 0.35->93.709 | 0.37->97.722 | 0.4->119.24 | 0.43->196.03 | 0.45->255.21 | 0.46->323.48 | 0.47->337.61 , 0.25->89.627 | 0.3->91.102 | 0.35->93.894 | 0.37->97.881 | 0.4->122.5 | 0.43->240.44 | 0.45->245.82 | 0.46->365.96 | 0.47->414.22

edison , 64 , 4.0 , 5 , 1000 , 73 , pe_based_shift_uniform ,  , 3072 , 75 , min , 10 , 50 , 0.08 , 0.05->54.036 | 0.07->55.487 | 0.08->86.663 , 0.05->54.065 | 0.07->55.521 | 0.08->91.695
edison , 64 , 4.0 , 5 , 1000 , 73 , pe_based_shift_uniform ,  , 3072 , 75 , vlb , 10 , 50 , 0.43 , 0.25->105.46 | 0.3->106.82 | 0.35->109.63 | 0.37->112.17 | 0.4->127.36 | 0.43->407.0 , 0.25->105.5 | 0.3->106.84 | 0.35->109.65 | 0.37->112.16 | 0.4->127.42 | 0.43->555.27
edison , 64 , 4.0 , 5 , 1000 , 73 , pe_based_shift_uniform ,  , 3072 , 75 , UGAL_L , 10 , 50 , 0.33 , 0.15->175.37 | 0.2->253.28 | 0.25->273.82 | 0.3->293.03 | 0.31->299.22 | 0.32->309.86 | 0.33->321.87 , 0.15->179.11 | 0.2->262.55 | 0.25->283.96 | 0.3->306.31 | 0.31->313.41 | 0.32->325.01 | 0.33->348.58
edison , 64 , 4.0 , 5 , 1000 , 73 , pe_based_shift_uniform ,  , 3072 , 75 , UGAL_mt_src , 10 , 50 , 0.41 , 0.25->259.08 | 0.3->256.94 | 0.35->263.05 | 0.37->269.01 | 0.4->292.87 | 0.41->307.75 , 0.25->269.99 | 0.3->269.22 | 0.35->277.28 | 0.37->280.7 | 0.4->338.51 | 0.41->405.84
edison , 64 , 4.0 , 5 , 1000 , 73 , pe_based_shift_uniform ,  , 3072 , 75 , PAR , 10 , 50 , 0.46 , 0.25->106.33 | 0.3->108.91 | 0.35->112.26 | 0.37->115.86 | 0.4->127.86 | 0.43->175.01 | 0.45->225.2 | 0.46->278.88 , 0.25->106.59 | 0.3->109.16 | 0.35->112.5 | 0.37->116.1 | 0.4->128.42 | 0.43->181.87 | 0.45->242.69 | 0.46->422.86
edison , 64 , 4.0 , 5 , 1000 , 73 , pe_based_shift_uniform ,  , 3072 , 75 , PAR_mt_src , 10 , 50 , 0.47 , 0.25->93.757 | 0.3->95.652 | 0.35->105.57 | 0.37->124.9 | 0.4->162.04 | 0.43->221.37 | 0.45->257.64 | 0.46->279.37 | 0.47->334.23 , 0.25->93.901 | 0.3->95.779 | 0.35->105.86 | 0.37->126.51 | 0.4->160.11 | 0.43->217.54 | 0.45->278.15 | 0.46->319.49 | 0.47->482.13

edison , 64 , 4.0 , 5 , 1000 , 74 , pe_based_shift_uniform ,  , 3072 , 25 , min , 10 , 50 , 0.20 , 0.05->52.612 | 0.1->52.817 | 0.13->53.024 | 0.15->53.284 | 0.19->94.01 | 0.2->148.51 , 0.05->52.647 | 0.1->52.849 | 0.13->53.054 | 0.15->53.315 | 0.19->117.47 | 0.2->201.85
edison , 64 , 4.0 , 5 , 1000 , 74 , pe_based_shift_uniform ,  , 3072 , 25 , vlb , 10 , 50 , 0.46 , 0.25->103.29 | 0.3->104.34 | 0.35->106.16 | 0.37->107.38 | 0.4->110.83 | 0.43->125.81 | 0.45->239.07 | 0.46->373.81 , 0.25->103.36 | 0.3->104.41 | 0.35->106.22 | 0.37->107.44 | 0.4->110.87 | 0.43->125.93 | 0.45->278.19 | 0.46->500.71
edison , 64 , 4.0 , 5 , 1000 , 74 , pe_based_shift_uniform ,  , 3072 , 25 , UGAL_L , 10 , 50 , 0.55 , 0.4->131.16 | 0.45->142.46 | 0.5->160.93 | 0.53->195.38 | 0.54->207.67 | 0.55->228.2 , 0.4->134.08 | 0.45->146.39 | 0.5->176.46 | 0.53->250.4 | 0.54->256.07 | 0.55->304.81
edison , 64 , 4.0 , 5 , 1000 , 74 , pe_based_shift_uniform ,  , 3072 , 25 , UGAL_mt_src , 10 , 50 , 0.58 , 0.4->126.52 | 0.45->130.66 | 0.5->135.6 | 0.55->153.62 | 0.56->162.78 | 0.57->180.28 | 0.58->220.0 , 0.4->129.6 | 0.45->133.75 | 0.5->138.95 | 0.55->167.39 | 0.56->184.9 | 0.57->210.42 | 0.58->299.13
edison , 64 , 4.0 , 5 , 1000 , 74 , pe_based_shift_uniform ,  , 3072 , 25 , PAR , 10 , 50 , 0.48 , 0.25->98.255 | 0.3->99.576 | 0.35->101.52 | 0.37->102.62 | 0.4->105.9 | 0.43->114.42 | 0.45->127.36 | 0.46->141.95 | 0.48->219.39 , 0.25->98.665 | 0.3->99.986 | 0.35->101.93 | 0.37->103.02 | 0.4->106.31 | 0.43->115.05 | 0.45->127.83 | 0.46->143.97 | 0.48->283.04
edison , 64 , 4.0 , 5 , 1000 , 74 , pe_based_shift_uniform ,  , 3072 , 25 , PAR_mt_src , 10 , 50 , 0.48 , 0.25->85.116 | 0.3->86.273 | 0.35->87.883 | 0.37->88.801 | 0.4->91.654 | 0.43->99.863 | 0.45->112.07 | 0.46->129.67 | 0.48->242.49 , 0.25->85.351 | 0.3->86.498 | 0.35->88.104 | 0.37->89.017 | 0.4->91.899 | 0.43->100.12 | 0.45->115.19 | 0.46->139.79 | 0.48->322.97

edison , 64 , 4.0 , 5 , 1000 , 74 , pe_based_shift_uniform ,  , 3072 , 50 , min , 10 , 50 , 0.12 , 0.05->53.2 | 0.07->53.416 | 0.1->54.866 | 0.11->91.271 | 0.12->216.15 , 0.05->53.23 | 0.07->53.445 | 0.1->54.892 | 0.11->102.42 | 0.12->325.13
edison , 64 , 4.0 , 5 , 1000 , 74 , pe_based_shift_uniform ,  , 3072 , 50 , vlb , 10 , 50 , 0.44 , 0.25->104.34 | 0.3->105.54 | 0.35->107.76 | 0.37->109.48 | 0.4->116.03 | 0.43->233.59 | 0.44->367.8 , 0.25->104.4 | 0.3->105.59 | 0.35->107.8 | 0.37->109.52 | 0.4->116.05 | 0.43->287.9 | 0.44->560.27
edison , 64 , 4.0 , 5 , 1000 , 74 , pe_based_shift_uniform ,  , 3072 , 50 , UGAL_L , 10 , 50 , 0.42 , 0.25->179.36 | 0.3->193.32 | 0.35->208.23 | 0.37->217.44 | 0.4->241.04 | 0.41->252.44 | 0.42->267.58 , 0.25->184.79 | 0.3->200.24 | 0.35->216.2 | 0.37->226.5 | 0.4->290.83 | 0.41->325.3 | 0.42->383.19
edison , 64 , 4.0 , 5 , 1000 , 74 , pe_based_shift_uniform ,  , 3072 , 50 , UGAL_mt_src , 10 , 50 , 0.49 , 0.25->184.45 | 0.3->183.32 | 0.35->189.4 | 0.37->191.12 | 0.4->194.49 | 0.43->197.59 | 0.45->205.18 | 0.46->210.48 | 0.48->234.77 | 0.49->251.3 , 0.25->191.18 | 0.3->190.75 | 0.35->197.46 | 0.37->199.42 | 0.4->202.46 | 0.43->205.16 | 0.45->214.85 | 0.46->230.38 | 0.48->291.69 | 0.49->335.36
edison , 64 , 4.0 , 5 , 1000 , 74 , pe_based_shift_uniform ,  , 3072 , 50 , PAR , 10 , 50 , 0.47 , 0.25->102.07 | 0.3->104.19 | 0.35->106.87 | 0.37->108.25 | 0.4->114.07 | 0.43->132.94 | 0.45->164.89 | 0.46->187.07 | 0.47->233.63 , 0.25->102.42 | 0.3->104.52 | 0.35->107.2 | 0.37->108.58 | 0.4->114.45 | 0.43->132.88 | 0.45->163.7 | 0.46->187.45 | 0.47->292.2
edison , 64 , 4.0 , 5 , 1000 , 74 , pe_based_shift_uniform ,  , 3072 , 50 , PAR_mt_src , 10 , 50 , 0.47 , 0.25->89.416 | 0.3->90.908 | 0.35->93.824 | 0.37->97.655 | 0.4->121.98 | 0.43->182.93 | 0.45->249.49 | 0.46->282.22 | 0.47->328.46 , 0.25->89.614 | 0.3->91.099 | 0.35->94.015 | 0.37->97.9 | 0.4->123.63 | 0.43->190.02 | 0.45->248.31 | 0.46->329.15 | 0.47->435.01

edison , 64 , 4.0 , 5 , 1000 , 74 , pe_based_shift_uniform ,  , 3072 , 75 , min , 10 , 50 , 0.08 , 0.05->54.037 | 0.07->55.483 | 0.08->90.106 , 0.05->54.065 | 0.07->55.507 | 0.08->98.339
edison , 64 , 4.0 , 5 , 1000 , 74 , pe_based_shift_uniform ,  , 3072 , 75 , vlb , 10 , 50 , 0.43 , 0.25->105.46 | 0.3->106.8 | 0.35->109.65 | 0.37->112.2 | 0.4->127.46 | 0.43->407.56 , 0.25->105.5 | 0.3->106.83 | 0.35->109.67 | 0.37->112.2 | 0.4->127.5 | 0.43->576.09
edison , 64 , 4.0 , 5 , 1000 , 74 , pe_based_shift_uniform ,  , 3072 , 75 , UGAL_L , 10 , 50 , 0.34 , 0.2->253.18 | 0.25->274.5 | 0.3->293.74 | 0.31->300.32 | 0.34->337.93 , 0.2->262.57 | 0.25->285.08 | 0.3->307.11 | 0.31->312.06 | 0.34->407.05
edison , 64 , 4.0 , 5 , 1000 , 74 , pe_based_shift_uniform ,  , 3072 , 75 , UGAL_mt_src , 10 , 50 , 0.40 , 0.25->258.56 | 0.3->256.6 | 0.35->263.83 | 0.37->268.21 | 0.4->291.69 , 0.25->270.06 | 0.3->269.11 | 0.35->273.98 | 0.37->280.78 | 0.4->355.79
edison , 64 , 4.0 , 5 , 1000 , 74 , pe_based_shift_uniform ,  , 3072 , 75 , PAR , 10 , 50 , 0.46 , 0.25->106.3 | 0.3->108.92 | 0.35->112.27 | 0.37->115.74 | 0.4->129.58 | 0.43->177.41 | 0.45->228.56 | 0.46->277.52 , 0.25->106.58 | 0.3->109.17 | 0.35->112.52 | 0.37->115.99 | 0.4->129.92 | 0.43->181.87 | 0.45->314.42 | 0.46->417.21
edison , 64 , 4.0 , 5 , 1000 , 74 , pe_based_shift_uniform ,  , 3072 , 75 , PAR_mt_src , 10 , 50 , 0.47 , 0.25->93.765 | 0.3->95.645 | 0.35->105.92 | 0.37->127.21 | 0.4->160.77 | 0.43->227.07 | 0.45->254.12 | 0.46->298.8 | 0.47->328.15 , 0.25->93.914 | 0.3->95.779 | 0.35->106.19 | 0.37->127.03 | 0.4->166.88 | 0.43->242.0 | 0.45->272.31 | 0.46->358.51 | 0.47->488.99

edison , 64 , 4.0 , 5 , 1000 , 73 , pe_based_shift_uniform ,  , 384 , 25 , min , 10 , 50 , 0.20 , 0.05->52.623 | 0.1->52.828 | 0.13->53.045 | 0.15->53.283 | 0.19->92.775 | 0.2->145.48 , 0.05->52.654 | 0.1->52.861 | 0.13->53.08 | 0.15->53.316 | 0.19->127.27 | 0.2->207.26
edison , 64 , 4.0 , 5 , 1000 , 73 , pe_based_shift_uniform ,  , 384 , 25 , vlb , 10 , 50 , 0.46 , 0.25->103.28 | 0.3->104.36 | 0.35->106.15 | 0.37->107.4 | 0.4->110.88 | 0.43->126.11 | 0.45->239.72 | 0.46->376.92 , 0.25->103.35 | 0.3->104.42 | 0.35->106.22 | 0.37->107.46 | 0.4->110.93 | 0.43->126.21 | 0.45->283.08 | 0.46->507.7
edison , 64 , 4.0 , 5 , 1000 , 73 , pe_based_shift_uniform ,  , 384 , 25 , UGAL_L , 10 , 50 , 0.55 , 0.4->132.54 | 0.45->144.12 | 0.5->166.84 | 0.53->206.31 | 0.54->221.84 | 0.55->241.56 , 0.4->135.88 | 0.45->148.74 | 0.5->188.39 | 0.53->262.12 | 0.54->281.05 | 0.55->298.14
edison , 64 , 4.0 , 5 , 1000 , 73 , pe_based_shift_uniform ,  , 384 , 25 , UGAL_mt_src , 10 , 50 , 0.58 , 0.4->127.81 | 0.45->132.1 | 0.5->136.61 | 0.55->160.73 | 0.56->172.49 | 0.57->187.44 | 0.58->229.73 , 0.4->131.19 | 0.45->134.97 | 0.5->140.5 | 0.55->179.86 | 0.56->201.67 | 0.57->222.98 | 0.58->298.81
edison , 64 , 4.0 , 5 , 1000 , 73 , pe_based_shift_uniform ,  , 384 , 25 , PAR , 10 , 50 , 0.48 , 0.25->98.203 | 0.3->99.547 | 0.35->101.5 | 0.37->102.56 | 0.4->104.98 | 0.43->111.52 | 0.45->125.27 | 0.46->145.48 | 0.48->224.29 , 0.25->98.601 | 0.3->99.948 | 0.35->101.91 | 0.37->102.96 | 0.4->105.37 | 0.43->111.88 | 0.45->126.07 | 0.46->149.82 | 0.48->282.4
edison , 64 , 4.0 , 5 , 1000 , 73 , pe_based_shift_uniform ,  , 384 , 25 , PAR_mt_src , 10 , 50 , 0.49 , 0.25->84.787 | 0.3->86.031 | 0.35->87.778 | 0.37->89.127 | 0.4->94.076 | 0.43->102.31 | 0.45->113.42 | 0.46->124.75 | 0.48->178.44 | 0.49->233.38 , 0.25->85.017 | 0.3->86.252 | 0.35->88.006 | 0.37->89.348 | 0.4->94.395 | 0.43->103.18 | 0.45->126.15 | 0.46->146.22 | 0.48->250.66 | 0.49->462.7

edison , 64 , 4.0 , 5 , 1000 , 73 , pe_based_shift_uniform ,  , 384 , 50 , min , 10 , 50 , 0.12 , 0.05->53.156 | 0.07->53.386 | 0.1->54.859 | 0.11->92.759 | 0.12->218.58 , 0.05->53.186 | 0.07->53.419 | 0.1->54.898 | 0.11->107.62 | 0.12->362.4
edison , 64 , 4.0 , 5 , 1000 , 73 , pe_based_shift_uniform ,  , 384 , 50 , vlb , 10 , 50 , 0.43 , 0.25->104.31 | 0.3->105.53 | 0.35->107.77 | 0.37->109.48 | 0.4->115.92 | 0.43->229.05 , 0.25->104.37 | 0.3->105.58 | 0.35->107.81 | 0.37->109.52 | 0.4->115.94 | 0.43->282.43
edison , 64 , 4.0 , 5 , 1000 , 73 , pe_based_shift_uniform ,  , 384 , 50 , UGAL_L , 10 , 50 , 0.41 , 0.25->181.67 | 0.3->194.11 | 0.35->211.08 | 0.37->221.31 | 0.4->245.83 | 0.41->257.23 , 0.25->186.78 | 0.3->200.69 | 0.35->218.09 | 0.37->230.25 | 0.4->288.95 | 0.41->327.5
edison , 64 , 4.0 , 5 , 1000 , 73 , pe_based_shift_uniform ,  , 384 , 50 , UGAL_mt_src , 10 , 50 , 0.49 , 0.25->184.52 | 0.3->184.1 | 0.35->190.45 | 0.37->192.32 | 0.4->195.57 | 0.43->199.8 | 0.45->208.28 | 0.46->216.83 | 0.48->243.64 | 0.49->262.1 , 0.25->191.09 | 0.3->190.91 | 0.35->198.39 | 0.37->200.31 | 0.4->203.43 | 0.43->208.08 | 0.45->220.62 | 0.46->248.04 | 0.48->317.65 | 0.49->366.21
edison , 64 , 4.0 , 5 , 1000 , 73 , pe_based_shift_uniform ,  , 384 , 50 , PAR , 10 , 50 , 0.47 , 0.25->102.0 | 0.3->104.11 | 0.35->106.75 | 0.37->108.17 | 0.4->112.6 | 0.43->128.6 | 0.45->168.73 | 0.46->199.61 | 0.47->252.17 , 0.25->102.35 | 0.3->104.45 | 0.35->107.08 | 0.37->108.49 | 0.4->112.94 | 0.43->129.24 | 0.45->174.5 | 0.46->211.71 | 0.47->292.01
edison , 64 , 4.0 , 5 , 1000 , 73 , pe_based_shift_uniform ,  , 384 , 50 , PAR_mt_src , 10 , 50 , 0.47 , 0.25->89.242 | 0.3->91.129 | 0.35->102.25 | 0.37->118.5 | 0.4->144.74 | 0.43->184.36 | 0.45->213.55 | 0.46->238.52 | 0.47->266.7 , 0.25->89.442 | 0.3->91.323 | 0.35->104.17 | 0.37->118.97 | 0.4->152.48 | 0.43->191.03 | 0.45->253.08 | 0.46->275.24 | 0.47->397.09

edison , 64 , 4.0 , 5 , 1000 , 73 , pe_based_shift_uniform ,  , 384 , 75 , min , 10 , 50 , 0.08 , 0.05->54.023 | 0.07->55.516 | 0.08->87.097 , 0.05->54.054 | 0.07->55.553 | 0.08->94.248
edison , 64 , 4.0 , 5 , 1000 , 73 , pe_based_shift_uniform ,  , 384 , 75 , vlb , 10 , 50 , 0.43 , 0.25->105.46 | 0.3->106.8 | 0.35->109.61 | 0.37->112.17 | 0.4->127.46 | 0.43->406.56 , 0.25->105.49 | 0.3->106.84 | 0.35->109.62 | 0.37->112.17 | 0.4->127.48 | 0.43->544.73
edison , 64 , 4.0 , 5 , 1000 , 73 , pe_based_shift_uniform ,  , 384 , 75 , UGAL_L , 10 , 50 , 0.34 , 0.2->255.01 | 0.25->276.05 | 0.3->294.36 | 0.31->304.16 | 0.34->343.59 , 0.2->263.95 | 0.25->288.37 | 0.3->307.77 | 0.31->317.8 | 0.34->410.87
edison , 64 , 4.0 , 5 , 1000 , 73 , pe_based_shift_uniform ,  , 384 , 75 , UGAL_mt_src , 10 , 50 , 0.41 , 0.25->258.41 | 0.3->258.53 | 0.35->266.09 | 0.37->270.28 | 0.4->294.88 | 0.41->312.97 , 0.25->270.12 | 0.3->271.63 | 0.35->279.67 | 0.37->284.22 | 0.4->348.07 | 0.41->410.93
edison , 64 , 4.0 , 5 , 1000 , 73 , pe_based_shift_uniform ,  , 384 , 75 , PAR , 10 , 50 , 0.46 , 0.25->106.22 | 0.3->108.85 | 0.35->112.23 | 0.37->115.64 | 0.4->126.79 | 0.43->179.37 | 0.45->234.55 | 0.46->301.55 , 0.25->106.5 | 0.3->109.11 | 0.35->112.49 | 0.37->115.95 | 0.4->127.17 | 0.43->185.99 | 0.45->247.44 | 0.46->509.84
edison , 64 , 4.0 , 5 , 1000 , 73 , pe_based_shift_uniform ,  , 384 , 75 , PAR_mt_src , 10 , 50 , 0.47 , 0.25->93.829 | 0.3->107.15 | 0.35->136.07 | 0.37->141.56 | 0.4->158.18 | 0.43->190.48 | 0.45->253.71 | 0.46->286.48 | 0.47->328.15 , 0.25->93.98 | 0.3->107.98 | 0.35->136.75 | 0.37->145.45 | 0.4->165.36 | 0.43->199.45 | 0.45->285.18 | 0.46->345.64 | 0.47->481.04

edison , 64 , 4.0 , 5 , 1000 , 74 , pe_based_shift_uniform ,  , 384 , 25 , min , 10 , 50 , 0.20 , 0.05->52.627 | 0.1->52.835 | 0.13->53.038 | 0.15->53.298 | 0.19->94.738 | 0.2->147.83 , 0.05->52.661 | 0.1->52.865 | 0.13->53.073 | 0.15->53.329 | 0.19->123.48 | 0.2->215.76
edison , 64 , 4.0 , 5 , 1000 , 74 , pe_based_shift_uniform ,  , 384 , 25 , vlb , 10 , 50 , 0.46 , 0.25->103.28 | 0.3->104.33 | 0.35->106.17 | 0.37->107.4 | 0.4->110.85 | 0.43->126.22 | 0.45->242.43 | 0.46->374.65 , 0.25->103.35 | 0.3->104.4 | 0.35->106.23 | 0.37->107.46 | 0.4->110.9 | 0.43->126.32 | 0.45->304.98 | 0.46->501.03
edison , 64 , 4.0 , 5 , 1000 , 74 , pe_based_shift_uniform ,  , 384 , 25 , UGAL_L , 10 , 50 , 0.55 , 0.4->132.38 | 0.45->143.85 | 0.5->167.83 | 0.53->203.09 | 0.54->217.35 | 0.55->234.91 , 0.4->135.88 | 0.45->147.55 | 0.5->197.02 | 0.53->245.01 | 0.54->278.56 | 0.55->303.69
edison , 64 , 4.0 , 5 , 1000 , 74 , pe_based_shift_uniform ,  , 384 , 25 , UGAL_mt_src , 10 , 50 , 0.58 , 0.4->128.01 | 0.45->131.79 | 0.5->137.14 | 0.55->158.46 | 0.56->166.67 | 0.57->188.54 | 0.58->218.62 , 0.4->131.02 | 0.45->135.34 | 0.5->140.98 | 0.55->176.13 | 0.56->192.67 | 0.57->226.82 | 0.58->300.22
edison , 64 , 4.0 , 5 , 1000 , 74 , pe_based_shift_uniform ,  , 384 , 25 , PAR , 10 , 50 , 0.48 , 0.25->98.222 | 0.3->99.532 | 0.35->101.48 | 0.37->102.57 | 0.4->104.9 | 0.43->111.33 | 0.45->124.27 | 0.46->145.01 | 0.48->223.12 , 0.25->98.642 | 0.3->99.939 | 0.35->101.89 | 0.37->102.97 | 0.4->105.29 | 0.43->111.72 | 0.45->125.63 | 0.46->150.07 | 0.48->269.93
edison , 64 , 4.0 , 5 , 1000 , 74 , pe_based_shift_uniform ,  , 384 , 25 , PAR_mt_src , 10 , 50 , 0.49 , 0.25->84.77 | 0.3->86.047 | 0.35->87.785 | 0.37->89.115 | 0.4->94.028 | 0.43->102.61 | 0.45->113.35 | 0.46->119.71 | 0.48->171.14 | 0.49->238.19 , 0.25->85.005 | 0.3->86.272 | 0.35->88.013 | 0.37->89.336 | 0.4->94.392 | 0.43->104.84 | 0.45->123.92 | 0.46->148.34 | 0.48->255.44 | 0.49->412.1

edison , 64 , 4.0 , 5 , 1000 , 74 , pe_based_shift_uniform ,  , 384 , 50 , min , 10 , 50 , 0.12 , 0.05->53.152 | 0.07->53.377 | 0.1->54.916 | 0.11->89.84 | 0.12->218.22 , 0.05->53.189 | 0.07->53.407 | 0.1->54.942 | 0.11->104.26 | 0.12->377.48
edison , 64 , 4.0 , 5 , 1000 , 74 , pe_based_shift_uniform ,  , 384 , 50 , vlb , 10 , 50 , 0.44 , 0.25->104.35 | 0.3->105.54 | 0.35->107.76 | 0.37->109.49 | 0.4->116.04 | 0.43->224.64 | 0.44->357.18 , 0.25->104.41 | 0.3->105.6 | 0.35->107.8 | 0.37->109.52 | 0.4->116.08 | 0.43->307.37 | 0.44->561.28
edison , 64 , 4.0 , 5 , 1000 , 74 , pe_based_shift_uniform ,  , 384 , 50 , UGAL_L , 10 , 50 , 0.42 , 0.25->181.68 | 0.3->194.27 | 0.35->210.15 | 0.37->220.22 | 0.4->246.53 | 0.41->261.54 | 0.42->277.05 , 0.25->187.35 | 0.3->201.78 | 0.35->216.67 | 0.37->229.14 | 0.4->293.37 | 0.41->339.69 | 0.42->406.07
edison , 64 , 4.0 , 5 , 1000 , 74 , pe_based_shift_uniform ,  , 384 , 50 , UGAL_mt_src , 10 , 50 , 0.49 , 0.25->184.64 | 0.3->184.18 | 0.35->190.49 | 0.37->192.59 | 0.4->196.04 | 0.43->200.43 | 0.45->207.66 | 0.46->214.12 | 0.48->238.97 | 0.49->261.72 , 0.25->191.1 | 0.3->191.47 | 0.35->198.02 | 0.37->199.5 | 0.4->203.53 | 0.43->208.7 | 0.45->219.64 | 0.46->235.69 | 0.48->316.35 | 0.49->361.99
edison , 64 , 4.0 , 5 , 1000 , 74 , pe_based_shift_uniform ,  , 384 , 50 , PAR , 10 , 50 , 0.47 , 0.25->102.01 | 0.3->104.12 | 0.35->106.76 | 0.37->108.19 | 0.4->112.47 | 0.43->128.49 | 0.45->171.61 | 0.46->202.12 | 0.47->248.27 , 0.25->102.36 | 0.3->104.46 | 0.35->107.1 | 0.37->108.51 | 0.4->112.84 | 0.43->129.41 | 0.45->177.04 | 0.46->216.28 | 0.47->285.68
edison , 64 , 4.0 , 5 , 1000 , 74 , pe_based_shift_uniform ,  , 384 , 50 , PAR_mt_src , 10 , 50 , 0.48 , 0.25->89.226 | 0.3->91.178 | 0.35->102.5 | 0.37->115.93 | 0.4->146.06 | 0.43->178.31 | 0.45->208.1 | 0.46->241.03 | 0.48->314.05 , 0.25->89.43 | 0.3->91.371 | 0.35->103.5 | 0.37->119.91 | 0.4->154.54 | 0.43->194.54 | 0.45->254.23 | 0.46->260.69 | 0.48->479.27

edison , 64 , 4.0 , 5 , 1000 , 74 , pe_based_shift_uniform ,  , 384 , 75 , min , 10 , 50 , 0.08 , 0.05->54.021 | 0.07->55.489 | 0.08->90.183 , 0.05->54.054 | 0.07->55.522 | 0.08->101.26
edison , 64 , 4.0 , 5 , 1000 , 74 , pe_based_shift_uniform ,  , 384 , 75 , vlb , 10 , 50 , 0.43 , 0.25->105.44 | 0.3->106.81 | 0.35->109.62 | 0.37->112.18 | 0.4->127.36 | 0.43->399.86 , 0.25->105.48 | 0.3->106.84 | 0.35->109.64 | 0.37->112.19 | 0.4->127.38 | 0.43->559.5
edison , 64 , 4.0 , 5 , 1000 , 74 , pe_based_shift_uniform ,  , 384 , 75 , UGAL_L , 10 , 50 , 0.34 , 0.2->254.18 | 0.25->275.77 | 0.3->295.9 | 0.31->304.0 | 0.34->347.31 , 0.2->263.67 | 0.25->288.63 | 0.3->310.66 | 0.31->318.49 | 0.34->406.26
edison , 64 , 4.0 , 5 , 1000 , 74 , pe_based_shift_uniform ,  , 384 , 75 , UGAL_mt_src , 10 , 50 , 0.41 , 0.25->259.08 | 0.3->258.75 | 0.35->266.3 | 0.37->271.59 | 0.4->297.81 | 0.41->315.94 , 0.25->271.3 | 0.3->271.93 | 0.35->279.79 | 0.37->283.51 | 0.4->371.0 | 0.41->415.71
edison , 64 , 4.0 , 5 , 1000 , 74 , pe_based_shift_uniform ,  , 384 , 75 , PAR , 10 , 50 , 0.46 , 0.25->106.24 | 0.3->108.84 | 0.35->112.21 | 0.37->115.41 | 0.4->126.9 | 0.43->180.67 | 0.45->239.17 | 0.46->291.21 , 0.25->106.5 | 0.3->109.11 | 0.35->112.46 | 0.37->115.73 | 0.4->127.45 | 0.43->185.58 | 0.45->256.55 | 0.46->433.16
edison , 64 , 4.0 , 5 , 1000 , 74 , pe_based_shift_uniform ,  , 384 , 75 , PAR_mt_src , 10 , 50 , 0.46 , 0.25->93.824 | 0.3->106.88 | 0.35->134.0 | 0.37->142.09 | 0.4->159.85 | 0.43->202.72 | 0.45->248.3 | 0.46->295.56 , 0.25->93.972 | 0.3->107.37 | 0.35->135.29 | 0.37->142.95 | 0.4->168.63 | 0.43->215.31 | 0.45->278.66 | 0.46->419.42

edison , 64 , 4.0 , 5 , 1000 , 73 , router_based_shift_uniform ,  , 3072 , 25 , min , 10 , 50 , 0.21 , 0.05->52.559 | 0.1->52.74 | 0.13->52.929 | 0.15->53.123 | 0.19->65.198 | 0.2->108.05 | 0.21->179.04 , 0.05->52.589 | 0.1->52.772 | 0.13->52.962 | 0.15->53.155 | 0.19->67.95 | 0.2->147.87 | 0.21->261.8
edison , 64 , 4.0 , 5 , 1000 , 73 , router_based_shift_uniform ,  , 3072 , 25 , vlb , 10 , 50 , 0.46 , 0.25->103.22 | 0.3->104.28 | 0.35->106.06 | 0.37->107.29 | 0.4->110.67 | 0.43->124.72 | 0.45->234.68 | 0.46->371.74 , 0.25->103.3 | 0.3->104.35 | 0.35->106.12 | 0.37->107.35 | 0.4->110.71 | 0.43->124.82 | 0.45->271.96 | 0.46->484.55
edison , 64 , 4.0 , 5 , 1000 , 73 , router_based_shift_uniform ,  , 3072 , 25 , UGAL_L , 10 , 50 , 0.57 , 0.4->125.88 | 0.45->136.74 | 0.5->156.66 | 0.55->212.41 | 0.56->234.15 | 0.57->273.64 , 0.4->128.75 | 0.45->140.85 | 0.5->175.38 | 0.55->267.62 | 0.56->283.35 | 0.57->325.71
edison , 64 , 4.0 , 5 , 1000 , 73 , router_based_shift_uniform ,  , 3072 , 25 , UGAL_mt_src , 10 , 50 , 0.58 , 0.4->122.78 | 0.45->126.48 | 0.5->131.88 | 0.55->150.96 | 0.56->162.26 | 0.57->180.38 | 0.58->226.57 , 0.4->125.05 | 0.45->128.84 | 0.5->135.47 | 0.55->164.25 | 0.56->183.83 | 0.57->227.21 | 0.58->312.24
edison , 64 , 4.0 , 5 , 1000 , 73 , router_based_shift_uniform ,  , 3072 , 25 , PAR , 10 , 50 , 0.48 , 0.25->98.069 | 0.3->99.342 | 0.35->101.22 | 0.37->102.23 | 0.4->104.77 | 0.43->113.19 | 0.45->126.93 | 0.46->140.35 | 0.48->205.42 , 0.25->98.481 | 0.3->99.752 | 0.35->101.62 | 0.37->102.64 | 0.4->105.17 | 0.43->113.54 | 0.45->127.11 | 0.46->140.38 | 0.48->279.73
edison , 64 , 4.0 , 5 , 1000 , 73 , router_based_shift_uniform ,  , 3072 , 25 , PAR_mt_src , 10 , 50 , 0.48 , 0.25->84.844 | 0.3->85.99 | 0.35->87.549 | 0.37->88.412 | 0.4->90.91 | 0.43->98.097 | 0.45->108.39 | 0.46->126.29 | 0.48->237.61 , 0.25->85.08 | 0.3->86.222 | 0.35->87.779 | 0.37->88.643 | 0.4->91.15 | 0.43->98.471 | 0.45->112.79 | 0.46->137.39 | 0.48->403.19

edison , 64 , 4.0 , 5 , 1000 , 73 , router_based_shift_uniform ,  , 3072 , 50 , min , 10 , 50 , 0.11 , 0.05->53.187 | 0.07->53.425 | 0.1->55.52 | 0.11->108.65 , 0.05->53.22 | 0.07->53.458 | 0.1->55.564 | 0.11->139.58
edison , 64 , 4.0 , 5 , 1000 , 73 , router_based_shift_uniform ,  , 3072 , 50 , vlb , 10 , 50 , 0.43 , 0.25->104.36 | 0.3->105.58 | 0.35->107.82 | 0.37->109.56 | 0.4->116.56 | 0.43->247.19 , 0.25->104.41 | 0.3->105.63 | 0.35->107.86 | 0.37->109.59 | 0.4->116.58 | 0.43->361.96
edison , 64 , 4.0 , 5 , 1000 , 73 , router_based_shift_uniform ,  , 3072 , 50 , UGAL_L , 10 , 50 , 0.42 , 0.25->181.91 | 0.3->194.77 | 0.35->210.34 | 0.37->218.73 | 0.4->245.64 | 0.41->257.07 | 0.42->277.17 , 0.25->187.51 | 0.3->201.65 | 0.35->218.67 | 0.37->228.14 | 0.4->299.19 | 0.41->344.43 | 0.42->390.53
edison , 64 , 4.0 , 5 , 1000 , 73 , router_based_shift_uniform ,  , 3072 , 50 , UGAL_mt_src , 10 , 50 , 0.49 , 0.25->186.15 | 0.3->184.6 | 0.35->190.91 | 0.37->192.84 | 0.4->195.87 | 0.43->201.68 | 0.45->211.01 | 0.46->219.22 | 0.48->246.87 | 0.49->276.69 , 0.25->192.14 | 0.3->191.97 | 0.35->198.29 | 0.37->200.42 | 0.4->202.54 | 0.43->209.43 | 0.45->232.39 | 0.46->251.72 | 0.48->320.23 | 0.49->359.1
edison , 64 , 4.0 , 5 , 1000 , 73 , router_based_shift_uniform ,  , 3072 , 50 , PAR , 10 , 50 , 0.47 , 0.25->102.08 | 0.3->104.17 | 0.35->106.86 | 0.37->109.04 | 0.4->117.76 | 0.43->140.29 | 0.45->168.89 | 0.46->193.41 | 0.47->249.19 , 0.25->102.43 | 0.3->104.52 | 0.35->107.19 | 0.37->109.39 | 0.4->118.24 | 0.43->141.03 | 0.45->170.14 | 0.46->195.52 | 0.47->361.68
edison , 64 , 4.0 , 5 , 1000 , 73 , router_based_shift_uniform ,  , 3072 , 50 , PAR_mt_src , 10 , 50 , 0.46 , 0.25->89.475 | 0.3->90.949 | 0.35->93.597 | 0.37->96.74 | 0.4->115.4 | 0.43->182.17 | 0.45->260.38 | 0.46->331.19 , 0.25->89.67 | 0.3->91.142 | 0.35->93.784 | 0.37->96.996 | 0.4->120.78 | 0.43->196.17 | 0.45->263.77 | 0.46->327.3

edison , 64 , 4.0 , 5 , 1000 , 73 , router_based_shift_uniform ,  , 3072 , 75 , min , 10 , 50 , 0.08 , 0.05->54.082 | 0.07->55.643 | 0.08->90.716 , 0.05->54.113 | 0.07->55.683 | 0.08->99.74
edison , 64 , 4.0 , 5 , 1000 , 73 , router_based_shift_uniform ,  , 3072 , 75 , vlb , 10 , 50 , 0.43 , 0.25->105.49 | 0.3->106.86 | 0.35->109.68 | 0.37->112.24 | 0.4->127.28 | 0.43->394.52 , 0.25->105.53 | 0.3->106.89 | 0.35->109.7 | 0.37->112.24 | 0.4->127.3 | 0.43->545.75
edison , 64 , 4.0 , 5 , 1000 , 73 , router_based_shift_uniform ,  , 3072 , 75 , UGAL_L , 10 , 50 , 0.34 , 0.2->256.19 | 0.25->276.87 | 0.3->296.09 | 0.31->302.66 | 0.34->341.31 , 0.2->265.44 | 0.25->288.34 | 0.3->309.1 | 0.31->317.2 | 0.34->412.33
edison , 64 , 4.0 , 5 , 1000 , 73 , router_based_shift_uniform ,  , 3072 , 75 , UGAL_mt_src , 10 , 50 , 0.40 , 0.25->260.83 | 0.3->259.32 | 0.35->265.42 | 0.37->270.99 | 0.4->295.69 , 0.25->272.32 | 0.3->271.85 | 0.35->278.18 | 0.37->283.96 | 0.4->343.73
edison , 64 , 4.0 , 5 , 1000 , 73 , router_based_shift_uniform ,  , 3072 , 75 , PAR , 10 , 50 , 0.46 , 0.25->106.41 | 0.3->108.99 | 0.35->112.44 | 0.37->117.58 | 0.4->131.16 | 0.43->176.15 | 0.45->226.11 | 0.46->321.77 , 0.25->106.67 | 0.3->109.24 | 0.35->112.68 | 0.37->117.96 | 0.4->132.08 | 0.43->175.15 | 0.45->268.23 | 0.46->562.2
edison , 64 , 4.0 , 5 , 1000 , 73 , router_based_shift_uniform ,  , 3072 , 75 , PAR_mt_src , 10 , 50 , 0.47 , 0.25->93.847 | 0.3->95.786 | 0.35->104.53 | 0.37->123.91 | 0.4->158.2 | 0.43->222.89 | 0.45->269.66 | 0.46->291.27 | 0.47->313.33 , 0.25->93.993 | 0.3->95.921 | 0.35->104.82 | 0.37->125.54 | 0.4->169.29 | 0.43->233.04 | 0.45->277.79 | 0.46->307.67 | 0.47->392.08

edison , 64 , 4.0 , 5 , 1000 , 74 , router_based_shift_uniform ,  , 3072 , 25 , min , 10 , 50 , 0.21 , 0.05->52.525 | 0.1->52.736 | 0.13->52.919 | 0.15->53.119 | 0.19->64.655 | 0.2->109.58 | 0.21->177.19 , 0.05->52.559 | 0.1->52.769 | 0.13->52.952 | 0.15->53.15 | 0.19->67.308 | 0.2->145.14 | 0.21->263.49
edison , 64 , 4.0 , 5 , 1000 , 74 , router_based_shift_uniform ,  , 3072 , 25 , vlb , 10 , 50 , 0.46 , 0.25->103.22 | 0.3->104.29 | 0.35->106.06 | 0.37->107.29 | 0.4->110.68 | 0.43->124.94 | 0.45->234.36 | 0.46->367.81 , 0.25->103.3 | 0.3->104.36 | 0.35->106.12 | 0.37->107.36 | 0.4->110.73 | 0.43->125.02 | 0.45->263.37 | 0.46->499.97
edison , 64 , 4.0 , 5 , 1000 , 74 , router_based_shift_uniform ,  , 3072 , 25 , UGAL_L , 10 , 50 , 0.56 , 0.4->126.65 | 0.45->137.42 | 0.5->157.88 | 0.55->216.94 | 0.56->236.5 , 0.4->129.02 | 0.45->142.91 | 0.5->179.02 | 0.55->270.82 | 0.56->283.35
edison , 64 , 4.0 , 5 , 1000 , 74 , router_based_shift_uniform ,  , 3072 , 25 , UGAL_mt_src , 10 , 50 , 0.58 , 0.4->122.43 | 0.45->126.54 | 0.5->131.61 | 0.55->149.66 | 0.56->159.57 | 0.57->184.18 | 0.58->227.39 , 0.4->125.5 | 0.45->128.9 | 0.5->134.64 | 0.55->161.27 | 0.56->182.39 | 0.57->217.4 | 0.58->344.46
edison , 64 , 4.0 , 5 , 1000 , 74 , router_based_shift_uniform ,  , 3072 , 25 , PAR , 10 , 50 , 0.48 , 0.25->98.082 | 0.3->99.341 | 0.35->101.18 | 0.37->102.27 | 0.4->104.62 | 0.43->113.28 | 0.45->127.19 | 0.46->139.67 | 0.48->207.05 , 0.25->98.492 | 0.3->99.749 | 0.35->101.6 | 0.37->102.67 | 0.4->105.04 | 0.43->113.65 | 0.45->127.89 | 0.46->140.11 | 0.48->257.96
edison , 64 , 4.0 , 5 , 1000 , 74 , router_based_shift_uniform ,  , 3072 , 25 , PAR_mt_src , 10 , 50 , 0.48 , 0.25->84.82 | 0.3->86.015 | 0.35->87.538 | 0.37->88.427 | 0.4->90.939 | 0.43->97.844 | 0.45->108.75 | 0.46->125.43 | 0.48->221.4 , 0.25->85.059 | 0.3->86.247 | 0.35->87.771 | 0.37->88.654 | 0.4->91.17 | 0.43->98.258 | 0.45->116.05 | 0.46->141.52 | 0.48->316.45

edison , 64 , 4.0 , 5 , 1000 , 74 , router_based_shift_uniform ,  , 3072 , 50 , min , 10 , 50 , 0.11 , 0.05->53.187 | 0.07->53.441 | 0.1->55.418 | 0.11->109.32 , 0.05->53.216 | 0.07->53.469 | 0.1->55.484 | 0.11->137.66
edison , 64 , 4.0 , 5 , 1000 , 74 , router_based_shift_uniform ,  , 3072 , 50 , vlb , 10 , 50 , 0.43 , 0.25->104.36 | 0.3->105.56 | 0.35->107.83 | 0.37->109.57 | 0.4->116.69 | 0.43->247.32 , 0.25->104.41 | 0.3->105.61 | 0.35->107.87 | 0.37->109.6 | 0.4->116.71 | 0.43->354.26
edison , 64 , 4.0 , 5 , 1000 , 74 , router_based_shift_uniform ,  , 3072 , 50 , UGAL_L , 10 , 50 , 0.42 , 0.25->181.32 | 0.3->195.37 | 0.35->209.15 | 0.37->220.56 | 0.4->245.74 | 0.41->254.65 | 0.42->274.05 , 0.25->186.82 | 0.3->201.78 | 0.35->216.89 | 0.37->229.33 | 0.4->294.65 | 0.41->320.58 | 0.42->395.7
edison , 64 , 4.0 , 5 , 1000 , 74 , router_based_shift_uniform ,  , 3072 , 50 , UGAL_mt_src , 10 , 50 , 0.49 , 0.25->185.33 | 0.3->184.69 | 0.35->190.52 | 0.37->192.88 | 0.4->195.9 | 0.43->202.08 | 0.45->210.64 | 0.46->219.54 | 0.48->250.71 | 0.49->274.54 , 0.25->191.71 | 0.3->191.61 | 0.35->198.89 | 0.37->201.0 | 0.4->201.81 | 0.43->210.48 | 0.45->230.42 | 0.46->257.71 | 0.48->319.96 | 0.49->354.6
edison , 64 , 4.0 , 5 , 1000 , 74 , router_based_shift_uniform ,  , 3072 , 50 , PAR , 10 , 50 , 0.47 , 0.25->102.09 | 0.3->104.16 | 0.35->106.87 | 0.37->109.12 | 0.4->117.76 | 0.43->140.6 | 0.45->173.79 | 0.46->193.55 | 0.47->246.32 , 0.25->102.44 | 0.3->104.5 | 0.35->107.22 | 0.37->109.45 | 0.4->118.38 | 0.43->140.81 | 0.45->172.51 | 0.46->195.73 | 0.47->380.11
edison , 64 , 4.0 , 5 , 1000 , 74 , router_based_shift_uniform ,  , 3072 , 50 , PAR_mt_src , 10 , 50 , 0.47 , 0.25->89.475 | 0.3->90.961 | 0.35->93.595 | 0.37->96.695 | 0.4->115.93 | 0.43->189.08 | 0.45->233.09 | 0.46->261.53 | 0.47->351.25 , 0.25->89.674 | 0.3->91.148 | 0.35->93.784 | 0.37->96.954 | 0.4->119.64 | 0.43->209.63 | 0.45->264.91 | 0.46->328.76 | 0.47->378.23

edison , 64 , 4.0 , 5 , 1000 , 74 , router_based_shift_uniform ,  , 3072 , 75 , min , 10 , 50 , 0.08 , 0.05->54.096 | 0.07->55.673 | 0.08->92.396 , 0.05->54.125 | 0.07->55.709 | 0.08->99.573
edison , 64 , 4.0 , 5 , 1000 , 74 , router_based_shift_uniform ,  , 3072 , 75 , vlb , 10 , 50 , 0.43 , 0.25->105.5 | 0.3->106.85 | 0.35->109.68 | 0.37->112.26 | 0.4->127.65 | 0.43->394.46 , 0.25->105.54 | 0.3->106.88 | 0.35->109.7 | 0.37->112.26 | 0.4->127.78 | 0.43->576.1
edison , 64 , 4.0 , 5 , 1000 , 74 , router_based_shift_uniform ,  , 3072 , 75 , UGAL_L , 10 , 50 , 0.33 , 0.15->181.49 | 0.2->256.19 | 0.25->276.26 | 0.3->295.12 | 0.31->301.95 | 0.32->313.38 | 0.33->323.1 , 0.15->185.39 | 0.2->265.9 | 0.25->287.76 | 0.3->309.24 | 0.31->316.08 | 0.32->330.43 | 0.33->351.63
edison , 64 , 4.0 , 5 , 1000 , 74 , router_based_shift_uniform ,  , 3072 , 75 , UGAL_mt_src , 10 , 50 , 0.41 , 0.25->261.3 | 0.3->259.39 | 0.35->265.22 | 0.37->270.89 | 0.4->294.89 | 0.41->311.68 , 0.25->273.05 | 0.3->271.89 | 0.35->278.55 | 0.37->284.03 | 0.4->345.83 | 0.41->411.35
edison , 64 , 4.0 , 5 , 1000 , 74 , router_based_shift_uniform ,  , 3072 , 75 , PAR , 10 , 50 , 0.46 , 0.25->106.38 | 0.3->108.98 | 0.35->112.45 | 0.37->118.17 | 0.4->130.66 | 0.43->178.55 | 0.45->217.73 | 0.46->309.28 , 0.25->106.66 | 0.3->109.23 | 0.35->112.71 | 0.37->118.56 | 0.4->131.43 | 0.43->175.51 | 0.45->230.5 | 0.46->568.76
edison , 64 , 4.0 , 5 , 1000 , 74 , router_based_shift_uniform ,  , 3072 , 75 , PAR_mt_src , 10 , 50 , 0.47 , 0.25->93.843 | 0.3->95.78 | 0.35->104.52 | 0.37->123.22 | 0.4->170.46 | 0.43->243.84 | 0.45->298.02 | 0.46->284.87 | 0.47->308.02 , 0.25->93.983 | 0.3->95.916 | 0.35->104.68 | 0.37->125.13 | 0.4->203.44 | 0.43->235.14 | 0.45->351.77 | 0.46->296.6 | 0.47->414.47

edison , 64 , 4.0 , 5 , 1000 , 73 , router_based_shift_uniform ,  , 384 , 25 , min , 10 , 50 , 0.21 , 0.05->52.55 | 0.1->52.738 | 0.13->52.924 | 0.15->53.118 | 0.19->64.592 | 0.2->110.9 | 0.21->179.41 , 0.05->52.586 | 0.1->52.772 | 0.13->52.958 | 0.15->53.153 | 0.19->68.332 | 0.2->149.72 | 0.21->277.73
edison , 64 , 4.0 , 5 , 1000 , 73 , router_based_shift_uniform ,  , 384 , 25 , vlb , 10 , 50 , 0.46 , 0.25->103.22 | 0.3->104.27 | 0.35->106.09 | 0.37->107.29 | 0.4->110.74 | 0.43->124.62 | 0.45->232.12 | 0.46->367.52 , 0.25->103.3 | 0.3->104.34 | 0.35->106.15 | 0.37->107.35 | 0.4->110.79 | 0.43->124.71 | 0.45->255.56 | 0.46->500.78
edison , 64 , 4.0 , 5 , 1000 , 73 , router_based_shift_uniform ,  , 384 , 25 , UGAL_L , 10 , 50 , 0.55 , 0.4->127.35 | 0.45->140.09 | 0.5->165.81 | 0.53->195.1 | 0.54->212.18 | 0.55->233.93 , 0.4->130.13 | 0.45->144.87 | 0.5->192.47 | 0.53->243.23 | 0.54->260.41 | 0.55->285.52
edison , 64 , 4.0 , 5 , 1000 , 73 , router_based_shift_uniform ,  , 384 , 25 , UGAL_mt_src , 10 , 50 , 0.57 , 0.4->122.63 | 0.45->127.16 | 0.5->132.54 | 0.55->154.13 | 0.56->162.18 | 0.57->194.54 , 0.4->125.26 | 0.45->130.32 | 0.5->135.86 | 0.55->172.77 | 0.56->196.21 | 0.57->244.48
edison , 64 , 4.0 , 5 , 1000 , 73 , router_based_shift_uniform ,  , 384 , 25 , PAR , 10 , 50 , 0.48 , 0.25->98.026 | 0.3->99.306 | 0.35->101.22 | 0.37->102.25 | 0.4->104.75 | 0.43->110.89 | 0.45->122.68 | 0.46->140.45 | 0.48->216.77 , 0.25->98.438 | 0.3->99.713 | 0.35->101.63 | 0.37->102.66 | 0.4->105.15 | 0.43->111.17 | 0.45->123.46 | 0.46->142.83 | 0.48->249.8
edison , 64 , 4.0 , 5 , 1000 , 73 , router_based_shift_uniform ,  , 384 , 25 , PAR_mt_src , 10 , 50 , 0.49 , 0.25->84.52 | 0.3->85.724 | 0.35->87.378 | 0.37->88.403 | 0.4->91.852 | 0.43->99.403 | 0.45->107.54 | 0.46->115.46 | 0.48->159.04 | 0.49->190.19 , 0.25->84.758 | 0.3->85.954 | 0.35->87.606 | 0.37->88.624 | 0.4->92.107 | 0.43->99.778 | 0.45->110.1 | 0.46->122.1 | 0.48->205.35 | 0.49->335.49

edison , 64 , 4.0 , 5 , 1000 , 73 , router_based_shift_uniform ,  , 384 , 50 , min , 10 , 50 , 0.11 , 0.05->53.158 | 0.07->53.394 | 0.1->55.385 | 0.11->106.66 , 0.05->53.191 | 0.07->53.427 | 0.1->55.434 | 0.11->136.91
edison , 64 , 4.0 , 5 , 1000 , 73 , router_based_shift_uniform ,  , 384 , 50 , vlb , 10 , 50 , 0.44 , 0.25->104.36 | 0.3->105.57 | 0.35->107.83 | 0.37->109.58 | 0.4->116.45 | 0.43->236.44 | 0.44->371.12 , 0.25->104.41 | 0.3->105.62 | 0.35->107.87 | 0.37->109.61 | 0.4->116.49 | 0.43->316.16 | 0.44->548.16
edison , 64 , 4.0 , 5 , 1000 , 73 , router_based_shift_uniform ,  , 384 , 50 , UGAL_L , 10 , 50 , 0.41 , 0.25->184.16 | 0.3->196.54 | 0.35->212.87 | 0.37->224.42 | 0.4->252.54 | 0.41->273.72 , 0.25->189.83 | 0.3->204.35 | 0.35->221.31 | 0.37->235.13 | 0.4->317.24 | 0.41->384.33
edison , 64 , 4.0 , 5 , 1000 , 73 , router_based_shift_uniform ,  , 384 , 50 , UGAL_mt_src , 10 , 50 , 0.47 , 0.25->186.26 | 0.3->185.86 | 0.35->192.13 | 0.37->194.41 | 0.4->198.01 | 0.43->204.2 | 0.45->213.84 | 0.46->223.31 | 0.47->239.43 , 0.25->193.25 | 0.3->193.15 | 0.35->199.86 | 0.37->202.55 | 0.4->205.12 | 0.43->212.41 | 0.45->241.19 | 0.46->277.06 | 0.47->297.04
edison , 64 , 4.0 , 5 , 1000 , 73 , router_based_shift_uniform ,  , 384 , 50 , PAR , 10 , 50 , 0.47 , 0.25->102.03 | 0.3->104.13 | 0.35->106.85 | 0.37->108.97 | 0.4->114.13 | 0.43->134.91 | 0.45->177.25 | 0.46->205.52 | 0.47->255.67 , 0.25->102.39 | 0.3->104.48 | 0.35->107.19 | 0.37->109.31 | 0.4->114.46 | 0.43->136.51 | 0.45->186.03 | 0.46->214.51 | 0.47->419.7
edison , 64 , 4.0 , 5 , 1000 , 73 , router_based_shift_uniform ,  , 384 , 50 , PAR_mt_src , 10 , 50 , 0.47 , 0.25->89.275 | 0.3->91.127 | 0.35->101.36 | 0.37->113.65 | 0.4->141.09 | 0.43->165.59 | 0.45->210.0 | 0.46->237.39 | 0.47->261.92 , 0.25->89.473 | 0.3->91.323 | 0.35->103.04 | 0.37->116.62 | 0.4->145.25 | 0.43->188.61 | 0.45->301.31 | 0.46->328.73 | 0.47->415.23

edison , 64 , 4.0 , 5 , 1000 , 73 , router_based_shift_uniform ,  , 384 , 75 , min , 10 , 50 , 0.08 , 0.05->54.141 | 0.07->55.712 | 0.08->91.637 , 0.05->54.173 | 0.07->55.75 | 0.08->99.487
edison , 64 , 4.0 , 5 , 1000 , 73 , router_based_shift_uniform ,  , 384 , 75 , vlb , 10 , 50 , 0.42 , 0.25->105.49 | 0.3->106.85 | 0.35->109.68 | 0.37->112.18 | 0.4->127.45 | 0.41->157.47 | 0.42->257.97 , 0.25->105.53 | 0.3->106.88 | 0.35->109.69 | 0.37->112.19 | 0.4->127.56 | 0.41->163.37 | 0.42->393.88
edison , 64 , 4.0 , 5 , 1000 , 73 , router_based_shift_uniform ,  , 384 , 75 , UGAL_L , 10 , 50 , 0.33 , 0.15->182.99 | 0.2->257.15 | 0.25->278.89 | 0.3->300.67 | 0.31->308.31 | 0.32->318.69 | 0.33->336.29 , 0.15->186.64 | 0.2->266.53 | 0.25->290.78 | 0.3->315.12 | 0.31->324.44 | 0.32->336.01 | 0.33->378.55
edison , 64 , 4.0 , 5 , 1000 , 73 , router_based_shift_uniform ,  , 384 , 75 , UGAL_mt_src , 10 , 50 , 0.40 , 0.25->261.28 | 0.3->261.47 | 0.35->268.9 | 0.37->275.37 | 0.4->309.68 , 0.25->273.38 | 0.3->274.72 | 0.35->282.54 | 0.37->289.06 | 0.4->392.8
edison , 64 , 4.0 , 5 , 1000 , 73 , router_based_shift_uniform ,  , 384 , 75 , PAR , 10 , 50 , 0.46 , 0.25->106.38 | 0.3->109.01 | 0.35->112.46 | 0.37->116.39 | 0.4->127.37 | 0.43->186.23 | 0.45->237.25 | 0.46->308.01 , 0.25->106.64 | 0.3->109.26 | 0.35->112.7 | 0.37->116.67 | 0.4->128.12 | 0.43->189.48 | 0.45->253.56 | 0.46->406.05
edison , 64 , 4.0 , 5 , 1000 , 73 , router_based_shift_uniform ,  , 384 , 75 , PAR_mt_src , 10 , 50 , 0.47 , 0.25->93.971 | 0.3->107.24 | 0.35->135.01 | 0.37->140.85 | 0.4->153.67 | 0.43->206.26 | 0.45->245.38 | 0.46->277.8 | 0.47->328.78 , 0.25->94.114 | 0.3->107.84 | 0.35->135.23 | 0.37->144.39 | 0.4->160.19 | 0.43->209.63 | 0.45->268.36 | 0.46->344.9 | 0.47->517.57

edison , 64 , 4.0 , 5 , 1000 , 74 , router_based_shift_uniform ,  , 384 , 25 , min , 10 , 50 , 0.20 , 0.05->52.578 | 0.1->52.753 | 0.13->52.917 | 0.15->53.104 | 0.19->65.519 | 0.2->110.74 , 0.05->52.611 | 0.1->52.785 | 0.13->52.95 | 0.15->53.136 | 0.19->68.889 | 0.2->156.41
edison , 64 , 4.0 , 5 , 1000 , 74 , router_based_shift_uniform ,  , 384 , 25 , vlb , 10 , 50 , 0.46 , 0.25->103.23 | 0.3->104.3 | 0.35->106.08 | 0.37->107.28 | 0.4->110.69 | 0.43->124.65 | 0.45->229.7 | 0.46->366.35 , 0.25->103.3 | 0.3->104.36 | 0.35->106.15 | 0.37->107.34 | 0.4->110.73 | 0.43->124.73 | 0.45->253.53 | 0.46->492.0
edison , 64 , 4.0 , 5 , 1000 , 74 , router_based_shift_uniform ,  , 384 , 25 , UGAL_L , 10 , 50 , 0.56 , 0.4->127.3 | 0.45->140.46 | 0.5->161.35 | 0.55->232.45 | 0.56->255.48 , 0.4->130.22 | 0.45->143.86 | 0.5->187.05 | 0.55->279.99 | 0.56->306.38
edison , 64 , 4.0 , 5 , 1000 , 74 , router_based_shift_uniform ,  , 384 , 25 , UGAL_mt_src , 10 , 50 , 0.58 , 0.4->122.74 | 0.45->127.2 | 0.5->132.64 | 0.55->152.14 | 0.56->165.45 | 0.57->190.2 | 0.58->231.64 , 0.4->125.2 | 0.45->130.33 | 0.5->135.47 | 0.55->169.34 | 0.56->188.75 | 0.57->227.53 | 0.58->328.46
edison , 64 , 4.0 , 5 , 1000 , 74 , router_based_shift_uniform ,  , 384 , 25 , PAR , 10 , 50 , 0.48 , 0.25->98.033 | 0.3->99.293 | 0.35->101.18 | 0.37->102.24 | 0.4->104.75 | 0.43->110.87 | 0.45->122.01 | 0.46->140.47 | 0.48->216.75 , 0.25->98.435 | 0.3->99.697 | 0.35->101.58 | 0.37->102.67 | 0.4->105.15 | 0.43->111.09 | 0.45->122.87 | 0.46->143.58 | 0.48->246.22
edison , 64 , 4.0 , 5 , 1000 , 74 , router_based_shift_uniform ,  , 384 , 25 , PAR_mt_src , 10 , 50 , 0.49 , 0.25->84.501 | 0.3->85.72 | 0.35->87.402 | 0.37->88.433 | 0.4->91.913 | 0.43->99.436 | 0.45->107.33 | 0.46->113.35 | 0.48->152.24 | 0.49->199.56 , 0.25->84.738 | 0.3->85.954 | 0.35->87.627 | 0.37->88.656 | 0.4->92.192 | 0.43->99.831 | 0.45->109.51 | 0.46->121.44 | 0.48->207.92 | 0.49->337.45

edison , 64 , 4.0 , 5 , 1000 , 74 , router_based_shift_uniform ,  , 384 , 50 , min , 10 , 50 , 0.11 , 0.05->53.191 | 0.07->53.418 | 0.1->55.459 | 0.11->109.64 , 0.05->53.222 | 0.07->53.453 | 0.1->55.527 | 0.11->131.08
edison , 64 , 4.0 , 5 , 1000 , 74 , router_based_shift_uniform ,  , 384 , 50 , vlb , 10 , 50 , 0.44 , 0.25->104.35 | 0.3->105.56 | 0.35->107.81 | 0.37->109.56 | 0.4->116.59 | 0.43->235.35 | 0.44->368.25 , 0.25->104.41 | 0.3->105.61 | 0.35->107.85 | 0.37->109.6 | 0.4->116.61 | 0.43->311.93 | 0.44->558.5
edison , 64 , 4.0 , 5 , 1000 , 74 , router_based_shift_uniform ,  , 384 , 50 , UGAL_L , 10 , 50 , 0.41 , 0.25->184.57 | 0.3->196.94 | 0.35->214.34 | 0.37->225.16 | 0.4->255.71 | 0.41->269.64 , 0.25->189.99 | 0.3->203.56 | 0.35->221.75 | 0.37->234.47 | 0.4->309.93 | 0.41->362.98
edison , 64 , 4.0 , 5 , 1000 , 74 , router_based_shift_uniform ,  , 384 , 50 , UGAL_mt_src , 10 , 50 , 0.48 , 0.25->186.18 | 0.3->185.98 | 0.35->192.57 | 0.37->194.46 | 0.4->198.0 | 0.43->203.23 | 0.45->215.77 | 0.46->226.74 | 0.48->258.69 , 0.25->192.76 | 0.3->192.3 | 0.35->199.89 | 0.37->202.3 | 0.4->205.23 | 0.43->211.9 | 0.45->244.86 | 0.46->273.09 | 0.48->357.73
edison , 64 , 4.0 , 5 , 1000 , 74 , router_based_shift_uniform ,  , 384 , 50 , PAR , 10 , 50 , 0.47 , 0.25->102.03 | 0.3->104.14 | 0.35->106.81 | 0.37->108.9 | 0.4->113.78 | 0.43->134.76 | 0.45->178.72 | 0.46->204.06 | 0.47->262.09 , 0.25->102.38 | 0.3->104.49 | 0.35->107.16 | 0.37->109.18 | 0.4->114.19 | 0.43->136.47 | 0.45->183.45 | 0.46->288.69 | 0.47->319.39
edison , 64 , 4.0 , 5 , 1000 , 74 , router_based_shift_uniform ,  , 384 , 50 , PAR_mt_src , 10 , 50 , 0.47 , 0.25->89.274 | 0.3->91.082 | 0.35->101.98 | 0.37->113.59 | 0.4->140.38 | 0.43->170.3 | 0.45->204.84 | 0.46->240.26 | 0.47->269.53 , 0.25->89.472 | 0.3->91.273 | 0.35->104.62 | 0.37->115.44 | 0.4->145.26 | 0.43->194.37 | 0.45->244.26 | 0.46->309.59 | 0.47->445.97

edison , 64 , 4.0 , 5 , 1000 , 74 , router_based_shift_uniform ,  , 384 , 75 , min , 10 , 50 , 0.08 , 0.05->54.132 | 0.07->55.672 | 0.08->93.774 , 0.05->54.163 | 0.07->55.707 | 0.08->100.19
edison , 64 , 4.0 , 5 , 1000 , 74 , router_based_shift_uniform ,  , 384 , 75 , vlb , 10 , 50 , 0.42 , 0.25->105.49 | 0.3->106.85 | 0.35->109.67 | 0.37->112.22 | 0.4->127.52 | 0.41->156.96 | 0.42->256.67 , 0.25->105.53 | 0.3->106.88 | 0.35->109.69 | 0.37->112.23 | 0.4->127.61 | 0.41->161.24 | 0.42->340.03
edison , 64 , 4.0 , 5 , 1000 , 74 , router_based_shift_uniform ,  , 384 , 75 , UGAL_L , 10 , 50 , 0.33 , 0.15->182.88 | 0.2->257.22 | 0.25->278.65 | 0.3->301.56 | 0.31->310.13 | 0.32->320.3 | 0.33->335.88 , 0.15->187.01 | 0.2->266.55 | 0.25->290.92 | 0.3->315.81 | 0.31->325.33 | 0.32->338.81 | 0.33->371.52
edison , 64 , 4.0 , 5 , 1000 , 74 , router_based_shift_uniform ,  , 384 , 75 , UGAL_mt_src , 10 , 50 , 0.40 , 0.25->261.48 | 0.3->261.14 | 0.35->269.31 | 0.37->275.12 | 0.4->305.89 , 0.25->273.41 | 0.3->274.73 | 0.35->282.29 | 0.37->288.29 | 0.4->386.57
edison , 64 , 4.0 , 5 , 1000 , 74 , router_based_shift_uniform ,  , 384 , 75 , PAR , 10 , 50 , 0.46 , 0.25->106.37 | 0.3->109.0 | 0.35->112.48 | 0.37->116.12 | 0.4->126.99 | 0.43->182.45 | 0.45->234.74 | 0.46->307.77 , 0.25->106.63 | 0.3->109.26 | 0.35->112.73 | 0.37->116.44 | 0.4->127.69 | 0.43->189.16 | 0.45->258.77 | 0.46->448.04
edison , 64 , 4.0 , 5 , 1000 , 74 , router_based_shift_uniform ,  , 384 , 75 , PAR_mt_src , 10 , 50 , 0.47 , 0.25->93.961 | 0.3->107.39 | 0.35->131.75 | 0.37->139.27 | 0.4->159.03 | 0.43->197.31 | 0.45->243.85 | 0.46->275.99 | 0.47->328.06 , 0.25->94.113 | 0.3->107.83 | 0.35->134.86 | 0.37->143.64 | 0.4->165.93 | 0.43->204.67 | 0.45->268.78 | 0.46->320.62 | 0.47->453.19

