routing_delay = 0;
alloc_iters = 1;
credit_delay = 2;
num_vcs = 7;
sim_count = 1;
output_speedup = 1;
vc_alloc_delay = 1;
input_speedup = 1;
sample_period = 10000;
packet_size = 1;
internal_speedup = 4.0;
sw_allocator = separable_input_first;
vc_buf_size = 64;
warmup_periods = 3;
injection_rate_uses_flits = 1;
st_final_delay = 1;
vc_allocator = separable_input_first;
sw_alloc_delay = 1;
priority = none;
wait_for_tail_credit = 0;
df_a = 8;
df_arrangement = absolute_improved;
df_g = 0;
global_latency = 10;
local_latency = 10;
multitiered_routing_threshold_0 = 10;
multitiered_routing_threshold_1 = 40;
topology = dragonflyfull;
traffic = uniform;
df_g = 25;
routing_function = UGAL_L_multi_tiered;
seed = 8;

defaultText, count, i-rate in config file, i-rate injected, i-rate accepted, packet latency, flit latency, deadlock?
simulation,         1,      0.01, 0.0099928, 0.0099924,     35.56,    35.562,         0,  398822,  79354,  |4-> 384997 , |5-> 0 , |6-> 0 ,,  |4-> 76514 , |5-> 0 , |6-> 0 ,,  |1-> 0 , |2-> 14929 , |3-> 41196 , |4-> 342697 , |5-> 0 , |6-> 0 ,,  |1-> 0 , |2-> 3070 , |3-> 8360 , |4-> 67924 , |5-> 0 , |6-> 0 ,
simulation,         2,      0.99,   0.77079,   0.81481,    1059.6,    486.02,         1,  0,  0,  ,  ,  ,  
simulation,         3,       0.5,   0.50007,   0.50007,    36.492,    36.494,         0,  22615210,  1293523,  |4-> 6725607 , |5-> 15089816 , |6-> 0 ,,  |4-> 65835 , |5-> 1187609 , |6-> 0 ,,  |1-> 0 , |2-> 829327 , |3-> 1031474 , |4-> 9101957 , |5-> 11652452 , |6-> 0 ,,  |1-> 0 , |2-> 41691 , |3-> 42908 , |4-> 344937 , |5-> 863987 , |6-> 0 ,
simulation,         4,      0.74,   0.74036,   0.74035,    42.922,    42.925,         0,  33786824,  1629355,  |4-> 1033912 , |5-> 31436914 , |6-> 112123 ,,  |4-> 2499 , |5-> 1471088 , |6-> 114857 ,,  |1-> 0 , |2-> 1229055 , |3-> 769801 , |4-> 7413265 , |5-> 24319954 , |6-> 54749 ,,  |1-> 0 , |2-> 42726 , |3-> 46983 , |4-> 385580 , |5-> 1096809 , |6-> 57257 ,
simulation,         5,      0.86,   0.77217,   0.79254,     938.6,    436.09,         1,  0,  0,  ,  ,  ,  
simulation,         6,       0.8,    0.7808,   0.78171,    505.59,     263.0,         1,  0,  0,  ,  ,  ,  
simulation,         7,      0.77,   0.77029,   0.77029,    50.919,     50.93,         0,  34673845,  2196753,  |4-> 632934 , |5-> 31899914 , |6-> 890799 ,,  |4-> 2300 , |5-> 1372946 , |6-> 775464 ,,  |1-> 0 , |2-> 1274617 , |3-> 748023 , |4-> 7248663 , |5-> 24977890 , |6-> 424652 ,,  |1-> 0 , |2-> 47878 , |3-> 49877 , |4-> 426390 , |5-> 1281463 , |6-> 391145 ,
simulation,         8,      0.78,   0.78023,   0.78028,    77.023,    77.061,         0,  33805621,  3611956,  |4-> 267381 , |5-> 26778922 , |6-> 5528844 ,,  |4-> 2331 , |5-> 1572579 , |6-> 1951132 ,,  |1-> 0 , |2-> 1251696 , |3-> 637323 , |4-> 6283434 , |5-> 22968918 , |6-> 2664250 ,,  |1-> 0 , |2-> 88756 , |3-> 80375 , |4-> 656591 , |5-> 1856308 , |6-> 929926 ,
simulation,         9,      0.79,   0.78305,   0.78329,    522.28,    176.11,         1,  0,  0,  ,  ,  ,  
simulation,        10,      0.75,   0.75034,   0.75033,    44.273,    44.275,         0,  34168514,  1719807,  |4-> 912466 , |5-> 31825031 , |6-> 211169 ,,  |4-> 2383 , |5-> 1477753 , |6-> 198137 ,,  |1-> 0 , |2-> 1245168 , |3-> 766909 , |4-> 7394058 , |5-> 24660322 , |6-> 102057 ,,  |1-> 0 , |2-> 43319 , |3-> 47998 , |4-> 395492 , |5-> 1134546 , |6-> 98452 ,
simulation,        11,       0.7,   0.70029,   0.70029,    40.065,    40.068,         0,  32041543,  1446254,  |4-> 1569859 , |5-> 29322374 , |6-> 8706 ,,  |4-> 3107 , |5-> 1391730 , |6-> 12820 ,,  |1-> 0 , |2-> 1165646 , |3-> 779097 , |4-> 7448428 , |5-> 22644137 , |6-> 4235 ,,  |1-> 0 , |2-> 40194 , |3-> 44286 , |4-> 358760 , |5-> 996640 , |6-> 6374 ,
simulation,        12,      0.65,   0.65023,   0.65023,    38.422,    38.424,         0,  29728548,  1360454,  |4-> 2429749 , |5-> 26242778 , |6-> 303 ,,  |4-> 5345 , |5-> 1316504 , |6-> 767 ,,  |1-> 0 , |2-> 1081252 , |3-> 804608 , |4-> 7575960 , |5-> 20266568 , |6-> 160 ,,  |1-> 0 , |2-> 39431 , |3-> 42155 , |4-> 339605 , |5-> 938877 , |6-> 386 ,
simulation,        13,       0.6,   0.60025,   0.60025,    37.493,    37.495,         0,  27373515,  1322168,  |4-> 3567746 , |5-> 22834551 , |6-> 11 ,,  |4-> 12184 , |5-> 1271917 , |6-> 50 ,,  |1-> 0 , |2-> 997070 , |3-> 856037 , |4-> 7889369 , |5-> 17631034 , |6-> 5 ,,  |1-> 0 , |2-> 39515 , |3-> 40803 , |4-> 331062 , |5-> 910769 , |6-> 19 ,
