vc_buf_size = 64;
wait_for_tail_credit = 0;
vc_allocator = separable_input_first;
sw_allocator = separable_input_first;
alloc_iters = 1;
credit_delay = 2;
routing_delay = 0;
vc_alloc_delay = 1;
sw_alloc_delay = 1;
st_final_delay = 1;
input_speedup = 1;
output_speedup = 1;
sim_count = 1;
num_vcs = 7;
priority = none;
packet_size = 1;
injection_rate_uses_flits = 1;
internal_speedup = 4.0;
warmup_periods = 3;
sample_period = 10000;
df_a = 8;
df_arrangement = absolute_improved;
df_g = 0;
global_latency = 10;
local_latency = 10;
multitiered_routing_threshold_0 = 10;
multitiered_routing_threshold_1 = 40;
topology = dragonflyfull;
traffic = uniform;
df_g = 15;
routing_function = UGAL_L;
seed = 4;

defaultText, count, i-rate in config file, i-rate injected, i-rate accepted, packet latency, flit latency, deadlock?
simulation,         1,      0.01,  0.010001,      0.01,    37.745,    37.754,         0,  238043,  48176,  |4-> 0 , |5-> 0 , |6-> 0 ,,  |4-> 0 , |5-> 0 , |6-> 0 ,,  |1-> 0 , |2-> 13727 , |3-> 1313 , |4-> 15671 , |5-> 75668 , |6-> 131664 ,,  |1-> 0 , |2-> 3112 , |3-> 308 , |4-> 3398 , |5-> 15534 , |6-> 25824 ,
simulation,         2,      0.99,   0.90277,   0.92119,    855.59,     356.0,         1,  0,  0,  ,  ,  ,  
simulation,         3,       0.5,   0.50012,   0.50011,    35.593,    35.595,         0,  13787228,  513363,  |4-> 0 , |5-> 0 , |6-> 0 ,,  |4-> 0 , |5-> 0 , |6-> 0 ,,  |1-> 0 , |2-> 813768 , |3-> 79720 , |4-> 908508 , |5-> 4380097 , |6-> 7605135 ,,  |1-> 0 , |2-> 30501 , |3-> 4405 , |4-> 44303 , |5-> 178808 , |6-> 255346 ,
simulation,         4,      0.74,   0.74012,   0.74011,    38.175,    38.177,         0,  20750790,  418596,  |4-> 0 , |5-> 0 , |6-> 0 ,,  |4-> 0 , |5-> 0 , |6-> 0 ,,  |1-> 0 , |2-> 1227316 , |3-> 120582 , |4-> 1368867 , |5-> 6595396 , |6-> 11438629 ,,  |1-> 0 , |2-> 23111 , |3-> 4373 , |4-> 41577 , |5-> 154545 , |6-> 194990 ,
simulation,         5,      0.86,   0.85987,   0.85988,    44.331,    44.335,         0,  24115922,  488952,  |4-> 0 , |5-> 0 , |6-> 0 ,,  |4-> 0 , |5-> 0 , |6-> 0 ,,  |1-> 0 , |2-> 1426771 , |3-> 140230 , |4-> 1588072 , |5-> 7660759 , |6-> 13300090 ,,  |1-> 0 , |2-> 24185 , |3-> 5347 , |4-> 49213 , |5-> 182883 , |6-> 227324 ,
simulation,         6,      0.92,   0.91323,   0.91408,    388.08,    180.11,         0,  43370716,  2589606,  |4-> 0 , |5-> 0 , |6-> 0 ,,  |4-> 0 , |5-> 0 , |6-> 0 ,,  |1-> 0 , |2-> 2614240 , |3-> 229513 , |4-> 2703476 , |5-> 13544720 , |6-> 24278767 ,,  |1-> 0 , |2-> 98673 , |3-> 42078 , |4-> 356868 , |5-> 1112770 , |6-> 979217 ,
simulation,         7,      0.95,   0.90251,   0.90349,    1084.1,     385.4,         1,  0,  0,  ,  ,  ,  
simulation,         8,      0.93,   0.90914,    0.9114,    593.42,    273.21,         1,  0,  0,  ,  ,  ,  
simulation,         9,       0.9,   0.89998,   0.89997,     51.98,     51.99,         0,  25074051,  690703,  |4-> 0 , |5-> 0 , |6-> 0 ,,  |4-> 0 , |5-> 0 , |6-> 0 ,,  |1-> 0 , |2-> 1489782 , |3-> 145980 , |4-> 1652378 , |5-> 7964974 , |6-> 13820937 ,,  |1-> 0 , |2-> 29771 , |3-> 6752 , |4-> 64409 , |5-> 250082 , |6-> 339689 ,
simulation,        10,      0.85,    0.8499,    0.8499,     43.33,    43.333,         0,  23849993,  469493,  |4-> 0 , |5-> 0 , |6-> 0 ,,  |4-> 0 , |5-> 0 , |6-> 0 ,,  |1-> 0 , |2-> 1412207 , |3-> 138491 , |4-> 1572530 , |5-> 7577598 , |6-> 13149167 ,,  |1-> 0 , |2-> 23781 , |3-> 5205 , |4-> 47762 , |5-> 175555 , |6-> 217190 ,
simulation,        11,       0.8,   0.79995,   0.79995,    40.145,    40.147,         0,  22460058,  424680,  |4-> 0 , |5-> 0 , |6-> 0 ,,  |4-> 0 , |5-> 0 , |6-> 0 ,,  |1-> 0 , |2-> 1328595 , |3-> 130302 , |4-> 1481450 , |5-> 7140545 , |6-> 12379166 ,,  |1-> 0 , |2-> 22483 , |3-> 4805 , |4-> 42967 , |5-> 158519 , |6-> 195906 ,
simulation,        12,      0.75,   0.75008,   0.75007,    38.436,    38.438,         0,  21035478,  418899,  |4-> 0 , |5-> 0 , |6-> 0 ,,  |4-> 0 , |5-> 0 , |6-> 0 ,,  |1-> 0 , |2-> 1241746 , |3-> 122218 , |4-> 1387314 , |5-> 6686522 , |6-> 11597678 ,,  |1-> 0 , |2-> 22969 , |3-> 4515 , |4-> 41951 , |5-> 154144 , |6-> 195320 ,
