routing_delay = 0;
alloc_iters = 1;
credit_delay = 2;
num_vcs = 7;
sim_count = 1;
output_speedup = 1;
vc_alloc_delay = 1;
input_speedup = 1;
sample_period = 10000;
packet_size = 1;
internal_speedup = 4.0;
sw_allocator = separable_input_first;
vc_buf_size = 64;
warmup_periods = 3;
injection_rate_uses_flits = 1;
st_final_delay = 1;
vc_allocator = separable_input_first;
sw_alloc_delay = 1;
priority = none;
wait_for_tail_credit = 0;
df_a = 8;
df_arrangement = absolute_improved;
df_g = 0;
global_latency = 10;
local_latency = 10;
multitiered_routing_threshold_0 = 10;
multitiered_routing_threshold_1 = 40;
topology = dragonflyfull;
traffic = uniform;
df_g = 27;
routing_function = UGAL_L;
seed = 4;

defaultText, count, i-rate in config file, i-rate injected, i-rate accepted, packet latency, flit latency, deadlock?
simulation,         1,      0.01, 0.0099798, 0.0099801,    38.523,    38.531,         0,  427952,  88378,  |4-> 0 , |5-> 0 , |6-> 0 ,,  |4-> 0 , |5-> 0 , |6-> 0 ,,  |1-> 0 , |2-> 13858 , |3-> 2598 , |4-> 29040 , |5-> 139915 , |6-> 242541 ,,  |1-> 0 , |2-> 3072 , |3-> 576 , |4-> 6367 , |5-> 29629 , |6-> 48734 ,
simulation,         2,      0.99,   0.80525,   0.84942,    894.56,     453.3,         1,  0,  0,  ,  ,  ,  
simulation,         3,       0.5,   0.50008,   0.50008,    36.552,    36.555,         0,  24799418,  1038294,  |4-> 0 , |5-> 0 , |6-> 0 ,,  |4-> 0 , |5-> 0 , |6-> 0 ,,  |1-> 0 , |2-> 813403 , |3-> 146278 , |4-> 1671762 , |5-> 8098562 , |6-> 14069413 ,,  |1-> 0 , |2-> 33178 , |3-> 9932 , |4-> 96482 , |5-> 377240 , |6-> 521462 ,
simulation,         4,      0.74,   0.74015,   0.74015,    40.777,    40.778,         0,  37187485,  1069884,  |4-> 0 , |5-> 0 , |6-> 0 ,,  |4-> 0 , |5-> 0 , |6-> 0 ,,  |1-> 0 , |2-> 1222888 , |3-> 218266 , |4-> 2499952 , |5-> 12141085 , |6-> 21105294 ,,  |1-> 0 , |2-> 29589 , |3-> 12500 , |4-> 114263 , |5-> 413051 , |6-> 500481 ,
simulation,         5,      0.86,   0.81252,   0.83057,     500.4,    325.08,         1,  0,  0,  ,  ,  ,  
simulation,         6,       0.8,   0.80005,   0.80006,    46.962,    46.966,         0,  39940717,  1438363,  |4-> 0 , |5-> 0 , |6-> 0 ,,  |4-> 0 , |5-> 0 , |6-> 0 ,,  |1-> 0 , |2-> 1320848 , |3-> 235100 , |4-> 2686516 , |5-> 13046082 , |6-> 22652171 ,,  |1-> 0 , |2-> 32830 , |3-> 14578 , |4-> 138622 , |5-> 535435 , |6-> 716898 ,
simulation,         7,      0.83,   0.81121,   0.81316,    576.29,    307.28,         1,  0,  0,  ,  ,  ,  
simulation,         8,      0.81,   0.81004,   0.81005,    50.255,    50.261,         0,  40213211,  1685585,  |4-> 0 , |5-> 0 , |6-> 0 ,,  |4-> 0 , |5-> 0 , |6-> 0 ,,  |1-> 0 , |2-> 1335681 , |3-> 238332 , |4-> 2712486 , |5-> 13138333 , |6-> 22788379 ,,  |1-> 0 , |2-> 35112 , |3-> 15068 , |4-> 151635 , |5-> 613145 , |6-> 870625 ,
simulation,         9,      0.82,   0.81467,   0.81572,    333.42,    189.96,         0,  69651078,  4825776,  |4-> 0 , |5-> 0 , |6-> 0 ,,  |4-> 0 , |5-> 0 , |6-> 0 ,,  |1-> 0 , |2-> 2327620 , |3-> 389855 , |4-> 4551260 , |5-> 22538273 , |6-> 39844070 ,,  |1-> 0 , |2-> 109614 , |3-> 58248 , |4-> 537587 , |5-> 1904503 , |6-> 2215824 ,
simulation,        11,      0.75,   0.75011,   0.75011,    41.308,     41.31,         0,  37677273,  1091682,  |4-> 0 , |5-> 0 , |6-> 0 ,,  |4-> 0 , |5-> 0 , |6-> 0 ,,  |1-> 0 , |2-> 1238449 , |3-> 220627 , |4-> 2533363 , |5-> 12297137 , |6-> 21387697 ,,  |1-> 0 , |2-> 29625 , |3-> 12418 , |4-> 116811 , |5-> 421513 , |6-> 511315 ,
simulation,        12,       0.7,   0.70011,   0.70011,    39.218,    39.221,         0,  35170515,  1012998,  |4-> 0 , |5-> 0 , |6-> 0 ,,  |4-> 0 , |5-> 0 , |6-> 0 ,,  |1-> 0 , |2-> 1156612 , |3-> 206203 , |4-> 2366641 , |5-> 11482066 , |6-> 19958993 ,,  |1-> 0 , |2-> 29246 , |3-> 11316 , |4-> 107667 , |5-> 389716 , |6-> 475053 ,
simulation,        13,      0.65,    0.6501,    0.6501,    38.062,    38.064,         0,  32597745,  997886,  |4-> 0 , |5-> 0 , |6-> 0 ,,  |4-> 0 , |5-> 0 , |6-> 0 ,,  |1-> 0 , |2-> 1070218 , |3-> 191513 , |4-> 2193662 , |5-> 10647644 , |6-> 18494708 ,,  |1-> 0 , |2-> 29649 , |3-> 10917 , |4-> 103379 , |5-> 380229 , |6-> 473712 ,
