vc_buf_size = 64;
wait_for_tail_credit = 0;
vc_allocator = separable_input_first;
sw_allocator = separable_input_first;
alloc_iters = 1;
credit_delay = 2;
routing_delay = 0;
vc_alloc_delay = 1;
sw_alloc_delay = 1;
st_final_delay = 1;
input_speedup = 1;
output_speedup = 1;
sim_count = 1;
num_vcs = 7;
priority = none;
packet_size = 1;
injection_rate_uses_flits = 1;
internal_speedup = 4.0;
warmup_periods = 3;
sample_period = 1000;
df_a = 8;
df_arrangement = absolute_improved;
global_latency = 1;
local_latency = 1;
multitiered_routing_threshold_0 = 10;
multitiered_routing_threshold_1 = 40;
topology = dragonflyfull;
traffic = group_shift;
df_g = 29;
routing_function = UGAL_L_multi_tiered;
shift_by_group = 8;

defaultText, count, i-rate in config file, i-rate injected, i-rate accepted, packet latency, flit latency, deadlock?
simulation,         1,      0.01,  0.010003,  0.010002,    10.275,    10.275,         0,  41816,  13970,  |4-> 41816 , |5-> 0 , |6-> 0 ,,  |4-> 13970 , |5-> 0 , |6-> 0 ,,  |1-> 0 , |2-> 55 , |3-> 6886 , |4-> 34875 , |5-> 0 , |6-> 0 ,,  |1-> 0 , |2-> 38 , |3-> 2273 , |4-> 11659 , |5-> 0 , |6-> 0 ,
simulation,         2,      0.99,   0.30772,   0.51675,    458.32,    445.48,         1,  0,  0,  ,  ,  ,  
simulation,         3,       0.5,    0.3858,   0.46152,    448.32,     446.8,         1,  0,  0,  ,  ,  ,  
simulation,         4,      0.25,   0.24988,   0.24986,    32.395,    32.848,         0,  246397,  1454538,  |4-> 127484 , |5-> 117068 , |6-> 1845 ,,  |4-> 329257 , |5-> 899216 , |6-> 226065 ,,  |1-> 0 , |2-> 93 , |3-> 26106 , |4-> 124606 , |5-> 95049 , |6-> 543 ,,  |1-> 0 , |2-> 423 , |3-> 90001 , |4-> 488966 , |5-> 746912 , |6-> 128236 ,
simulation,         5,      0.37,   0.35468,   0.36168,    176.92,    175.09,         1,  0,  0,  ,  ,  ,  
simulation,         6,      0.31,   0.30968,   0.31001,    43.176,    42.814,         0,  447460,  3394032,  |4-> 54164 , |5-> 361684 , |6-> 31612 ,,  |4-> 110585 , |5-> 2565731 , |6-> 717716 ,,  |1-> 0 , |2-> 34 , |3-> 17343 , |4-> 108483 , |5-> 307246 , |6-> 14354 ,,  |1-> 0 , |2-> 709 , |3-> 127415 , |4-> 712063 , |5-> 2146370 , |6-> 407475 ,
simulation,         7,      0.34,   0.33496,   0.33748,     149.6,     132.3,         0,  773827,  6420186,  |4-> 38333 , |5-> 599166 , |6-> 136328 ,,  |4-> 79756 , |5-> 4464380 , |6-> 1876050 ,,  |1-> 0 , |2-> 16 , |3-> 20673 , |4-> 142699 , |5-> 541501 , |6-> 68938 ,,  |1-> 0 , |2-> 1199 , |3-> 211987 , |4-> 1202230 , |5-> 3946095 , |6-> 1058675 ,
simulation,         8,      0.35,    0.3427,   0.34613,    206.03,    165.22,         0,  760616,  6459720,  |4-> 30653 , |5-> 568908 , |6-> 161055 ,,  |4-> 65513 , |5-> 4313109 , |6-> 2081098 ,,  |1-> 0 , |2-> 13 , |3-> 18750 , |4-> 132035 , |5-> 527114 , |6-> 82704 ,,  |1-> 0 , |2-> 1102 , |3-> 208137 , |4-> 1178481 , |5-> 3901921 , |6-> 1170079 ,
simulation,         9,      0.36,    0.3491,   0.35451,    283.72,    212.21,         0,  888205,  7729027,  |4-> 28475 , |5-> 624459 , |6-> 235271 ,,  |4-> 61742 , |5-> 4809030 , |6-> 2858255 ,,  |1-> 0 , |2-> 8 , |3-> 19935 , |4-> 143323 , |5-> 600646 , |6-> 124293 ,,  |1-> 0 , |2-> 1135 , |3-> 239717 , |4-> 1358548 , |5-> 4525508 , |6-> 1604119 ,
simulation,        11,       0.3,   0.29974,   0.29978,    34.913,     35.51,         0,  253389,  1837555,  |4-> 44090 , |5-> 200339 , |6-> 8960 ,,  |4-> 89580 , |5-> 1417928 , |6-> 330047 ,,  |1-> 0 , |2-> 13 , |3-> 12120 , |4-> 71637 , |5-> 166063 , |6-> 3556 ,,  |1-> 0 , |2-> 402 , |3-> 74097 , |4-> 410496 , |5-> 1164588 , |6-> 187972 ,
simulation,        13,       0.2,   0.19994,   0.19991,    31.964,    32.335,         0,  241496,  1095776,  |4-> 208301 , |5-> 33091 , |6-> 104 ,,  |4-> 645165 , |5-> 283356 , |6-> 167255 ,,  |1-> 0 , |2-> 203 , |3-> 39865 , |4-> 174689 , |5-> 26721 , |6-> 18 ,,  |1-> 0 , |2-> 450 , |3-> 117433 , |4-> 611797 , |5-> 271089 , |6-> 95007 ,
