routing_delay = 0;
alloc_iters = 1;
credit_delay = 2;
num_vcs = 7;
sim_count = 1;
output_speedup = 1;
vc_alloc_delay = 1;
input_speedup = 1;
sample_period = 10000;
packet_size = 1;
internal_speedup = 4.0;
sw_allocator = separable_input_first;
vc_buf_size = 64;
warmup_periods = 3;
injection_rate_uses_flits = 1;
st_final_delay = 1;
vc_allocator = separable_input_first;
sw_alloc_delay = 1;
priority = none;
wait_for_tail_credit = 0;
df_a = 8;
df_arrangement = absolute_improved;
df_g = 0;
global_latency = 10;
local_latency = 10;
multitiered_routing_threshold_0 = 10;
multitiered_routing_threshold_1 = 40;
topology = dragonflyfull;
traffic = uniform;
df_g = 29;
routing_function = PAR_multi_tiered;
seed = 6;

defaultText, count, i-rate in config file, i-rate injected, i-rate accepted, packet latency, flit latency, deadlock?
simulation,         1,      0.01,  0.010012,  0.010012,    38.888,    38.891,         0,  774644,  174420,  |4-> 760808 , |5-> 0 , |6-> 0 ,,  |4-> 171334 , |5-> 0 , |6-> 0 ,,  |1-> 0 , |2-> 15592 , |3-> 75035 , |4-> 684017 , |5-> 0 , |6-> 0 ,,  |1-> 0 , |2-> 3509 , |3-> 16916 , |4-> 153995 , |5-> 0 , |6-> 0 ,
simulation,         2,      0.99,   0.85256,   0.89588,     681.0,     408.4,         1,  0,  0,  ,  ,  ,  
simulation,         3,       0.5,   0.50015,   0.50016,    37.679,    37.682,         0,  48106487,  2256080,  |4-> 11975734 , |5-> 35320931 , |6-> 0 ,,  |4-> 63960 , |5-> 2160849 , |6-> 0 ,,  |1-> 0 , |2-> 857598 , |3-> 1759885 , |4-> 17153237 , |5-> 28335767 , |6-> 0 ,,  |1-> 0 , |2-> 33122 , |3-> 55722 , |4-> 498411 , |5-> 1668825 , |6-> 0 ,
simulation,         4,      0.74,   0.74005,   0.74005,    40.807,     40.81,         0,  72861479,  2196603,  |4-> 2003005 , |5-> 69638056 , |6-> 1991 ,,  |4-> 3927 , |5-> 2164392 , |6-> 2088 ,,  |1-> 0 , |2-> 1262005 , |3-> 1354748 , |4-> 14367511 , |5-> 55876117 , |6-> 1098 ,,  |1-> 0 , |2-> 28374 , |3-> 56823 , |4-> 490776 , |5-> 1619475 , |6-> 1155 ,
simulation,         5,      0.86,   0.86004,   0.86001,     57.08,    57.081,         0,  83419552,  3691967,  |4-> 350353 , |5-> 74006929 , |6-> 7657048 ,,  |4-> 3608 , |5-> 2233701 , |6-> 1412525 ,,  |1-> 0 , |2-> 1448769 , |3-> 1319274 , |4-> 14225591 , |5-> 62203156 , |6-> 4222762 ,,  |1-> 0 , |2-> 45008 , |3-> 77215 , |4-> 662917 , |5-> 2158116 , |6-> 748711 ,
simulation,         6,      0.92,   0.85183,   0.87234,    713.71,    389.32,         1,  0,  0,  ,  ,  ,  
simulation,         7,      0.89,   0.84703,   0.84933,    1033.4,    426.07,         1,  0,  0,  ,  ,  ,  
simulation,         8,      0.87,   0.84872,   0.85049,    569.58,     320.2,         1,  0,  0,  ,  ,  ,  
simulation,         9,      0.85,   0.85005,   0.85005,    51.134,    51.137,         0,  83090269,  3087907,  |4-> 517489 , |5-> 78428161 , |6-> 2749079 ,,  |4-> 3571 , |5-> 2436247 , |6-> 612084 ,,  |1-> 0 , |2-> 1441179 , |3-> 1377473 , |4-> 14797234 , |5-> 63967390 , |6-> 1506993 ,,  |1-> 0 , |2-> 38728 , |3-> 72174 , |4-> 619841 , |5-> 2025709 , |6-> 331455 ,
simulation,        10,       0.8,   0.80006,   0.80006,    43.828,    43.833,         0,  78779920,  2402192,  |4-> 1126898 , |5-> 76237574 , |6-> 96457 ,,  |4-> 3613 , |5-> 2325521 , |6-> 45484 ,,  |1-> 0 , |2-> 1364144 , |3-> 1380874 , |4-> 14760469 , |5-> 61222012 , |6-> 52421 ,,  |1-> 0 , |2-> 29982 , |3-> 62618 , |4-> 536167 , |5-> 1748440 , |6-> 24985 ,
simulation,        11,      0.75,   0.75007,   0.75008,    41.174,    41.178,         0,  73857025,  2220917,  |4-> 1834407 , |5-> 70782518 , |6-> 3976 ,,  |4-> 3839 , |5-> 2187624 , |6-> 3474 ,,  |1-> 0 , |2-> 1279960 , |3-> 1358332 , |4-> 14417354 , |5-> 56799194 , |6-> 2185 ,,  |1-> 0 , |2-> 28136 , |3-> 57676 , |4-> 497911 , |5-> 1635297 , |6-> 1897 ,
simulation,        12,       0.7,   0.70002,   0.70003,    39.728,    39.731,         0,  68782294,  2161186,  |4-> 2797202 , |5-> 64831773 , |6-> 135 ,,  |4-> 4753 , |5-> 2129923 , |6-> 279 ,,  |1-> 0 , |2-> 1195854 , |3-> 1355325 , |4-> 14212963 , |5-> 52018073 , |6-> 79 ,,  |1-> 0 , |2-> 28343 , |3-> 54757 , |4-> 477544 , |5-> 1600389 , |6-> 153 ,
