vc_buf_size = 64;
wait_for_tail_credit = 0;
vc_allocator = separable_input_first;
sw_allocator = separable_input_first;
alloc_iters = 1;
credit_delay = 2;
routing_delay = 0;
vc_alloc_delay = 1;
sw_alloc_delay = 1;
st_final_delay = 1;
input_speedup = 1;
output_speedup = 1;
sim_count = 1;
num_vcs = 7;
priority = none;
packet_size = 1;
injection_rate_uses_flits = 1;
internal_speedup = 4.0;
warmup_periods = 3;
sample_period = 1000;
df_a = 8;
df_arrangement = absolute_improved;
df_g = 0;
multitiered_routing_threshold_0 = 10;
multitiered_routing_threshold_1 = 40;
topology = dragonflyfull;
traffic = uniform;
df_g = 22;
routing_function = PAR_multi_tiered;
seed = 2;

defaultText, count, i-rate in config file, i-rate injected, i-rate accepted, packet latency, flit latency, deadlock?
simulation,         1,      0.01,  0.010022,  0.010018,    9.6464,    9.6485,         0,  71399,  4143,  |4-> 69788 , |5-> 0 , |6-> 0 ,,  |4-> 4058 , |5-> 0 , |6-> 0 ,,  |1-> 0 , |2-> 1819 , |3-> 7581 , |4-> 61999 , |5-> 0 , |6-> 0 ,,  |1-> 0 , |2-> 98 , |3-> 456 , |4-> 3589 , |5-> 0 , |6-> 0 ,
simulation,         2,      0.99,   0.72869,   0.77302,    537.21,    500.16,         1,  0,  0,  ,  ,  ,  
simulation,         3,       0.5,   0.50036,   0.50039,    12.609,     12.61,         0,  3080300,  576403,  |4-> 3007342 , |5-> 1944 , |6-> 0 ,,  |4-> 554500 , |5-> 8261 , |6-> 0 ,,  |1-> 0 , |2-> 79998 , |3-> 334045 , |4-> 2664849 , |5-> 1408 , |6-> 0 ,,  |1-> 0 , |2-> 15143 , |3-> 57756 , |4-> 497280 , |5-> 6224 , |6-> 0 ,
simulation,         4,      0.74,   0.74021,    0.7403,    22.642,    22.659,         0,  4682394,  851708,  |4-> 3374952 , |5-> 1195792 , |6-> 33 ,,  |4-> 203072 , |5-> 634398 , |6-> 74 ,,  |1-> 0 , |2-> 123112 , |3-> 403082 , |4-> 3257553 , |5-> 898637 , |6-> 10 ,,  |1-> 0 , |2-> 15329 , |3-> 36546 , |4-> 319789 , |5-> 480002 , |6-> 42 ,
simulation,         5,      0.86,    0.7298,   0.77678,    502.24,    448.29,         1,  0,  0,  ,  ,  ,  
simulation,         6,       0.8,   0.75183,   0.78328,    345.96,    341.19,         0,  9652407,  2359835,  |4-> 1590369 , |5-> 3744738 , |6-> 4078376 ,,  |4-> 37064 , |5-> 571624 , |6-> 1705736 ,,  |1-> 0 , |2-> 247736 , |3-> 297668 , |4-> 2658871 , |5-> 4535247 , |6-> 1912885 ,,  |1-> 0 , |2-> 47629 , |3-> 60490 , |4-> 478292 , |5-> 1180840 , |6-> 592584 ,
simulation,         7,      0.83,   0.73456,    0.7697,    511.79,    412.04,         1,  0,  0,  ,  ,  ,  
simulation,         8,      0.81,   0.74606,   0.77713,    387.06,    338.64,         1,  0,  0,  ,  ,  ,  
simulation,        10,      0.75,   0.75042,   0.75033,    25.551,    25.573,         0,  4717256,  895762,  |4-> 3102607 , |5-> 1501570 , |6-> 40 ,,  |4-> 149743 , |5-> 731639 , |6-> 161 ,,  |1-> 0 , |2-> 123611 , |3-> 380237 , |4-> 3084762 , |5-> 1128632 , |6-> 14 ,,  |1-> 0 , |2-> 15235 , |3-> 33184 , |4-> 296153 , |5-> 551109 , |6-> 81 ,
simulation,        11,       0.7,   0.70027,   0.70032,    17.116,    17.117,         0,  4483461,  724743,  |4-> 3965817 , |5-> 413571 , |6-> 0 ,,  |4-> 400448 , |5-> 310001 , |6-> 0 ,,  |1-> 0 , |2-> 116461 , |3-> 448740 , |4-> 3609732 , |5-> 308528 , |6-> 0 ,,  |1-> 0 , |2-> 15704 , |3-> 48854 , |4-> 424253 , |5-> 235932 , |6-> 0 ,
simulation,        12,      0.65,    0.6502,   0.65024,    14.872,    14.876,         0,  4153594,  661150,  |4-> 3955554 , |5-> 102847 , |6-> 0 ,,  |4-> 525532 , |5-> 121227 , |6-> 0 ,,  |1-> 0 , |2-> 107061 , |3-> 441415 , |4-> 3528957 , |5-> 76161 , |6-> 0 ,,  |1-> 0 , |2-> 15923 , |3-> 57041 , |4-> 496149 , |5-> 92037 , |6-> 0 ,
