vc_buf_size = 64;
wait_for_tail_credit = 0;
vc_allocator = separable_input_first;
sw_allocator = separable_input_first;
alloc_iters = 1;
credit_delay = 2;
routing_delay = 0;
vc_alloc_delay = 1;
sw_alloc_delay = 1;
st_final_delay = 1;
input_speedup = 1;
output_speedup = 1;
sim_count = 1;
num_vcs = 7;
priority = none;
packet_size = 1;
injection_rate_uses_flits = 1;
internal_speedup = 4.0;
warmup_periods = 3;
sample_period = 1000;
df_a = 16;
df_arrangement = absolute_improved;
df_g = 35;
global_latency = 1;
local_latency = 1;
multitiered_routing_threshold_0 = 10;
multitiered_routing_threshold_1 = 40;
topology = dragonflyfull;
traffic = uniform;
routing_function = UGAL_L;
seed = 18;

defaultText, count, i-rate in config file, i-rate injected, i-rate accepted, packet latency, flit latency, deadlock?
simulation,         1,      0.01, 0.0099728, 0.0099763,    9.9617,    9.9633,         0,  254308,  14672,  |4-> 0 , |5-> 0 , |6-> 0 ,,  |4-> 0 , |5-> 0 , |6-> 0 ,,  |1-> 0 , |2-> 6912 , |3-> 197 , |4-> 5013 , |5-> 51056 , |6-> 191130 ,,  |1-> 0 , |2-> 417 , |3-> 19 , |4-> 286 , |5-> 3030 , |6-> 10920 ,
simulation,         2,      0.99,   0.82779,   0.84981,     534.8,    405.97,         1,  0,  0,  ,  ,  ,  
simulation,         3,       0.5,    0.4997,    0.4997,    12.928,    12.931,         0,  11504886,  1973178,  |4-> 0 , |5-> 0 , |6-> 0 ,,  |4-> 0 , |5-> 0 , |6-> 0 ,,  |1-> 0 , |2-> 306162 , |3-> 9495 , |4-> 226490 , |5-> 2301114 , |6-> 8661625 ,,  |1-> 0 , |2-> 55370 , |3-> 1830 , |4-> 41716 , |5-> 407866 , |6-> 1466396 ,
simulation,         4,      0.74,   0.73979,   0.73979,    18.002,    18.009,         0,  17914259,  2193167,  |4-> 0 , |5-> 0 , |6-> 0 ,,  |4-> 0 , |5-> 0 , |6-> 0 ,,  |1-> 0 , |2-> 481874 , |3-> 14894 , |4-> 349786 , |5-> 3581510 , |6-> 13486195 ,,  |1-> 0 , |2-> 59297 , |3-> 2109 , |4-> 47593 , |5-> 460658 , |6-> 1623510 ,
simulation,         5,      0.86,   0.84967,   0.85808,    106.42,     113.1,         0,  42840509,  5655477,  |4-> 0 , |5-> 0 , |6-> 0 ,,  |4-> 0 , |5-> 0 , |6-> 0 ,,  |1-> 0 , |2-> 1166729 , |3-> 30462 , |4-> 757873 , |5-> 8221101 , |6-> 32664344 ,,  |1-> 0 , |2-> 136053 , |3-> 10895 , |4-> 202633 , |5-> 1528515 , |6-> 3777381 ,
simulation,         6,      0.92,   0.83594,    0.8611,    479.68,    343.25,         1,  0,  0,  ,  ,  ,  
simulation,         7,      0.89,   0.84854,   0.87107,    292.65,    265.62,         0,  45652517,  6553638,  |4-> 0 , |5-> 0 , |6-> 0 ,,  |4-> 0 , |5-> 0 , |6-> 0 ,,  |1-> 0 , |2-> 1243729 , |3-> 30231 , |4-> 771888 , |5-> 8606369 , |6-> 35000300 ,,  |1-> 0 , |2-> 158456 , |3-> 14609 , |4-> 264401 , |5-> 1891731 , |6-> 4224441 ,
simulation,         8,       0.9,   0.84311,   0.86906,    385.53,    316.23,         0,  45481022,  6809221,  |4-> 0 , |5-> 0 , |6-> 0 ,,  |4-> 0 , |5-> 0 , |6-> 0 ,,  |1-> 0 , |2-> 1236728 , |3-> 29607 , |4-> 763102 , |5-> 8543998 , |6-> 34907587 ,,  |1-> 0 , |2-> 165815 , |3-> 15283 , |4-> 276085 , |5-> 1970487 , |6-> 4381551 ,
simulation,         9,      0.91,   0.84117,   0.86764,    459.38,    349.16,         0,  46236157,  7096197,  |4-> 0 , |5-> 0 , |6-> 0 ,,  |4-> 0 , |5-> 0 , |6-> 0 ,,  |1-> 0 , |2-> 1257782 , |3-> 29753 , |4-> 768798 , |5-> 8667682 , |6-> 35512142 ,,  |1-> 0 , |2-> 174635 , |3-> 15746 , |4-> 287040 , |5-> 2053202 , |6-> 4565574 ,
simulation,        11,      0.85,   0.84579,   0.84981,    62.158,     65.97,         0,  29203646,  3826138,  |4-> 0 , |5-> 0 , |6-> 0 ,,  |4-> 0 , |5-> 0 , |6-> 0 ,,  |1-> 0 , |2-> 792705 , |3-> 21955 , |4-> 534126 , |5-> 5679128 , |6-> 22175732 ,,  |1-> 0 , |2-> 92945 , |3-> 6212 , |4-> 120595 , |5-> 961376 , |6-> 2645010 ,
simulation,        12,       0.8,   0.79987,    0.7999,    28.705,    28.797,         0,  19641126,  2438812,  |4-> 0 , |5-> 0 , |6-> 0 ,,  |4-> 0 , |5-> 0 , |6-> 0 ,,  |1-> 0 , |2-> 530526 , |3-> 16042 , |4-> 380477 , |5-> 3910891 , |6-> 14803190 ,,  |1-> 0 , |2-> 62857 , |3-> 2679 , |4-> 56291 , |5-> 527416 , |6-> 1789569 ,
simulation,        13,      0.75,   0.74981,   0.74984,     18.72,    18.741,         0,  18283910,  2220251,  |4-> 0 , |5-> 0 , |6-> 0 ,,  |4-> 0 , |5-> 0 , |6-> 0 ,,  |1-> 0 , |2-> 490459 , |3-> 15431 , |4-> 357053 , |5-> 3657863 , |6-> 13763104 ,,  |1-> 0 , |2-> 59554 , |3-> 2172 , |4-> 48417 , |5-> 466307 , |6-> 1643801 ,
