vc_buf_size = 64;
wait_for_tail_credit = 0;
vc_allocator = separable_input_first;
sw_allocator = separable_input_first;
alloc_iters = 1;
credit_delay = 2;
routing_delay = 0;
vc_alloc_delay = 1;
sw_alloc_delay = 1;
st_final_delay = 1;
input_speedup = 1;
output_speedup = 1;
sim_count = 1;
num_vcs = 7;
priority = none;
packet_size = 1;
injection_rate_uses_flits = 1;
internal_speedup = 4.0;
warmup_periods = 3;
sample_period = 10000;
df_a = 8;
df_arrangement = absolute_improved;
df_g = 0;
global_latency = 10;
local_latency = 10;
multitiered_routing_threshold_0 = 10;
multitiered_routing_threshold_1 = 40;
seed = 11;
topology = dragonflyfull;
traffic = group_shift;
df_g = 23;
routing_function = UGAL_L_multi_tiered;
shift_by_group = 4;

defaultText, count, i-rate in config file, i-rate injected, i-rate accepted, packet latency, flit latency, deadlock?
simulation,         1,      0.01,  0.010046,  0.010045,    40.179,    40.179,         0,  252662,  190980,  |4-> 252662 , |5-> 0 , |6-> 0 ,,  |4-> 190963 , |5-> 17 , |6-> 0 ,,  |1-> 0 , |2-> 204 , |3-> 37594 , |4-> 214864 , |5-> 0 , |6-> 0 ,,  |1-> 0 , |2-> 122 , |3-> 27183 , |4-> 163661 , |5-> 14 , |6-> 0 ,
simulation,         2,      0.99,   0.30238,   0.34779,    2858.6,    1271.0,         1,  0,  0,  ,  ,  ,  
simulation,         3,       0.5,   0.32599,   0.36525,    1446.2,    935.86,         1,  0,  0,  ,  ,  ,  
simulation,         4,      0.25,   0.24988,   0.25001,    130.37,    130.53,         0,  2856130,  12556854,  |4-> 4604 , |5-> 2522316 , |6-> 329210 ,,  |4-> 3741 , |5-> 8565071 , |6-> 3988042 ,,  |1-> 0 , |2-> 684 , |3-> 86839 , |4-> 546859 , |5-> 2063530 , |6-> 158218 ,,  |1-> 0 , |2-> 2175 , |3-> 396753 , |4-> 2505490 , |5-> 7843791 , |6-> 1808645 ,
simulation,         5,      0.37,   0.32332,   0.35003,     550.5,    496.84,         1,  0,  0,  ,  ,  ,  
simulation,         6,      0.31,   0.29984,   0.30083,     705.8,    410.03,         1,  0,  0,  ,  ,  ,  
simulation,         7,      0.28,    0.2767,   0.27671,    478.34,    277.68,         1,  0,  0,  ,  ,  ,  
simulation,         8,      0.26,   0.25897,   0.25924,    361.42,    260.88,         0,  3704158,  17023369,  |4-> 4135 , |5-> 3081718 , |6-> 618305 ,,  |4-> 3468 , |5-> 10604305 , |6-> 6415596 ,,  |1-> 0 , |2-> 917 , |3-> 106751 , |4-> 679240 , |5-> 2616883 , |6-> 300367 ,,  |1-> 0 , |2-> 2845 , |3-> 525116 , |4-> 3297616 , |5-> 10299687 , |6-> 2898105 ,
simulation,         9,      0.27,   0.26773,   0.26782,    520.83,    278.04,         1,  0,  0,  ,  ,  ,  
simulation,        11,       0.2,   0.20009,   0.20009,    83.014,    83.086,         0,  2055532,  6826454,  |4-> 34309 , |5-> 2014794 , |6-> 6429 ,,  |4-> 19551 , |5-> 5657115 , |6-> 1149788 ,,  |1-> 0 , |2-> 456 , |3-> 72968 , |4-> 457511 , |5-> 1523095 , |6-> 1502 ,,  |1-> 0 , |2-> 1157 , |3-> 227635 , |4-> 1464756 , |5-> 4587152 , |6-> 545754 ,
simulation,        12,      0.15,   0.15015,   0.15015,    75.992,    76.021,         0,  2048802,  4598210,  |4-> 733023 , |5-> 1315779 , |6-> 0 ,,  |4-> 437952 , |5-> 3329144 , |6-> 831114 ,,  |1-> 0 , |2-> 1012 , |3-> 164346 , |4-> 898410 , |5-> 985034 , |6-> 0 ,,  |1-> 0 , |2-> 808 , |3-> 192176 , |4-> 1242497 , |5-> 2767407 , |6-> 395322 ,
simulation,        13,       0.1,   0.10018,   0.10018,    56.123,    56.141,         0,  1885573,  2544705,  |4-> 1769854 , |5-> 115719 , |6-> 0 ,,  |4-> 1547090 , |5-> 708353 , |6-> 289262 ,,  |1-> 0 , |2-> 1977 , |3-> 292288 , |4-> 1501888 , |5-> 89420 , |6-> 0 ,,  |1-> 0 , |2-> 897 , |3-> 234044 , |4-> 1532694 , |5-> 643999 , |6-> 133071 ,
