wait_for_tail_credit = 0;
sim_count = 1;
warmup_periods = 3;
st_final_delay = 1;
alloc_iters = 1;
num_vcs = 7;
credit_delay = 2;
output_speedup = 1;
vc_buf_size = 64;
packet_size = 1;
sw_allocator = separable_input_first;
vc_allocator = separable_input_first;
input_speedup = 1;
priority = none;
internal_speedup = 4.0;
vc_alloc_delay = 1;
routing_delay = 0;
sw_alloc_delay = 1;
sample_period = 1000;
injection_rate_uses_flits = 1;
df_a = 16;
df_arrangement = absolute_improved;
df_g = 27;
seed = 11;
topology = dragonflyfull;
traffic = randperm;
perm_seed = 62;
routing_function = UGAL_L;

defaultText, count, i-rate in config file, i-rate injected, i-rate accepted, packet latency, flit latency, deadlock?
simulation,         1,      0.01,  0.010039,  0.010039,    9.9482,    9.9502,         0,  195032,  13003,  |4-> 0 , |5-> 0 , |6-> 0 ,,  |4-> 0 , |5-> 0 , |6-> 0 ,,  |1-> 0 , |2-> 7643 , |3-> 168 , |4-> 3694 , |5-> 38418 , |6-> 145109 ,,  |1-> 0 , |2-> 839 , |3-> 11 , |4-> 232 , |5-> 2638 , |6-> 9283 ,
simulation,         2,      0.99,   0.67405,   0.69456,    635.54,    554.62,         1,  0,  0,  ,  ,  ,  
simulation,         3,       0.5,    0.5002,   0.50016,    14.634,    14.655,         0,  8523316,  2050290,  |4-> 0 , |5-> 0 , |6-> 0 ,,  |4-> 0 , |5-> 0 , |6-> 0 ,,  |1-> 0 , |2-> 292966 , |3-> 6882 , |4-> 163056 , |5-> 1681858 , |6-> 6378554 ,,  |1-> 0 , |2-> 135917 , |3-> 1859 , |4-> 43139 , |5-> 413140 , |6-> 1456235 ,
simulation,         4,      0.74,   0.68038,   0.68786,    400.02,    276.35,         1,  0,  0,  ,  ,  ,  
simulation,         5,      0.62,    0.6199,   0.62006,    29.803,    30.033,         0,  10895176,  2982045,  |4-> 0 , |5-> 0 , |6-> 0 ,,  |4-> 0 , |5-> 0 , |6-> 0 ,,  |1-> 0 , |2-> 356588 , |3-> 8580 , |4-> 203014 , |5-> 2131089 , |6-> 8195905 ,,  |1-> 0 , |2-> 207041 , |3-> 3155 , |4-> 67428 , |5-> 621871 , |6-> 2082550 ,
simulation,         6,      0.68,   0.66678,   0.67045,    205.09,    130.16,         0,  36927555,  13791422,  |4-> 0 , |5-> 0 , |6-> 0 ,,  |4-> 0 , |5-> 0 , |6-> 0 ,,  |1-> 0 , |2-> 1136577 , |3-> 25484 , |4-> 639796 , |5-> 7020778 , |6-> 28104920 ,,  |1-> 0 , |2-> 951699 , |3-> 17051 , |4-> 349887 , |5-> 3032942 , |6-> 9439843 ,
simulation,         7,      0.71,   0.67568,   0.68188,    255.67,     196.4,         1,  0,  0,  ,  ,  ,  
simulation,         8,      0.69,   0.67019,   0.67512,     282.7,     166.1,         0,  51912839,  20129873,  |4-> 0 , |5-> 0 , |6-> 0 ,,  |4-> 0 , |5-> 0 , |6-> 0 ,,  |1-> 0 , |2-> 1578006 , |3-> 35367 , |4-> 889670 , |5-> 9834946 , |6-> 39574850 ,,  |1-> 0 , |2-> 1401024 , |3-> 25339 , |4-> 515861 , |5-> 4439573 , |6-> 13748076 ,
simulation,         9,       0.7,   0.67347,   0.67904,    364.67,    193.27,         0,  40639719,  16105349,  |4-> 0 , |5-> 0 , |6-> 0 ,,  |4-> 0 , |5-> 0 , |6-> 0 ,,  |1-> 0 , |2-> 1227688 , |3-> 26937 , |4-> 690697 , |5-> 7674618 , |6-> 31019779 ,,  |1-> 0 , |2-> 1135144 , |3-> 20603 , |4-> 416074 , |5-> 3567393 , |6-> 10966135 ,
simulation,        11,      0.65,   0.64824,   0.64909,    58.277,    53.363,         0,  21723684,  6943083,  |4-> 0 , |5-> 0 , |6-> 0 ,,  |4-> 0 , |5-> 0 , |6-> 0 ,,  |1-> 0 , |2-> 688097 , |3-> 15943 , |4-> 392094 , |5-> 4195308 , |6-> 16432242 ,,  |1-> 0 , |2-> 477834 , |3-> 8122 , |4-> 166671 , |5-> 1487762 , |6-> 4802694 ,
simulation,        12,       0.6,   0.59997,   0.60007,    24.772,    24.944,         0,  10287596,  2650372,  |4-> 0 , |5-> 0 , |6-> 0 ,,  |4-> 0 , |5-> 0 , |6-> 0 ,,  |1-> 0 , |2-> 341289 , |3-> 8332 , |4-> 193690 , |5-> 2021179 , |6-> 7723106 ,,  |1-> 0 , |2-> 184129 , |3-> 2792 , |4-> 58557 , |5-> 546121 , |6-> 1858773 ,
simulation,        13,      0.55,   0.55009,   0.55012,    18.057,    18.128,         0,  9413228,  2273123,  |4-> 0 , |5-> 0 , |6-> 0 ,,  |4-> 0 , |5-> 0 , |6-> 0 ,,  |1-> 0 , |2-> 320270 , |3-> 7681 , |4-> 179569 , |5-> 1856146 , |6-> 7049562 ,,  |1-> 0 , |2-> 154073 , |3-> 2168 , |4-> 48698 , |5-> 461328 , |6-> 1606856 ,
