vc_buf_size = 64;
wait_for_tail_credit = 0;
vc_allocator = separable_input_first;
sw_allocator = separable_input_first;
alloc_iters = 1;
credit_delay = 2;
routing_delay = 0;
vc_alloc_delay = 1;
sw_alloc_delay = 1;
st_final_delay = 1;
input_speedup = 1;
output_speedup = 1;
sim_count = 1;
num_vcs = 7;
priority = none;
packet_size = 1;
injection_rate_uses_flits = 1;
internal_speedup = 4.0;
warmup_periods = 3;
sample_period = 10000;
df_a = 8;
df_arrangement = absolute_improved;
df_g = 0;
global_latency = 10;
local_latency = 10;
multitiered_routing_threshold_0 = 10;
multitiered_routing_threshold_1 = 40;
seed = 11;
topology = dragonflyfull;
traffic = randperm;
df_g = 31;
perm_seed = 64;
routing_function = min;

defaultText, count, i-rate in config file, i-rate injected, i-rate accepted, packet latency, flit latency, deadlock?
simulation,         1,      0.01, 0.0099998,  0.010001,     33.59,     33.59,         0,  0,  0,  |4-> 0 , |5-> 0 , |6-> 0 ,,  |4-> 0 , |5-> 0 , |6-> 0 ,,  |1-> 0 , |2-> 0 , |3-> 0 , |4-> 0 , |5-> 0 , |6-> 0 ,,  |1-> 0 , |2-> 0 , |3-> 0 , |4-> 0 , |5-> 0 , |6-> 0 ,
simulation,         2,      0.99,   0.47301,   0.52059,    2052.7,    880.83,         1,  0,  0,  ,  ,  ,  
simulation,         3,       0.5,   0.40681,   0.42973,    598.59,    433.97,         1,  0,  0,  ,  ,  ,  
simulation,         4,      0.25,    0.2488,   0.24884,    247.43,    90.422,         1,  0,  0,  ,  ,  ,  
simulation,         5,      0.13,      0.13,      0.13,    33.825,    33.827,         0,  0,  0,  |4-> 0 , |5-> 0 , |6-> 0 ,,  |4-> 0 , |5-> 0 , |6-> 0 ,,  |1-> 0 , |2-> 0 , |3-> 0 , |4-> 0 , |5-> 0 , |6-> 0 ,,  |1-> 0 , |2-> 0 , |3-> 0 , |4-> 0 , |5-> 0 , |6-> 0 ,
simulation,         6,      0.19,   0.18999,   0.18999,    34.189,    34.191,         0,  0,  0,  |4-> 0 , |5-> 0 , |6-> 0 ,,  |4-> 0 , |5-> 0 , |6-> 0 ,,  |1-> 0 , |2-> 0 , |3-> 0 , |4-> 0 , |5-> 0 , |6-> 0 ,,  |1-> 0 , |2-> 0 , |3-> 0 , |4-> 0 , |5-> 0 , |6-> 0 ,
simulation,         7,      0.22,    0.2196,    0.2196,    189.78,    60.217,         0,  0,  0,  |4-> 0 , |5-> 0 , |6-> 0 ,,  |4-> 0 , |5-> 0 , |6-> 0 ,,  |1-> 0 , |2-> 0 , |3-> 0 , |4-> 0 , |5-> 0 , |6-> 0 ,,  |1-> 0 , |2-> 0 , |3-> 0 , |4-> 0 , |5-> 0 , |6-> 0 ,
simulation,         8,      0.23,   0.22939,    0.2294,    276.11,    59.284,         0,  0,  0,  |4-> 0 , |5-> 0 , |6-> 0 ,,  |4-> 0 , |5-> 0 , |6-> 0 ,,  |1-> 0 , |2-> 0 , |3-> 0 , |4-> 0 , |5-> 0 , |6-> 0 ,,  |1-> 0 , |2-> 0 , |3-> 0 , |4-> 0 , |5-> 0 , |6-> 0 ,
simulation,         9,      0.24,   0.23919,   0.23919,    382.14,    58.846,         0,  0,  0,  |4-> 0 , |5-> 0 , |6-> 0 ,,  |4-> 0 , |5-> 0 , |6-> 0 ,,  |1-> 0 , |2-> 0 , |3-> 0 , |4-> 0 , |5-> 0 , |6-> 0 ,,  |1-> 0 , |2-> 0 , |3-> 0 , |4-> 0 , |5-> 0 , |6-> 0 ,
simulation,        10,       0.2,   0.19997,   0.19998,    37.514,    37.512,         0,  0,  0,  |4-> 0 , |5-> 0 , |6-> 0 ,,  |4-> 0 , |5-> 0 , |6-> 0 ,,  |1-> 0 , |2-> 0 , |3-> 0 , |4-> 0 , |5-> 0 , |6-> 0 ,,  |1-> 0 , |2-> 0 , |3-> 0 , |4-> 0 , |5-> 0 , |6-> 0 ,
simulation,        11,      0.15,   0.14999,   0.14999,    33.892,    33.893,         0,  0,  0,  |4-> 0 , |5-> 0 , |6-> 0 ,,  |4-> 0 , |5-> 0 , |6-> 0 ,,  |1-> 0 , |2-> 0 , |3-> 0 , |4-> 0 , |5-> 0 , |6-> 0 ,,  |1-> 0 , |2-> 0 , |3-> 0 , |4-> 0 , |5-> 0 , |6-> 0 ,
simulation,        12,       0.1,       0.1,   0.10001,    33.747,    33.748,         0,  0,  0,  |4-> 0 , |5-> 0 , |6-> 0 ,,  |4-> 0 , |5-> 0 , |6-> 0 ,,  |1-> 0 , |2-> 0 , |3-> 0 , |4-> 0 , |5-> 0 , |6-> 0 ,,  |1-> 0 , |2-> 0 , |3-> 0 , |4-> 0 , |5-> 0 , |6-> 0 ,
simulation,        13,      0.05,  0.050014,  0.050017,    33.655,    33.656,         0,  0,  0,  |4-> 0 , |5-> 0 , |6-> 0 ,,  |4-> 0 , |5-> 0 , |6-> 0 ,,  |1-> 0 , |2-> 0 , |3-> 0 , |4-> 0 , |5-> 0 , |6-> 0 ,,  |1-> 0 , |2-> 0 , |3-> 0 , |4-> 0 , |5-> 0 , |6-> 0 ,
