vc_buf_size = 64;
wait_for_tail_credit = 0;
vc_allocator = separable_input_first;
sw_allocator = separable_input_first;
alloc_iters = 1;
credit_delay = 2;
routing_delay = 0;
vc_alloc_delay = 1;
sw_alloc_delay = 1;
st_final_delay = 1;
input_speedup = 1;
output_speedup = 1;
sim_count = 1;
num_vcs = 7;
priority = none;
packet_size = 1;
injection_rate_uses_flits = 1;
internal_speedup = 4.0;
warmup_periods = 3;
sample_period = 10000;
df_a = 8;
df_arrangement = absolute_improved;
df_g = 0;
global_latency = 10;
local_latency = 10;
multitiered_routing_threshold_0 = 10;
multitiered_routing_threshold_1 = 40;
seed = 11;
topology = dragonflyfull;
traffic = group_shift;
df_g = 31;
routing_function = UGAL_L;
shift_by_group = 2;

defaultText, count, i-rate in config file, i-rate injected, i-rate accepted, packet latency, flit latency, deadlock?
simulation,         1,      0.01, 0.0099998,  0.010001,    46.021,    46.029,         0,  374837,  222147,  |4-> 0 , |5-> 0 , |6-> 0 ,,  |4-> 0 , |5-> 0 , |6-> 0 ,,  |1-> 0 , |2-> 532 , |3-> 6303 , |4-> 34261 , |5-> 91225 , |6-> 242516 ,,  |1-> 0 , |2-> 391 , |3-> 4418 , |4-> 23272 , |5-> 55515 , |6-> 138551 ,
simulation,         2,      0.99,   0.36047,   0.40658,    2903.7,    1118.4,         1,  0,  0,  ,  ,  ,  
simulation,         3,       0.5,   0.36179,   0.39924,    1165.5,     794.6,         1,  0,  0,  ,  ,  ,  
simulation,         4,      0.25,   0.24998,   0.24999,    102.46,    102.59,         0,  3631623,  11334749,  |4-> 0 , |5-> 0 , |6-> 0 ,,  |4-> 0 , |5-> 0 , |6-> 0 ,,  |1-> 0 , |2-> 2882 , |3-> 31139 , |4-> 220364 , |5-> 849829 , |6-> 2527409 ,,  |1-> 0 , |2-> 21544 , |3-> 235874 , |4-> 1227656 , |5-> 2838095 , |6-> 7011580 ,
simulation,         5,      0.37,   0.33928,   0.35526,    701.04,    593.14,         1,  0,  0,  ,  ,  ,  
simulation,         6,      0.31,    0.3101,   0.31009,     115.6,    115.93,         0,  3658280,  15010412,  |4-> 0 , |5-> 0 , |6-> 0 ,,  |4-> 0 , |5-> 0 , |6-> 0 ,,  |1-> 0 , |2-> 1387 , |3-> 15940 , |4-> 164346 , |5-> 850463 , |6-> 2626144 ,,  |1-> 0 , |2-> 29125 , |3-> 317035 , |4-> 1641948 , |5-> 3750221 , |6-> 9272083 ,
simulation,         7,      0.34,   0.32951,   0.33279,    576.55,    508.77,         1,  0,  0,  ,  ,  ,  
simulation,         8,      0.32,   0.31996,   0.32006,    134.73,    135.58,         0,  3753381,  15997301,  |4-> 0 , |5-> 0 , |6-> 0 ,,  |4-> 0 , |5-> 0 , |6-> 0 ,,  |1-> 0 , |2-> 1105 , |3-> 12972 , |4-> 154965 , |5-> 872130 , |6-> 2712209 ,,  |1-> 0 , |2-> 31438 , |3-> 338795 , |4-> 1757819 , |5-> 3993657 , |6-> 9875592 ,
simulation,         9,      0.33,   0.32427,   0.32519,    519.18,    384.85,         1,  0,  0,  ,  ,  ,  
simulation,        10,       0.3,   0.30009,   0.30009,     111.9,    112.17,         0,  3642575,  14354332,  |4-> 0 , |5-> 0 , |6-> 0 ,,  |4-> 0 , |5-> 0 , |6-> 0 ,,  |1-> 0 , |2-> 1718 , |3-> 18970 , |4-> 175136 , |5-> 847639 , |6-> 2599112 ,,  |1-> 0 , |2-> 28030 , |3-> 300875 , |4-> 1564951 , |5-> 3588451 , |6-> 8872025 ,
simulation,        12,       0.2,   0.19998,   0.19998,    94.956,     95.03,         0,  3621916,  8329823,  |4-> 0 , |5-> 0 , |6-> 0 ,,  |4-> 0 , |5-> 0 , |6-> 0 ,,  |1-> 0 , |2-> 3545 , |3-> 39491 , |4-> 250790 , |5-> 853237 , |6-> 2474853 ,,  |1-> 0 , |2-> 16102 , |3-> 173290 , |4-> 906072 , |5-> 2090874 , |6-> 5143485 ,
simulation,        13,      0.15,   0.14999,   0.14999,    84.813,    84.841,         0,  3615195,  5340509,  |4-> 0 , |5-> 0 , |6-> 0 ,,  |4-> 0 , |5-> 0 , |6-> 0 ,,  |1-> 0 , |2-> 4124 , |3-> 46896 , |4-> 277717 , |5-> 859352 , |6-> 2427106 ,,  |1-> 0 , |2-> 10653 , |3-> 112497 , |4-> 590035 , |5-> 1347808 , |6-> 3279516 ,
