vc_buf_size = 64;
wait_for_tail_credit = 0;
vc_allocator = separable_input_first;
sw_allocator = separable_input_first;
alloc_iters = 1;
credit_delay = 2;
routing_delay = 0;
vc_alloc_delay = 1;
sw_alloc_delay = 1;
st_final_delay = 1;
input_speedup = 1;
output_speedup = 1;
sim_count = 1;
num_vcs = 7;
priority = none;
packet_size = 1;
injection_rate_uses_flits = 1;
internal_speedup = 4.0;
warmup_periods = 3;
sample_period = 10000;
df_a = 8;
df_arrangement = absolute_improved;
df_g = 0;
global_latency = 10;
local_latency = 10;
multitiered_routing_threshold_0 = 10;
multitiered_routing_threshold_1 = 40;
seed = 11;
topology = dragonflyfull;
traffic = randperm;
df_g = 15;
perm_seed = 66;
routing_function = UGAL_L_multi_tiered;

defaultText, count, i-rate in config file, i-rate injected, i-rate accepted, packet latency, flit latency, deadlock?
simulation,         1,      0.01,  0.010055,  0.010058,     35.81,    35.812,         0,  228924,  57334,  |4-> 220399 , |5-> 0 , |6-> 0 ,,  |4-> 54287 , |5-> 0 , |6-> 0 ,,  |1-> 0 , |2-> 9241 , |3-> 27648 , |4-> 192035 , |5-> 0 , |6-> 0 ,,  |1-> 0 , |2-> 3240 , |3-> 6697 , |4-> 47397 , |5-> 0 , |6-> 0 ,
simulation,         2,      0.99,    0.6547,   0.70008,    1302.6,    596.13,         1,  0,  0,  ,  ,  ,  
simulation,         3,       0.5,   0.50028,   0.50028,    46.092,    46.113,         0,  11482667,  2827030,  |4-> 1841194 , |5-> 9226417 , |6-> 18258 ,,  |4-> 35070 , |5-> 2526649 , |6-> 90246 ,,  |1-> 0 , |2-> 412553 , |3-> 633756 , |4-> 4550049 , |5-> 5881264 , |6-> 5045 ,,  |1-> 0 , |2-> 178428 , |3-> 109573 , |4-> 882802 , |5-> 1633778 , |6-> 22449 ,
simulation,         4,      0.74,    0.6582,   0.67137,    819.06,    347.44,         1,  0,  0,  ,  ,  ,  
simulation,         5,      0.62,   0.61719,   0.61719,    270.75,    87.593,         1,  0,  0,  ,  ,  ,  
simulation,         6,      0.56,   0.55977,   0.55977,    97.783,    56.148,         0,  22943318,  6336515,  |4-> 1848372 , |5-> 19856320 , |6-> 448735 ,,  |4-> 17472 , |5-> 5002148 , |6-> 934437 ,,  |1-> 0 , |2-> 817852 , |3-> 1100809 , |4-> 8048605 , |5-> 12850380 , |6-> 125672 ,,  |1-> 0 , |2-> 389632 , |3-> 234269 , |4-> 1901913 , |5-> 3588489 , |6-> 222212 ,
simulation,         7,      0.59,   0.58901,   0.58901,    255.09,    66.014,         0,  32344745,  9818150,  |4-> 1668726 , |5-> 28067822 , |6-> 1498851 ,,  |4-> 11144 , |5-> 6664746 , |6-> 2561208 ,,  |1-> 0 , |2-> 1145991 , |3-> 1448614 , |4-> 10736964 , |5-> 18591936 , |6-> 421240 ,,  |1-> 0 , |2-> 592256 , |3-> 360027 , |4-> 2870030 , |5-> 5394274 , |6-> 601563 ,
simulation,         8,       0.6,   0.59852,    0.5985,    329.36,    71.243,         0,  34381904,  10881122,  |4-> 1473361 , |5-> 29665914 , |6-> 2062917 ,,  |4-> 8945 , |5-> 6910376 , |6-> 3325410 ,,  |1-> 0 , |2-> 1217862 , |3-> 1504387 , |4-> 11205021 , |5-> 19879478 , |6-> 575156 ,,  |1-> 0 , |2-> 648874 , |3-> 395264 , |4-> 3150465 , |5-> 5905587 , |6-> 780932 ,
simulation,         9,      0.61,   0.60806,   0.60807,    435.78,    76.433,         0,  36204402,  12024956,  |4-> 1267668 , |5-> 30900409 , |6-> 2795373 ,,  |4-> 7073 , |5-> 7084110 , |6-> 4237532 ,,  |1-> 0 , |2-> 1279590 , |3-> 1547789 , |4-> 11567332 , |5-> 21031991 , |6-> 777700 ,,  |1-> 0 , |2-> 710399 , |3-> 436764 , |4-> 3448259 , |5-> 6433909 , |6-> 995625 ,
simulation,        11,      0.55,   0.55033,   0.55033,     51.77,    51.806,         0,  12413751,  3346828,  |4-> 1133849 , |5-> 10644567 , |6-> 207665 ,,  |4-> 12967 , |5-> 2715046 , |6-> 416480 ,,  |1-> 0 , |2-> 443120 , |3-> 607928 , |4-> 4429738 , |5-> 6873818 , |6-> 59147 ,,  |1-> 0 , |2-> 206059 , |3-> 125173 , |4-> 1012371 , |5-> 1905036 , |6-> 98189 ,
simulation,        13,      0.45,   0.45024,   0.45023,    42.496,    42.507,         0,  10431456,  2437911,  |4-> 2712478 , |5-> 7357952 , |6-> 635 ,,  |4-> 82795 , |5-> 2171568 , |6-> 29643 ,,  |1-> 0 , |2-> 376570 , |3-> 665481 , |4-> 4708935 , |5-> 4680283 , |6-> 187 ,,  |1-> 0 , |2-> 156938 , |3-> 97937 , |4-> 788921 , |5-> 1387180 , |6-> 6935 ,
