vc_buf_size = 64;
wait_for_tail_credit = 0;
vc_allocator = separable_input_first;
sw_allocator = separable_input_first;
alloc_iters = 1;
credit_delay = 2;
routing_delay = 0;
vc_alloc_delay = 1;
sw_alloc_delay = 1;
st_final_delay = 1;
input_speedup = 1;
output_speedup = 1;
sim_count = 1;
num_vcs = 7;
priority = none;
packet_size = 1;
injection_rate_uses_flits = 1;
internal_speedup = 4.0;
warmup_periods = 3;
sample_period = 1000;
df_a = 8;
df_arrangement = absolute_improved;
global_latency = 1;
local_latency = 1;
multitiered_routing_threshold_0 = 10;
multitiered_routing_threshold_1 = 40;
topology = dragonflyfull;
traffic = uniform;
df_g = 22;
routing_function = UGAL_L;
seed = 12;

defaultText, count, i-rate in config file, i-rate injected, i-rate accepted, packet latency, flit latency, deadlock?
simulation,         1,      0.01,  0.010077,   0.01008,    9.6294,    9.6303,         0,  40045,  2252,  |4-> 0 , |5-> 0 , |6-> 0 ,,  |4-> 0 , |5-> 0 , |6-> 0 ,,  |1-> 0 , |2-> 1587 , |3-> 197 , |4-> 2726 , |5-> 13003 , |6-> 22532 ,,  |1-> 0 , |2-> 102 , |3-> 13 , |4-> 170 , |5-> 751 , |6-> 1216 ,
simulation,         2,      0.99,    0.7021,   0.73521,    612.21,     531.6,         1,  0,  0,  ,  ,  ,  
simulation,         3,       0.5,   0.50035,   0.50024,    12.717,    12.721,         0,  1797233,  314163,  |4-> 0 , |5-> 0 , |6-> 0 ,,  |4-> 0 , |5-> 0 , |6-> 0 ,,  |1-> 0 , |2-> 71252 , |3-> 10594 , |4-> 120428 , |5-> 582330 , |6-> 1012629 ,,  |1-> 0 , |2-> 13434 , |3-> 2123 , |4-> 22606 , |5-> 104163 , |6-> 171837 ,
simulation,         4,      0.74,   0.69739,   0.71026,    419.12,    274.74,         0,  5911874,  1496184,  |4-> 0 , |5-> 0 , |6-> 0 ,,  |4-> 0 , |5-> 0 , |6-> 0 ,,  |1-> 0 , |2-> 237885 , |3-> 31161 , |4-> 367425 , |5-> 1873597 , |6-> 3401806 ,,  |1-> 0 , |2-> 59085 , |3-> 13506 , |4-> 135267 , |5-> 537553 , |6-> 750773 ,
simulation,         5,      0.86,   0.69919,   0.71994,    515.98,     474.1,         1,  0,  0,  ,  ,  ,  
simulation,         6,       0.8,   0.70095,   0.72277,    465.04,    380.81,         1,  0,  0,  ,  ,  ,  
simulation,         7,      0.77,   0.69806,   0.71327,    468.72,     331.2,         1,  0,  0,  ,  ,  ,  
simulation,         8,      0.75,    0.6999,   0.71328,    347.42,    265.39,         1,  0,  0,  ,  ,  ,  
simulation,        10,       0.7,    0.6845,   0.69373,    171.42,    158.35,         0,  5417958,  1159087,  |4-> 0 , |5-> 0 , |6-> 0 ,,  |4-> 0 , |5-> 0 , |6-> 0 ,,  |1-> 0 , |2-> 222653 , |3-> 29136 , |4-> 343491 , |5-> 1725274 , |6-> 3097404 ,,  |1-> 0 , |2-> 41049 , |3-> 10219 , |4-> 103106 , |5-> 415586 , |6-> 589127 ,
simulation,        11,      0.65,   0.64949,   0.65008,    27.718,    27.834,         0,  2778562,  484225,  |4-> 0 , |5-> 0 , |6-> 0 ,,  |4-> 0 , |5-> 0 , |6-> 0 ,,  |1-> 0 , |2-> 113877 , |3-> 16522 , |4-> 186364 , |5-> 899766 , |6-> 1562033 ,,  |1-> 0 , |2-> 17164 , |3-> 3183 , |4-> 35004 , |5-> 161263 , |6-> 267611 ,
simulation,        12,       0.6,   0.60033,   0.60022,    14.872,    14.884,         0,  2188155,  352971,  |4-> 0 , |5-> 0 , |6-> 0 ,,  |4-> 0 , |5-> 0 , |6-> 0 ,,  |1-> 0 , |2-> 88218 , |3-> 12848 , |4-> 146515 , |5-> 709720 , |6-> 1230854 ,,  |1-> 0 , |2-> 13983 , |3-> 2254 , |4-> 25484 , |5-> 117039 , |6-> 194211 ,
