vc_buf_size = 64;
wait_for_tail_credit = 0;
vc_allocator = separable_input_first;
sw_allocator = separable_input_first;
alloc_iters = 1;
credit_delay = 2;
routing_delay = 0;
vc_alloc_delay = 1;
sw_alloc_delay = 1;
st_final_delay = 1;
input_speedup = 1;
output_speedup = 1;
sim_count = 1;
num_vcs = 7;
priority = none;
packet_size = 1;
injection_rate_uses_flits = 1;
internal_speedup = 4.0;
warmup_periods = 3;
sample_period = 10000;
df_a = 8;
df_arrangement = absolute_improved;
df_g = 0;
global_latency = 10;
local_latency = 10;
multitiered_routing_threshold_0 = 10;
multitiered_routing_threshold_1 = 40;
seed = 11;
topology = dragonflyfull;
traffic = group_shift;
df_g = 25;
routing_function = PAR_multi_tiered;
shift_by_group = 4;

defaultText, count, i-rate in config file, i-rate injected, i-rate accepted, packet latency, flit latency, deadlock?
simulation,         1,      0.01,  0.010033,  0.010034,    46.378,    46.381,         0,  419192,  336421,  |4-> 419192 , |5-> 0 , |6-> 0 ,,  |4-> 336419 , |5-> 2 , |6-> 0 ,,  |1-> 0 , |2-> 459 , |3-> 52444 , |4-> 366289 , |5-> 0 , |6-> 0 ,,  |1-> 0 , |2-> 319 , |3-> 35037 , |4-> 301063 , |5-> 2 , |6-> 0 ,
simulation,         2,      0.99,   0.33999,     0.389,    3163.0,    1247.6,         1,  0,  0,  ,  ,  ,  
simulation,         3,       0.5,   0.35802,   0.40146,    1176.6,    860.73,         1,  0,  0,  ,  ,  ,  
simulation,         4,      0.25,   0.25011,    0.2501,    63.672,    63.675,         0,  8185961,  9950163,  |4-> 358677 , |5-> 7259549 , |6-> 567735 ,,  |4-> 27699 , |5-> 7045673 , |6-> 2876791 ,,  |1-> 0 , |2-> 1286 , |3-> 283646 , |4-> 1895966 , |5-> 5683654 , |6-> 321409 ,,  |1-> 0 , |2-> 1909 , |3-> 197025 , |4-> 1663378 , |5-> 6731810 , |6-> 1356041 ,
simulation,         5,      0.37,   0.36482,   0.36483,    455.89,    260.64,         1,  0,  0,  ,  ,  ,  
simulation,         6,      0.31,   0.31017,   0.31017,    72.884,     72.89,         0,  9278465,  12809071,  |4-> 40039 , |5-> 7544834 , |6-> 1693592 ,,  |4-> 5626 , |5-> 6170655 , |6-> 6632790 ,,  |1-> 0 , |2-> 1166 , |3-> 275633 , |4-> 1832657 , |5-> 6200139 , |6-> 968870 ,,  |1-> 0 , |2-> 2220 , |3-> 230738 , |4-> 1882815 , |5-> 7561026 , |6-> 3132272 ,
simulation,         7,      0.34,   0.34014,   0.34014,    85.866,      85.9,         0,  9318052,  14333709,  |4-> 14547 , |5-> 6862034 , |6-> 2441471 ,,  |4-> 4931 , |5-> 5989504 , |6-> 8339274 ,,  |1-> 0 , |2-> 931 , |3-> 259376 , |4-> 1728373 , |5-> 5968254 , |6-> 1361118 ,,  |1-> 0 , |2-> 2467 , |3-> 257692 , |4-> 2045541 , |5-> 8072246 , |6-> 3955763 ,
simulation,         8,      0.35,   0.34975,   0.34975,    151.76,    114.07,         0,  12353331,  19935714,  |4-> 12168 , |5-> 8271853 , |6-> 4069310 ,,  |4-> 4939 , |5-> 7063928 , |6-> 12866847 ,,  |1-> 0 , |2-> 1105 , |3-> 319920 , |4-> 2161968 , |5-> 7637379 , |6-> 2232959 ,,  |1-> 0 , |2-> 3247 , |3-> 350808 , |4-> 2755717 , |5-> 10712300 , |6-> 6113642 ,
simulation,         9,      0.36,   0.35862,   0.35862,    455.07,     151.3,         0,  20218333,  34501984,  |4-> 12033 , |5-> 11589279 , |6-> 8617021 ,,  |4-> 4897 , |5-> 9375616 , |6-> 25121471 ,,  |1-> 0 , |2-> 1351 , |3-> 464110 , |4-> 3229544 , |5-> 11848644 , |6-> 4674684 ,,  |1-> 0 , |2-> 5209 , |3-> 588648 , |4-> 4563806 , |5-> 17389542 , |6-> 11954779 ,
simulation,        11,       0.3,   0.30017,   0.30016,    70.819,    70.825,         0,  9189955,  12327699,  |4-> 58243 , |5-> 7684393 , |6-> 1447319 ,,  |4-> 6558 , |5-> 6280962 , |6-> 6040179 ,,  |1-> 0 , |2-> 1190 , |3-> 276716 , |4-> 1847637 , |5-> 6236162 , |6-> 828250 ,,  |1-> 0 , |2-> 2100 , |3-> 223536 , |4-> 1835671 , |5-> 7412563 , |6-> 2853829 ,
simulation,        13,       0.2,   0.20006,   0.20007,    58.913,    58.917,         0,  6807557,  7731389,  |4-> 1379586 , |5-> 5424057 , |6-> 3914 ,,  |4-> 214351 , |5-> 7157150 , |6-> 359888 ,,  |1-> 0 , |2-> 1739 , |3-> 355728 , |4-> 2302016 , |5-> 4145912 , |6-> 2162 ,,  |1-> 0 , |2-> 1580 , |3-> 186799 , |4-> 1582918 , |5-> 5785567 , |6-> 174525 ,
