vc_buf_size = 64;
wait_for_tail_credit = 0;
vc_allocator = separable_input_first;
sw_allocator = separable_input_first;
alloc_iters = 1;
credit_delay = 2;
routing_delay = 0;
vc_alloc_delay = 1;
sw_alloc_delay = 1;
st_final_delay = 1;
input_speedup = 1;
output_speedup = 1;
sim_count = 1;
num_vcs = 7;
priority = none;
packet_size = 1;
injection_rate_uses_flits = 1;
internal_speedup = 4.0;
warmup_periods = 3;
sample_period = 1000;
df_a = 8;
df_arrangement = absolute_improved;
df_g = 33;
global_latency = 1;
local_latency = 1;
multitiered_routing_threshold_0 = 10;
multitiered_routing_threshold_1 = 40;
topology = dragonflyfull;
traffic = randperm;
df_g = 13;
perm_seed = 68;
routing_function = UGAL_L;

defaultText, count, i-rate in config file, i-rate injected, i-rate accepted, packet latency, flit latency, deadlock?
simulation,         1,      0.01,  0.010038,  0.010042,    9.5508,    9.5501,         0,  22926,  1673,  |4-> 0 , |5-> 0 , |6-> 0 ,,  |4-> 0 , |5-> 0 , |6-> 0 ,,  |1-> 0 , |2-> 1430 , |3-> 150 , |4-> 1550 , |5-> 7265 , |6-> 12531 ,,  |1-> 0 , |2-> 139 , |3-> 5 , |4-> 104 , |5-> 510 , |6-> 915 ,
simulation,         2,      0.99,   0.66686,   0.69118,    635.25,    578.26,         1,  0,  0,  ,  ,  ,  
simulation,         3,       0.5,   0.49917,   0.49919,    16.932,    16.998,         0,  951527,  296041,  |4-> 0 , |5-> 0 , |6-> 0 ,,  |4-> 0 , |5-> 0 , |6-> 0 ,,  |1-> 0 , |2-> 52527 , |3-> 5082 , |4-> 62130 , |5-> 302626 , |6-> 529162 ,,  |1-> 0 , |2-> 23922 , |3-> 1880 , |4-> 20985 , |5-> 94918 , |6-> 154336 ,
simulation,         4,      0.74,   0.66296,   0.67139,    440.42,    322.29,         1,  0,  0,  ,  ,  ,  
simulation,         5,      0.62,   0.61933,   0.61956,     39.16,    39.555,         0,  1140384,  479192,  |4-> 0 , |5-> 0 , |6-> 0 ,,  |4-> 0 , |5-> 0 , |6-> 0 ,,  |1-> 0 , |2-> 60915 , |3-> 6080 , |4-> 73077 , |5-> 360671 , |6-> 639641 ,,  |1-> 0 , |2-> 38253 , |3-> 3094 , |4-> 34812 , |5-> 154459 , |6-> 248574 ,
simulation,         6,      0.68,   0.65584,    0.6606,    353.85,    186.57,         0,  3548592,  1945155,  |4-> 0 , |5-> 0 , |6-> 0 ,,  |4-> 0 , |5-> 0 , |6-> 0 ,,  |1-> 0 , |2-> 182161 , |3-> 17138 , |4-> 219865 , |5-> 1115014 , |6-> 2014414 ,,  |1-> 0 , |2-> 159292 , |3-> 13495 , |4-> 144470 , |5-> 632195 , |6-> 995703 ,
simulation,         7,      0.71,   0.66066,   0.66799,    343.98,    254.71,         1,  0,  0,  ,  ,  ,  
simulation,         8,      0.69,   0.65643,   0.66285,    251.14,    201.97,         1,  0,  0,  ,  ,  ,  
simulation,         9,      0.65,    0.6411,   0.64483,    133.75,    103.15,         0,  2745471,  1340144,  |4-> 0 , |5-> 0 , |6-> 0 ,,  |4-> 0 , |5-> 0 , |6-> 0 ,,  |1-> 0 , |2-> 143588 , |3-> 14166 , |4-> 173174 , |5-> 865369 , |6-> 1549174 ,,  |1-> 0 , |2-> 105644 , |3-> 9095 , |4-> 98071 , |5-> 435111 , |6-> 692223 ,
simulation,        10,       0.6,   0.59942,   0.59946,    31.054,    31.264,         0,  1110109,  423622,  |4-> 0 , |5-> 0 , |6-> 0 ,,  |4-> 0 , |5-> 0 , |6-> 0 ,,  |1-> 0 , |2-> 59972 , |3-> 5942 , |4-> 70789 , |5-> 352311 , |6-> 621095 ,,  |1-> 0 , |2-> 33991 , |3-> 2716 , |4-> 30471 , |5-> 136217 , |6-> 220227 ,
simulation,        11,      0.55,   0.54922,   0.54915,    20.377,    20.519,         0,  1038497,  342006,  |4-> 0 , |5-> 0 , |6-> 0 ,,  |4-> 0 , |5-> 0 , |6-> 0 ,,  |1-> 0 , |2-> 56842 , |3-> 5653 , |4-> 66813 , |5-> 329291 , |6-> 579898 ,,  |1-> 0 , |2-> 27837 , |3-> 2156 , |4-> 24333 , |5-> 109938 , |6-> 177742 ,
