vc_buf_size = 64;
wait_for_tail_credit = 0;
vc_allocator = separable_input_first;
sw_allocator = separable_input_first;
alloc_iters = 1;
credit_delay = 2;
routing_delay = 0;
vc_alloc_delay = 1;
sw_alloc_delay = 1;
st_final_delay = 1;
input_speedup = 1;
output_speedup = 1;
sim_count = 1;
num_vcs = 7;
priority = none;
packet_size = 1;
injection_rate_uses_flits = 1;
internal_speedup = 4.0;
warmup_periods = 3;
sample_period = 10000;
df_a = 8;
df_arrangement = absolute_improved;
df_g = 0;
global_latency = 10;
local_latency = 10;
multitiered_routing_threshold_0 = 10;
multitiered_routing_threshold_1 = 40;
seed = 11;
topology = dragonflyfull;
traffic = group_shift;
df_g = 21;
routing_function = PAR;
shift_by_group = 2;

defaultText, count, i-rate in config file, i-rate injected, i-rate accepted, packet latency, flit latency, deadlock?
simulation,         1,      0.01,  0.010063,  0.010061,    57.097,    57.108,         0,  381742,  263839,  |4-> 0 , |5-> 0 , |6-> 0 ,,  |4-> 0 , |5-> 0 , |6-> 0 ,,  |1-> 0 , |2-> 294 , |3-> 2868 , |4-> 28395 , |5-> 116251 , |6-> 233934 ,,  |1-> 0 , |2-> 237 , |3-> 2178 , |4-> 21020 , |5-> 84860 , |6-> 155544 ,
simulation,         2,      0.99,   0.33709,   0.38701,    3175.4,    1274.7,         1,  0,  0,  ,  ,  ,  
simulation,         3,       0.5,   0.34649,   0.39089,    1308.8,    945.45,         1,  0,  0,  ,  ,  ,  
simulation,         4,      0.25,   0.25014,   0.25013,    69.287,    69.292,         0,  8205877,  7878152,  |4-> 0 , |5-> 0 , |6-> 0 ,,  |4-> 0 , |5-> 0 , |6-> 0 ,,  |1-> 0 , |2-> 8506 , |3-> 61167 , |4-> 604900 , |5-> 2392290 , |6-> 5139014 ,,  |1-> 0 , |2-> 5600 , |3-> 63476 , |4-> 624801 , |5-> 2615902 , |6-> 4568373 ,
simulation,         5,      0.37,   0.34614,   0.35671,    546.24,    426.12,         1,  0,  0,  ,  ,  ,  
simulation,         6,      0.31,   0.31018,    0.3102,    84.552,    84.585,         0,  9462287,  10342255,  |4-> 0 , |5-> 0 , |6-> 0 ,,  |4-> 0 , |5-> 0 , |6-> 0 ,,  |1-> 0 , |2-> 10303 , |3-> 73758 , |4-> 716559 , |5-> 2748146 , |6-> 5913521 ,,  |1-> 0 , |2-> 7098 , |3-> 80574 , |4-> 799180 , |5-> 3412999 , |6-> 6042404 ,
simulation,         7,      0.34,   0.33951,    0.3395,    244.89,    142.85,         0,  18680990,  23033453,  |4-> 0 , |5-> 0 , |6-> 0 ,,  |4-> 0 , |5-> 0 , |6-> 0 ,,  |1-> 0 , |2-> 19012 , |3-> 135254 , |4-> 1370819 , |5-> 5408008 , |6-> 11747897 ,,  |1-> 0 , |2-> 19120 , |3-> 193078 , |4-> 1840088 , |5-> 7525758 , |6-> 13455409 ,
simulation,         8,      0.35,   0.34398,   0.34353,    464.71,    298.38,         1,  0,  0,  ,  ,  ,  
simulation,        10,       0.3,   0.30023,   0.30022,    78.296,    78.304,         0,  9308109,  9924591,  |4-> 0 , |5-> 0 , |6-> 0 ,,  |4-> 0 , |5-> 0 , |6-> 0 ,,  |1-> 0 , |2-> 9921 , |3-> 72524 , |4-> 703897 , |5-> 2703505 , |6-> 5818262 ,,  |1-> 0 , |2-> 6839 , |3-> 77125 , |4-> 768526 , |5-> 3276596 , |6-> 5795505 ,
simulation,        12,       0.2,   0.20009,   0.20009,    64.479,    64.488,         0,  6818416,  6008360,  |4-> 0 , |5-> 0 , |6-> 0 ,,  |4-> 0 , |5-> 0 , |6-> 0 ,,  |1-> 0 , |2-> 6559 , |3-> 48809 , |4-> 490556 , |5-> 1995458 , |6-> 4277034 ,,  |1-> 0 , |2-> 4491 , |3-> 50675 , |4-> 490086 , |5-> 1999802 , |6-> 3463306 ,
