vc_buf_size = 64;
wait_for_tail_credit = 0;
vc_allocator = separable_input_first;
sw_allocator = separable_input_first;
alloc_iters = 1;
credit_delay = 2;
routing_delay = 0;
vc_alloc_delay = 1;
sw_alloc_delay = 1;
st_final_delay = 1;
input_speedup = 1;
output_speedup = 1;
sim_count = 1;
num_vcs = 7;
priority = none;
packet_size = 1;
injection_rate_uses_flits = 1;
internal_speedup = 4.0;
warmup_periods = 3;
sample_period = 1000;
df_a = 8;
df_arrangement = absolute_improved;
df_g = 0;
multitiered_routing_threshold_0 = 10;
multitiered_routing_threshold_1 = 40;
seed = 11;
topology = dragonflyfull;
traffic = group_shift;
df_g = 25;
routing_function = UGAL_L_multi_tiered;
shift_by_group = 8;

defaultText, count, i-rate in config file, i-rate injected, i-rate accepted, packet latency, flit latency, deadlock?
simulation,         1,      0.01, 0.0099679, 0.0099642,    10.239,    10.241,         0,  36793,  11320,  |4-> 36793 , |5-> 0 , |6-> 0 ,,  |4-> 11320 , |5-> 0 , |6-> 0 ,,  |1-> 0 , |2-> 111 , |3-> 4453 , |4-> 32229 , |5-> 0 , |6-> 0 ,,  |1-> 0 , |2-> 26 , |3-> 1444 , |4-> 9850 , |5-> 0 , |6-> 0 ,
simulation,         2,      0.99,   0.30155,   0.52136,    478.07,     463.5,         1,  0,  0,  ,  ,  ,  
simulation,         3,       0.5,   0.34415,   0.39832,    561.24,    559.28,         1,  0,  0,  ,  ,  ,  
simulation,         4,      0.25,   0.25037,    0.2504,    34.278,     34.72,         0,  248388,  1233887,  |4-> 148633 , |5-> 97874 , |6-> 1881 ,,  |4-> 359511 , |5-> 677488 , |6-> 196888 ,,  |1-> 0 , |2-> 532 , |3-> 21158 , |4-> 145277 , |5-> 80880 , |6-> 541 ,,  |1-> 0 , |2-> 1057 , |3-> 59885 , |4-> 484579 , |5-> 588923 , |6-> 99443 ,
simulation,         5,      0.37,   0.34075,   0.35202,    352.66,    329.47,         1,  0,  0,  ,  ,  ,  
simulation,         6,      0.31,   0.30707,   0.31021,    84.011,    99.553,         0,  451192,  2864494,  |4-> 92467 , |5-> 308790 , |6-> 49935 ,,  |4-> 196912 , |5-> 1904505 , |6-> 763077 ,,  |1-> 0 , |2-> 216 , |3-> 17381 , |4-> 137661 , |5-> 273477 , |6-> 22457 ,,  |1-> 0 , |2-> 1558 , |3-> 83070 , |4-> 664685 , |5-> 1739849 , |6-> 375332 ,
simulation,         7,      0.34,   0.32897,   0.33702,    236.31,    229.29,         0,  531446,  3649698,  |4-> 55527 , |5-> 366606 , |6-> 109313 ,,  |4-> 117280 , |5-> 2254810 , |6-> 1277608 ,,  |1-> 0 , |2-> 105 , |3-> 14227 , |4-> 117846 , |5-> 345295 , |6-> 53973 ,,  |1-> 0 , |2-> 1555 , |3-> 89996 , |4-> 720953 , |5-> 2214068 , |6-> 623126 ,
simulation,         8,      0.35,   0.33432,   0.34369,    342.26,    296.43,         0,  535045,  3731727,  |4-> 45707 , |5-> 352249 , |6-> 137089 ,,  |4-> 96422 , |5-> 2166360 , |6-> 1468945 ,,  |1-> 0 , |2-> 91 , |3-> 12999 , |4-> 108174 , |5-> 343893 , |6-> 69888 ,,  |1-> 0 , |2-> 1607 , |3-> 87051 , |4-> 701450 , |5-> 2228071 , |6-> 713548 ,
simulation,         9,      0.36,   0.33909,   0.34897,    273.62,     263.0,         1,  0,  0,  ,  ,  ,  
simulation,        11,       0.3,   0.29822,   0.30023,    65.287,    76.484,         0,  440280,  2700363,  |4-> 113824 , |5-> 286734 , |6-> 39722 ,,  |4-> 246533 , |5-> 1789905 , |6-> 663925 ,,  |1-> 0 , |2-> 317 , |3-> 19485 , |4-> 151632 , |5-> 251025 , |6-> 17821 ,,  |1-> 0 , |2-> 1536 , |3-> 83425 , |4-> 672149 , |5-> 1614656 , |6-> 328597 ,
simulation,        13,       0.2,    0.2005,   0.20051,    33.498,     33.86,         0,  246103,  933196,  |4-> 220087 , |5-> 25854 , |6-> 162 ,,  |4-> 585760 , |5-> 200210 , |6-> 147226 ,,  |1-> 0 , |2-> 795 , |3-> 30278 , |4-> 193746 , |5-> 21249 , |6-> 35 ,,  |1-> 0 , |2-> 1213 , |3-> 72289 , |4-> 575639 , |5-> 209569 , |6-> 74486 ,
