injection_rate_uses_flits = 1;
sw_allocator = separable_input_first;
input_speedup = 1;
sample_period = 1000;
output_speedup = 1;
num_vcs = 7;
sw_alloc_delay = 1;
sim_count = 1;
internal_speedup = 4.0;
packet_size = 1;
vc_allocator = separable_input_first;
credit_delay = 2;
wait_for_tail_credit = 0;
alloc_iters = 1;
routing_delay = 0;
vc_buf_size = 64;
warmup_periods = 3;
st_final_delay = 1;
priority = none;
vc_alloc_delay = 1;
df_a = 16;
df_arrangement = absolute_improved;
df_g = 35;
multitiered_routing_threshold_0 = 10;
multitiered_routing_threshold_1 = 40;
seed = 11;
topology = dragonflyfull;
traffic = group_shift;
routing_function = UGAL_L_multi_tiered;
shift_by_group = 6;

defaultText, count, i-rate in config file, i-rate injected, i-rate accepted, packet latency, flit latency, deadlock?
simulation,         1,      0.01,  0.010043,  0.010042,    10.364,    10.364,         0,  223531,  46666,  |4-> 223531 , |5-> 0 , |6-> 0 ,,  |4-> 46666 , |5-> 0 , |6-> 0 ,,  |1-> 0 , |2-> 611 , |3-> 15123 , |4-> 207797 , |5-> 0 , |6-> 0 ,,  |1-> 0 , |2-> 112 , |3-> 3156 , |4-> 43398 , |5-> 0 , |6-> 0 ,
simulation,         2,      0.99,   0.20457,     0.438,    582.14,    569.14,         1,  0,  0,  ,  ,  ,  
simulation,         3,       0.5,   0.20077,   0.23481,    982.39,    979.74,         1,  0,  0,  ,  ,  ,  
simulation,         4,      0.25,   0.20926,   0.24237,    424.31,    457.95,         1,  0,  0,  ,  ,  ,  
simulation,         5,      0.13,   0.13012,   0.13015,    40.886,    41.477,         0,  1024900,  3392397,  |4-> 1001211 , |5-> 23659 , |6-> 30 ,,  |4-> 3011296 , |5-> 105882 , |6-> 275219 ,,  |1-> 0 , |2-> 3566 , |3-> 67912 , |4-> 935207 , |5-> 18207 , |6-> 8 ,,  |1-> 0 , |2-> 7038 , |3-> 211369 , |4-> 2869241 , |5-> 205628 , |6-> 99121 ,
simulation,         6,      0.19,   0.18663,   0.18999,    135.27,    212.13,         0,  2620824,  13488606,  |4-> 1452668 , |5-> 796582 , |6-> 371574 ,,  |4-> 6374449 , |5-> 4546927 , |6-> 2567230 ,,  |1-> 0 , |2-> 4893 , |3-> 111557 , |4-> 1524654 , |5-> 848054 , |6-> 131666 ,,  |1-> 0 , |2-> 20326 , |3-> 614619 , |4-> 7632680 , |5-> 4368268 , |6-> 852713 ,
simulation,         7,      0.22,   0.20255,   0.21788,    271.03,    277.82,         1,  0,  0,  ,  ,  ,  
simulation,         8,       0.2,   0.19313,   0.19984,    228.63,    363.19,         0,  2962303,  15831434,  |4-> 1285192 , |5-> 1056835 , |6-> 620276 ,,  |4-> 5798839 , |5-> 6202907 , |6-> 3829688 ,,  |1-> 0 , |2-> 4147 , |3-> 101125 , |4-> 1430518 , |5-> 1192447 , |6-> 234066 ,,  |1-> 0 , |2-> 21491 , |3-> 631290 , |4-> 7874677 , |5-> 6041588 , |6-> 1262388 ,
simulation,         9,      0.21,   0.19892,   0.20924,    192.19,    197.28,         1,  0,  0,  ,  ,  ,  
simulation,        11,      0.15,   0.15003,    0.1501,    43.292,    45.166,         0,  1903135,  7606120,  |4-> 1747364 , |5-> 141370 , |6-> 14401 ,,  |4-> 6271801 , |5-> 679769 , |6-> 654550 ,,  |1-> 0 , |2-> 6161 , |3-> 121145 , |4-> 1652895 , |5-> 119126 , |6-> 3808 ,,  |1-> 0 , |2-> 15159 , |3-> 462316 , |4-> 6091099 , |5-> 805908 , |6-> 231638 ,
simulation,        12,       0.1,   0.10012,   0.10014,     40.83,    41.273,         0,  973334,  2265691,  |4-> 972795 , |5-> 539 , |6-> 0 ,,  |4-> 2060525 , |5-> 4065 , |6-> 201101 ,,  |1-> 0 , |2-> 3217 , |3-> 65854 , |4-> 903840 , |5-> 423 , |6-> 0 ,,  |1-> 0 , |2-> 4684 , |3-> 140704 , |4-> 1953082 , |5-> 94563 , |6-> 72658 ,
simulation,        13,      0.05,  0.050126,  0.050139,    25.822,    25.914,         0,  801204,  568010,  |4-> 801204 , |5-> 0 , |6-> 0 ,,  |4-> 499962 , |5-> 42522 , |6-> 25526 ,,  |1-> 0 , |2-> 2322 , |3-> 53643 , |4-> 745239 , |5-> 0 , |6-> 0 ,,  |1-> 0 , |2-> 1247 , |3-> 35272 , |4-> 480267 , |5-> 42258 , |6-> 8966 ,
