df_a , df_g , topology , df_arrangement , vc_buf_size , internal_speedup , warmup_periods , sample_period , seed , traffic , perm_seed , df_wc_seed , shift_by_group , shift_percentage , shift_offset , routing_function , five_hop_percentage , multitiered_routing_threshold_0 , multitiered_routing_threshold_1 , ugal_multiply_mode , global_latency , local_latency , saturationPoint , irate_vs_packet_latency , irate_vs_flit_latency , avg_hop_len
8 , 9 , dragonflyfull , absolute_improved , 8 , 4.0 , 3 , 10000 , 80 , group_shift , -1 , -1 , 1 , -1 , -1 , UGAL_L , -1 , -1 , -1 , pathlen_based , 40 , 40 , 0.02 , 0.02->192.34 | 0.02->192.34 , 0.02->192.62 | 0.02->192.62 , 0.02->4.7166 | 0.02->4.7166
8 , 9 , dragonflyfull , absolute_improved , 8 , 4.0 , 3 , 10000 , 80 , group_shift , -1 , -1 , 1 , -1 , -1 , UGAL_L_restricted_src_only , -1 , -1 , -1 , pathlen_based , 40 , 40 , 0.03 , 0.02->147.71 | 0.02->147.71 | 0.03->220.64 , 0.02->147.76 | 0.02->147.76 | 0.03->221.04 , 0.02->4.361 | 0.02->4.361 | 0.03->4.4265
8 , 9 , dragonflyfull , absolute_improved , 8 , 4.0 , 3 , 10000 , 80 , group_shift , -1 , -1 , 1 , -1 , -1 , UGAL_G , -1 , -1 , -1 , pathlen_based , 40 , 40 , 0.02 , 0.02->167.39 | 0.02->167.39 , 0.02->167.49 | 0.02->167.49 , 0.02->4.91 | 0.02->4.91
8 , 9 , dragonflyfull , absolute_improved , 8 , 4.0 , 3 , 10000 , 80 , group_shift , -1 , -1 , 1 , -1 , -1 , UGAL_G_restricted_src_only , -1 , -1 , -1 , pathlen_based , 40 , 40 , 0.03 , 0.02->144.52 | 0.02->144.52 | 0.03->148.68 , 0.02->144.55 | 0.02->144.55 | 0.03->148.75 , 0.02->4.3965 | 0.02->4.3965 | 0.03->4.3833
8 , 9 , dragonflyfull , absolute_improved , 8 , 4.0 , 3 , 10000 , 80 , group_shift , -1 , -1 , 1 , -1 , -1 , PAR , -1 , -1 , -1 , pathlen_based , 40 , 40 , 0.03 , 0.02->179.24 | 0.02->179.24 | 0.03->180.87 , 0.02->179.39 | 0.02->179.39 | 0.03->181.03 , 0.02->5.2624 | 0.02->5.2624 | 0.03->5.2176
8 , 9 , dragonflyfull , absolute_improved , 8 , 4.0 , 3 , 10000 , 80 , group_shift , -1 , -1 , 1 , -1 , -1 , PAR_restricted_src_only , -1 , -1 , -1 , pathlen_based , 40 , 40 , 0.05 , 0.02->156.77 | 0.04->159.28 | 0.04->159.28 | 0.05->394.85 , 0.02->156.83 | 0.04->159.36 | 0.04->159.36 | 0.05->246.88 , 0.02->4.7226 | 0.04->4.7061 | 0.04->4.7061 | 0.05->4.6881

8 , 9 , dragonflyfull , absolute_improved , 16 , 4.0 , 3 , 10000 , 80 , group_shift , -1 , -1 , 1 , -1 , -1 , UGAL_L , -1 , -1 , -1 , pathlen_based , 40 , 40 , 0.04 , 0.02->154.31 | 0.04->196.94 | 0.04->196.94 , 0.02->154.41 | 0.04->197.03 | 0.04->197.03 , 0.02->4.6637 | 0.04->4.6912 | 0.04->4.6912
8 , 9 , dragonflyfull , absolute_improved , 16 , 4.0 , 3 , 10000 , 80 , group_shift , -1 , -1 , 1 , -1 , -1 , UGAL_L_restricted_src_only , -1 , -1 , -1 , pathlen_based , 40 , 40 , 0.06 , 0.02->141.29 | 0.04->144.98 | 0.04->144.98 | 0.05->171.43 | 0.06->211.39 | 0.06->211.39 , 0.02->141.33 | 0.04->145.0 | 0.04->145.0 | 0.05->171.47 | 0.06->211.59 | 0.06->211.59 , 0.02->4.3471 | 0.04->4.3431 | 0.04->4.3431 | 0.05->4.3803 | 0.06->4.425 | 0.06->4.425
8 , 9 , dragonflyfull , absolute_improved , 16 , 4.0 , 3 , 10000 , 80 , group_shift , -1 , -1 , 1 , -1 , -1 , UGAL_G , -1 , -1 , -1 , pathlen_based , 40 , 40 , 0.05 , 0.02->164.71 | 0.04->165.19 | 0.04->165.19 | 0.05->168.29 , 0.02->164.81 | 0.04->165.31 | 0.04->165.31 | 0.05->168.41 , 0.02->4.9178 | 0.04->4.8928 | 0.04->4.8928 | 0.05->4.8683
8 , 9 , dragonflyfull , absolute_improved , 16 , 4.0 , 3 , 10000 , 80 , group_shift , -1 , -1 , 1 , -1 , -1 , UGAL_G_restricted_src_only , -1 , -1 , -1 , pathlen_based , 40 , 40 , 0.07 , 0.02->143.32 | 0.04->143.84 | 0.06->145.49 | 0.07->151.52 , 0.02->143.33 | 0.04->143.87 | 0.06->145.54 | 0.07->151.6 , 0.02->4.3966 | 0.04->4.3931 | 0.06->4.3734 | 0.07->4.3645
8 , 9 , dragonflyfull , absolute_improved , 16 , 4.0 , 3 , 10000 , 80 , group_shift , -1 , -1 , 1 , -1 , -1 , PAR , -1 , -1 , -1 , pathlen_based , 40 , 40 , 0.07 , 0.02->178.74 | 0.04->176.56 | 0.06->177.45 | 0.07->217.94 , 0.02->178.94 | 0.04->176.73 | 0.06->177.61 | 0.07->209.86 , 0.02->5.26 | 0.04->5.2023 | 0.06->5.1655 | 0.07->5.1504
8 , 9 , dragonflyfull , absolute_improved , 16 , 4.0 , 3 , 10000 , 80 , group_shift , -1 , -1 , 1 , -1 , -1 , PAR_restricted_src_only , -1 , -1 , -1 , pathlen_based , 40 , 40 , 0.09 , 0.02->156.87 | 0.04->156.04 | 0.06->156.26 | 0.07->156.7 | 0.08->157.74 | 0.08->157.74 | 0.09->160.35 , 0.02->156.92 | 0.04->156.11 | 0.06->156.33 | 0.07->156.78 | 0.08->157.8 | 0.08->157.8 | 0.09->160.44 , 0.02->4.727 | 0.04->4.7048 | 0.06->4.7004 | 0.07->4.6971 | 0.08->4.696 | 0.08->4.696 | 0.09->4.6902

8 , 9 , dragonflyfull , absolute_improved , 32 , 4.0 , 3 , 10000 , 80 , group_shift , -1 , -1 , 1 , -1 , -1 , UGAL_L , -1 , -1 , -1 , pathlen_based , 40 , 40 , 0.09 , 0.02->154.47 | 0.04->152.77 | 0.06->152.76 | 0.07->158.98 | 0.08->201.92 | 0.08->201.92 | 0.09->251.61 , 0.02->154.56 | 0.04->152.87 | 0.06->152.84 | 0.07->159.05 | 0.08->202.02 | 0.08->202.02 | 0.09->251.84 , 0.02->4.6682 | 0.04->4.6246 | 0.06->4.6041 | 0.07->4.6086 | 0.08->4.6768 | 0.08->4.6768 | 0.09->4.7912
8 , 9 , dragonflyfull , absolute_improved , 32 , 4.0 , 3 , 10000 , 80 , group_shift , -1 , -1 , 1 , -1 , -1 , UGAL_L_restricted_src_only , -1 , -1 , -1 , pathlen_based , 40 , 40 , 0.13 , 0.05->140.59 | 0.1->172.68 | 0.13->224.09 , 0.05->140.63 | 0.1->172.71 | 0.13->224.36 , 0.05->4.3277 | 0.1->4.3758 | 0.13->4.4365
8 , 9 , dragonflyfull , absolute_improved , 32 , 4.0 , 3 , 10000 , 80 , group_shift , -1 , -1 , 1 , -1 , -1 , UGAL_G , -1 , -1 , -1 , pathlen_based , 40 , 40 , 0.11 , 0.05->164.24 | 0.07->164.42 | 0.1->165.35 | 0.1->165.35 | 0.11->175.15 , 0.05->164.36 | 0.07->164.53 | 0.1->165.45 | 0.1->165.45 | 0.11->175.26 , 0.05->4.9029 | 0.07->4.8941 | 0.1->4.8474 | 0.1->4.8474 | 0.11->4.8245
8 , 9 , dragonflyfull , absolute_improved , 32 , 4.0 , 3 , 10000 , 80 , group_shift , -1 , -1 , 1 , -1 , -1 , UGAL_G_restricted_src_only , -1 , -1 , -1 , pathlen_based , 40 , 40 , 0.15 , 0.05->143.39 | 0.1->144.13 | 0.13->144.94 | 0.14->146.63 | 0.15->155.07 | 0.15->155.07 , 0.05->143.43 | 0.1->144.17 | 0.13->144.99 | 0.14->146.67 | 0.15->155.14 | 0.15->155.14 , 0.05->4.3957 | 0.1->4.3771 | 0.13->4.3555 | 0.14->4.3497 | 0.15->4.3479 | 0.15->4.3479
8 , 9 , dragonflyfull , absolute_improved , 32 , 4.0 , 3 , 10000 , 80 , group_shift , -1 , -1 , 1 , -1 , -1 , PAR , -1 , -1 , -1 , pathlen_based , 40 , 40 , 0.14 , 0.05->175.74 | 0.1->174.68 | 0.13->178.26 | 0.14->458.27 , 0.05->175.9 | 0.1->174.84 | 0.13->178.41 | 0.14->246.48 , 0.05->5.1835 | 0.1->5.1432 | 0.13->5.127 | 0.14->5.1257
8 , 9 , dragonflyfull , absolute_improved , 32 , 4.0 , 3 , 10000 , 80 , group_shift , -1 , -1 , 1 , -1 , -1 , PAR_restricted_src_only , -1 , -1 , -1 , pathlen_based , 40 , 40 , 0.19 , 0.05->155.89 | 0.1->155.86 | 0.13->156.33 | 0.15->157.0 | 0.19->164.2 , 0.05->155.99 | 0.1->155.93 | 0.13->156.41 | 0.15->157.07 | 0.19->164.58 , 0.05->4.7007 | 0.1->4.6938 | 0.13->4.6915 | 0.15->4.6934 | 0.19->4.6913

8 , 9 , dragonflyfull , absolute_improved , 8 , 4.0 , 3 , 10000 , 80 , randperm , 50 , -1 , -1 , -1 , -1 , UGAL_L , -1 , -1 , -1 , pathlen_based , 40 , 40 , 0.07 , 0.02->130.17 | 0.04->125.05 | 0.06->125.39 | 0.07->312.77 , 0.02->130.28 | 0.04->125.14 | 0.06->125.47 | 0.07->152.54 , 0.02->4.0763 | 0.04->3.9458 | 0.06->3.8821 | 0.07->3.8602
8 , 9 , dragonflyfull , absolute_improved , 8 , 4.0 , 3 , 10000 , 80 , randperm , 50 , -1 , -1 , -1 , -1 , UGAL_L_restricted_src_only , -1 , -1 , -1 , pathlen_based , 40 , 40 , 0.08 , 0.02->123.17 | 0.04->120.55 | 0.06->120.29 | 0.07->122.84 | 0.08->272.5 | 0.08->272.5 , 0.02->123.25 | 0.04->120.61 | 0.06->120.33 | 0.07->122.88 | 0.08->147.23 | 0.08->147.23 , 0.02->3.9059 | 0.04->3.8388 | 0.06->3.8003 | 0.07->3.7881 | 0.08->3.7779 | 0.08->3.7779
8 , 9 , dragonflyfull , absolute_improved , 8 , 4.0 , 3 , 10000 , 80 , randperm , 50 , -1 , -1 , -1 , -1 , UGAL_G , -1 , -1 , -1 , pathlen_based , 40 , 40 , 0.06 , 0.02->119.54 | 0.04->115.94 | 0.04->115.94 | 0.05->115.78 | 0.06->118.67 | 0.06->118.67 , 0.02->119.6 | 0.04->115.99 | 0.04->115.99 | 0.05->115.83 | 0.06->118.69 | 0.06->118.69 , 0.02->3.8172 | 0.04->3.7235 | 0.04->3.7235 | 0.05->3.6993 | 0.06->3.6771 | 0.06->3.6771
8 , 9 , dragonflyfull , absolute_improved , 8 , 4.0 , 3 , 10000 , 80 , randperm , 50 , -1 , -1 , -1 , -1 , UGAL_G_restricted_src_only , -1 , -1 , -1 , pathlen_based , 40 , 40 , 0.07 , 0.02->118.18 | 0.04->116.07 | 0.06->116.06 | 0.07->119.74 , 0.02->118.23 | 0.04->116.12 | 0.06->116.1 | 0.07->119.78 , 0.02->3.7842 | 0.04->3.7296 | 0.06->3.6972 | 0.07->3.6842
8 , 9 , dragonflyfull , absolute_improved , 8 , 4.0 , 3 , 10000 , 80 , randperm , 50 , -1 , -1 , -1 , -1 , PAR , -1 , -1 , -1 , pathlen_based , 40 , 40 , 0.08 , 0.02->141.44 | 0.04->131.42 | 0.06->127.41 | 0.07->127.67 | 0.08->256.96 | 0.08->256.96 , 0.02->141.58 | 0.04->131.53 | 0.06->127.51 | 0.07->127.76 | 0.08->150.83 | 0.08->150.83 , 0.02->4.351 | 0.04->4.105 | 0.06->3.9888 | 0.07->3.9495 | 0.08->3.9146 | 0.08->3.9146
8 , 9 , dragonflyfull , absolute_improved , 8 , 4.0 , 3 , 10000 , 80 , randperm , 50 , -1 , -1 , -1 , -1 , PAR_restricted_src_only , -1 , -1 , -1 , pathlen_based , 40 , 40 , 0.09 , 0.02->132.62 | 0.04->126.95 | 0.06->124.35 | 0.07->123.97 | 0.08->125.71 | 0.08->125.71 | 0.09->337.37 , 0.02->132.7 | 0.04->127.03 | 0.06->124.42 | 0.07->124.02 | 0.08->125.83 | 0.08->125.83 | 0.09->144.4 , 0.02->4.1362 | 0.04->3.9966 | 0.06->3.925 | 0.07->3.8986 | 0.08->3.8734 | 0.08->3.8734 | 0.09->3.8465

8 , 9 , dragonflyfull , absolute_improved , 16 , 4.0 , 3 , 10000 , 80 , randperm , 50 , -1 , -1 , -1 , -1 , UGAL_L , -1 , -1 , -1 , pathlen_based , 40 , 40 , 0.14 , 0.05->123.36 | 0.1->119.89 | 0.13->131.53 | 0.14->214.22 , 0.05->123.44 | 0.1->119.96 | 0.13->127.57 | 0.14->141.52 , 0.05->3.9091 | 0.1->3.8168 | 0.13->3.7915 | 0.14->3.788
8 , 9 , dragonflyfull , absolute_improved , 16 , 4.0 , 3 , 10000 , 80 , randperm , 50 , -1 , -1 , -1 , -1 , UGAL_L_restricted_src_only , -1 , -1 , -1 , pathlen_based , 40 , 40 , 0.16 , 0.05->119.62 | 0.1->117.37 | 0.13->117.79 | 0.15->134.49 | 0.16->291.1 , 0.05->119.67 | 0.1->117.42 | 0.13->117.83 | 0.15->125.98 | 0.16->141.98 , 0.05->3.8181 | 0.1->3.759 | 0.13->3.7419 | 0.15->3.7346 | 0.16->3.7333
8 , 9 , dragonflyfull , absolute_improved , 16 , 4.0 , 3 , 10000 , 80 , randperm , 50 , -1 , -1 , -1 , -1 , UGAL_G , -1 , -1 , -1 , pathlen_based , 40 , 40 , 0.13 , 0.05->114.84 | 0.1->112.84 | 0.13->276.58 , 0.05->114.89 | 0.1->112.87 | 0.13->143.5 , 0.05->3.7019 | 0.1->3.6459 | 0.13->3.6336
8 , 9 , dragonflyfull , absolute_improved , 16 , 4.0 , 3 , 10000 , 80 , randperm , 50 , -1 , -1 , -1 , -1 , UGAL_G_restricted_src_only , -1 , -1 , -1 , pathlen_based , 40 , 40 , 0.15 , 0.05->115.36 | 0.1->113.58 | 0.13->113.85 | 0.14->116.01 | 0.15->324.29 | 0.15->324.29 , 0.05->115.4 | 0.1->113.62 | 0.13->113.89 | 0.14->116.06 | 0.15->147.0 | 0.15->147.0 , 0.05->3.7142 | 0.1->3.6675 | 0.13->3.651 | 0.14->3.6464 | 0.15->3.6449 | 0.15->3.6449
8 , 9 , dragonflyfull , absolute_improved , 16 , 4.0 , 3 , 10000 , 80 , randperm , 50 , -1 , -1 , -1 , -1 , PAR , -1 , -1 , -1 , pathlen_based , 40 , 40 , 0.16 , 0.05->128.78 | 0.1->122.38 | 0.13->121.1 | 0.15->144.38 | 0.16->350.28 , 0.05->128.89 | 0.1->122.47 | 0.13->121.17 | 0.15->127.17 | 0.16->146.36 , 0.05->4.0413 | 0.1->3.8825 | 0.13->3.8396 | 0.15->3.8202 | 0.16->3.8143
8 , 9 , dragonflyfull , absolute_improved , 16 , 4.0 , 3 , 10000 , 80 , randperm , 50 , -1 , -1 , -1 , -1 , PAR_restricted_src_only , -1 , -1 , -1 , pathlen_based , 40 , 40 , 0.18 , 0.05->125.33 | 0.1->120.83 | 0.13->119.67 | 0.15->119.57 | 0.16->128.17 | 0.17->208.33 | 0.18->426.25 , 0.05->125.39 | 0.1->120.88 | 0.13->119.74 | 0.15->119.62 | 0.16->123.12 | 0.17->131.33 | 0.18->142.92 , 0.05->3.957 | 0.1->3.845 | 0.13->3.8129 | 0.15->3.7947 | 0.16->3.7872 | 0.17->3.7803 | 0.18->3.7737

8 , 9 , dragonflyfull , absolute_improved , 32 , 4.0 , 3 , 10000 , 80 , randperm , 50 , -1 , -1 , -1 , -1 , UGAL_L , -1 , -1 , -1 , pathlen_based , 40 , 40 , 0.28 , 0.05->123.37 | 0.1->119.61 | 0.15->118.07 | 0.2->117.39 | 0.25->119.5 | 0.25->119.5 | 0.28->339.43 , 0.05->123.46 | 0.1->119.68 | 0.15->118.13 | 0.2->117.45 | 0.25->119.71 | 0.25->119.71 | 0.28->141.58 , 0.05->3.9095 | 0.1->3.8157 | 0.15->3.7759 | 0.2->3.7554 | 0.25->3.7443 | 0.25->3.7443 | 0.28->3.7434
8 , 9 , dragonflyfull , absolute_improved , 32 , 4.0 , 3 , 10000 , 80 , randperm , 50 , -1 , -1 , -1 , -1 , UGAL_L_restricted_src_only , -1 , -1 , -1 , pathlen_based , 40 , 40 , 0.32 , 0.1->117.38 | 0.2->115.77 | 0.25->115.83 | 0.3->159.77 | 0.31->227.75 | 0.32->336.64 , 0.1->117.43 | 0.2->115.81 | 0.25->115.88 | 0.3->126.01 | 0.31->131.98 | 0.32->140.94 , 0.1->3.7615 | 0.2->3.7169 | 0.25->3.7053 | 0.3->3.7012 | 0.31->3.7018 | 0.32->3.7008
8 , 9 , dragonflyfull , absolute_improved , 32 , 4.0 , 3 , 10000 , 80 , randperm , 50 , -1 , -1 , -1 , -1 , UGAL_G , -1 , -1 , -1 , pathlen_based , 40 , 40 , 0.26 , 0.05->114.78 | 0.1->112.62 | 0.15->111.94 | 0.2->111.69 | 0.25->151.79 | 0.25->151.79 | 0.26->347.71 , 0.05->114.83 | 0.1->112.67 | 0.15->111.98 | 0.2->111.72 | 0.25->123.52 | 0.25->123.52 | 0.26->143.07 , 0.05->3.7003 | 0.1->3.646 | 0.15->3.6273 | 0.2->3.6176 | 0.25->3.6136 | 0.25->3.6136 | 0.26->3.6126
8 , 9 , dragonflyfull , absolute_improved , 32 , 4.0 , 3 , 10000 , 80 , randperm , 50 , -1 , -1 , -1 , -1 , UGAL_G_restricted_src_only , -1 , -1 , -1 , pathlen_based , 40 , 40 , 0.30 , 0.05->115.35 | 0.1->113.52 | 0.15->112.74 | 0.2->112.33 | 0.25->112.32 | 0.25->112.32 | 0.28->114.75 | 0.29->172.86 | 0.3->386.63 | 0.3->386.63 , 0.05->115.4 | 0.1->113.56 | 0.15->112.78 | 0.2->112.36 | 0.25->112.35 | 0.25->112.35 | 0.28->114.86 | 0.29->133.15 | 0.3->146.53 | 0.3->146.53 , 0.05->3.7142 | 0.1->3.6677 | 0.15->3.6467 | 0.2->3.634 | 0.25->3.6264 | 0.25->3.6264 | 0.28->3.6221 | 0.29->3.6217 | 0.3->3.6198 | 0.3->3.6198
8 , 9 , dragonflyfull , absolute_improved , 32 , 4.0 , 3 , 10000 , 80 , randperm , 50 , -1 , -1 , -1 , -1 , PAR , -1 , -1 , -1 , pathlen_based , 40 , 40 , 0.32 , 0.1->122.39 | 0.2->118.88 | 0.25->118.27 | 0.3->169.1 | 0.31->277.39 | 0.32->448.17 , 0.1->122.48 | 0.2->118.94 | 0.25->118.33 | 0.3->130.08 | 0.31->136.47 | 0.32->144.96 , 0.1->3.8833 | 0.2->3.7928 | 0.25->3.7727 | 0.3->3.7601 | 0.31->3.7587 | 0.32->3.758
8 , 9 , dragonflyfull , absolute_improved , 32 , 4.0 , 3 , 10000 , 80 , randperm , 50 , -1 , -1 , -1 , -1 , PAR_restricted_src_only , -1 , -1 , -1 , pathlen_based , 40 , 40 , 0.36 , 0.1->120.91 | 0.2->117.96 | 0.25->117.36 | 0.3->117.27 | 0.31->121.34 | 0.34->251.27 | 0.35->355.88 | 0.36->494.25 , 0.1->120.98 | 0.2->118.01 | 0.25->117.42 | 0.3->117.31 | 0.31->120.28 | 0.34->129.6 | 0.35->132.45 | 0.36->141.4 , 0.1->3.8473 | 0.2->3.7703 | 0.25->3.7526 | 0.3->3.7403 | 0.31->3.7374 | 0.34->3.7304 | 0.35->3.7286 | 0.36->3.7263

