vc_buf_size = 64;
wait_for_tail_credit = 0;
vc_allocator = separable_input_first;
sw_allocator = separable_input_first;
alloc_iters = 1;
credit_delay = 2;
routing_delay = 0;
vc_alloc_delay = 1;
sw_alloc_delay = 1;
st_final_delay = 1;
input_speedup = 1;
output_speedup = 1;
sim_count = 1;
num_vcs = 7;
priority = none;
packet_size = 1;
injection_rate_uses_flits = 1;
internal_speedup = 4.0;
warmup_periods = 3;
sample_period = 10000;
df_a = 8;
df_arrangement = absolute_improved;
df_g = 0;
global_latency = 10;
local_latency = 10;
multitiered_routing_threshold_0 = 10;
multitiered_routing_threshold_1 = 40;
seed = 11;
topology = dragonflyfull;
traffic = group_shift;
df_g = 21;
routing_function = PAR;
shift_by_group = 4;

defaultText, count, i-rate in config file, i-rate injected, i-rate accepted, packet latency, flit latency, deadlock?
simulation,         1,      0.01,  0.010062,  0.010061,     57.59,    57.603,         0,  370815,  270118,  |4-> 0 , |5-> 0 , |6-> 0 ,,  |4-> 0 , |5-> 0 , |6-> 0 ,,  |1-> 0 , |2-> 18 , |3-> 2454 , |4-> 24026 , |5-> 121744 , |6-> 222573 ,,  |1-> 0 , |2-> 21 , |3-> 1876 , |4-> 19385 , |5-> 92097 , |6-> 156739 ,
simulation,         2,      0.99,   0.31402,   0.36255,    3256.8,    1353.0,         1,  0,  0,  ,  ,  ,  
simulation,         3,       0.5,   0.31698,   0.36297,    1534.9,    1072.0,         1,  0,  0,  ,  ,  ,  
simulation,         4,      0.25,   0.25014,   0.25013,    70.088,    70.092,         0,  7784922,  8058010,  |4-> 0 , |5-> 0 , |6-> 0 ,,  |4-> 0 , |5-> 0 , |6-> 0 ,,  |1-> 0 , |2-> 391 , |3-> 52437 , |4-> 490323 , |5-> 2523693 , |6-> 4718078 ,,  |1-> 0 , |2-> 556 , |3-> 54908 , |4-> 576091 , |5-> 2767718 , |6-> 4658737 ,
simulation,         5,      0.37,   0.33353,   0.34691,    780.38,    556.53,         1,  0,  0,  ,  ,  ,  
simulation,         6,      0.31,   0.31021,    0.3102,    84.517,    84.536,         0,  8877139,  10516458,  |4-> 0 , |5-> 0 , |6-> 0 ,,  |4-> 0 , |5-> 0 , |6-> 0 ,,  |1-> 0 , |2-> 553 , |3-> 63622 , |4-> 575886 , |5-> 2886023 , |6-> 5351055 ,,  |1-> 0 , |2-> 754 , |3-> 69254 , |4-> 733899 , |5-> 3588297 , |6-> 6124254 ,
simulation,         7,      0.34,   0.33206,   0.33454,     471.8,    326.07,         1,  0,  0,  ,  ,  ,  
simulation,         8,      0.32,   0.32016,   0.32015,    94.753,    94.793,         0,  8943274,  10940077,  |4-> 0 , |5-> 0 , |6-> 0 ,,  |4-> 0 , |5-> 0 , |6-> 0 ,,  |1-> 0 , |2-> 522 , |3-> 63919 , |4-> 581705 , |5-> 2903891 , |6-> 5393237 ,,  |1-> 0 , |2-> 674 , |3-> 72087 , |4-> 760476 , |5-> 3728003 , |6-> 6378837 ,
simulation,         9,      0.33,   0.32719,   0.32716,    521.83,    178.54,         1,  0,  0,  ,  ,  ,  
simulation,        10,       0.3,   0.30023,   0.30022,    78.837,    78.853,         0,  8765612,  10105342,  |4-> 0 , |5-> 0 , |6-> 0 ,,  |4-> 0 , |5-> 0 , |6-> 0 ,,  |1-> 0 , |2-> 528 , |3-> 62577 , |4-> 566878 , |5-> 2847494 , |6-> 5288135 ,,  |1-> 0 , |2-> 702 , |3-> 66126 , |4-> 705649 , |5-> 3451803 , |6-> 5881062 ,
simulation,        12,       0.2,   0.20009,   0.20009,    65.177,    65.186,         0,  6501681,  6155246,  |4-> 0 , |5-> 0 , |6-> 0 ,,  |4-> 0 , |5-> 0 , |6-> 0 ,,  |1-> 0 , |2-> 336 , |3-> 41843 , |4-> 400800 , |5-> 2102186 , |6-> 3956516 ,,  |1-> 0 , |2-> 440 , |3-> 44001 , |4-> 453918 , |5-> 2122762 , |6-> 3534125 ,
simulation,        13,      0.15,   0.15016,   0.15015,    62.641,    62.651,         0,  4983227,  4487932,  |4-> 0 , |5-> 0 , |6-> 0 ,,  |4-> 0 , |5-> 0 , |6-> 0 ,,  |1-> 0 , |2-> 292 , |3-> 31639 , |4-> 304945 , |5-> 1612166 , |6-> 3034185 ,,  |1-> 0 , |2-> 326 , |3-> 32746 , |4-> 334153 , |5-> 1549334 , |6-> 2571373 ,
