input_speedup = 1;
warmup_periods = 3;
alloc_iters = 1;
st_final_delay = 1;
sw_allocator = separable_input_first;
injection_rate_uses_flits = 1;
vc_alloc_delay = 1;
vc_allocator = separable_input_first;
credit_delay = 2;
priority = none;
sim_count = 1;
output_speedup = 1;
wait_for_tail_credit = 0;
sw_alloc_delay = 1;
routing_delay = 0;
internal_speedup = 4.0;
packet_size = 1;
num_vcs = 7;
sample_period = 1000;
vc_buf_size = 64;
df_a = 8;
df_arrangement = absolute_improved;
df_g = 0;
multitiered_routing_threshold_0 = 10;
multitiered_routing_threshold_1 = 40;
topology = dragonflyfull;
traffic = uniform;
df_g = 25;
routing_function = UGAL_L_multi_tiered;
seed = 2;

defaultText, count, i-rate in config file, i-rate injected, i-rate accepted, packet latency, flit latency, deadlock?
simulation,         1,      0.01,  0.009945, 0.0099483,    9.4825,    9.4826,         0,  45094,  2618,  |4-> 43539 , |5-> 0 , |6-> 0 ,,  |4-> 2533 , |5-> 0 , |6-> 0 ,,  |1-> 0 , |2-> 1692 , |3-> 4687 , |4-> 38715 , |5-> 0 , |6-> 0 ,,  |1-> 0 , |2-> 97 , |3-> 284 , |4-> 2237 , |5-> 0 , |6-> 0 ,
simulation,         2,      0.99,   0.75993,   0.77081,    602.47,    546.22,         1,  0,  0,  ,  ,  ,  
simulation,         3,       0.5,   0.49995,   0.49994,    11.724,    11.726,         0,  2021676,  375419,  |4-> 1951721 , |5-> 409 , |6-> 0 ,,  |4-> 359088 , |5-> 1988 , |6-> 0 ,,  |1-> 0 , |2-> 75030 , |3-> 210408 , |4-> 1735930 , |5-> 308 , |6-> 0 ,,  |1-> 0 , |2-> 15316 , |3-> 37954 , |4-> 320590 , |5-> 1559 , |6-> 0 ,
simulation,         4,      0.74,   0.74005,   0.74016,    18.258,    18.268,         0,  3084141,  489657,  |4-> 2801110 , |5-> 174224 , |6-> 0 ,,  |4-> 312314 , |5-> 158507 , |6-> 2068 ,,  |1-> 0 , |2-> 116923 , |3-> 305609 , |4-> 2529682 , |5-> 131927 , |6-> 0 ,,  |1-> 0 , |2-> 17748 , |3-> 36102 , |4-> 308303 , |5-> 126513 , |6-> 991 ,
simulation,         5,      0.86,   0.76916,   0.79937,    481.54,     396.0,         1,  0,  0,  ,  ,  ,  
simulation,         6,       0.8,   0.78061,   0.79406,    189.38,    188.94,         0,  6798797,  1766146,  |4-> 1699261 , |5-> 2861425 , |6-> 1994187 ,,  |4-> 117765 , |5-> 849111 , |6-> 741601 ,,  |1-> 0 , |2-> 250823 , |3-> 249002 , |4-> 2267693 , |5-> 3030794 , |6-> 1000485 ,,  |1-> 0 , |2-> 59619 , |3-> 53291 , |4-> 422855 , |5-> 920261 , |6-> 310120 ,
simulation,         7,      0.83,   0.77356,   0.79717,    457.04,    356.72,         0,  7016872,  1926384,  |4-> 1268211 , |5-> 2343033 , |6-> 3158175 ,,  |4-> 72182 , |5-> 642035 , |6-> 1145331 ,,  |1-> 0 , |2-> 253067 , |3-> 199386 , |4-> 1873269 , |5-> 3058680 , |6-> 1632470 ,,  |1-> 0 , |2-> 68721 , |3-> 51373 , |4-> 410132 , |5-> 963168 , |6-> 432990 ,
simulation,         8,      0.84,   0.77143,   0.79602,    441.62,    350.71,         1,  0,  0,  ,  ,  ,  
simulation,        10,      0.75,   0.75008,   0.75023,    20.377,    20.402,         0,  3129799,  508672,  |4-> 2793777 , |5-> 225042 , |6-> 9 ,,  |4-> 298064 , |5-> 186380 , |6-> 7180 ,,  |1-> 0 , |2-> 119156 , |3-> 305833 , |4-> 2534852 , |5-> 169958 , |6-> 0 ,,  |1-> 0 , |2-> 17984 , |3-> 35150 , |4-> 300969 , |5-> 150965 , |6-> 3604 ,
simulation,        11,       0.7,   0.70008,   0.70012,    15.193,    15.198,         0,  2915012,  447297,  |4-> 2744913 , |5-> 67607 , |6-> 0 ,,  |4-> 351226 , |5-> 79694 , |6-> 0 ,,  |1-> 0 , |2-> 110319 , |3-> 297516 , |4-> 2455933 , |5-> 51244 , |6-> 0 ,,  |1-> 0 , |2-> 17434 , |3-> 38970 , |4-> 328254 , |5-> 62639 , |6-> 0 ,
simulation,        12,      0.65,   0.65012,   0.65018,    13.674,    13.677,         0,  2695494,  423419,  |4-> 2581977 , |5-> 20711 , |6-> 0 ,,  |4-> 372798 , |5-> 34544 , |6-> 0 ,,  |1-> 0 , |2-> 100288 , |3-> 279602 , |4-> 2299827 , |5-> 15777 , |6-> 0 ,,  |1-> 0 , |2-> 17145 , |3-> 39655 , |4-> 339519 , |5-> 27100 , |6-> 0 ,
