vc_buf_size = 64;
wait_for_tail_credit = 0;
vc_allocator = separable_input_first;
sw_allocator = separable_input_first;
alloc_iters = 1;
credit_delay = 2;
routing_delay = 0;
vc_alloc_delay = 1;
sw_alloc_delay = 1;
st_final_delay = 1;
input_speedup = 1;
output_speedup = 1;
sim_count = 1;
num_vcs = 7;
priority = none;
packet_size = 1;
injection_rate_uses_flits = 1;
internal_speedup = 4.0;
warmup_periods = 3;
sample_period = 1000;
df_a = 16;
df_arrangement = absolute_improved;
global_latency = 10;
local_latency = 1;
multitiered_routing_threshold_0 = 10;
multitiered_routing_threshold_1 = 40;
topology = dragonflyfull;
traffic = uniform;
df_g = 27;
routing_function = UGAL_L_multi_tiered;
seed = 14;

defaultText, count, i-rate in config file, i-rate injected, i-rate accepted, packet latency, flit latency, deadlock?
simulation,         1,      0.01,  0.010045,  0.010046,    18.939,    18.945,         0,  196743,  11820,  |4-> 189935 , |5-> 0 , |6-> 0 ,,  |4-> 11464 , |5-> 0 , |6-> 0 ,,  |1-> 0 , |2-> 7016 , |3-> 12987 , |4-> 176740 , |5-> 0 , |6-> 0 ,,  |1-> 0 , |2-> 362 , |3-> 752 , |4-> 10706 , |5-> 0 , |6-> 0 ,
simulation,         2,      0.99,   0.89831,   0.91365,    487.94,    306.28,         1,  0,  0,  ,  ,  ,  
simulation,         3,       0.5,   0.50001,   0.49999,    21.521,    21.527,         0,  9285819,  1130150,  |4-> 8821157 , |5-> 163095 , |6-> 0 ,,  |4-> 752970 , |5-> 316261 , |6-> 0 ,,  |1-> 0 , |2-> 312567 , |3-> 633072 , |4-> 8263622 , |5-> 76558 , |6-> 0 ,,  |1-> 0 , |2-> 60932 , |3-> 29181 , |4-> 810165 , |5-> 229872 , |6-> 0 ,
simulation,         4,      0.74,   0.74009,   0.74009,    25.294,    25.302,         0,  14059857,  1449029,  |4-> 12894292 , |5-> 692776 , |6-> 332 ,,  |4-> 646811 , |5-> 730528 , |6-> 4662 ,,  |1-> 0 , |2-> 488229 , |3-> 927807 , |4-> 12274917 , |5-> 368904 , |6-> 0 ,,  |1-> 0 , |2-> 67043 , |3-> 29246 , |4-> 816787 , |5-> 534806 , |6-> 1147 ,
simulation,         5,      0.86,   0.86008,   0.86007,    39.289,    39.371,         0,  16521006,  1854217,  |4-> 9675218 , |5-> 6272819 , |6-> 16578 ,,  |4-> 157015 , |5-> 1490633 , |6-> 124213 ,,  |1-> 0 , |2-> 570997 , |3-> 839542 , |4-> 11309875 , |5-> 3800044 , |6-> 548 ,,  |1-> 0 , |2-> 82398 , |3-> 20839 , |4-> 577319 , |5-> 1141720 , |6-> 31941 ,
simulation,         6,      0.92,   0.91534,   0.91997,    92.348,    94.905,         0,  20514159,  1881790,  |4-> 2093894 , |5-> 13938966 , |6-> 3782808 ,,  |4-> 21374 , |5-> 855093 , |6-> 923829 ,,  |1-> 0 , |2-> 708917 , |3-> 565985 , |4-> 7855488 , |5-> 10532460 , |6-> 851309 ,,  |1-> 0 , |2-> 81864 , |3-> 27721 , |4-> 510318 , |5-> 1048196 , |6-> 213691 ,
simulation,         7,      0.95,   0.91246,   0.92891,    277.12,    228.59,         0,  37156648,  3842094,  |4-> 1182816 , |5-> 16780651 , |6-> 17902475 ,,  |4-> 16041 , |5-> 527990 , |6-> 3162628 ,,  |1-> 0 , |2-> 1305446 , |3-> 807868 , |4-> 11568642 , |5-> 19289608 , |6-> 4185084 ,,  |1-> 0 , |2-> 137254 , |3-> 89590 , |4-> 1189673 , |5-> 1859824 , |6-> 565753 ,
simulation,         8,      0.97,   0.90447,   0.91984,    455.17,    290.39,         0,  38412318,  4584034,  |4-> 1211813 , |5-> 14886538 , |6-> 20971265 ,,  |4-> 15524 , |5-> 498375 , |6-> 3915550 ,,  |1-> 0 , |2-> 1357384 , |3-> 807188 , |4-> 11682420 , |5-> 19608665 , |6-> 4956661 ,,  |1-> 0 , |2-> 156846 , |3-> 113729 , |4-> 1462297 , |5-> 2198713 , |6-> 652449 ,
simulation,         9,      0.98,   0.90101,     0.916,    462.42,    292.71,         1,  0,  0,  ,  ,  ,  
simulation,        11,       0.9,   0.89943,   0.90007,    66.726,     67.04,         0,  18800284,  1922237,  |4-> 4280630 , |5-> 12564752 , |6-> 1320103 ,,  |4-> 39788 , |5-> 1265913 , |6-> 530579 ,,  |1-> 0 , |2-> 646897 , |3-> 644116 , |4-> 8809466 , |5-> 8417080 , |6-> 282725 ,,  |1-> 0 , |2-> 86117 , |3-> 21747 , |4-> 513979 , |5-> 1164251 , |6-> 136143 ,
simulation,        12,      0.85,   0.85017,   0.85004,    36.717,    36.773,         0,  16242965,  1794890,  |4-> 10588000 , |5-> 5096372 , |6-> 8789 ,,  |4-> 206683 , |5-> 1412346 , |6-> 96458 ,,  |1-> 0 , |2-> 565015 , |3-> 874782 , |4-> 11736218 , |5-> 3066794 , |6-> 156 ,,  |1-> 0 , |2-> 79451 , |3-> 21660 , |4-> 597160 , |5-> 1072570 , |6-> 24049 ,
simulation,        13,       0.8,   0.80004,   0.80003,    29.162,     29.19,         0,  15325125,  1580048,  |4-> 13230392 , |5-> 1573700 , |6-> 2881 ,,  |4-> 497009 , |5-> 966431 , |6-> 46900 ,,  |1-> 0 , |2-> 534684 , |3-> 968845 , |4-> 12923501 , |5-> 898095 , |6-> 0 ,,  |1-> 0 , |2-> 69737 , |3-> 26912 , |4-> 744235 , |5-> 727656 , |6-> 11508 ,
