routing_delay = 0;
alloc_iters = 1;
credit_delay = 2;
num_vcs = 7;
sim_count = 1;
output_speedup = 1;
vc_alloc_delay = 1;
input_speedup = 1;
sample_period = 10000;
packet_size = 1;
internal_speedup = 4.0;
sw_allocator = separable_input_first;
vc_buf_size = 64;
warmup_periods = 3;
injection_rate_uses_flits = 1;
st_final_delay = 1;
vc_allocator = separable_input_first;
sw_alloc_delay = 1;
priority = none;
wait_for_tail_credit = 0;
df_a = 8;
df_arrangement = absolute_improved;
df_g = 0;
global_latency = 10;
local_latency = 10;
multitiered_routing_threshold_0 = 10;
multitiered_routing_threshold_1 = 40;
topology = dragonflyfull;
traffic = uniform;
df_g = 27;
routing_function = PAR_multi_tiered;
seed = 6;

defaultText, count, i-rate in config file, i-rate injected, i-rate accepted, packet latency, flit latency, deadlock?
simulation,         1,      0.01, 0.0099984, 0.0099977,    38.837,    38.841,         0,  719287,  163144,  |4-> 705641 , |5-> 0 , |6-> 0 ,,  |4-> 160055 , |5-> 0 , |6-> 0 ,,  |1-> 0 , |2-> 15553 , |3-> 73597 , |4-> 630137 , |5-> 0 , |6-> 0 ,,  |1-> 0 , |2-> 3531 , |3-> 16919 , |4-> 142694 , |5-> 0 , |6-> 0 ,
simulation,         2,      0.99,    0.7986,   0.84432,    934.04,    478.95,         1,  0,  0,  ,  ,  ,  
simulation,         3,       0.5,   0.50013,   0.50013,    37.949,    37.953,         0,  44434182,  2334559,  |4-> 10913268 , |5-> 32712014 , |6-> 0 ,,  |4-> 59750 , |5-> 2242312 , |6-> 0 ,,  |1-> 0 , |2-> 856912 , |3-> 1712073 , |4-> 15944176 , |5-> 25921021 , |6-> 0 ,,  |1-> 0 , |2-> 35108 , |3-> 64298 , |4-> 540074 , |5-> 1695079 , |6-> 0 ,
simulation,         4,      0.74,   0.74004,   0.74003,    42.036,     42.04,         0,  67086088,  2595306,  |4-> 1916307 , |5-> 63929977 , |6-> 23217 ,,  |4-> 3513 , |5-> 2546967 , |6-> 15976 ,,  |1-> 0 , |2-> 1260408 , |3-> 1345167 , |4-> 13780580 , |5-> 50687933 , |6-> 12000 ,,  |1-> 0 , |2-> 32362 , |3-> 75634 , |4-> 601936 , |5-> 1876889 , |6-> 8485 ,
simulation,         5,      0.86,   0.80389,   0.82381,     612.3,    381.58,         1,  0,  0,  ,  ,  ,  
simulation,         6,       0.8,   0.80008,   0.80006,    47.925,    47.931,         0,  72030124,  3303711,  |4-> 826564 , |5-> 68544239 , |6-> 1345973 ,,  |4-> 3272 , |5-> 2848482 , |6-> 418378 ,,  |1-> 0 , |2-> 1356885 , |3-> 1322877 , |4-> 13773193 , |5-> 54872247 , |6-> 704922 ,,  |1-> 0 , |2-> 37650 , |3-> 88573 , |4-> 711827 , |5-> 2244127 , |6-> 221534 ,
simulation,         7,      0.83,    0.8018,   0.80384,    764.98,    381.53,         1,  0,  0,  ,  ,  ,  
simulation,         8,      0.81,   0.81004,   0.81006,    50.775,    50.782,         0,  72596738,  3668556,  |4-> 628159 , |5-> 67644175 , |6-> 2996435 ,,  |4-> 3370 , |5-> 2822374 , |6-> 806307 ,,  |1-> 0 , |2-> 1370849 , |3-> 1297433 , |4-> 13557321 , |5-> 54795999 , |6-> 1575136 ,,  |1-> 0 , |2-> 40760 , |3-> 92903 , |4-> 747912 , |5-> 2365713 , |6-> 421268 ,
simulation,         9,      0.82,   0.79866,   0.80059,    569.45,    340.59,         1,  0,  0,  ,  ,  ,  
simulation,        11,      0.75,   0.75007,   0.75007,    42.589,    42.593,         0,  67975930,  2651372,  |4-> 1727814 , |5-> 64969795 , |6-> 46418 ,,  |4-> 3489 , |5-> 2591039 , |6-> 27863 ,,  |1-> 0 , |2-> 1275773 , |3-> 1344817 , |4-> 13812721 , |5-> 51518358 , |6-> 24261 ,,  |1-> 0 , |2-> 32508 , |3-> 77126 , |4-> 614639 , |5-> 1912297 , |6-> 14802 ,
simulation,        12,       0.7,   0.70005,   0.70004,    40.505,    40.509,         0,  63419304,  2453193,  |4-> 2755827 , |5-> 59514223 , |6-> 1695 ,,  |4-> 4088 , |5-> 2418773 , |6-> 1947 ,,  |1-> 0 , |2-> 1190495 , |3-> 1352173 , |4-> 13714923 , |5-> 47160818 , |6-> 895 ,,  |1-> 0 , |2-> 31599 , |3-> 70755 , |4-> 567152 , |5-> 1782611 , |6-> 1076 ,
simulation,        13,      0.65,   0.64995,   0.64995,    39.349,    39.352,         0,  58728421,  2371412,  |4-> 4084137 , |5-> 53580405 , |6-> 86 ,,  |4-> 6130 , |5-> 2336125 , |6-> 166 ,,  |1-> 0 , |2-> 1106644 , |3-> 1382080 , |4-> 13779932 , |5-> 42459715 , |6-> 50 ,,  |1-> 0 , |2-> 31839 , |3-> 66529 , |4-> 543352 , |5-> 1729609 , |6-> 83 ,
