vc_buf_size = 64;
wait_for_tail_credit = 0;
vc_allocator = separable_input_first;
sw_allocator = separable_input_first;
alloc_iters = 1;
credit_delay = 2;
routing_delay = 0;
vc_alloc_delay = 1;
sw_alloc_delay = 1;
st_final_delay = 1;
input_speedup = 1;
output_speedup = 1;
sim_count = 1;
num_vcs = 7;
priority = none;
packet_size = 1;
injection_rate_uses_flits = 1;
internal_speedup = 4.0;
warmup_periods = 5;
sample_period = 1000;
df_a = 8;
df_arrangement = absolute_improved;
df_g = 17;
global_latency = 10;
local_latency = 10;
log_Qlen_data = 1;
perm_seed = 42;
routing_function = min;
seed = 12;
topology = dragonflyfull;
traffic = uniform;

defaultText, count, i-rate in config file, i-rate injected, i-rate accepted, packet latency, flit latency, deadlock?
simulation,         1,      0.25,   0.25052,   0.25047,     33.57,    33.586,         0,  0,  0,  ,  ,  ,  
vc_buf_size = 64;
wait_for_tail_credit = 0;
vc_allocator = separable_input_first;
sw_allocator = separable_input_first;
alloc_iters = 1;
credit_delay = 2;
routing_delay = 0;
vc_alloc_delay = 1;
sw_alloc_delay = 1;
st_final_delay = 1;
input_speedup = 1;
output_speedup = 1;
sim_count = 1;
num_vcs = 7;
priority = none;
packet_size = 1;
injection_rate_uses_flits = 1;
internal_speedup = 4.0;
warmup_periods = 5;
sample_period = 1000;
df_a = 8;
df_arrangement = absolute_improved;
df_g = 17;
global_latency = 10;
local_latency = 10;
log_Qlen_data = 1;
perm_seed = 42;
routing_function = min;
seed = 12;
topology = dragonflyfull;
traffic = uniform;

defaultText, count, i-rate in config file, i-rate injected, i-rate accepted, packet latency, flit latency, deadlock?
simulation,         1,       0.5,   0.50033,   0.50028,    34.599,    34.614,         0,  0,  0,  ,  ,  ,  
vc_buf_size = 64;
wait_for_tail_credit = 0;
vc_allocator = separable_input_first;
sw_allocator = separable_input_first;
alloc_iters = 1;
credit_delay = 2;
routing_delay = 0;
vc_alloc_delay = 1;
sw_alloc_delay = 1;
st_final_delay = 1;
input_speedup = 1;
output_speedup = 1;
sim_count = 1;
num_vcs = 7;
priority = none;
packet_size = 1;
injection_rate_uses_flits = 1;
internal_speedup = 4.0;
warmup_periods = 5;
sample_period = 1000;
df_a = 8;
df_arrangement = absolute_improved;
df_g = 17;
global_latency = 10;
local_latency = 10;
log_Qlen_data = 1;
perm_seed = 42;
routing_function = min;
seed = 12;
topology = dragonflyfull;
traffic = uniform;

defaultText, count, i-rate in config file, i-rate injected, i-rate accepted, packet latency, flit latency, deadlock?
simulation,         1,       0.9,   0.89993,   0.89978,     44.97,    45.001,         0,  0,  0,  ,  ,  ,  
vc_buf_size = 64;
wait_for_tail_credit = 0;
vc_allocator = separable_input_first;
sw_allocator = separable_input_first;
alloc_iters = 1;
credit_delay = 2;
routing_delay = 0;
vc_alloc_delay = 1;
sw_alloc_delay = 1;
st_final_delay = 1;
input_speedup = 1;
output_speedup = 1;
sim_count = 1;
num_vcs = 7;
priority = none;
packet_size = 1;
injection_rate_uses_flits = 1;
internal_speedup = 4.0;
warmup_periods = 5;
sample_period = 1000;
df_a = 8;
df_arrangement = absolute_improved;
df_g = 17;
global_latency = 10;
local_latency = 10;
log_Qlen_data = 1;
perm_seed = 42;
routing_function = min;
seed = 12;
topology = dragonflyfull;
traffic = uniform;

defaultText, count, i-rate in config file, i-rate injected, i-rate accepted, packet latency, flit latency, deadlock?
simulation,         1,      0.97,   0.97035,   0.96987,    65.027,    65.148,         0,  0,  0,  ,  ,  ,  
