df_a , df_g , topology , df_arrangement , num_vcs , vc_allocation_mode , vc_buf_size , internal_speedup , warmup_periods , sample_period , seed , traffic , perm_seed , df_wc_seed , shift_by_group , shift_percentage , shift_offset , routing_function , five_hop_percentage , ugal_multiply_mode , global_latency , local_latency , saturationPoint , irate_vs_packet_latency , irate_vs_flit_latency , avg_hop_len
16 , 17 , dragonflyfull , absolute_improved , 4 , optimum , 32 , 2.0 , 3 , 10000 , 80 , pe_based_shift_uniform , -1 , -1 , -1 , 50 , 1 , UGAL_L , -1 , pathlen_based , 15 , 10 , 0.18 , 0.05->54.108 | 0.1->52.785 | 0.13->53.901 | 0.15->63.857 | 0.16->75.27 | 0.17->124.94 | 0.18->328.09 , 0.05->54.12 | 0.1->52.796 | 0.13->53.91 | 0.15->63.876 | 0.16->75.293 | 0.17->94.744 | 0.18->131.59 , 0.05->4.5626 | 0.1->4.4339 | 0.13->4.3915 | 0.15->4.4323 | 0.16->4.4882 | 0.17->4.5501 | 0.18->4.6114
16 , 17 , dragonflyfull , absolute_improved , 4 , optimum , 32 , 2.0 , 3 , 10000 , 80 , pe_based_shift_uniform , -1 , -1 , -1 , 50 , 1 , UGAL_L_restricted_src_only , -1 , pathlen_based , 15 , 10 , 0.25 , 0.05->50.43 | 0.1->50.066 | 0.15->51.439 | 0.2->69.59 | 0.25->289.68 | 0.25->289.68 , 0.05->50.434 | 0.1->50.07 | 0.15->51.443 | 0.2->69.615 | 0.25->101.89 | 0.25->101.89 , 0.05->4.2349 | 0.1->4.1898 | 0.15->4.1597 | 0.2->4.2303 | 0.25->4.3053 | 0.25->4.3053
16 , 17 , dragonflyfull , absolute_improved , 4 , optimum , 32 , 2.0 , 3 , 10000 , 80 , pe_based_shift_uniform , -1 , -1 , -1 , 50 , 1 , UGAL_G , -1 , pathlen_based , 15 , 10 , 0.22 , 0.05->55.508 | 0.1->55.37 | 0.13->55.748 | 0.15->56.227 | 0.19->57.272 | 0.2->57.502 | 0.22->58.265 , 0.05->55.521 | 0.1->55.382 | 0.13->55.759 | 0.15->56.238 | 0.19->57.285 | 0.2->57.513 | 0.22->58.279 , 0.05->4.6624 | 0.1->4.6257 | 0.13->4.617 | 0.15->4.6138 | 0.19->4.6043 | 0.2->4.6011 | 0.22->4.5932
16 , 17 , dragonflyfull , absolute_improved , 4 , optimum , 32 , 2.0 , 3 , 10000 , 80 , pe_based_shift_uniform , -1 , -1 , -1 , 50 , 1 , UGAL_G_restricted_src_only , -1 , pathlen_based , 15 , 10 , 0.31 , 0.1->51.14 | 0.2->52.681 | 0.25->53.634 | 0.3->56.31 | 0.31->253.29 , 0.1->51.144 | 0.2->52.686 | 0.25->53.64 | 0.3->56.317 | 0.31->80.549 , 0.1->4.2485 | 0.2->4.2276 | 0.25->4.2173 | 0.3->4.2077 | 0.31->4.2222
16 , 17 , dragonflyfull , absolute_improved , 5 , optimum , 32 , 2.0 , 3 , 10000 , 80 , pe_based_shift_uniform , -1 , -1 , -1 , 50 , 1 , PAR , -1 , pathlen_based , 15 , 10 , 0.30 , 0.05->64.114 | 0.1->62.152 | 0.15->61.475 | 0.2->61.576 | 0.25->62.518 | 0.25->62.518 | 0.28->64.311 | 0.29->65.709 | 0.3->202.32 | 0.3->202.32 , 0.05->64.135 | 0.1->62.17 | 0.15->61.494 | 0.2->61.595 | 0.25->62.537 | 0.25->62.537 | 0.28->64.331 | 0.29->65.734 | 0.3->76.489 | 0.3->76.489 , 0.05->5.3135 | 0.1->5.1508 | 0.15->5.0734 | 0.2->5.0374 | 0.25->5.0351 | 0.25->5.0351 | 0.28->5.0542 | 0.29->5.066 | 0.3->5.0801 | 0.3->5.0801
16 , 17 , dragonflyfull , absolute_improved , 5 , optimum , 32 , 2.0 , 3 , 10000 , 80 , pe_based_shift_uniform , -1 , -1 , -1 , 50 , 1 , PAR_restricted_src_only , -1 , pathlen_based , 15 , 10 , 0.40 , 0.1->56.751 | 0.2->56.713 | 0.25->57.142 | 0.3->57.915 | 0.37->62.327 | 0.4->79.234 | 0.4->79.234 , 0.1->56.76 | 0.2->56.722 | 0.25->57.151 | 0.3->57.924 | 0.37->62.339 | 0.4->73.57 | 0.4->73.57 , 0.1->4.6727 | 0.2->4.629 | 0.25->4.6238 | 0.3->4.6261 | 0.37->4.6418 | 0.4->4.6501 | 0.4->4.6501

