vc_buf_size = 64;
wait_for_tail_credit = 0;
vc_allocator = separable_input_first;
sw_allocator = separable_input_first;
alloc_iters = 1;
credit_delay = 2;
routing_delay = 0;
vc_alloc_delay = 1;
sw_alloc_delay = 1;
st_final_delay = 1;
input_speedup = 1;
output_speedup = 1;
sim_count = 1;
num_vcs = 7;
priority = none;
packet_size = 1;
injection_rate_uses_flits = 1;
internal_speedup = 4.0;
warmup_periods = 3;
sample_period = 10000;
df_a = 8;
df_arrangement = absolute_improved;
df_g = 0;
global_latency = 10;
local_latency = 10;
multitiered_routing_threshold_0 = 10;
multitiered_routing_threshold_1 = 40;
seed = 11;
topology = dragonflyfull;
traffic = randperm;
df_g = 25;
perm_seed = 62;
routing_function = PAR_multi_tiered;

defaultText, count, i-rate in config file, i-rate injected, i-rate accepted, packet latency, flit latency, deadlock?
simulation,         1,      0.01,  0.010034,  0.010034,    39.876,     39.88,         0,  602577,  186905,  |4-> 595054 , |5-> 0 , |6-> 0 ,,  |4-> 184084 , |5-> 0 , |6-> 0 ,,  |1-> 0 , |2-> 9291 , |3-> 62267 , |4-> 531019 , |5-> 0 , |6-> 0 ,,  |1-> 0 , |2-> 3398 , |3-> 19458 , |4-> 164049 , |5-> 0 , |6-> 0 ,
simulation,         2,      0.99,   0.55075,   0.60239,    1744.9,    807.76,         1,  0,  0,  ,  ,  ,  
simulation,         3,       0.5,    0.5002,   0.50019,    54.187,    54.208,         0,  30278659,  9241711,  |4-> 1186759 , |5-> 28069055 , |6-> 663086 ,,  |4-> 10923 , |5-> 7703263 , |6-> 1374229 ,,  |1-> 0 , |2-> 382465 , |3-> 700918 , |4-> 6824016 , |5-> 22041986 , |6-> 329274 ,,  |1-> 0 , |2-> 160136 , |3-> 166335 , |4-> 1696663 , |5-> 6564647 , |6-> 653930 ,
simulation,         4,      0.74,   0.55678,   0.59831,    911.82,    596.82,         1,  0,  0,  ,  ,  ,  
simulation,         5,      0.62,   0.55393,   0.56789,    779.17,    420.97,         1,  0,  0,  ,  ,  ,  
simulation,         6,      0.56,   0.55436,   0.55433,    494.53,    179.44,         1,  0,  0,  ,  ,  ,  
simulation,         7,      0.53,   0.53022,    0.5302,    64.546,    64.564,         0,  30626003,  10769565,  |4-> 628087 , |5-> 26916250 , |6-> 2709025 ,,  |4-> 6165 , |5-> 6365497 , |6-> 4225981 ,,  |1-> 0 , |2-> 393429 , |3-> 633814 , |4-> 6269588 , |5-> 21971767 , |6-> 1357405 ,,  |1-> 0 , |2-> 179008 , |3-> 171474 , |4-> 1742234 , |5-> 6654807 , |6-> 2022042 ,
simulation,         8,      0.54,   0.54026,   0.54022,    73.656,    73.695,         0,  30141002,  11634778,  |4-> 461672 , |5-> 24896763 , |6-> 4411724 ,,  |4-> 5506 , |5-> 5154407 , |6-> 6290843 ,,  |1-> 0 , |2-> 390168 , |3-> 592327 , |4-> 5859416 , |5-> 21083346 , |6-> 2215745 ,,  |1-> 0 , |2-> 190732 , |3-> 170793 , |4-> 1730989 , |5-> 6541063 , |6-> 3001201 ,
simulation,         9,      0.55,   0.55005,   0.55004,    114.29,    100.99,         0,  32747677,  14960732,  |4-> 349038 , |5-> 23363935 , |6-> 8629053 ,,  |4-> 5251 , |5-> 3884456 , |6-> 10829829 ,,  |1-> 0 , |2-> 424856 , |3-> 590805 , |4-> 5830943 , |5-> 21558513 , |6-> 4342560 ,,  |1-> 0 , |2-> 248394 , |3-> 194205 , |4-> 1983332 , |5-> 7407694 , |6-> 5127107 ,
simulation,        12,      0.45,   0.45019,   0.45018,    48.157,    48.168,         0,  27963313,  7808090,  |4-> 2391437 , |5-> 25195597 , |6-> 47881 ,,  |4-> 34401 , |5-> 7479452 , |6-> 161250 ,,  |1-> 0 , |2-> 352119 , |3-> 765043 , |4-> 7272283 , |5-> 19553537 , |6-> 20331 ,,  |1-> 0 , |2-> 139328 , |3-> 149224 , |4-> 1536765 , |5-> 5905499 , |6-> 77274 ,
simulation,        13,       0.4,   0.40012,   0.40011,    45.741,     45.75,         0,  25024323,  6819062,  |4-> 4015513 , |5-> 20714752 , |6-> 972 ,,  |4-> 100329 , |5-> 6596993 , |6-> 5114 ,,  |1-> 0 , |2-> 318388 , |3-> 843032 , |4-> 7814652 , |5-> 16047925 , |6-> 326 ,,  |1-> 0 , |2-> 122338 , |3-> 135424 , |4-> 1401168 , |5-> 5157684 , |6-> 2448 ,
