vc_buf_size = 64;
wait_for_tail_credit = 0;
vc_allocator = separable_input_first;
sw_allocator = separable_input_first;
alloc_iters = 1;
credit_delay = 2;
routing_delay = 0;
vc_alloc_delay = 1;
sw_alloc_delay = 1;
st_final_delay = 1;
input_speedup = 1;
output_speedup = 1;
sim_count = 1;
num_vcs = 7;
priority = none;
packet_size = 1;
injection_rate_uses_flits = 1;
internal_speedup = 4.0;
warmup_periods = 3;
sample_period = 10000;
df_a = 8;
df_arrangement = absolute_improved;
df_g = 0;
global_latency = 10;
local_latency = 10;
multitiered_routing_threshold_0 = 10;
multitiered_routing_threshold_1 = 40;
topology = dragonflyfull;
traffic = uniform;
df_g = 19;
routing_function = PAR_multi_tiered;
seed = 6;

defaultText, count, i-rate in config file, i-rate injected, i-rate accepted, packet latency, flit latency, deadlock?
simulation,         1,      0.01,  0.010021,  0.010021,    38.358,    38.365,         0,  504701,  112406,  |4-> 490974 , |5-> 0 , |6-> 0 ,,  |4-> 109464 , |5-> 0 , |6-> 0 ,,  |1-> 0 , |2-> 15196 , |3-> 55952 , |4-> 433553 , |5-> 0 , |6-> 0 ,,  |1-> 0 , |2-> 3330 , |3-> 12602 , |4-> 96474 , |5-> 0 , |6-> 0 ,
simulation,         2,      0.99,   0.83286,   0.86962,    737.47,    367.33,         1,  0,  0,  ,  ,  ,  
simulation,         3,       0.5,   0.50007,   0.50006,    37.392,    37.395,         0,  31142948,  1543409,  |4-> 8807316 , |5-> 21527174 , |6-> 0 ,,  |4-> 23734 , |5-> 1486875 , |6-> 13 ,,  |1-> 0 , |2-> 857035 , |3-> 1608356 , |4-> 13205895 , |5-> 15471662 , |6-> 0 ,,  |1-> 0 , |2-> 34742 , |3-> 53556 , |4-> 430372 , |5-> 1024737 , |6-> 2 ,
simulation,         4,      0.74,   0.74003,   0.74003,     43.35,    43.356,         0,  46623310,  2152511,  |4-> 636815 , |5-> 43576500 , |6-> 1190988 ,,  |4-> 2239 , |5-> 1479375 , |6-> 643878 ,,  |1-> 0 , |2-> 1264178 , |3-> 1321770 , |4-> 11730791 , |5-> 31862231 , |6-> 444340 ,,  |1-> 0 , |2-> 29377 , |3-> 64060 , |4-> 523920 , |5-> 1301822 , |6-> 233332 ,
simulation,         5,      0.86,   0.85996,   0.85997,    61.897,    61.916,         0,  52615825,  3555681,  |4-> 34466 , |5-> 43601062 , |6-> 7587825 ,,  |4-> 2325 , |5-> 459365 , |6-> 3036705 ,,  |1-> 0 , |2-> 1438880 , |3-> 1348534 , |4-> 12127673 , |5-> 34765967 , |6-> 2934771 ,,  |1-> 0 , |2-> 60811 , |3-> 95664 , |4-> 747029 , |5-> 1730395 , |6-> 921782 ,
simulation,         6,      0.92,   0.84047,   0.85851,    738.46,    341.74,         1,  0,  0,  ,  ,  ,  
simulation,         7,      0.89,   0.84296,   0.85197,    572.33,    336.11,         1,  0,  0,  ,  ,  ,  
simulation,         8,      0.87,   0.86994,   0.86995,    66.088,    66.115,         0,  52879214,  3770225,  |4-> 28131 , |5-> 42169770 , |6-> 9278331 ,,  |4-> 2430 , |5-> 370520 , |6-> 3331384 ,,  |1-> 0 , |2-> 1448474 , |3-> 1332909 , |4-> 11995281 , |5-> 34521121 , |6-> 3581429 ,,  |1-> 0 , |2-> 69796 , |3-> 103962 , |4-> 800515 , |5-> 1811977 , |6-> 983975 ,
simulation,         9,      0.88,   0.87993,   0.87993,    73.129,    73.153,         0,  52873217,  4114093,  |4-> 24183 , |5-> 38891200 , |6-> 12555246 ,,  |4-> 2430 , |5-> 255960 , |6-> 3774455 ,,  |1-> 0 , |2-> 1446718 , |3-> 1285647 , |4-> 11632340 , |5-> 33669714 , |6-> 4838798 ,,  |1-> 0 , |2-> 85728 , |3-> 117873 , |4-> 889043 , |5-> 1950747 , |6-> 1070702 ,
simulation,        10,      0.85,   0.84998,   0.85001,    58.593,    58.611,         0,  52277272,  3369009,  |4-> 43550 , |5-> 44472776 , |6-> 6376996 ,,  |4-> 2334 , |5-> 537972 , |6-> 2778582 ,,  |1-> 0 , |2-> 1430842 , |3-> 1358776 , |4-> 12179312 , |5-> 34835723 , |6-> 2472619 ,,  |1-> 0 , |2-> 53450 , |3-> 89375 , |4-> 704152 , |5-> 1659243 , |6-> 862789 ,
simulation,        11,       0.8,       0.8,   0.79999,    49.292,    49.304,         0,  49926005,  2732795,  |4-> 157361 , |5-> 44792329 , |6-> 3661602 ,,  |4-> 2288 , |5-> 851449 , |6-> 1846983 ,,  |1-> 0 , |2-> 1361143 , |3-> 1344815 , |4-> 11980678 , |5-> 33821252 , |6-> 1418117 ,,  |1-> 0 , |2-> 34634 , |3-> 71550 , |4-> 579669 , |5-> 1429798 , |6-> 617144 ,
simulation,        12,      0.75,   0.75005,   0.75005,    44.174,     44.18,         0,  47184000,  2243831,  |4-> 513260 , |5-> 43868124 , |6-> 1568434 ,,  |4-> 2211 , |5-> 1377279 , |6-> 837082 ,,  |1-> 0 , |2-> 1279401 , |3-> 1322568 , |4-> 11752489 , |5-> 32239315 , |6-> 590227 ,,  |1-> 0 , |2-> 29553 , |3-> 64587 , |4-> 530067 , |5-> 1320413 , |6-> 299211 ,
simulation,        13,       0.7,   0.70004,   0.70006,    40.954,    40.958,         0,  44252913,  1856920,  |4-> 1306371 , |5-> 41534451 , |6-> 261689 ,,  |4-> 2133 , |5-> 1656979 , |6-> 170805 ,,  |1-> 0 , |2-> 1195054 , |3-> 1325834 , |4-> 11662914 , |5-> 29975472 , |6-> 93639 ,,  |1-> 0 , |2-> 29167 , |3-> 60266 , |4-> 487999 , |5-> 1213852 , |6-> 65636 ,
