vc_buf_size = 64;
wait_for_tail_credit = 0;
vc_allocator = separable_input_first;
sw_allocator = separable_input_first;
alloc_iters = 1;
credit_delay = 2;
routing_delay = 0;
vc_alloc_delay = 1;
sw_alloc_delay = 1;
st_final_delay = 1;
input_speedup = 1;
output_speedup = 1;
sim_count = 1;
num_vcs = 7;
priority = none;
packet_size = 1;
injection_rate_uses_flits = 1;
internal_speedup = 4.0;
warmup_periods = 3;
sample_period = 10000;
df_a = 8;
df_arrangement = absolute_improved;
df_g = 0;
global_latency = 10;
local_latency = 10;
multitiered_routing_threshold_0 = 10;
multitiered_routing_threshold_1 = 40;
seed = 11;
topology = dragonflyfull;
traffic = group_shift;
df_g = 9;
routing_function = UGAL_L_multi_tiered;
shift_by_group = 2;

defaultText, count, i-rate in config file, i-rate injected, i-rate accepted, packet latency, flit latency, deadlock?
simulation,         1,      0.01,   0.01001,  0.010011,    38.194,    38.197,         0,  123524,  49731,  |4-> 123524 , |5-> 0 , |6-> 0 ,,  |4-> 49731 , |5-> 0 , |6-> 0 ,,  |1-> 0 , |2-> 4735 , |3-> 13070 , |4-> 105719 , |5-> 0 , |6-> 0 ,,  |1-> 0 , |2-> 2007 , |3-> 5381 , |4-> 42343 , |5-> 0 , |6-> 0 ,
simulation,         2,      0.99,   0.44372,   0.49113,    2448.9,    944.25,         1,  0,  0,  ,  ,  ,  
simulation,         3,       0.5,   0.42612,   0.45482,    616.57,    487.42,         1,  0,  0,  ,  ,  ,  
simulation,         4,      0.25,   0.24987,   0.24987,    87.821,    87.871,         0,  2169837,  2163667,  |4-> 318871 , |5-> 1850966 , |6-> 0 ,,  |4-> 78650 , |5-> 1544683 , |6-> 540334 ,,  |1-> 0 , |2-> 52321 , |3-> 149096 , |4-> 1358045 , |5-> 610375 , |6-> 0 ,,  |1-> 0 , |2-> 76043 , |3-> 173357 , |4-> 1371120 , |5-> 473896 , |6-> 69251 ,
simulation,         5,      0.37,   0.36156,   0.36177,    523.91,    326.88,         1,  0,  0,  ,  ,  ,  
simulation,         6,      0.31,   0.30971,   0.30971,     105.7,    105.87,         0,  2177124,  3208345,  |4-> 7798 , |5-> 2130636 , |6-> 38690 ,,  |4-> 2122 , |5-> 2481710 , |6-> 724513 ,,  |1-> 0 , |2-> 39897 , |3-> 122297 , |4-> 1257587 , |5-> 751347 , |6-> 5996 ,,  |1-> 0 , |2-> 114597 , |3-> 260149 , |4-> 2022404 , |5-> 724883 , |6-> 86312 ,
simulation,         7,      0.34,   0.33889,   0.33929,    286.59,    247.56,         0,  3882385,  6624111,  |4-> 6496 , |5-> 3192581 , |6-> 683308 ,,  |4-> 1848 , |5-> 4365699 , |6-> 2256564 ,,  |1-> 0 , |2-> 56530 , |3-> 189869 , |4-> 2127985 , |5-> 1351681 , |6-> 156320 ,,  |1-> 0 , |2-> 241146 , |3-> 543935 , |4-> 4160962 , |5-> 1501892 , |6-> 176176 ,
simulation,         8,      0.35,   0.34568,   0.34582,    525.48,    305.36,         1,  0,  0,  ,  ,  ,  
simulation,        10,       0.3,   0.29975,   0.29976,     102.8,    102.93,         0,  2175592,  3033564,  |4-> 10893 , |5-> 2154425 , |6-> 10274 ,,  |4-> 2580 , |5-> 2367269 , |6-> 663715 ,,  |1-> 0 , |2-> 41593 , |3-> 125918 , |4-> 1262982 , |5-> 743649 , |6-> 1450 ,,  |1-> 0 , |2-> 109319 , |3-> 245671 , |4-> 1908921 , |5-> 686090 , |6-> 83563 ,
simulation,        12,       0.2,   0.19981,   0.19983,    59.585,    59.598,         0,  2151021,  1311437,  |4-> 1992719 , |5-> 158302 , |6-> 0 ,,  |4-> 681941 , |5-> 298440 , |6-> 331056 ,,  |1-> 0 , |2-> 80291 , |3-> 214890 , |4-> 1800680 , |5-> 55160 , |6-> 0 ,,  |1-> 0 , |2-> 46940 , |3-> 121539 , |4-> 935797 , |5-> 165825 , |6-> 41336 ,
