vc_buf_size = 64;
wait_for_tail_credit = 0;
vc_allocator = separable_input_first;
sw_allocator = separable_input_first;
alloc_iters = 1;
credit_delay = 2;
routing_delay = 0;
vc_alloc_delay = 1;
sw_alloc_delay = 1;
st_final_delay = 1;
input_speedup = 1;
output_speedup = 1;
sim_count = 1;
num_vcs = 7;
priority = none;
packet_size = 1;
injection_rate_uses_flits = 1;
internal_speedup = 4.0;
warmup_periods = 3;
sample_period = 10000;
df_a = 8;
df_arrangement = absolute_improved;
df_g = 0;
global_latency = 10;
local_latency = 10;
multitiered_routing_threshold_0 = 10;
multitiered_routing_threshold_1 = 40;
seed = 11;
topology = dragonflyfull;
traffic = randperm;
df_g = 25;
perm_seed = 62;
routing_function = UGAL_L;

defaultText, count, i-rate in config file, i-rate injected, i-rate accepted, packet latency, flit latency, deadlock?
simulation,         1,      0.01,  0.010034,  0.010034,    40.627,    40.636,         0,  361664,  115172,  |4-> 0 , |5-> 0 , |6-> 0 ,,  |4-> 0 , |5-> 0 , |6-> 0 ,,  |1-> 0 , |2-> 7467 , |3-> 2165 , |4-> 24804 , |5-> 119434 , |6-> 207794 ,,  |1-> 0 , |2-> 2963 , |3-> 743 , |4-> 8241 , |5-> 38729 , |6-> 64496 ,
simulation,         2,      0.99,   0.55954,   0.60728,    1552.7,    739.85,         1,  0,  0,  ,  ,  ,  
simulation,         3,       0.5,   0.49704,   0.49703,    385.05,    119.69,         1,  0,  0,  ,  ,  ,  
simulation,         4,      0.25,    0.2501,    0.2501,     42.06,    42.068,         0,  8818115,  3064543,  |4-> 0 , |5-> 0 , |6-> 0 ,,  |4-> 0 , |5-> 0 , |6-> 0 ,,  |1-> 0 , |2-> 178634 , |3-> 52562 , |4-> 599810 , |5-> 2895666 , |6-> 5091443 ,,  |1-> 0 , |2-> 79488 , |3-> 19639 , |4-> 222661 , |5-> 1040662 , |6-> 1702093 ,
simulation,         5,      0.37,   0.37013,   0.37013,    47.325,    47.341,         0,  13009518,  4625097,  |4-> 0 , |5-> 0 , |6-> 0 ,,  |4-> 0 , |5-> 0 , |6-> 0 ,,  |1-> 0 , |2-> 269174 , |3-> 78268 , |4-> 883847 , |5-> 4267565 , |6-> 7510664 ,,  |1-> 0 , |2-> 113912 , |3-> 29546 , |4-> 337018 , |5-> 1577012 , |6-> 2567609 ,
simulation,         6,      0.43,   0.43013,   0.43013,    57.812,    57.846,         0,  14677024,  5849649,  |4-> 0 , |5-> 0 , |6-> 0 ,,  |4-> 0 , |5-> 0 , |6-> 0 ,,  |1-> 0 , |2-> 310081 , |3-> 87889 , |4-> 995961 , |5-> 4805409 , |6-> 8477684 ,,  |1-> 0 , |2-> 136011 , |3-> 36958 , |4-> 427357 , |5-> 1992519 , |6-> 3256804 ,
simulation,         7,      0.46,    0.4602,   0.46019,    68.006,    68.068,         0,  15171428,  6786038,  |4-> 0 , |5-> 0 , |6-> 0 ,,  |4-> 0 , |5-> 0 , |6-> 0 ,,  |1-> 0 , |2-> 324158 , |3-> 91329 , |4-> 1027948 , |5-> 4961251 , |6-> 8766742 ,,  |1-> 0 , |2-> 153143 , |3-> 42771 , |4-> 492664 , |5-> 2310182 , |6-> 3787278 ,
simulation,         8,      0.48,   0.47951,   0.47952,    166.97,    87.888,         0,  29621204,  14723500,  |4-> 0 , |5-> 0 , |6-> 0 ,,  |4-> 0 , |5-> 0 , |6-> 0 ,,  |1-> 0 , |2-> 637362 , |3-> 177733 , |4-> 2008456 , |5-> 9683066 , |6-> 17114587 ,,  |1-> 0 , |2-> 327303 , |3-> 91843 , |4-> 1063296 , |5-> 5005552 , |6-> 8235506 ,
simulation,         9,      0.49,   0.48862,   0.48864,    348.92,    102.64,         0,  38354363,  20058926,  |4-> 0 , |5-> 0 , |6-> 0 ,,  |4-> 0 , |5-> 0 , |6-> 0 ,,  |1-> 0 , |2-> 828518 , |3-> 230961 , |4-> 2601052 , |5-> 12537630 , |6-> 22156202 ,,  |1-> 0 , |2-> 444555 , |3-> 125394 , |4-> 1442066 , |5-> 6809189 , |6-> 11237722 ,
simulation,        10,      0.45,   0.45018,   0.45018,    63.952,    64.003,         0,  15040806,  6445101,  |4-> 0 , |5-> 0 , |6-> 0 ,,  |4-> 0 , |5-> 0 , |6-> 0 ,,  |1-> 0 , |2-> 320597 , |3-> 90286 , |4-> 1017749 , |5-> 4922516 , |6-> 8689658 ,,  |1-> 0 , |2-> 146575 , |3-> 40898 , |4-> 470887 , |5-> 2194017 , |6-> 3592724 ,
simulation,        11,       0.4,   0.40012,   0.40011,    50.806,    50.824,         0,  13929231,  5147283,  |4-> 0 , |5-> 0 , |6-> 0 ,,  |4-> 0 , |5-> 0 , |6-> 0 ,,  |1-> 0 , |2-> 291155 , |3-> 84278 , |4-> 945969 , |5-> 4568358 , |6-> 8039471 ,,  |1-> 0 , |2-> 123456 , |3-> 32052 , |4-> 374845 , |5-> 1753597 , |6-> 2863333 ,
simulation,        12,      0.35,   0.35013,   0.35014,    45.284,    45.295,         0,  12344270,  4311003,  |4-> 0 , |5-> 0 , |6-> 0 ,,  |4-> 0 , |5-> 0 , |6-> 0 ,,  |1-> 0 , |2-> 254191 , |3-> 74506 , |4-> 840297 , |5-> 4048234 , |6-> 7127042 ,,  |1-> 0 , |2-> 107757 , |3-> 27334 , |4-> 315597 , |5-> 1468282 , |6-> 2392033 ,
simulation,        13,       0.3,   0.30016,   0.30016,    43.062,     43.07,         0,  10613080,  3654947,  |4-> 0 , |5-> 0 , |6-> 0 ,,  |4-> 0 , |5-> 0 , |6-> 0 ,,  |1-> 0 , |2-> 216395 , |3-> 63443 , |4-> 722002 , |5-> 3484818 , |6-> 6126422 ,,  |1-> 0 , |2-> 93538 , |3-> 23366 , |4-> 266458 , |5-> 1242112 , |6-> 2029473 ,
