df_a , df_g , topology , df_arrangement , num_vcs , vc_allocation_mode , vc_buf_size , internal_speedup , warmup_periods , sample_period , seed , traffic , perm_seed , df_wc_seed , shift_by_group , shift_percentage , shift_offset , routing_function , five_hop_percentage , ugal_multiply_mode , global_latency , local_latency , saturationPoint , irate_vs_packet_latency , irate_vs_flit_latency , avg_hop_len
8 , 17 , dragonflyfull , absolute_improved , 4 , optimum , 32 , 2.0 , 3 , 10000 , 80 , pe_based_shift_uniform , -1 , -1 , -1 , 50 , 2 , UGAL_L , -1 , pathlen_based , 15 , 10 , 0.26 , 0.05->53.989 | 0.1->53.124 | 0.15->53.762 | 0.2->60.88 | 0.25->167.01 | 0.25->167.01 | 0.26->384.39 , 0.05->54.0 | 0.1->53.136 | 0.15->53.771 | 0.2->60.89 | 0.25->75.869 | 0.25->75.869 | 0.26->84.165 , 0.05->4.535 | 0.1->4.452 | 0.15->4.4213 | 0.2->4.4998 | 0.25->4.6284 | 0.25->4.6284 | 0.26->4.6499
8 , 17 , dragonflyfull , absolute_improved , 4 , optimum , 32 , 2.0 , 3 , 10000 , 80 , pe_based_shift_uniform , -1 , -1 , -1 , 50 , 2 , UGAL_L_restricted_src_only , -1 , pathlen_based , 15 , 10 , 0.31 , 0.1->50.519 | 0.2->53.993 | 0.25->61.025 | 0.3->281.87 | 0.31->472.24 , 0.1->50.525 | 0.2->53.998 | 0.25->61.041 | 0.3->75.203 | 0.31->80.441 , 0.1->4.2237 | 0.2->4.2137 | 0.25->4.2683 | 0.3->4.313 | 0.31->4.3197
8 , 17 , dragonflyfull , absolute_improved , 4 , optimum , 32 , 2.0 , 3 , 10000 , 80 , pe_based_shift_uniform , -1 , -1 , -1 , 50 , 2 , UGAL_G , -1 , pathlen_based , 15 , 10 , 0.25 , 0.05->53.824 | 0.1->53.6 | 0.15->54.08 | 0.2->54.888 | 0.25->62.456 | 0.25->62.456 , 0.05->53.834 | 0.1->53.613 | 0.15->54.091 | 0.2->54.897 | 0.25->62.466 | 0.25->62.466 , 0.05->4.5164 | 0.1->4.4781 | 0.15->4.4644 | 0.2->4.451 | 0.25->4.4551 | 0.25->4.4551
8 , 17 , dragonflyfull , absolute_improved , 4 , optimum , 32 , 2.0 , 3 , 10000 , 80 , pe_based_shift_uniform , -1 , -1 , -1 , 50 , 2 , UGAL_G_restricted_src_only , -1 , pathlen_based , 15 , 10 , 0.31 , 0.1->50.641 | 0.2->51.599 | 0.25->52.157 | 0.3->56.739 | 0.31->200.62 , 0.1->50.648 | 0.2->51.604 | 0.25->52.163 | 0.3->56.754 | 0.31->65.104 , 0.1->4.2137 | 0.2->4.1875 | 0.25->4.1738 | 0.3->4.1711 | 0.31->4.1791
8 , 17 , dragonflyfull , absolute_improved , 5 , optimum , 32 , 2.0 , 3 , 10000 , 80 , pe_based_shift_uniform , -1 , -1 , -1 , 50 , 2 , PAR , -1 , pathlen_based , 15 , 10 , 0.30 , 0.05->62.127 | 0.1->60.216 | 0.15->59.549 | 0.2->59.562 | 0.25->60.268 | 0.25->60.268 | 0.28->61.78 | 0.29->63.005 | 0.3->217.05 | 0.3->217.05 , 0.05->62.148 | 0.1->60.234 | 0.15->59.567 | 0.2->59.58 | 0.25->60.285 | 0.25->60.285 | 0.28->61.797 | 0.29->63.036 | 0.3->71.079 | 0.3->71.079 , 0.05->5.1409 | 0.1->4.982 | 0.15->4.9052 | 0.2->4.8592 | 0.25->4.833 | 0.25->4.833 | 0.28->4.8253 | 0.29->4.8243 | 0.3->4.8257 | 0.3->4.8257
8 , 17 , dragonflyfull , absolute_improved , 5 , optimum , 32 , 2.0 , 3 , 10000 , 80 , pe_based_shift_uniform , -1 , -1 , -1 , 50 , 2 , PAR_restricted_src_only , -1 , pathlen_based , 15 , 10 , 0.36 , 0.1->56.553 | 0.2->56.327 | 0.25->56.818 | 0.3->57.764 | 0.31->58.115 | 0.34->60.196 | 0.35->99.306 | 0.36->325.72 , 0.1->56.565 | 0.2->56.338 | 0.25->56.829 | 0.3->57.775 | 0.31->58.125 | 0.34->60.208 | 0.35->66.285 | 0.36->70.614 , 0.1->4.6608 | 0.2->4.5896 | 0.25->4.5729 | 0.3->4.5638 | 0.31->4.5618 | 0.34->4.5568 | 0.35->4.5543 | 0.36->4.5496

8 , 17 , dragonflyfull , absolute_improved , 4 , optimum , 128 , 2.0 , 3 , 10000 , 80 , pe_based_shift_uniform , -1 , -1 , -1 , 50 , 2 , UGAL_L , -1 , pathlen_based , 60 , 40 , 0.28 , 0.05->171.64 | 0.1->168.71 | 0.15->169.75 | 0.2->191.73 | 0.25->224.44 | 0.25->224.44 | 0.28->288.61 , 0.05->171.77 | 0.1->168.83 | 0.15->169.86 | 0.2->191.86 | 0.25->224.7 | 0.25->224.7 | 0.28->255.25 , 0.05->4.3819 | 0.1->4.3163 | 0.15->4.2962 | 0.2->4.3982 | 0.25->4.5598 | 0.25->4.5598 | 0.28->4.639
8 , 17 , dragonflyfull , absolute_improved , 4 , optimum , 128 , 2.0 , 3 , 10000 , 80 , pe_based_shift_uniform , -1 , -1 , -1 , 50 , 2 , UGAL_L_restricted_src_only , -1 , pathlen_based , 60 , 40 , 0.33 , 0.1->161.54 | 0.2->173.61 | 0.25->198.43 | 0.3->219.44 | 0.31->223.24 | 0.32->226.86 | 0.33->473.76 , 0.1->161.61 | 0.2->173.68 | 0.25->198.58 | 0.3->219.78 | 0.31->223.61 | 0.32->227.32 | 0.33->255.38 , 0.1->4.13 | 0.2->4.1441 | 0.25->4.2215 | 0.3->4.2803 | 0.31->4.2899 | 0.32->4.2989 | 0.33->4.3049
8 , 17 , dragonflyfull , absolute_improved , 4 , optimum , 128 , 2.0 , 3 , 10000 , 80 , pe_based_shift_uniform , -1 , -1 , -1 , 50 , 2 , UGAL_G , -1 , pathlen_based , 60 , 40 , 0.28 , 0.05->176.3 | 0.1->176.4 | 0.15->177.83 | 0.2->180.41 | 0.25->183.23 | 0.25->183.23 | 0.28->216.24 , 0.05->176.45 | 0.1->176.51 | 0.15->177.98 | 0.2->180.56 | 0.25->183.37 | 0.25->183.37 | 0.28->216.6 , 0.05->4.4665 | 0.1->4.4607 | 0.15->4.4557 | 0.2->4.4487 | 0.25->4.4431 | 0.25->4.4431 | 0.28->4.4845
8 , 17 , dragonflyfull , absolute_improved , 4 , optimum , 128 , 2.0 , 3 , 10000 , 80 , pe_based_shift_uniform , -1 , -1 , -1 , 50 , 2 , UGAL_G_restricted_src_only , -1 , pathlen_based , 60 , 40 , 0.34 , 0.1->165.46 | 0.2->168.12 | 0.25->170.31 | 0.3->171.45 | 0.31->172.62 | 0.34->312.11 , 0.1->165.54 | 0.2->168.2 | 0.25->170.38 | 0.3->171.53 | 0.31->172.73 | 0.34->198.2 , 0.1->4.1821 | 0.2->4.1678 | 0.25->4.1627 | 0.3->4.1539 | 0.31->4.1536 | 0.34->4.1675
8 , 17 , dragonflyfull , absolute_improved , 5 , optimum , 128 , 2.0 , 3 , 10000 , 80 , pe_based_shift_uniform , -1 , -1 , -1 , 50 , 2 , PAR , -1 , pathlen_based , 60 , 40 , 0.34 , 0.1->192.02 | 0.2->191.01 | 0.25->192.68 | 0.3->197.06 | 0.31->199.37 | 0.34->246.64 , 0.1->192.24 | 0.2->191.23 | 0.25->192.9 | 0.3->197.28 | 0.31->199.58 | 0.34->229.11 , 0.1->4.8062 | 0.2->4.7477 | 0.25->4.746 | 0.3->4.7662 | 0.31->4.7741 | 0.34->4.8016
8 , 17 , dragonflyfull , absolute_improved , 5 , optimum , 128 , 2.0 , 3 , 10000 , 80 , pe_based_shift_uniform , -1 , -1 , -1 , 50 , 2 , PAR_restricted_src_only , -1 , pathlen_based , 60 , 40 , 0.40 , 0.1->182.93 | 0.2->182.77 | 0.25->184.1 | 0.3->185.96 | 0.37->195.11 | 0.4->406.2 | 0.4->406.2 , 0.1->183.06 | 0.2->182.91 | 0.25->184.24 | 0.3->186.11 | 0.37->195.27 | 0.4->228.54 | 0.4->228.54 , 0.1->4.5649 | 0.2->4.5368 | 0.25->4.5355 | 0.3->4.5382 | 0.37->4.5605 | 0.4->4.5582 | 0.4->4.5582

