vc_buf_size = 64;
wait_for_tail_credit = 0;
vc_allocator = separable_input_first;
sw_allocator = separable_input_first;
alloc_iters = 1;
credit_delay = 2;
routing_delay = 0;
vc_alloc_delay = 1;
sw_alloc_delay = 1;
st_final_delay = 1;
input_speedup = 1;
output_speedup = 1;
sim_count = 1;
num_vcs = 7;
priority = none;
packet_size = 1;
injection_rate_uses_flits = 1;
internal_speedup = 4.0;
warmup_periods = 3;
sample_period = 10000;
df_a = 8;
df_arrangement = absolute_improved;
df_g = 0;
global_latency = 10;
local_latency = 10;
multitiered_routing_threshold_0 = 10;
multitiered_routing_threshold_1 = 40;
seed = 11;
topology = dragonflyfull;
traffic = group_shift;
df_g = 25;
routing_function = PAR_multi_tiered;
shift_by_group = 8;

defaultText, count, i-rate in config file, i-rate injected, i-rate accepted, packet latency, flit latency, deadlock?
simulation,         1,      0.01,  0.010034,  0.010034,    46.617,    46.622,         0,  409583,  341538,  |4-> 409583 , |5-> 0 , |6-> 0 ,,  |4-> 341536 , |5-> 2 , |6-> 0 ,,  |1-> 0 , |2-> 1055 , |3-> 46167 , |4-> 362361 , |5-> 0 , |6-> 0 ,,  |1-> 0 , |2-> 541 , |3-> 32729 , |4-> 308266 , |5-> 2 , |6-> 0 ,
simulation,         2,      0.99,   0.33871,   0.38784,    3180.2,    1248.8,         1,  0,  0,  ,  ,  ,  
simulation,         3,       0.5,   0.36044,   0.40357,    1168.3,    861.02,         1,  0,  0,  ,  ,  ,  
simulation,         4,      0.25,   0.25011,    0.2501,    64.009,    64.013,         0,  7898123,  10065394,  |4-> 286557 , |5-> 7043606 , |6-> 567960 ,,  |4-> 24722 , |5-> 6973322 , |6-> 3067350 ,,  |1-> 0 , |2-> 3253 , |3-> 197674 , |4-> 1715439 , |5-> 5658554 , |6-> 323203 ,,  |1-> 0 , |2-> 3923 , |3-> 174503 , |4-> 1696657 , |5-> 6729368 , |6-> 1460943 ,
simulation,         5,      0.37,   0.36589,    0.3658,     512.8,     235.6,         1,  0,  0,  ,  ,  ,  
simulation,         6,      0.31,   0.31017,   0.31017,    72.639,    72.643,         0,  8964808,  12930528,  |4-> 31336 , |5-> 7255226 , |6-> 1678246 ,,  |4-> 5503 , |5-> 6265273 , |6-> 6659752 ,,  |1-> 0 , |2-> 3090 , |3-> 193906 , |4-> 1671086 , |5-> 6130068 , |6-> 966658 ,,  |1-> 0 , |2-> 4440 , |3-> 198901 , |4-> 1913111 , |5-> 7659147 , |6-> 3154929 ,
simulation,         7,      0.34,   0.34015,   0.34014,    83.145,    83.167,         0,  9000360,  14473239,  |4-> 10642 , |5-> 6707068 , |6-> 2282650 ,,  |4-> 5125 , |5-> 6311728 , |6-> 8156386 ,,  |1-> 0 , |2-> 2855 , |3-> 186341 , |4-> 1595576 , |5-> 5939242 , |6-> 1276346 ,,  |1-> 0 , |2-> 4974 , |3-> 220838 , |4-> 2089833 , |5-> 8296768 , |6-> 3860826 ,
simulation,         8,      0.35,   0.35014,   0.35014,     92.64,    92.724,         0,  8885423,  14985342,  |4-> 8000 , |5-> 6140822 , |6-> 2736601 ,,  |4-> 5076 , |5-> 5815898 , |6-> 9164368 ,,  |1-> 0 , |2-> 2541 , |3-> 174178 , |4-> 1510418 , |5-> 5696894 , |6-> 1501392 ,,  |1-> 0 , |2-> 5024 , |3-> 223618 , |4-> 2108171 , |5-> 8305806 , |6-> 4342723 ,
simulation,         9,      0.36,   0.35916,   0.35918,    255.04,    138.13,         0,  17529798,  31445044,  |4-> 8920 , |5-> 10396199 , |6-> 7124679 ,,  |4-> 5494 , |5-> 9544424 , |6-> 21895126 ,,  |1-> 0 , |2-> 4328 , |3-> 307707 , |4-> 2746896 , |5-> 10635447 , |6-> 3835420 ,,  |1-> 0 , |2-> 10553 , |3-> 450382 , |4-> 4204084 , |5-> 16412938 , |6-> 10367087 ,
simulation,        11,       0.3,   0.30016,   0.30016,    70.881,    70.884,         0,  8872312,  12448526,  |4-> 45195 , |5-> 7331209 , |6-> 1495908 ,,  |4-> 6202 , |5-> 6260449 , |6-> 6181875 ,,  |1-> 0 , |2-> 3127 , |3-> 192924 , |4-> 1678173 , |5-> 6136471 , |6-> 861617 ,,  |1-> 0 , |2-> 4391 , |3-> 192945 , |4-> 1861637 , |5-> 7460340 , |6-> 2929213 ,
simulation,        13,       0.2,   0.20007,   0.20007,    59.097,    59.102,         0,  6554319,  7825953,  |4-> 1206603 , |5-> 5345042 , |6-> 2674 ,,  |4-> 202076 , |5-> 7278699 , |6-> 345178 ,,  |1-> 0 , |2-> 4762 , |3-> 259585 , |4-> 2139496 , |5-> 4149034 , |6-> 1442 ,,  |1-> 0 , |2-> 3397 , |3-> 162921 , |4-> 1621414 , |5-> 5869330 , |6-> 168891 ,
