vc_buf_size = 64;
wait_for_tail_credit = 0;
vc_allocator = separable_input_first;
sw_allocator = separable_input_first;
alloc_iters = 1;
credit_delay = 2;
routing_delay = 0;
vc_alloc_delay = 1;
sw_alloc_delay = 1;
st_final_delay = 1;
input_speedup = 1;
output_speedup = 1;
sim_count = 1;
num_vcs = 7;
priority = none;
packet_size = 1;
injection_rate_uses_flits = 1;
internal_speedup = 4.0;
warmup_periods = 3;
sample_period = 10000;
df_a = 8;
df_arrangement = absolute_improved;
df_g = 0;
global_latency = 10;
local_latency = 10;
multitiered_routing_threshold_0 = 10;
multitiered_routing_threshold_1 = 40;
topology = dragonflyfull;
traffic = uniform;
df_g = 19;
routing_function = UGAL_L;
seed = 2;

defaultText, count, i-rate in config file, i-rate injected, i-rate accepted, packet latency, flit latency, deadlock?
simulation,         1,      0.01,  0.010035,  0.010035,    38.138,    38.144,         0,  301782,  62380,  |4-> 0 , |5-> 0 , |6-> 0 ,,  |4-> 0 , |5-> 0 , |6-> 0 ,,  |1-> 0 , |2-> 13826 , |3-> 1782 , |4-> 20109 , |5-> 97319 , |6-> 168746 ,,  |1-> 0 , |2-> 3143 , |3-> 386 , |4-> 4406 , |5-> 20452 , |6-> 33993 ,
simulation,         2,      0.99,   0.77719,   0.81628,    1006.0,    426.52,         1,  0,  0,  ,  ,  ,  
simulation,         3,       0.5,   0.49991,   0.49992,    36.364,    36.367,         0,  17383569,  755010,  |4-> 0 , |5-> 0 , |6-> 0 ,,  |4-> 0 , |5-> 0 , |6-> 0 ,,  |1-> 0 , |2-> 812729 , |3-> 102208 , |4-> 1159103 , |5-> 5594825 , |6-> 9714704 ,,  |1-> 0 , |2-> 32038 , |3-> 6476 , |4-> 65563 , |5-> 266884 , |6-> 384049 ,
simulation,         4,      0.74,   0.74015,   0.74015,    67.072,    67.129,         0,  23715627,  3222010,  |4-> 0 , |5-> 0 , |6-> 0 ,,  |4-> 0 , |5-> 0 , |6-> 0 ,,  |1-> 0 , |2-> 1120601 , |3-> 132322 , |4-> 1534947 , |5-> 7561413 , |6-> 13366344 ,,  |1-> 0 , |2-> 132711 , |3-> 28794 , |4-> 283529 , |5-> 1145658 , |6-> 1631318 ,
simulation,         5,      0.86,   0.78402,   0.79867,    787.39,    317.15,         1,  0,  0,  ,  ,  ,  
simulation,         6,       0.8,   0.78041,    0.7809,    531.19,    186.69,         1,  0,  0,  ,  ,  ,  
simulation,         7,      0.77,   0.76677,   0.76679,    323.39,    104.62,         0,  44477611,  7398614,  |4-> 0 , |5-> 0 , |6-> 0 ,,  |4-> 0 , |5-> 0 , |6-> 0 ,,  |1-> 0 , |2-> 2095064 , |3-> 244405 , |4-> 2849613 , |5-> 14135185 , |6-> 25153344 ,,  |1-> 0 , |2-> 317758 , |3-> 64967 , |4-> 650410 , |5-> 2629673 , |6-> 3735806 ,
simulation,         8,      0.78,    0.7728,   0.77285,    523.15,    128.15,         1,  0,  0,  ,  ,  ,  
simulation,         9,      0.75,   0.75011,   0.75015,    70.207,    70.277,         0,  23859589,  3490331,  |4-> 0 , |5-> 0 , |6-> 0 ,,  |4-> 0 , |5-> 0 , |6-> 0 ,,  |1-> 0 , |2-> 1125139 , |3-> 132737 , |4-> 1539398 , |5-> 7592159 , |6-> 13470156 ,,  |1-> 0 , |2-> 146438 , |3-> 30816 , |4-> 307901 , |5-> 1241397 , |6-> 1763779 ,
simulation,        10,       0.7,   0.70012,   0.70014,    57.077,    57.103,         0,  23223617,  2238584,  |4-> 0 , |5-> 0 , |6-> 0 ,,  |4-> 0 , |5-> 0 , |6-> 0 ,,  |1-> 0 , |2-> 1104352 , |3-> 132895 , |4-> 1524239 , |5-> 7433729 , |6-> 13028402 ,,  |1-> 0 , |2-> 81994 , |3-> 19310 , |4-> 193228 , |5-> 795631 , |6-> 1148421 ,
simulation,        11,      0.65,   0.65016,   0.65014,    44.846,    44.858,         0,  22426153,  1184021,  |4-> 0 , |5-> 0 , |6-> 0 ,,  |4-> 0 , |5-> 0 , |6-> 0 ,,  |1-> 0 , |2-> 1066841 , |3-> 131962 , |4-> 1500481 , |5-> 7220583 , |6-> 12506286 ,,  |1-> 0 , |2-> 32974 , |3-> 8805 , |4-> 93627 , |5-> 409784 , |6-> 638831 ,
simulation,        12,       0.6,   0.60007,   0.60008,    38.251,    38.255,         0,  20961919,  820183,  |4-> 0 , |5-> 0 , |6-> 0 ,,  |4-> 0 , |5-> 0 , |6-> 0 ,,  |1-> 0 , |2-> 983381 , |3-> 123554 , |4-> 1400144 , |5-> 6748069 , |6-> 11706771 ,,  |1-> 0 , |2-> 29101 , |3-> 6830 , |4-> 70165 , |5-> 289865 , |6-> 424222 ,
