vc_buf_size = 64;
wait_for_tail_credit = 0;
vc_allocator = separable_input_first;
sw_allocator = separable_input_first;
alloc_iters = 1;
credit_delay = 2;
routing_delay = 0;
vc_alloc_delay = 1;
sw_alloc_delay = 1;
st_final_delay = 1;
input_speedup = 1;
output_speedup = 1;
sim_count = 1;
num_vcs = 7;
priority = none;
packet_size = 1;
injection_rate_uses_flits = 1;
internal_speedup = 4.0;
warmup_periods = 3;
sample_period = 10000;
df_a = 8;
df_arrangement = absolute_improved;
df_g = 0;
global_latency = 10;
local_latency = 10;
multitiered_routing_threshold_0 = 10;
multitiered_routing_threshold_1 = 40;
seed = 11;
topology = dragonflyfull;
traffic = group_shift;
df_g = 19;
routing_function = PAR;
shift_by_group = 2;

defaultText, count, i-rate in config file, i-rate injected, i-rate accepted, packet latency, flit latency, deadlock?
simulation,         1,      0.01,  0.010056,  0.010055,    56.947,    56.962,         0,  349312,  236930,  |4-> 0 , |5-> 0 , |6-> 0 ,,  |4-> 0 , |5-> 0 , |6-> 0 ,,  |1-> 0 , |2-> 256 , |3-> 1764 , |4-> 24948 , |5-> 111375 , |6-> 210969 ,,  |1-> 0 , |2-> 171 , |3-> 1502 , |4-> 18361 , |5-> 79216 , |6-> 137680 ,
simulation,         2,      0.99,   0.32232,    0.3718,    3167.0,    1309.9,         1,  0,  0,  ,  ,  ,  
simulation,         3,       0.5,   0.33937,   0.38375,    1260.0,    915.05,         1,  0,  0,  ,  ,  ,  
simulation,         4,      0.25,   0.25012,   0.25012,    68.566,    68.572,         0,  7608838,  7037107,  |4-> 0 , |5-> 0 , |6-> 0 ,,  |4-> 0 , |5-> 0 , |6-> 0 ,,  |1-> 0 , |2-> 6265 , |3-> 36224 , |4-> 524396 , |5-> 2360564 , |6-> 4681389 ,,  |1-> 0 , |2-> 4518 , |3-> 46871 , |4-> 545797 , |5-> 2400852 , |6-> 4039069 ,
simulation,         5,      0.37,   0.34622,   0.35393,    475.81,    343.13,         1,  0,  0,  ,  ,  ,  
simulation,         6,      0.31,    0.3102,   0.31019,    94.117,    94.225,         0,  8870308,  9268792,  |4-> 0 , |5-> 0 , |6-> 0 ,,  |4-> 0 , |5-> 0 , |6-> 0 ,,  |1-> 0 , |2-> 7674 , |3-> 43522 , |4-> 625856 , |5-> 2754224 , |6-> 5439032 ,,  |1-> 0 , |2-> 5674 , |3-> 59069 , |4-> 697218 , |5-> 3138037 , |6-> 5368794 ,
simulation,         7,      0.34,   0.33425,   0.33429,     472.5,    250.88,         1,  0,  0,  ,  ,  ,  
simulation,         8,      0.32,   0.32015,   0.32016,    111.62,    111.83,         0,  9112141,  9802830,  |4-> 0 , |5-> 0 , |6-> 0 ,,  |4-> 0 , |5-> 0 , |6-> 0 ,,  |1-> 0 , |2-> 7868 , |3-> 43252 , |4-> 637810 , |5-> 2822546 , |6-> 5600665 ,,  |1-> 0 , |2-> 6227 , |3-> 64155 , |4-> 746312 , |5-> 3317839 , |6-> 5668297 ,
simulation,         9,      0.33,   0.32726,   0.32726,    505.82,    205.51,         1,  0,  0,  ,  ,  ,  
simulation,        10,       0.3,   0.30023,   0.30023,      77.8,    77.822,         0,  8681284,  8890709,  |4-> 0 , |5-> 0 , |6-> 0 ,,  |4-> 0 , |5-> 0 , |6-> 0 ,,  |1-> 0 , |2-> 7426 , |3-> 42960 , |4-> 612821 , |5-> 2694748 , |6-> 5323329 ,,  |1-> 0 , |2-> 5394 , |3-> 56466 , |4-> 672567 , |5-> 3014078 , |6-> 5142204 ,
simulation,        12,       0.2,   0.20009,   0.20009,    63.985,    63.993,         0,  6304242,  5367405,  |4-> 0 , |5-> 0 , |6-> 0 ,,  |4-> 0 , |5-> 0 , |6-> 0 ,,  |1-> 0 , |2-> 4913 , |3-> 28975 , |4-> 426284 , |5-> 1956986 , |6-> 3887084 ,,  |1-> 0 , |2-> 3592 , |3-> 37304 , |4-> 427151 , |5-> 1838536 , |6-> 3060822 ,
simulation,        13,      0.15,   0.15014,   0.15014,    61.729,     61.74,         0,  4794524,  3923173,  |4-> 0 , |5-> 0 , |6-> 0 ,,  |4-> 0 , |5-> 0 , |6-> 0 ,,  |1-> 0 , |2-> 3616 , |3-> 22379 , |4-> 324339 , |5-> 1492354 , |6-> 2951836 ,,  |1-> 0 , |2-> 2752 , |3-> 27280 , |4-> 314512 , |5-> 1339440 , |6-> 2239189 ,
