vc_buf_size = 64;
wait_for_tail_credit = 0;
vc_allocator = separable_input_first;
sw_allocator = separable_input_first;
alloc_iters = 1;
credit_delay = 2;
routing_delay = 0;
vc_alloc_delay = 1;
sw_alloc_delay = 1;
st_final_delay = 1;
input_speedup = 1;
output_speedup = 1;
sim_count = 1;
num_vcs = 7;
priority = none;
packet_size = 1;
injection_rate_uses_flits = 1;
internal_speedup = 4.0;
warmup_periods = 3;
sample_period = 1000;
df_a = 8;
df_arrangement = absolute_improved;
global_latency = 1;
local_latency = 1;
multitiered_routing_threshold_0 = 10;
multitiered_routing_threshold_1 = 40;
topology = dragonflyfull;
traffic = uniform;
df_g = 13;
routing_function = UGAL_L;
seed = 12;

defaultText, count, i-rate in config file, i-rate injected, i-rate accepted, packet latency, flit latency, deadlock?
simulation,         1,      0.01,  0.010032,  0.010038,     9.499,    9.5025,         0,  23535,  1359,  |4-> 0 , |5-> 0 , |6-> 0 ,,  |4-> 0 , |5-> 0 , |6-> 0 ,,  |1-> 0 , |2-> 1643 , |3-> 137 , |4-> 1518 , |5-> 7550 , |6-> 12687 ,,  |1-> 0 , |2-> 100 , |3-> 10 , |4-> 83 , |5-> 437 , |6-> 729 ,
simulation,         2,      0.99,    0.8756,   0.90122,    500.14,    370.34,         1,  0,  0,  ,  ,  ,  
simulation,         3,       0.5,   0.50016,   0.50015,    12.084,    12.087,         0,  1061194,  181066,  |4-> 0 , |5-> 0 , |6-> 0 ,,  |4-> 0 , |5-> 0 , |6-> 0 ,,  |1-> 0 , |2-> 71786 , |3-> 6131 , |4-> 69424 , |5-> 332539 , |6-> 581314 ,,  |1-> 0 , |2-> 13397 , |3-> 1286 , |4-> 13196 , |5-> 58467 , |6-> 94720 ,
simulation,         4,      0.74,   0.73971,   0.73959,    16.031,    16.036,         0,  1634629,  207137,  |4-> 0 , |5-> 0 , |6-> 0 ,,  |4-> 0 , |5-> 0 , |6-> 0 ,,  |1-> 0 , |2-> 111216 , |3-> 9384 , |4-> 106343 , |5-> 513077 , |6-> 894609 ,,  |1-> 0 , |2-> 14264 , |3-> 1524 , |4-> 15550 , |5-> 67963 , |6-> 107836 ,
simulation,         5,      0.86,   0.85991,   0.85986,    38.267,     38.37,         0,  2221155,  325298,  |4-> 0 , |5-> 0 , |6-> 0 ,,  |4-> 0 , |5-> 0 , |6-> 0 ,,  |1-> 0 , |2-> 154304 , |3-> 12274 , |4-> 140894 , |5-> 691671 , |6-> 1222012 ,,  |1-> 0 , |2-> 18709 , |3-> 2791 , |4-> 27142 , |5-> 111999 , |6-> 164657 ,
simulation,         6,      0.92,   0.89054,   0.90916,    222.17,    210.34,         0,  3939665,  630111,  |4-> 0 , |5-> 0 , |6-> 0 ,,  |4-> 0 , |5-> 0 , |6-> 0 ,,  |1-> 0 , |2-> 275990 , |3-> 18492 , |4-> 226593 , |5-> 1190766 , |6-> 2227824 ,,  |1-> 0 , |2-> 35388 , |3-> 8539 , |4-> 74761 , |5-> 250708 , |6-> 260715 ,
simulation,         7,      0.95,   0.87815,   0.90238,    412.65,    310.64,         1,  0,  0,  ,  ,  ,  
simulation,         8,      0.93,   0.88499,   0.90869,    310.12,    270.55,         0,  4086258,  687982,  |4-> 0 , |5-> 0 , |6-> 0 ,,  |4-> 0 , |5-> 0 , |6-> 0 ,,  |1-> 0 , |2-> 284824 , |3-> 18981 , |4-> 232962 , |5-> 1232838 , |6-> 2316653 ,,  |1-> 0 , |2-> 39680 , |3-> 9390 , |4-> 81975 , |5-> 273536 , |6-> 283401 ,
simulation,         9,      0.94,   0.88037,     0.905,    395.19,    313.34,         0,  4256793,  737585,  |4-> 0 , |5-> 0 , |6-> 0 ,,  |4-> 0 , |5-> 0 , |6-> 0 ,,  |1-> 0 , |2-> 296933 , |3-> 19345 , |4-> 240680 , |5-> 1281584 , |6-> 2418251 ,,  |1-> 0 , |2-> 42756 , |3-> 10343 , |4-> 87486 , |5-> 294103 , |6-> 302897 ,
simulation,        10,       0.9,   0.89211,   0.89856,    95.212,    98.493,         0,  3832041,  582570,  |4-> 0 , |5-> 0 , |6-> 0 ,,  |4-> 0 , |5-> 0 , |6-> 0 ,,  |1-> 0 , |2-> 268746 , |3-> 18830 , |4-> 227730 , |5-> 1168632 , |6-> 2148103 ,,  |1-> 0 , |2-> 31905 , |3-> 7186 , |4-> 63704 , |5-> 224566 , |6-> 255209 ,
simulation,        11,      0.85,    0.8502,   0.84989,     34.57,     34.75,         0,  1887740,  269935,  |4-> 0 , |5-> 0 , |6-> 0 ,,  |4-> 0 , |5-> 0 , |6-> 0 ,,  |1-> 0 , |2-> 131521 , |3-> 10636 , |4-> 120542 , |5-> 589622 , |6-> 1035419 ,,  |1-> 0 , |2-> 15739 , |3-> 2192 , |4-> 21744 , |5-> 91361 , |6-> 138899 ,
simulation,        12,       0.8,   0.80001,   0.79982,    20.945,    20.987,         0,  1781639,  229210,  |4-> 0 , |5-> 0 , |6-> 0 ,,  |4-> 0 , |5-> 0 , |6-> 0 ,,  |1-> 0 , |2-> 122263 , |3-> 10283 , |4-> 115500 , |5-> 558824 , |6-> 974769 ,,  |1-> 0 , |2-> 14640 , |3-> 1650 , |4-> 17062 , |5-> 75657 , |6-> 120201 ,
simulation,        13,      0.75,   0.74972,   0.74958,    16.451,    16.454,         0,  1659156,  209651,  |4-> 0 , |5-> 0 , |6-> 0 ,,  |4-> 0 , |5-> 0 , |6-> 0 ,,  |1-> 0 , |2-> 112986 , |3-> 9487 , |4-> 107189 , |5-> 520906 , |6-> 908588 ,,  |1-> 0 , |2-> 14480 , |3-> 1458 , |4-> 15710 , |5-> 68937 , |6-> 109066 ,
