vc_buf_size = 64;
wait_for_tail_credit = 0;
vc_allocator = separable_input_first;
sw_allocator = separable_input_first;
alloc_iters = 1;
credit_delay = 2;
routing_delay = 0;
vc_alloc_delay = 1;
sw_alloc_delay = 1;
st_final_delay = 1;
input_speedup = 1;
output_speedup = 1;
sim_count = 1;
num_vcs = 7;
priority = none;
packet_size = 1;
injection_rate_uses_flits = 1;
internal_speedup = 4.0;
warmup_periods = 3;
sample_period = 1000;
df_a = 16;
df_arrangement = absolute_improved;
global_latency = 10;
local_latency = 1;
multitiered_routing_threshold_0 = 10;
multitiered_routing_threshold_1 = 40;
topology = dragonflyfull;
traffic = uniform;
df_g = 27;
routing_function = UGAL_L;
seed = 12;

defaultText, count, i-rate in config file, i-rate injected, i-rate accepted, packet latency, flit latency, deadlock?
simulation,         1,      0.01, 0.0099571, 0.0099508,    19.191,      19.2,         0,  195001,  13092,  |4-> 0 , |5-> 0 , |6-> 0 ,,  |4-> 0 , |5-> 0 , |6-> 0 ,,  |1-> 0 , |2-> 6794 , |3-> 164 , |4-> 3825 , |5-> 38822 , |6-> 145396 ,,  |1-> 0 , |2-> 444 , |3-> 8 , |4-> 246 , |5-> 2553 , |6-> 9841 ,
simulation,         2,      0.99,   0.88012,   0.89811,    532.24,    346.96,         1,  0,  0,  ,  ,  ,  
simulation,         3,       0.5,   0.49986,   0.49989,    23.464,    23.477,         0,  8633235,  1794661,  |4-> 0 , |5-> 0 , |6-> 0 ,,  |4-> 0 , |5-> 0 , |6-> 0 ,,  |1-> 0 , |2-> 308015 , |3-> 8486 , |4-> 186477 , |5-> 1790932 , |6-> 6339325 ,,  |1-> 0 , |2-> 54118 , |3-> 445 , |4-> 18722 , |5-> 288841 , |6-> 1432535 ,
simulation,         4,      0.74,   0.73989,   0.73993,    28.915,    28.946,         0,  13480722,  2101039,  |4-> 0 , |5-> 0 , |6-> 0 ,,  |4-> 0 , |5-> 0 , |6-> 0 ,,  |1-> 0 , |2-> 484523 , |3-> 12589 , |4-> 283673 , |5-> 2764726 , |6-> 9935211 ,,  |1-> 0 , |2-> 57407 , |3-> 433 , |4-> 22337 , |5-> 340541 , |6-> 1680321 ,
simulation,         5,      0.86,   0.86016,      0.86,      47.0,    47.079,         0,  16297455,  2034654,  |4-> 0 , |5-> 0 , |6-> 0 ,,  |4-> 0 , |5-> 0 , |6-> 0 ,,  |1-> 0 , |2-> 578528 , |3-> 14800 , |4-> 337051 , |5-> 3324642 , |6-> 12042434 ,,  |1-> 0 , |2-> 61148 , |3-> 518 , |4-> 22342 , |5-> 331713 , |6-> 1618933 ,
simulation,         6,      0.92,   0.90348,     0.916,    158.45,    158.64,         0,  34807218,  3080272,  |4-> 0 , |5-> 0 , |6-> 0 ,,  |4-> 0 , |5-> 0 , |6-> 0 ,,  |1-> 0 , |2-> 1221167 , |3-> 27829 , |4-> 662228 , |5-> 6844125 , |6-> 26051869 ,,  |1-> 0 , |2-> 98245 , |3-> 4207 , |4-> 81884 , |5-> 707752 , |6-> 2188184 ,
simulation,         7,      0.95,   0.89275,   0.91739,    375.77,     304.1,         0,  36707595,  3754629,  |4-> 0 , |5-> 0 , |6-> 0 ,,  |4-> 0 , |5-> 0 , |6-> 0 ,,  |1-> 0 , |2-> 1287110 , |3-> 27571 , |4-> 669730 , |5-> 7094724 , |6-> 27628460 ,,  |1-> 0 , |2-> 123443 , |3-> 6762 , |4-> 125284 , |5-> 968583 , |6-> 2530557 ,
simulation,         8,      0.97,    0.8837,   0.90321,     497.7,    331.11,         1,  0,  0,  ,  ,  ,  
simulation,         9,      0.96,   0.88715,   0.91025,    469.11,     332.0,         0,  36919552,  3944003,  |4-> 0 , |5-> 0 , |6-> 0 ,,  |4-> 0 , |5-> 0 , |6-> 0 ,,  |1-> 0 , |2-> 1292347 , |3-> 27662 , |4-> 671189 , |5-> 7122667 , |6-> 27805687 ,,  |1-> 0 , |2-> 130280 , |3-> 7020 , |4-> 133238 , |5-> 1022415 , |6-> 2651050 ,
simulation,        11,       0.9,    0.8935,   0.89999,    88.497,    92.469,         0,  26352434,  2548858,  |4-> 0 , |5-> 0 , |6-> 0 ,,  |4-> 0 , |5-> 0 , |6-> 0 ,,  |1-> 0 , |2-> 927260 , |3-> 22335 , |4-> 523580 , |5-> 5267466 , |6-> 19611793 ,,  |1-> 0 , |2-> 78889 , |3-> 1929 , |4-> 45666 , |5-> 492542 , |6-> 1929832 ,
simulation,        12,      0.85,   0.85007,      0.85,    44.074,     44.16,         0,  16061352,  2086582,  |4-> 0 , |5-> 0 , |6-> 0 ,,  |4-> 0 , |5-> 0 , |6-> 0 ,,  |1-> 0 , |2-> 569611 , |3-> 14934 , |4-> 334730 , |5-> 3279251 , |6-> 11862826 ,,  |1-> 0 , |2-> 61802 , |3-> 526 , |4-> 22579 , |5-> 338111 , |6-> 1663564 ,
simulation,        13,       0.8,   0.79997,   0.79995,     35.11,    35.174,         0,  14850727,  2152021,  |4-> 0 , |5-> 0 , |6-> 0 ,,  |4-> 0 , |5-> 0 , |6-> 0 ,,  |1-> 0 , |2-> 531153 , |3-> 13789 , |4-> 311448 , |5-> 3040395 , |6-> 10953942 ,,  |1-> 0 , |2-> 60352 , |3-> 526 , |4-> 23272 , |5-> 349479 , |6-> 1718392 ,
