vc_buf_size = 64;
wait_for_tail_credit = 0;
vc_allocator = separable_input_first;
sw_allocator = separable_input_first;
alloc_iters = 1;
credit_delay = 2;
routing_delay = 0;
vc_alloc_delay = 1;
sw_alloc_delay = 1;
st_final_delay = 1;
input_speedup = 1;
output_speedup = 1;
sim_count = 1;
num_vcs = 7;
priority = none;
packet_size = 1;
injection_rate_uses_flits = 1;
internal_speedup = 4.0;
warmup_periods = 3;
sample_period = 1000;
df_a = 8;
df_arrangement = absolute_improved;
global_latency = 1;
local_latency = 1;
multitiered_routing_threshold_0 = 10;
multitiered_routing_threshold_1 = 40;
topology = dragonflyfull;
traffic = uniform;
df_g = 29;
routing_function = UGAL_L;
seed = 12;

defaultText, count, i-rate in config file, i-rate injected, i-rate accepted, packet latency, flit latency, deadlock?
simulation,         1,      0.01,  0.010074,  0.010078,     9.667,    9.6672,         0,  53047,  2922,  |4-> 0 , |5-> 0 , |6-> 0 ,,  |4-> 0 , |5-> 0 , |6-> 0 ,,  |1-> 0 , |2-> 1638 , |3-> 299 , |4-> 3624 , |5-> 17416 , |6-> 30070 ,,  |1-> 0 , |2-> 99 , |3-> 17 , |4-> 187 , |5-> 952 , |6-> 1667 ,
simulation,         2,      0.99,   0.85418,   0.88497,    502.03,    427.59,         1,  0,  0,  ,  ,  ,  
simulation,         3,       0.5,   0.50007,   0.50003,     12.44,    12.443,         0,  2385278,  399476,  |4-> 0 , |5-> 0 , |6-> 0 ,,  |4-> 0 , |5-> 0 , |6-> 0 ,,  |1-> 0 , |2-> 71679 , |3-> 14221 , |4-> 161710 , |5-> 782618 , |6-> 1355050 ,,  |1-> 0 , |2-> 13249 , |3-> 2497 , |4-> 28806 , |5-> 133628 , |6-> 221296 ,
simulation,         4,      0.74,   0.73983,   0.73968,    17.348,    17.354,         0,  3677225,  462237,  |4-> 0 , |5-> 0 , |6-> 0 ,,  |4-> 0 , |5-> 0 , |6-> 0 ,,  |1-> 0 , |2-> 111798 , |3-> 22044 , |4-> 251502 , |5-> 1206482 , |6-> 2085399 ,,  |1-> 0 , |2-> 14406 , |3-> 3092 , |4-> 33146 , |5-> 154313 , |6-> 257280 ,
simulation,         5,      0.86,   0.85545,   0.85973,    109.16,     110.9,         0,  4913988,  536804,  |4-> 0 , |5-> 0 , |6-> 0 ,,  |4-> 0 , |5-> 0 , |6-> 0 ,,  |1-> 0 , |2-> 153558 , |3-> 28221 , |4-> 327232 , |5-> 1600270 , |6-> 2804707 ,,  |1-> 0 , |2-> 12276 , |3-> 4659 , |4-> 46296 , |5-> 193267 , |6-> 280306 ,
simulation,         6,      0.92,   0.86076,   0.88718,    453.18,    378.11,         0,  9595326,  940552,  |4-> 0 , |5-> 0 , |6-> 0 ,,  |4-> 0 , |5-> 0 , |6-> 0 ,,  |1-> 0 , |2-> 294671 , |3-> 51730 , |4-> 611687 , |5-> 3090892 , |6-> 5546346 ,,  |1-> 0 , |2-> 26815 , |3-> 12130 , |4-> 107972 , |5-> 375229 , |6-> 418406 ,
simulation,         7,      0.95,    0.8551,   0.88406,    506.69,    403.73,         1,  0,  0,  ,  ,  ,  
simulation,         8,      0.93,   0.85632,   0.88218,    475.13,    378.71,         1,  0,  0,  ,  ,  ,  
simulation,         9,       0.9,     0.866,   0.88894,    297.92,    293.33,         0,  9470910,  861165,  |4-> 0 , |5-> 0 , |6-> 0 ,,  |4-> 0 , |5-> 0 , |6-> 0 ,,  |1-> 0 , |2-> 291199 , |3-> 51411 , |4-> 607891 , |5-> 3058672 , |6-> 5461737 ,,  |1-> 0 , |2-> 23505 , |3-> 10975 , |4-> 98118 , |5-> 342384 , |6-> 386183 ,
simulation,        10,      0.85,   0.84714,   0.84991,    94.919,    96.024,         0,  5586744,  659745,  |4-> 0 , |5-> 0 , |6-> 0 ,,  |4-> 0 , |5-> 0 , |6-> 0 ,,  |1-> 0 , |2-> 175207 , |3-> 32537 , |4-> 375593 , |5-> 1826265 , |6-> 3177142 ,,  |1-> 0 , |2-> 15241 , |3-> 4872 , |4-> 52549 , |5-> 230906 , |6-> 356177 ,
simulation,        11,       0.8,   0.79963,   0.79963,    26.367,     26.41,         0,  4036491,  540393,  |4-> 0 , |5-> 0 , |6-> 0 ,,  |4-> 0 , |5-> 0 , |6-> 0 ,,  |1-> 0 , |2-> 124474 , |3-> 24325 , |4-> 275550 , |5-> 1327846 , |6-> 2284296 ,,  |1-> 0 , |2-> 15424 , |3-> 3140 , |4-> 37241 , |5-> 179114 , |6-> 305474 ,
simulation,        12,      0.75,   0.74972,   0.74964,    17.955,    17.967,         0,  3730248,  469825,  |4-> 0 , |5-> 0 , |6-> 0 ,,  |4-> 0 , |5-> 0 , |6-> 0 ,,  |1-> 0 , |2-> 113026 , |3-> 22470 , |4-> 253860 , |5-> 1225614 , |6-> 2115278 ,,  |1-> 0 , |2-> 14739 , |3-> 3033 , |4-> 33699 , |5-> 157655 , |6-> 260699 ,
