vc_buf_size = 64;
wait_for_tail_credit = 0;
vc_allocator = separable_input_first;
sw_allocator = separable_input_first;
alloc_iters = 1;
credit_delay = 2;
routing_delay = 0;
vc_alloc_delay = 1;
sw_alloc_delay = 1;
st_final_delay = 1;
input_speedup = 1;
output_speedup = 1;
sim_count = 1;
num_vcs = 7;
priority = none;
packet_size = 1;
injection_rate_uses_flits = 1;
internal_speedup = 4.0;
warmup_periods = 3;
sample_period = 1000;
df_a = 8;
df_arrangement = absolute_improved;
df_g = 0;
multitiered_routing_threshold_0 = 10;
multitiered_routing_threshold_1 = 40;
seed = 11;
topology = dragonflyfull;
traffic = randperm;
df_g = 33;
perm_seed = 60;
routing_function = PAR;

defaultText, count, i-rate in config file, i-rate injected, i-rate accepted, packet latency, flit latency, deadlock?
simulation,         1,      0.01, 0.0099688, 0.0099681,    10.166,    10.169,         0,  102199,  8747,  |4-> 0 , |5-> 0 , |6-> 0 ,,  |4-> 0 , |5-> 0 , |6-> 0 ,,  |1-> 0 , |2-> 2019 , |3-> 535 , |4-> 6639 , |5-> 33920 , |6-> 59086 ,,  |1-> 0 , |2-> 199 , |3-> 48 , |4-> 567 , |5-> 2904 , |6-> 5029 ,
simulation,         2,      0.99,   0.54346,   0.81046,     420.9,    419.55,         1,  0,  0,  ,  ,  ,  
simulation,         3,       0.5,    0.5005,   0.50043,    25.961,    26.068,         0,  3397207,  1647225,  |4-> 0 , |5-> 0 , |6-> 0 ,,  |4-> 0 , |5-> 0 , |6-> 0 ,,  |1-> 0 , |2-> 77258 , |3-> 17204 , |4-> 211580 , |5-> 1101038 , |6-> 1990127 ,,  |1-> 0 , |2-> 35864 , |3-> 10306 , |4-> 117712 , |5-> 563917 , |6-> 919426 ,
simulation,         4,      0.74,   0.55724,   0.60856,    530.58,    529.58,         1,  0,  0,  ,  ,  ,  
simulation,         5,      0.62,   0.55614,   0.57254,     472.3,    440.27,         1,  0,  0,  ,  ,  ,  
simulation,         6,      0.56,   0.55436,   0.55896,    131.02,    134.82,         0,  6463411,  5692930,  |4-> 0 , |5-> 0 , |6-> 0 ,,  |4-> 0 , |5-> 0 , |6-> 0 ,,  |1-> 0 , |2-> 163756 , |3-> 30224 , |4-> 387506 , |5-> 2067151 , |6-> 3814774 ,,  |1-> 0 , |2-> 132435 , |3-> 36307 , |4-> 411704 , |5-> 1949497 , |6-> 3162987 ,
simulation,         7,      0.59,   0.55626,   0.56919,    347.96,    317.22,         1,  0,  0,  ,  ,  ,  
simulation,         8,      0.57,   0.55632,   0.56458,    245.46,     233.2,         0,  9455850,  9047051,  |4-> 0 , |5-> 0 , |6-> 0 ,,  |4-> 0 , |5-> 0 , |6-> 0 ,,  |1-> 0 , |2-> 243795 , |3-> 43641 , |4-> 563702 , |5-> 3015412 , |6-> 5589300 ,,  |1-> 0 , |2-> 214378 , |3-> 57820 , |4-> 652423 , |5-> 3095665 , |6-> 5026765 ,
simulation,         9,      0.58,   0.55661,   0.56731,    273.49,    255.55,         1,  0,  0,  ,  ,  ,  
simulation,        10,      0.55,   0.54872,   0.55053,    66.309,    68.125,         0,  3559341,  2640146,  |4-> 0 , |5-> 0 , |6-> 0 ,,  |4-> 0 , |5-> 0 , |6-> 0 ,,  |1-> 0 , |2-> 88576 , |3-> 17041 , |4-> 216379 , |5-> 1143618 , |6-> 2093727 ,,  |1-> 0 , |2-> 58552 , |3-> 16725 , |4-> 190381 , |5-> 904945 , |6-> 1469543 ,
simulation,        12,      0.45,    0.4505,   0.45043,     17.97,    17.999,         0,  3248769,  1339278,  |4-> 0 , |5-> 0 , |6-> 0 ,,  |4-> 0 , |5-> 0 , |6-> 0 ,,  |1-> 0 , |2-> 70962 , |3-> 16797 , |4-> 204832 , |5-> 1059281 , |6-> 1896897 ,,  |1-> 0 , |2-> 29808 , |3-> 8260 , |4-> 95086 , |5-> 457644 , |6-> 748480 ,
simulation,        13,       0.4,   0.40036,   0.40034,    15.523,    15.529,         0,  2954445,  1136463,  |4-> 0 , |5-> 0 , |6-> 0 ,,  |4-> 0 , |5-> 0 , |6-> 0 ,,  |1-> 0 , |2-> 63338 , |3-> 15195 , |4-> 186835 , |5-> 965099 , |6-> 1723978 ,,  |1-> 0 , |2-> 25368 , |3-> 6887 , |4-> 80159 , |5-> 387894 , |6-> 636155 ,
