vc_buf_size = 64;
wait_for_tail_credit = 0;
vc_allocator = separable_input_first;
sw_allocator = separable_input_first;
alloc_iters = 1;
credit_delay = 2;
routing_delay = 0;
vc_alloc_delay = 1;
sw_alloc_delay = 1;
st_final_delay = 1;
input_speedup = 1;
output_speedup = 1;
sim_count = 1;
num_vcs = 7;
priority = none;
packet_size = 1;
injection_rate_uses_flits = 1;
internal_speedup = 4.0;
warmup_periods = 3;
sample_period = 1000;
df_a = 16;
df_arrangement = absolute_improved;
df_g = 21;
seed = 11;
topology = dragonflyfull;
traffic = randperm;
perm_seed = 62;
routing_function = UGAL_L;

defaultText, count, i-rate in config file, i-rate injected, i-rate accepted, packet latency, flit latency, deadlock?
simulation,         1,      0.01,  0.010003,  0.010006,    9.9203,    9.9218,         0,  151983,  9537,  |4-> 0 , |5-> 0 , |6-> 0 ,,  |4-> 0 , |5-> 0 , |6-> 0 ,,  |1-> 0 , |2-> 5609 , |3-> 132 , |4-> 2997 , |5-> 30001 , |6-> 113244 ,,  |1-> 0 , |2-> 585 , |3-> 11 , |4-> 201 , |5-> 1823 , |6-> 6917 ,
simulation,         2,      0.99,   0.70756,    0.7326,    564.24,    494.44,         1,  0,  0,  ,  ,  ,  
simulation,         3,       0.5,   0.49976,   0.49978,    14.452,     14.48,         0,  6715375,  1495520,  |4-> 0 , |5-> 0 , |6-> 0 ,,  |4-> 0 , |5-> 0 , |6-> 0 ,,  |1-> 0 , |2-> 210301 , |3-> 5533 , |4-> 128829 , |5-> 1329801 , |6-> 5040911 ,,  |1-> 0 , |2-> 99445 , |3-> 1445 , |4-> 31515 , |5-> 302023 , |6-> 1061092 ,
simulation,         4,      0.74,   0.70104,     0.706,    260.53,    187.23,         1,  0,  0,  ,  ,  ,  
simulation,         5,      0.62,   0.61904,   0.61945,    34.306,    31.557,         0,  17793003,  4236300,  |4-> 0 , |5-> 0 , |6-> 0 ,,  |4-> 0 , |5-> 0 , |6-> 0 ,,  |1-> 0 , |2-> 526175 , |3-> 13986 , |4-> 334951 , |5-> 3492763 , |6-> 13425128 ,,  |1-> 0 , |2-> 305090 , |3-> 4730 , |4-> 97109 , |5-> 885447 , |6-> 2943924 ,
simulation,         6,      0.68,   0.67113,   0.67252,    159.06,     81.11,         0,  33170638,  9270362,  |4-> 0 , |5-> 0 , |6-> 0 ,,  |4-> 0 , |5-> 0 , |6-> 0 ,,  |1-> 0 , |2-> 917787 , |3-> 24257 , |4-> 596034 , |5-> 6403204 , |6-> 25229356 ,,  |1-> 0 , |2-> 698001 , |3-> 11947 , |4-> 235454 , |5-> 2027982 , |6-> 6296978 ,
simulation,         7,      0.71,   0.68977,   0.69263,    321.46,    139.77,         0,  40329686,  12475915,  |4-> 0 , |5-> 0 , |6-> 0 ,,  |4-> 0 , |5-> 0 , |6-> 0 ,,  |1-> 0 , |2-> 1080910 , |3-> 27441 , |4-> 698851 , |5-> 7671310 , |6-> 30851174 ,,  |1-> 0 , |2-> 949462 , |3-> 16948 , |4-> 335824 , |5-> 2811221 , |6-> 8362460 ,
simulation,         8,      0.72,   0.69456,   0.69825,    389.93,     161.8,         0,  39758443,  12630339,  |4-> 0 , |5-> 0 , |6-> 0 ,,  |4-> 0 , |5-> 0 , |6-> 0 ,,  |1-> 0 , |2-> 1054994 , |3-> 27005 , |4-> 681640 , |5-> 7536166 , |6-> 30458638 ,,  |1-> 0 , |2-> 977023 , |3-> 17271 , |4-> 343735 , |5-> 2859492 , |6-> 8432818 ,
simulation,         9,      0.73,   0.69765,    0.7026,    226.59,    167.36,         1,  0,  0,  ,  ,  ,  
simulation,        10,       0.7,   0.68432,   0.68639,    260.06,    114.79,         0,  41886927,  12547946,  |4-> 0 , |5-> 0 , |6-> 0 ,,  |4-> 0 , |5-> 0 , |6-> 0 ,,  |1-> 0 , |2-> 1133184 , |3-> 29050 , |4-> 733275 , |5-> 8005527 , |6-> 31985891 ,,  |1-> 0 , |2-> 955554 , |3-> 16853 , |4-> 333133 , |5-> 2803634 , |6-> 8438772 ,
simulation,        11,      0.65,   0.64669,   0.64745,    73.195,    49.102,         0,  26349667,  6720623,  |4-> 0 , |5-> 0 , |6-> 0 ,,  |4-> 0 , |5-> 0 , |6-> 0 ,,  |1-> 0 , |2-> 755824 , |3-> 20291 , |4-> 486154 , |5-> 5134904 , |6-> 19952494 ,,  |1-> 0 , |2-> 494824 , |3-> 7670 , |4-> 161956 , |5-> 1434061 , |6-> 4622112 ,
simulation,        12,       0.6,   0.59946,   0.59963,    25.116,    24.806,         0,  12220243,  2798571,  |4-> 0 , |5-> 0 , |6-> 0 ,,  |4-> 0 , |5-> 0 , |6-> 0 ,,  |1-> 0 , |2-> 366325 , |3-> 9951 , |4-> 231465 , |5-> 2407143 , |6-> 9205359 ,,  |1-> 0 , |2-> 199359 , |3-> 2958 , |4-> 61877 , |5-> 577659 , |6-> 1956718 ,
simulation,        13,      0.55,   0.54974,   0.54975,    16.941,    17.016,         0,  7662677,  1688639,  |4-> 0 , |5-> 0 , |6-> 0 ,,  |4-> 0 , |5-> 0 , |6-> 0 ,,  |1-> 0 , |2-> 236065 , |3-> 6297 , |4-> 147289 , |5-> 1512890 , |6-> 5760136 ,,  |1-> 0 , |2-> 116585 , |3-> 1657 , |4-> 36209 , |5-> 342760 , |6-> 1191428 ,
