vc_buf_size = 64;
wait_for_tail_credit = 0;
vc_allocator = separable_input_first;
sw_allocator = separable_input_first;
alloc_iters = 1;
credit_delay = 2;
routing_delay = 0;
vc_alloc_delay = 1;
sw_alloc_delay = 1;
st_final_delay = 1;
input_speedup = 1;
output_speedup = 1;
sim_count = 1;
num_vcs = 7;
priority = none;
packet_size = 1;
injection_rate_uses_flits = 1;
internal_speedup = 4.0;
warmup_periods = 3;
sample_period = 10000;
df_a = 8;
df_arrangement = absolute_improved;
df_g = 0;
global_latency = 10;
local_latency = 10;
multitiered_routing_threshold_0 = 10;
multitiered_routing_threshold_1 = 40;
seed = 11;
topology = dragonflyfull;
traffic = group_shift;
df_g = 19;
routing_function = UGAL_L_multi_tiered;
shift_by_group = 2;

defaultText, count, i-rate in config file, i-rate injected, i-rate accepted, packet latency, flit latency, deadlock?
simulation,         1,      0.01,  0.010055,  0.010055,    39.687,    39.688,         0,  223348,  143228,  |4-> 223348 , |5-> 0 , |6-> 0 ,,  |4-> 143221 , |5-> 7 , |6-> 0 ,,  |1-> 0 , |2-> 4211 , |3-> 20817 , |4-> 198320 , |5-> 0 , |6-> 0 ,,  |1-> 0 , |2-> 2420 , |3-> 14608 , |4-> 126197 , |5-> 3 , |6-> 0 ,
simulation,         2,      0.99,   0.29589,   0.34269,    3163.2,    1352.8,         1,  0,  0,  ,  ,  ,  
simulation,         3,       0.5,   0.30211,   0.34532,    1637.4,    1092.8,         1,  0,  0,  ,  ,  ,  
simulation,         4,      0.25,   0.24951,    0.2498,    189.72,    168.75,         0,  3764917,  12536421,  |4-> 6038 , |5-> 3558452 , |6-> 200427 ,,  |4-> 3714 , |5-> 9414296 , |6-> 3118411 ,,  |1-> 0 , |2-> 13581 , |3-> 97941 , |4-> 1050634 , |5-> 2519493 , |6-> 83268 ,,  |1-> 0 , |2-> 72777 , |3-> 369349 , |4-> 3466377 , |5-> 7415360 , |6-> 1212558 ,
simulation,         5,      0.37,   0.30855,   0.34111,    708.77,    638.17,         1,  0,  0,  ,  ,  ,  
simulation,         6,      0.31,   0.29972,   0.30069,    630.48,    352.33,         1,  0,  0,  ,  ,  ,  
simulation,         7,      0.28,   0.27716,   0.27716,    479.21,    222.37,         1,  0,  0,  ,  ,  ,  
simulation,         8,      0.26,   0.25877,   0.25887,    397.49,    214.79,         0,  3925038,  13699770,  |4-> 5040 , |5-> 3623949 , |6-> 296049 ,,  |4-> 3327 , |5-> 9967404 , |6-> 3729039 ,,  |1-> 0 , |2-> 13761 , |3-> 99812 , |4-> 1076739 , |5-> 2610462 , |6-> 124264 ,,  |1-> 0 , |2-> 78719 , |3-> 400831 , |4-> 3757071 , |5-> 8024492 , |6-> 1438657 ,
simulation,         9,      0.27,   0.26799,     0.268,    485.41,    224.68,         1,  0,  0,  ,  ,  ,  
simulation,        11,       0.2,   0.20009,   0.20009,    84.344,    84.415,         0,  2114908,  5221024,  |4-> 54870 , |5-> 2055762 , |6-> 4276 ,,  |4-> 28088 , |5-> 4252814 , |6-> 940122 ,,  |1-> 0 , |2-> 9679 , |3-> 61362 , |4-> 646366 , |5-> 1397062 , |6-> 439 ,,  |1-> 0 , |2-> 31296 , |3-> 156231 , |4-> 1490630 , |5-> 3155032 , |6-> 387835 ,
simulation,        12,      0.15,   0.15014,   0.15014,    75.334,     75.36,         0,  2109894,  3384692,  |4-> 1161191 , |5-> 948692 , |6-> 11 ,,  |4-> 754169 , |5-> 1944533 , |6-> 685990 ,,  |1-> 0 , |2-> 28292 , |3-> 137141 , |4-> 1296217 , |5-> 648241 , |6-> 3 ,,  |1-> 0 , |2-> 24914 , |3-> 146069 , |4-> 1381530 , |5-> 1548671 , |6-> 283508 ,
simulation,        13,       0.1,   0.10015,   0.10014,    46.904,    46.911,         0,  1846800,  1812399,  |4-> 1822632 , |5-> 24168 , |6-> 0 ,,  |4-> 1265283 , |5-> 473456 , |6-> 73660 ,,  |1-> 0 , |2-> 39227 , |3-> 170864 , |4-> 1618338 , |5-> 18371 , |6-> 0 ,,  |1-> 0 , |2-> 19201 , |3-> 138287 , |4-> 1273940 , |5-> 353021 , |6-> 27950 ,
