vc_buf_size = 64;
wait_for_tail_credit = 0;
vc_allocator = separable_input_first;
sw_allocator = separable_input_first;
alloc_iters = 1;
credit_delay = 2;
routing_delay = 0;
vc_alloc_delay = 1;
sw_alloc_delay = 1;
st_final_delay = 1;
input_speedup = 1;
output_speedup = 1;
sim_count = 1;
num_vcs = 7;
priority = none;
packet_size = 1;
injection_rate_uses_flits = 1;
internal_speedup = 4.0;
warmup_periods = 3;
sample_period = 10000;
df_a = 8;
df_arrangement = absolute_improved;
df_g = 0;
global_latency = 10;
local_latency = 10;
multitiered_routing_threshold_0 = 10;
multitiered_routing_threshold_1 = 40;
seed = 11;
topology = dragonflyfull;
traffic = group_shift;
df_g = 31;
routing_function = UGAL_L;
shift_by_group = 6;

defaultText, count, i-rate in config file, i-rate injected, i-rate accepted, packet latency, flit latency, deadlock?
simulation,         1,      0.01, 0.0099997,  0.010001,    49.062,    49.069,         0,  316755,  280229,  |4-> 0 , |5-> 0 , |6-> 0 ,,  |4-> 0 , |5-> 0 , |6-> 0 ,,  |1-> 0 , |2-> 0 , |3-> 4074 , |4-> 22545 , |5-> 96202 , |6-> 193934 ,,  |1-> 0 , |2-> 0 , |3-> 4375 , |4-> 23261 , |5-> 85567 , |6-> 167026 ,
simulation,         2,      0.99,   0.31709,   0.36038,    2547.2,    1152.6,         1,  0,  0,  ,  ,  ,  
simulation,         3,       0.5,   0.36849,   0.40951,    1203.3,    833.02,         1,  0,  0,  ,  ,  ,  
simulation,         4,      0.25,   0.24999,   0.24999,    89.636,    89.762,         0,  1876546,  13081903,  |4-> 0 , |5-> 0 , |6-> 0 ,,  |4-> 0 , |5-> 0 , |6-> 0 ,,  |1-> 0 , |2-> 0 , |3-> 17186 , |4-> 105366 , |5-> 556578 , |6-> 1197416 ,,  |1-> 0 , |2-> 0 , |3-> 193133 , |4-> 1038387 , |5-> 3997854 , |6-> 7852529 ,
simulation,         5,      0.37,   0.35362,   0.35549,    969.91,    687.16,         1,  0,  0,  ,  ,  ,  
simulation,         6,      0.31,   0.31009,   0.31009,     94.79,    95.008,         0,  1883612,  16712930,  |4-> 0 , |5-> 0 , |6-> 0 ,,  |4-> 0 , |5-> 0 , |6-> 0 ,,  |1-> 0 , |2-> 0 , |3-> 10751 , |4-> 79926 , |5-> 552875 , |6-> 1240060 ,,  |1-> 0 , |2-> 0 , |3-> 251406 , |4-> 1342915 , |5-> 5108795 , |6-> 10009814 ,
simulation,         7,      0.34,   0.33998,   0.34008,     139.3,    140.52,         0,  1966782,  19279192,  |4-> 0 , |5-> 0 , |6-> 0 ,,  |4-> 0 , |5-> 0 , |6-> 0 ,,  |1-> 0 , |2-> 0 , |3-> 6163 , |4-> 64170 , |5-> 573327 , |6-> 1323122 ,,  |1-> 0 , |2-> 0 , |3-> 293458 , |4-> 1562630 , |5-> 5899287 , |6-> 11523817 ,
simulation,         8,      0.35,   0.34558,   0.34812,    550.05,    483.97,         1,  0,  0,  ,  ,  ,  
simulation,        10,       0.3,    0.3001,   0.30009,    93.603,     93.79,         0,  1882518,  16110222,  |4-> 0 , |5-> 0 , |6-> 0 ,,  |4-> 0 , |5-> 0 , |6-> 0 ,,  |1-> 0 , |2-> 0 , |3-> 12027 , |4-> 84944 , |5-> 554492 , |6-> 1231055 ,,  |1-> 0 , |2-> 0 , |3-> 241372 , |4-> 1293553 , |5-> 4924446 , |6-> 9650851 ,
simulation,        12,       0.2,   0.19998,   0.19998,    86.532,    86.611,         0,  1873487,  10084699,  |4-> 0 , |5-> 0 , |6-> 0 ,,  |4-> 0 , |5-> 0 , |6-> 0 ,,  |1-> 0 , |2-> 0 , |3-> 20824 , |4-> 117974 , |5-> 559306 , |6-> 1175383 ,,  |1-> 0 , |2-> 0 , |3-> 148006 , |4-> 797645 , |5-> 3081189 , |6-> 6057859 ,
