vc_buf_size = 64;
wait_for_tail_credit = 0;
vc_allocator = separable_input_first;
sw_allocator = separable_input_first;
alloc_iters = 1;
credit_delay = 2;
routing_delay = 0;
vc_alloc_delay = 1;
sw_alloc_delay = 1;
st_final_delay = 1;
input_speedup = 1;
output_speedup = 1;
sim_count = 1;
num_vcs = 7;
priority = none;
packet_size = 1;
injection_rate_uses_flits = 1;
internal_speedup = 4.0;
warmup_periods = 3;
sample_period = 1000;
df_a = 8;
df_arrangement = absolute_improved;
df_g = 0;
multitiered_routing_threshold_0 = 10;
multitiered_routing_threshold_1 = 40;
seed = 11;
topology = dragonflyfull;
traffic = group_shift;
df_g = 13;
routing_function = PAR_multi_tiered;
shift_by_group = 6;

defaultText, count, i-rate in config file, i-rate injected, i-rate accepted, packet latency, flit latency, deadlock?
simulation,         1,      0.01, 0.0099736, 0.0099688,    10.903,    10.904,         0,  34948,  9748,  |4-> 34948 , |5-> 0 , |6-> 0 ,,  |4-> 9748 , |5-> 0 , |6-> 0 ,,  |1-> 0 , |2-> 278 , |3-> 5045 , |4-> 29625 , |5-> 0 , |6-> 0 ,,  |1-> 0 , |2-> 68 , |3-> 1330 , |4-> 8350 , |5-> 0 , |6-> 0 ,
simulation,         2,      0.99,    0.4388,   0.67761,    499.27,    486.77,         1,  0,  0,  ,  ,  ,  
simulation,         3,       0.5,   0.46625,   0.48943,    323.08,    304.82,         1,  0,  0,  ,  ,  ,  
simulation,         4,      0.25,   0.24992,   0.24994,    13.832,    13.833,         0,  560327,  449348,  |4-> 558394 , |5-> 1933 , |6-> 0 ,,  |4-> 410549 , |5-> 38799 , |6-> 0 ,,  |1-> 0 , |2-> 5455 , |3-> 84531 , |4-> 469319 , |5-> 1022 , |6-> 0 ,,  |1-> 0 , |2-> 2793 , |3-> 54799 , |4-> 368593 , |5-> 23163 , |6-> 0 ,
simulation,         5,      0.37,   0.36993,    0.3699,    18.136,     18.14,         0,  783415,  730552,  |4-> 659128 , |5-> 124287 , |6-> 0 ,,  |4-> 259510 , |5-> 471042 , |6-> 0 ,,  |1-> 0 , |2-> 6647 , |3-> 104798 , |4-> 598180 , |5-> 73790 , |6-> 0 ,,  |1-> 0 , |2-> 3083 , |3-> 58065 , |4-> 389745 , |5-> 279659 , |6-> 0 ,
simulation,         6,      0.43,   0.42999,   0.43018,    23.519,    23.585,         0,  876528,  896759,  |4-> 625577 , |5-> 249255 , |6-> 1696 ,,  |4-> 189453 , |5-> 701518 , |6-> 5788 ,,  |1-> 0 , |2-> 6970 , |3-> 106890 , |4-> 613662 , |5-> 148447 , |6-> 559 ,,  |1-> 0 , |2-> 3472 , |3-> 61591 , |4-> 417365 , |5-> 413168 , |6-> 1163 ,
simulation,         7,      0.46,   0.45976,   0.46037,    45.371,    46.154,         0,  959701,  1047081,  |4-> 545555 , |5-> 389889 , |6-> 24257 ,,  |4-> 141796 , |5-> 830878 , |6-> 74407 ,,  |1-> 0 , |2-> 6536 , |3-> 103345 , |4-> 605128 , |5-> 236477 , |6-> 8215 ,,  |1-> 0 , |2-> 3974 , |3-> 65955 , |4-> 446470 , |5-> 516192 , |6-> 14490 ,
simulation,         8,      0.48,   0.47296,    0.4804,    130.85,    150.22,         0,  1725131,  2141892,  |4-> 431302 , |5-> 848472 , |6-> 445357 ,,  |4-> 97256 , |5-> 1060807 , |6-> 983829 ,,  |1-> 0 , |2-> 6935 , |3-> 122214 , |4-> 783668 , |5-> 684701 , |6-> 127613 ,,  |1-> 0 , |2-> 8594 , |3-> 123797 , |4-> 788783 , |5-> 1039613 , |6-> 181105 ,
simulation,         9,      0.49,   0.47168,   0.48646,    261.23,    270.91,         0,  1704406,  2234993,  |4-> 273935 , |5-> 749908 , |6-> 680563 ,,  |4-> 58958 , |5-> 847437 , |6-> 1328598 ,,  |1-> 0 , |2-> 5519 , |3-> 100206 , |4-> 673842 , |5-> 735786 , |6-> 189053 ,,  |1-> 0 , |2-> 8985 , |3-> 125505 , |4-> 789187 , |5-> 1069769 , |6-> 241547 ,
simulation,        10,      0.45,   0.45031,   0.45042,    33.924,    34.239,         0,  903649,  963809,  |4-> 568669 , |5-> 319254 , |6-> 15726 ,,  |4-> 156810 , |5-> 765539 , |6-> 41460 ,,  |1-> 0 , |2-> 6433 , |3-> 102798 , |4-> 596213 , |5-> 192540 , |6-> 5665 ,,  |1-> 0 , |2-> 3545 , |3-> 62743 , |4-> 424249 , |5-> 465017 , |6-> 8255 ,
simulation,        11,       0.4,   0.39998,       0.4,    20.093,    20.096,         0,  827306,  806211,  |4-> 649384 , |5-> 177922 , |6-> 0 ,,  |4-> 220560 , |5-> 585651 , |6-> 0 ,,  |1-> 0 , |2-> 6938 , |3-> 106518 , |4-> 607586 , |5-> 106264 , |6-> 0 ,,  |1-> 0 , |2-> 3212 , |3-> 58875 , |4-> 399445 , |5-> 344679 , |6-> 0 ,
simulation,        12,      0.35,   0.34982,   0.34981,    17.131,    17.134,         0,  751291,  680885,  |4-> 661559 , |5-> 89732 , |6-> 0 ,,  |4-> 297172 , |5-> 383713 , |6-> 0 ,,  |1-> 0 , |2-> 6738 , |3-> 103535 , |4-> 588442 , |5-> 52576 , |6-> 0 ,,  |1-> 0 , |2-> 3054 , |3-> 58180 , |4-> 391652 , |5-> 227999 , |6-> 0 ,
simulation,        13,       0.3,   0.29968,   0.29964,    15.133,    15.137,         0,  661420,  558856,  |4-> 640064 , |5-> 21356 , |6-> 0 ,,  |4-> 400458 , |5-> 158398 , |6-> 0 ,,  |1-> 0 , |2-> 6178 , |3-> 97140 , |4-> 546116 , |5-> 11986 , |6-> 0 ,,  |1-> 0 , |2-> 3009 , |3-> 59315 , |4-> 401666 , |5-> 94866 , |6-> 0 ,
