wait_for_tail_credit = 0;
vc_allocator = separable_input_first;
sw_allocator = separable_input_first;
alloc_iters = 1;
credit_delay = 2;
routing_delay = 0;
vc_alloc_delay = 1;
sw_alloc_delay = 1;
st_final_delay = 1;
input_speedup = 1;
output_speedup = 1;
sim_count = 1;
num_vcs = 7;
priority = none;
packet_size = 1;
injection_rate_uses_flits = 1;
internal_speedup = 4.0;
warmup_periods = 3;
sample_period = 10000;
df_a = 8;
df_arrangement = absolute_improved;
df_g = 0;
global_latency = 1;
local_latency = 1;
topology = dragonflyfull;
traffic = uniform;
ugal_multiply_mode = pathlen_based;
df_g = 3;
routing_function = min;
seed = 90;
vc_buf_size = 16;

defaultText, count, i-rate in config file, i-rate injected, i-rate accepted, packet latency, flit latency, deadlock?
simulation,         1,       0.5,   0.50018,   0.50017,    9.3242,    9.3244,         0,  0,  0,  ,  ,  ,  
simulation,         2,      0.74,   0.73995,   0.73994,    10.916,    10.916,         0,  0,  0,  ,  ,  ,  
simulation,         3,      0.86,   0.86001,   0.86001,    13.219,     13.22,         0,  0,  0,  ,  ,  ,  
simulation,         4,      0.92,   0.92005,   0.92005,    16.436,    16.437,         0,  0,  0,  ,  ,  ,  
simulation,         5,      0.95,   0.95002,   0.95001,    20.305,    20.311,         0,  0,  0,  ,  ,  ,  
simulation,         6,      0.97,   0.96975,   0.96988,    44.916,    37.279,         0,  0,  0,  ,  ,  ,  
simulation,         7,      0.98,   0.97226,   0.97227,    530.71,    56.252,         1,  0,  0,  ,  ,  ,  
simulation,         9,       0.9,   0.90007,   0.90009,    14.974,    14.975,         0,  0,  0,  ,  ,  ,  
simulation,        10,      0.85,   0.85005,   0.85006,    12.922,    12.922,         0,  0,  0,  ,  ,  ,  
simulation,        11,       0.8,    0.8001,    0.8001,    11.784,    11.784,         0,  0,  0,  ,  ,  ,  
