vc_buf_size = 64;
wait_for_tail_credit = 0;
vc_allocator = separable_input_first;
sw_allocator = separable_input_first;
alloc_iters = 1;
credit_delay = 2;
routing_delay = 0;
vc_alloc_delay = 1;
sw_alloc_delay = 1;
st_final_delay = 1;
input_speedup = 1;
output_speedup = 1;
sim_count = 1;
num_vcs = 7;
priority = none;
packet_size = 1;
injection_rate_uses_flits = 1;
internal_speedup = 4.0;
warmup_periods = 3;
sample_period = 1000;
df_a = 8;
df_arrangement = absolute_improved;
df_g = 0;
multitiered_routing_threshold_0 = 10;
multitiered_routing_threshold_1 = 40;
seed = 11;
topology = dragonflyfull;
traffic = randperm;
df_g = 13;
perm_seed = 64;
routing_function = PAR_multi_tiered;

defaultText, count, i-rate in config file, i-rate injected, i-rate accepted, packet latency, flit latency, deadlock?
simulation,         1,      0.01, 0.0099752, 0.0099688,    9.4643,    9.4672,         0,  40565,  2703,  |4-> 38659 , |5-> 0 , |6-> 0 ,,  |4-> 2513 , |5-> 0 , |6-> 0 ,,  |1-> 0 , |2-> 2062 , |3-> 5207 , |4-> 33296 , |5-> 0 , |6-> 0 ,,  |1-> 0 , |2-> 202 , |3-> 333 , |4-> 2168 , |5-> 0 , |6-> 0 ,
simulation,         2,      0.99,   0.69161,   0.71597,    619.56,    587.62,         1,  0,  0,  ,  ,  ,  
simulation,         3,       0.5,   0.50048,   0.50048,     12.52,    12.523,         0,  1619590,  430174,  |4-> 1548233 , |5-> 2689 , |6-> 0 ,,  |4-> 386464 , |5-> 10146 , |6-> 0 ,,  |1-> 0 , |2-> 75079 , |3-> 209407 , |4-> 1333547 , |5-> 1557 , |6-> 0 ,,  |1-> 0 , |2-> 34875 , |3-> 47253 , |4-> 341983 , |5-> 6063 , |6-> 0 ,
simulation,         4,      0.74,   0.70204,   0.71901,     413.9,    320.92,         0,  6364782,  2972600,  |4-> 826702 , |5-> 2107161 , |6-> 3177724 ,,  |4-> 30100 , |5-> 603341 , |6-> 2107506 ,,  |1-> 0 , |2-> 264034 , |3-> 333640 , |4-> 2313949 , |5-> 2792826 , |6-> 660333 ,,  |1-> 0 , |2-> 235766 , |3-> 127779 , |4-> 898203 , |5-> 1344584 , |6-> 366268 ,
simulation,         5,      0.86,   0.69088,   0.72175,    302.08,     513.9,         1,  0,  0,  ,  ,  ,  
simulation,         6,       0.8,   0.69511,   0.71686,    491.51,    430.38,         1,  0,  0,  ,  ,  ,  
simulation,         7,      0.77,   0.69726,   0.71456,    481.49,    385.59,         1,  0,  0,  ,  ,  ,  
simulation,         8,      0.75,   0.70073,   0.71713,    347.03,    298.21,         1,  0,  0,  ,  ,  ,  
simulation,        10,       0.7,   0.70094,   0.70069,    26.128,    26.169,         0,  2166228,  722955,  |4-> 1395187 , |5-> 680460 , |6-> 4762 ,,  |4-> 137956 , |5-> 511744 , |6-> 12472 ,,  |1-> 0 , |2-> 92983 , |3-> 224791 , |4-> 1446391 , |5-> 400997 , |6-> 1066 ,,  |1-> 0 , |2-> 61990 , |3-> 41163 , |4-> 306181 , |5-> 311588 , |6-> 2033 ,
simulation,        11,      0.65,   0.65061,    0.6506,    16.648,    16.656,         0,  2089799,  573922,  |4-> 1829257 , |5-> 175335 , |6-> 78 ,,  |4-> 314392 , |5-> 210963 , |6-> 666 ,,  |1-> 0 , |2-> 93058 , |3-> 256306 , |4-> 1637859 , |5-> 102558 , |6-> 18 ,,  |1-> 0 , |2-> 49233 , |3-> 47437 , |4-> 350441 , |5-> 126689 , |6-> 122 ,
simulation,        12,       0.6,   0.60053,   0.60051,    14.255,    14.259,         0,  1956389,  511345,  |4-> 1827304 , |5-> 48014 , |6-> 0 ,,  |4-> 386060 , |5-> 83808 , |6-> 0 ,,  |1-> 0 , |2-> 88739 , |3-> 248932 , |4-> 1590652 , |5-> 28066 , |6-> 0 ,,  |1-> 0 , |2-> 42887 , |3-> 50191 , |4-> 367610 , |5-> 50657 , |6-> 0 ,
