input_speedup = 1;
warmup_periods = 3;
alloc_iters = 1;
st_final_delay = 1;
sw_allocator = separable_input_first;
injection_rate_uses_flits = 1;
vc_alloc_delay = 1;
vc_allocator = separable_input_first;
credit_delay = 2;
priority = none;
sim_count = 1;
output_speedup = 1;
wait_for_tail_credit = 0;
sw_alloc_delay = 1;
routing_delay = 0;
internal_speedup = 4.0;
packet_size = 1;
num_vcs = 7;
sample_period = 1000;
vc_buf_size = 64;
df_a = 8;
df_arrangement = absolute_improved;
df_g = 0;
multitiered_routing_threshold_0 = 10;
multitiered_routing_threshold_1 = 40;
topology = dragonflyfull;
traffic = uniform;
df_g = 25;
routing_function = min;
seed = 2;

defaultText, count, i-rate in config file, i-rate injected, i-rate accepted, packet latency, flit latency, deadlock?
simulation,         1,      0.01, 0.0099467, 0.0099483,     9.367,    9.3674,         0,  0,  0,  |4-> 0 , |5-> 0 , |6-> 0 ,,  |4-> 0 , |5-> 0 , |6-> 0 ,,  |1-> 0 , |2-> 0 , |3-> 0 , |4-> 0 , |5-> 0 , |6-> 0 ,,  |1-> 0 , |2-> 0 , |3-> 0 , |4-> 0 , |5-> 0 , |6-> 0 ,
simulation,         2,      0.99,   0.77235,   0.82322,     528.6,    477.62,         1,  0,  0,  ,  ,  ,  
simulation,         3,       0.5,   0.49993,   0.49994,    11.214,    11.215,         0,  0,  0,  |4-> 0 , |5-> 0 , |6-> 0 ,,  |4-> 0 , |5-> 0 , |6-> 0 ,,  |1-> 0 , |2-> 0 , |3-> 0 , |4-> 0 , |5-> 0 , |6-> 0 ,,  |1-> 0 , |2-> 0 , |3-> 0 , |4-> 0 , |5-> 0 , |6-> 0 ,
simulation,         4,      0.74,   0.74019,   0.74016,    20.125,    20.149,         0,  0,  0,  |4-> 0 , |5-> 0 , |6-> 0 ,,  |4-> 0 , |5-> 0 , |6-> 0 ,,  |1-> 0 , |2-> 0 , |3-> 0 , |4-> 0 , |5-> 0 , |6-> 0 ,,  |1-> 0 , |2-> 0 , |3-> 0 , |4-> 0 , |5-> 0 , |6-> 0 ,
simulation,         5,      0.86,   0.76967,   0.81098,    505.81,    446.18,         1,  0,  0,  ,  ,  ,  
simulation,         6,       0.8,   0.77053,   0.79776,     236.1,    254.21,         0,  0,  0,  |4-> 0 , |5-> 0 , |6-> 0 ,,  |4-> 0 , |5-> 0 , |6-> 0 ,,  |1-> 0 , |2-> 0 , |3-> 0 , |4-> 0 , |5-> 0 , |6-> 0 ,,  |1-> 0 , |2-> 0 , |3-> 0 , |4-> 0 , |5-> 0 , |6-> 0 ,
simulation,         7,      0.83,    0.7703,     0.805,    486.98,     435.9,         0,  0,  0,  |4-> 0 , |5-> 0 , |6-> 0 ,,  |4-> 0 , |5-> 0 , |6-> 0 ,,  |1-> 0 , |2-> 0 , |3-> 0 , |4-> 0 , |5-> 0 , |6-> 0 ,,  |1-> 0 , |2-> 0 , |3-> 0 , |4-> 0 , |5-> 0 , |6-> 0 ,
simulation,         8,      0.84,   0.77042,   0.80313,    514.03,     434.0,         1,  0,  0,  ,  ,  ,  
simulation,        10,      0.75,   0.74989,   0.75023,    22.484,    22.556,         0,  0,  0,  |4-> 0 , |5-> 0 , |6-> 0 ,,  |4-> 0 , |5-> 0 , |6-> 0 ,,  |1-> 0 , |2-> 0 , |3-> 0 , |4-> 0 , |5-> 0 , |6-> 0 ,,  |1-> 0 , |2-> 0 , |3-> 0 , |4-> 0 , |5-> 0 , |6-> 0 ,
simulation,        11,       0.7,   0.70008,   0.70012,    15.522,    15.536,         0,  0,  0,  |4-> 0 , |5-> 0 , |6-> 0 ,,  |4-> 0 , |5-> 0 , |6-> 0 ,,  |1-> 0 , |2-> 0 , |3-> 0 , |4-> 0 , |5-> 0 , |6-> 0 ,,  |1-> 0 , |2-> 0 , |3-> 0 , |4-> 0 , |5-> 0 , |6-> 0 ,
simulation,        12,      0.65,   0.65016,   0.65018,      13.5,    13.503,         0,  0,  0,  |4-> 0 , |5-> 0 , |6-> 0 ,,  |4-> 0 , |5-> 0 , |6-> 0 ,,  |1-> 0 , |2-> 0 , |3-> 0 , |4-> 0 , |5-> 0 , |6-> 0 ,,  |1-> 0 , |2-> 0 , |3-> 0 , |4-> 0 , |5-> 0 , |6-> 0 ,
