vc_buf_size = 64;
wait_for_tail_credit = 0;
vc_allocator = separable_input_first;
sw_allocator = separable_input_first;
alloc_iters = 1;
credit_delay = 2;
routing_delay = 0;
vc_alloc_delay = 1;
sw_alloc_delay = 1;
st_final_delay = 1;
input_speedup = 1;
output_speedup = 1;
sim_count = 1;
num_vcs = 7;
priority = none;
packet_size = 1;
injection_rate_uses_flits = 1;
internal_speedup = 4.0;
warmup_periods = 3;
sample_period = 1000;
df_a = 8;
df_arrangement = absolute_improved;
df_g = 0;
multitiered_routing_threshold_0 = 10;
multitiered_routing_threshold_1 = 40;
seed = 11;
topology = dragonflyfull;
traffic = group_shift;
df_g = 17;
routing_function = PAR;
shift_by_group = 8;

defaultText, count, i-rate in config file, i-rate injected, i-rate accepted, packet latency, flit latency, deadlock?
simulation,         1,      0.01, 0.0098836, 0.0098689,    12.493,    12.495,         0,  43775,  14111,  |4-> 0 , |5-> 0 , |6-> 0 ,,  |4-> 0 , |5-> 0 , |6-> 0 ,,  |1-> 0 , |2-> 23 , |3-> 355 , |4-> 3149 , |5-> 13980 , |6-> 26268 ,,  |1-> 0 , |2-> 2 , |3-> 123 , |4-> 1007 , |5-> 4578 , |6-> 8401 ,
simulation,         2,      0.99,   0.42174,   0.66156,    546.66,    529.85,         1,  0,  0,  ,  ,  ,  
simulation,         3,       0.5,   0.45336,   0.47011,    482.49,    414.94,         1,  0,  0,  ,  ,  ,  
simulation,         4,      0.25,   0.24984,   0.24986,    17.898,    17.901,         0,  678208,  618271,  |4-> 0 , |5-> 0 , |6-> 0 ,,  |4-> 0 , |5-> 0 , |6-> 0 ,,  |1-> 0 , |2-> 256 , |3-> 5001 , |4-> 45699 , |5-> 206598 , |6-> 420654 ,,  |1-> 0 , |2-> 319 , |3-> 5674 , |4-> 48636 , |5-> 205672 , |6-> 357970 ,
simulation,         5,      0.37,    0.3697,   0.36965,    32.864,     32.93,         0,  862727,  1020474,  |4-> 0 , |5-> 0 , |6-> 0 ,,  |4-> 0 , |5-> 0 , |6-> 0 ,,  |1-> 0 , |2-> 347 , |3-> 6623 , |4-> 58811 , |5-> 261322 , |6-> 535624 ,,  |1-> 0 , |2-> 507 , |3-> 9125 , |4-> 79028 , |5-> 337421 , |6-> 594393 ,
simulation,         6,      0.43,   0.42768,   0.42917,    114.83,    108.96,         0,  1534619,  2434822,  |4-> 0 , |5-> 0 , |6-> 0 ,,  |4-> 0 , |5-> 0 , |6-> 0 ,,  |1-> 0 , |2-> 545 , |3-> 11528 , |4-> 103917 , |5-> 462324 , |6-> 956305 ,,  |1-> 0 , |2-> 1334 , |3-> 22659 , |4-> 191150 , |5-> 796362 , |6-> 1423317 ,
simulation,         7,      0.46,   0.44943,   0.45243,    280.28,    184.33,         0,  2025961,  3689894,  |4-> 0 , |5-> 0 , |6-> 0 ,,  |4-> 0 , |5-> 0 , |6-> 0 ,,  |1-> 0 , |2-> 794 , |3-> 16533 , |4-> 141244 , |5-> 613190 , |6-> 1254200 ,,  |1-> 0 , |2-> 1973 , |3-> 33554 , |4-> 283972 , |5-> 1200576 , |6-> 2169819 ,
simulation,         8,      0.48,   0.45812,   0.46564,    282.32,    254.22,         1,  0,  0,  ,  ,  ,  
simulation,         9,      0.47,   0.45467,    0.4582,    380.46,    224.79,         0,  2191070,  4116961,  |4-> 0 , |5-> 0 , |6-> 0 ,,  |4-> 0 , |5-> 0 , |6-> 0 ,,  |1-> 0 , |2-> 789 , |3-> 18413 , |4-> 156457 , |5-> 665049 , |6-> 1350362 ,,  |1-> 0 , |2-> 2316 , |3-> 36649 , |4-> 313409 , |5-> 1334670 , |6-> 2429917 ,
simulation,        10,      0.45,   0.44226,   0.44509,    210.81,     158.7,         0,  1983482,  3455363,  |4-> 0 , |5-> 0 , |6-> 0 ,,  |4-> 0 , |5-> 0 , |6-> 0 ,,  |1-> 0 , |2-> 715 , |3-> 15572 , |4-> 135871 , |5-> 598899 , |6-> 1232425 ,,  |1-> 0 , |2-> 1957 , |3-> 31691 , |4-> 267378 , |5-> 1126591 , |6-> 2027746 ,
simulation,        11,       0.4,   0.39993,   0.39981,    62.307,    62.506,         0,  854409,  1141191,  |4-> 0 , |5-> 0 , |6-> 0 ,,  |4-> 0 , |5-> 0 , |6-> 0 ,,  |1-> 0 , |2-> 335 , |3-> 6367 , |4-> 58041 , |5-> 258909 , |6-> 530757 ,,  |1-> 0 , |2-> 552 , |3-> 10468 , |4-> 88600 , |5-> 375430 , |6-> 666141 ,
simulation,        12,      0.35,   0.34963,   0.34963,    24.898,    24.902,         0,  839854,  947862,  |4-> 0 , |5-> 0 , |6-> 0 ,,  |4-> 0 , |5-> 0 , |6-> 0 ,,  |1-> 0 , |2-> 368 , |3-> 6254 , |4-> 58020 , |5-> 254607 , |6-> 520605 ,,  |1-> 0 , |2-> 460 , |3-> 8807 , |4-> 73440 , |5-> 313453 , |6-> 551702 ,
simulation,        13,       0.3,   0.29968,   0.29971,    20.372,    20.376,         0,  771071,  780438,  |4-> 0 , |5-> 0 , |6-> 0 ,,  |4-> 0 , |5-> 0 , |6-> 0 ,,  |1-> 0 , |2-> 346 , |3-> 5566 , |4-> 52123 , |5-> 234974 , |6-> 478062 ,,  |1-> 0 , |2-> 348 , |3-> 7228 , |4-> 60618 , |5-> 258998 , |6-> 453246 ,
