vc_buf_size = 64;
wait_for_tail_credit = 0;
vc_allocator = separable_input_first;
sw_allocator = separable_input_first;
alloc_iters = 1;
credit_delay = 2;
routing_delay = 0;
vc_alloc_delay = 1;
sw_alloc_delay = 1;
st_final_delay = 1;
input_speedup = 1;
output_speedup = 1;
sim_count = 1;
num_vcs = 7;
priority = none;
packet_size = 1;
injection_rate_uses_flits = 1;
internal_speedup = 4.0;
warmup_periods = 3;
sample_period = 10000;
df_a = 8;
df_arrangement = absolute_improved;
df_g = 0;
global_latency = 10;
local_latency = 10;
multitiered_routing_threshold_0 = 10;
multitiered_routing_threshold_1 = 40;
seed = 11;
topology = dragonflyfull;
traffic = group_shift;
df_g = 17;
routing_function = vlb;
shift_by_group = 6;

defaultText, count, i-rate in config file, i-rate injected, i-rate accepted, packet latency, flit latency, deadlock?
simulation,         1,      0.01,  0.010052,  0.010053,    64.571,    64.571,         0,  0,  0,  |4-> 0 , |5-> 0 , |6-> 0 ,,  |4-> 0 , |5-> 0 , |6-> 0 ,,  |1-> 0 , |2-> 0 , |3-> 0 , |4-> 0 , |5-> 0 , |6-> 0 ,,  |1-> 0 , |2-> 0 , |3-> 0 , |4-> 0 , |5-> 0 , |6-> 0 ,
simulation,         2,      0.99,   0.45503,   0.51009,    2749.7,    1156.8,         1,  0,  0,  ,  ,  ,  
simulation,         3,       0.5,   0.45544,   0.49737,    495.93,     494.5,         1,  0,  0,  ,  ,  ,  
simulation,         4,      0.25,   0.25011,   0.25011,    67.287,    67.288,         0,  0,  0,  |4-> 0 , |5-> 0 , |6-> 0 ,,  |4-> 0 , |5-> 0 , |6-> 0 ,,  |1-> 0 , |2-> 0 , |3-> 0 , |4-> 0 , |5-> 0 , |6-> 0 ,,  |1-> 0 , |2-> 0 , |3-> 0 , |4-> 0 , |5-> 0 , |6-> 0 ,
simulation,         5,      0.37,   0.37016,   0.37015,    73.122,    73.119,         0,  0,  0,  |4-> 0 , |5-> 0 , |6-> 0 ,,  |4-> 0 , |5-> 0 , |6-> 0 ,,  |1-> 0 , |2-> 0 , |3-> 0 , |4-> 0 , |5-> 0 , |6-> 0 ,,  |1-> 0 , |2-> 0 , |3-> 0 , |4-> 0 , |5-> 0 , |6-> 0 ,
simulation,         6,      0.43,   0.43024,   0.43022,    88.095,    88.085,         0,  0,  0,  |4-> 0 , |5-> 0 , |6-> 0 ,,  |4-> 0 , |5-> 0 , |6-> 0 ,,  |1-> 0 , |2-> 0 , |3-> 0 , |4-> 0 , |5-> 0 , |6-> 0 ,,  |1-> 0 , |2-> 0 , |3-> 0 , |4-> 0 , |5-> 0 , |6-> 0 ,
simulation,         7,      0.46,   0.46044,   0.46026,    174.86,    174.96,         0,  0,  0,  |4-> 0 , |5-> 0 , |6-> 0 ,,  |4-> 0 , |5-> 0 , |6-> 0 ,,  |1-> 0 , |2-> 0 , |3-> 0 , |4-> 0 , |5-> 0 , |6-> 0 ,,  |1-> 0 , |2-> 0 , |3-> 0 , |4-> 0 , |5-> 0 , |6-> 0 ,
simulation,         8,      0.48,   0.45644,   0.47684,    514.49,    498.96,         1,  0,  0,  ,  ,  ,  
simulation,         9,      0.47,   0.45795,    0.4676,    612.89,    593.31,         1,  0,  0,  ,  ,  ,  
simulation,        10,      0.45,   0.45026,   0.45026,    113.63,    113.62,         0,  0,  0,  |4-> 0 , |5-> 0 , |6-> 0 ,,  |4-> 0 , |5-> 0 , |6-> 0 ,,  |1-> 0 , |2-> 0 , |3-> 0 , |4-> 0 , |5-> 0 , |6-> 0 ,,  |1-> 0 , |2-> 0 , |3-> 0 , |4-> 0 , |5-> 0 , |6-> 0 ,
simulation,        11,       0.4,   0.40014,   0.40013,    77.444,    77.438,         0,  0,  0,  |4-> 0 , |5-> 0 , |6-> 0 ,,  |4-> 0 , |5-> 0 , |6-> 0 ,,  |1-> 0 , |2-> 0 , |3-> 0 , |4-> 0 , |5-> 0 , |6-> 0 ,,  |1-> 0 , |2-> 0 , |3-> 0 , |4-> 0 , |5-> 0 , |6-> 0 ,
simulation,        12,      0.35,   0.35018,   0.35017,    71.386,    71.385,         0,  0,  0,  |4-> 0 , |5-> 0 , |6-> 0 ,,  |4-> 0 , |5-> 0 , |6-> 0 ,,  |1-> 0 , |2-> 0 , |3-> 0 , |4-> 0 , |5-> 0 , |6-> 0 ,,  |1-> 0 , |2-> 0 , |3-> 0 , |4-> 0 , |5-> 0 , |6-> 0 ,
simulation,        13,       0.3,   0.30022,   0.30022,    68.768,    68.768,         0,  0,  0,  |4-> 0 , |5-> 0 , |6-> 0 ,,  |4-> 0 , |5-> 0 , |6-> 0 ,,  |1-> 0 , |2-> 0 , |3-> 0 , |4-> 0 , |5-> 0 , |6-> 0 ,,  |1-> 0 , |2-> 0 , |3-> 0 , |4-> 0 , |5-> 0 , |6-> 0 ,
