vc_buf_size = 64;
wait_for_tail_credit = 0;
vc_allocator = separable_input_first;
sw_allocator = separable_input_first;
alloc_iters = 1;
credit_delay = 2;
routing_delay = 0;
vc_alloc_delay = 1;
sw_alloc_delay = 1;
st_final_delay = 1;
input_speedup = 1;
output_speedup = 1;
sim_count = 1;
num_vcs = 7;
priority = none;
packet_size = 1;
injection_rate_uses_flits = 1;
internal_speedup = 4.0;
warmup_periods = 3;
sample_period = 1000;
df_a = 16;
df_arrangement = absolute_improved;
global_latency = 10;
local_latency = 1;
multitiered_routing_threshold_0 = 10;
multitiered_routing_threshold_1 = 40;
seed = 11;
topology = dragonflyfull;
traffic = group_shift;
df_g = 35;
routing_function = UGAL_L;
shift_by_group = 16;

defaultText, count, i-rate in config file, i-rate injected, i-rate accepted, packet latency, flit latency, deadlock?
simulation,         1,      0.01,  0.010043,  0.010042,    21.761,    21.771,         0,  221274,  49973,  |4-> 0 , |5-> 0 , |6-> 0 ,,  |4-> 0 , |5-> 0 , |6-> 0 ,,  |1-> 0 , |2-> 3 , |3-> 261 , |4-> 4792 , |5-> 45132 , |6-> 171086 ,,  |1-> 0 , |2-> 0 , |3-> 54 , |4-> 1059 , |5-> 10055 , |6-> 38805 ,
simulation,         2,      0.99,   0.16873,   0.40562,     631.5,    628.42,         1,  0,  0,  ,  ,  ,  
simulation,         3,       0.5,   0.20126,   0.43393,    364.22,     364.2,         1,  0,  0,  ,  ,  ,  
simulation,         4,      0.25,   0.16115,   0.24963,     439.2,     439.2,         1,  0,  0,  ,  ,  ,  
simulation,         5,      0.13,   0.13005,   0.13012,    78.018,    79.369,         0,  1587671,  5405660,  |4-> 0 , |5-> 0 , |6-> 0 ,,  |4-> 0 , |5-> 0 , |6-> 0 ,,  |1-> 0 , |2-> 9 , |3-> 2657 , |4-> 45901 , |5-> 362865 , |6-> 1176239 ,,  |1-> 0 , |2-> 32 , |3-> 4908 , |4-> 101704 , |5-> 1064738 , |6-> 4234278 ,
simulation,         6,      0.19,   0.16029,   0.18987,     483.0,    502.17,         1,  0,  0,  ,  ,  ,  
simulation,         7,      0.16,   0.15499,   0.16004,    248.94,    447.47,         0,  2703206,  11179636,  |4-> 0 , |5-> 0 , |6-> 0 ,,  |4-> 0 , |5-> 0 , |6-> 0 ,,  |1-> 0 , |2-> 5 , |3-> 1210 , |4-> 36244 , |5-> 486530 , |6-> 2179217 ,,  |1-> 0 , |2-> 97 , |3-> 13727 , |4-> 258931 , |5-> 2347199 , |6-> 8559682 ,
simulation,         8,      0.17,   0.15788,   0.17002,    305.28,    311.26,         1,  0,  0,  ,  ,  ,  
simulation,         9,      0.15,   0.14852,   0.15008,     141.9,    199.77,         0,  2370179,  9439317,  |4-> 0 , |5-> 0 , |6-> 0 ,,  |4-> 0 , |5-> 0 , |6-> 0 ,,  |1-> 0 , |2-> 9 , |3-> 1806 , |4-> 42007 , |5-> 456932 , |6-> 1869425 ,,  |1-> 0 , |2-> 89 , |3-> 10912 , |4-> 208926 , |5-> 1953827 , |6-> 7265563 ,
simulation,        10,       0.1,   0.10003,   0.10005,    62.672,    63.269,         0,  831355,  1986296,  |4-> 0 , |5-> 0 , |6-> 0 ,,  |4-> 0 , |5-> 0 , |6-> 0 ,,  |1-> 0 , |2-> 20 , |3-> 1677 , |4-> 27564 , |5-> 200988 , |6-> 601106 ,,  |1-> 0 , |2-> 13 , |3-> 1387 , |4-> 32316 , |5-> 374491 , |6-> 1578089 ,
simulation,        11,      0.05,  0.050124,  0.050139,    44.898,    44.958,         0,  794031,  573855,  |4-> 0 , |5-> 0 , |6-> 0 ,,  |4-> 0 , |5-> 0 , |6-> 0 ,,  |1-> 0 , |2-> 5 , |3-> 1109 , |4-> 18923 , |5-> 169304 , |6-> 604690 ,,  |1-> 0 , |2-> 5 , |3-> 441 , |4-> 9808 , |5-> 110073 , |6-> 453528 ,
