df_a , df_g , topology , df_arrangement , vc_buf_size , internal_speedup , warmup_periods , sample_period , seed , traffic , perm_seed , shift_by_group , routing_function , routing_threshold , saturationPoint , irate_vs_packet_latency , irate_vs_flit_latency
8 , 33 , dragonflyfull , absolute_improved , 64 , 4.0 , 3 , 1000 ,  , group_shift ,  , 12 , UGAL_L ,  , 0.41 , 0.01->11.158 | 0.25->32.834 | 0.3->34.487 | 0.35->41.206 | 0.37->56.101 | 0.4->269.4 | 0.41->383.88 , 0.01->11.16 | 0.25->33.229 | 0.3->34.992 | 0.35->41.995 | 0.37->59.887 | 0.4->379.98 | 0.41->515.63
8 , 33 , dragonflyfull , absolute_improved , 64 , 4.0 , 3 , 1000 ,  , group_shift ,  , 12 , UGAL_L_multi_tiered ,  , 0.39 , 0.01->10.307 | 0.2->30.532 | 0.25->30.736 | 0.3->33.126 | 0.35->134.86 | 0.37->300.07 | 0.38->385.81 | 0.39->351.22 , 0.01->10.307 | 0.2->30.878 | 0.25->31.127 | 0.3->33.671 | 0.35->97.568 | 0.37->194.23 | 0.38->277.66 | 0.39->314.73

8 , 33 , dragonflyfull , absolute_improved , 64 , 4.0 , 3 , 1000 ,  , group_shift ,  , 16 , UGAL_L ,  , 0.41 , 0.01->11.144 | 0.25->32.987 | 0.3->34.512 | 0.35->41.033 | 0.37->56.346 | 0.4->265.55 | 0.41->392.3 , 0.01->11.146 | 0.25->33.382 | 0.3->35.022 | 0.35->41.787 | 0.37->60.096 | 0.4->361.52 | 0.41->516.42
8 , 33 , dragonflyfull , absolute_improved , 64 , 4.0 , 3 , 1000 ,  , group_shift ,  , 16 , UGAL_L_multi_tiered ,  , 0.40 , 0.01->10.276 | 0.25->30.968 | 0.3->33.706 | 0.35->92.528 | 0.37->141.71 | 0.4->398.49 , 0.01->10.276 | 0.25->31.401 | 0.3->34.3 | 0.35->73.488 | 0.37->109.26 | 0.4->387.23

8 , 33 , dragonflyfull , absolute_improved , 64 , 4.0 , 3 , 1000 ,  , group_shift ,  , 2 , UGAL_L ,  , 0.41 , 0.01->11.161 | 0.25->32.972 | 0.3->34.717 | 0.35->41.453 | 0.37->58.581 | 0.4->258.11 | 0.41->386.89 , 0.01->11.164 | 0.25->33.365 | 0.3->35.244 | 0.35->42.249 | 0.37->63.667 | 0.4->354.14 | 0.41->511.39
8 , 33 , dragonflyfull , absolute_improved , 64 , 4.0 , 3 , 1000 ,  , group_shift ,  , 2 , UGAL_L_multi_tiered ,  , 0.32 , 0.01->10.283 | 0.15->30.434 | 0.2->29.417 | 0.25->30.0 | 0.3->97.476 | 0.31->184.91 | 0.32->269.76 , 0.01->10.284 | 0.15->30.82 | 0.2->29.735 | 0.25->30.382 | 0.3->95.077 | 0.31->146.62 | 0.32->192.24

8 , 33 , dragonflyfull , absolute_improved , 64 , 4.0 , 3 , 1000 ,  , group_shift ,  , 4 , UGAL_L ,  , 0.41 , 0.01->11.165 | 0.25->32.828 | 0.3->34.513 | 0.35->41.091 | 0.37->56.298 | 0.4->250.69 | 0.41->372.85 , 0.01->11.166 | 0.25->33.216 | 0.3->35.015 | 0.35->41.854 | 0.37->59.87 | 0.4->347.35 | 0.41->492.59
8 , 33 , dragonflyfull , absolute_improved , 64 , 4.0 , 3 , 1000 ,  , group_shift ,  , 4 , UGAL_L_multi_tiered ,  , 0.35 , 0.01->10.293 | 0.2->30.379 | 0.25->31.252 | 0.3->35.375 | 0.31->46.073 | 0.34->300.13 | 0.35->348.05 , 0.01->10.295 | 0.2->30.722 | 0.25->31.7 | 0.3->36.326 | 0.31->51.943 | 0.34->155.87 | 0.35->200.79

8 , 33 , dragonflyfull , absolute_improved , 64 , 4.0 , 3 , 1000 ,  , group_shift ,  , 6 , UGAL_L ,  , 0.41 , 0.01->11.148 | 0.25->32.797 | 0.3->34.384 | 0.35->41.198 | 0.37->57.953 | 0.4->264.49 | 0.41->384.1 , 0.01->11.149 | 0.25->33.199 | 0.3->34.891 | 0.35->41.96 | 0.37->62.348 | 0.4->362.03 | 0.41->497.18
8 , 33 , dragonflyfull , absolute_improved , 64 , 4.0 , 3 , 1000 ,  , group_shift ,  , 6 , UGAL_L_multi_tiered ,  , 0.37 , 0.01->10.297 | 0.2->30.393 | 0.25->30.965 | 0.3->33.523 | 0.35->144.38 | 0.37->335.84 , 0.01->10.298 | 0.2->30.747 | 0.25->31.374 | 0.3->34.114 | 0.35->121.47 | 0.37->219.51

8 , 33 , dragonflyfull , absolute_improved , 64 , 4.0 , 3 , 1000 ,  , group_shift ,  , 8 , UGAL_L ,  , 0.41 , 0.01->11.165 | 0.25->32.898 | 0.3->34.465 | 0.35->40.716 | 0.37->54.343 | 0.4->266.38 | 0.41->399.36 , 0.01->11.166 | 0.25->33.292 | 0.3->35.003 | 0.35->41.428 | 0.37->58.157 | 0.4->354.36 | 0.41->524.81
8 , 33 , dragonflyfull , absolute_improved , 64 , 4.0 , 3 , 1000 ,  , group_shift ,  , 8 , UGAL_L_multi_tiered ,  , 0.41 , 0.01->10.299 | 0.25->31.061 | 0.3->34.016 | 0.35->173.38 | 0.37->292.26 | 0.4->315.5 | 0.41->407.48 , 0.01->10.3 | 0.25->31.515 | 0.3->34.505 | 0.35->93.362 | 0.37->151.38 | 0.4->399.69 | 0.41->553.05

8 , 33 , dragonflyfull , absolute_improved , 64 , 4.0 , 3 , 1000 ,  , randperm , 60 ,  , UGAL_L ,  , 0.56 , 0.01->9.832 | 0.4->20.038 | 0.45->29.084 | 0.5->60.069 | 0.55->272.07 | 0.56->397.94 , 0.01->9.8337 | 0.4->20.17 | 0.45->29.372 | 0.5->57.816 | 0.55->184.44 | 0.56->234.43
8 , 33 , dragonflyfull , absolute_improved , 64 , 4.0 , 3 , 1000 ,  , randperm , 60 ,  , UGAL_L_multi_tiered ,  , 0.58 , 0.01->9.5428 | 0.4->16.979 | 0.45->23.222 | 0.5->34.949 | 0.55->88.457 | 0.56->138.38 | 0.57->213.78 | 0.58->341.89 , 0.01->9.5439 | 0.4->17.09 | 0.45->23.421 | 0.5->35.424 | 0.55->78.328 | 0.56->107.08 | 0.57->155.01 | 0.58->213.12

8 , 33 , dragonflyfull , absolute_improved , 64 , 4.0 , 3 , 1000 ,  , randperm , 62 ,  , UGAL_L ,  , 0.55 , 0.01->9.8402 | 0.4->20.005 | 0.45->28.782 | 0.5->51.668 | 0.53->138.15 | 0.54->199.49 | 0.55->284.02 , 0.01->9.8414 | 0.4->20.165 | 0.45->29.058 | 0.5->53.154 | 0.53->107.85 | 0.54->132.4 | 0.55->168.1
8 , 33 , dragonflyfull , absolute_improved , 64 , 4.0 , 3 , 1000 ,  , randperm , 62 ,  , UGAL_L_multi_tiered ,  , 0.58 , 0.01->9.5551 | 0.4->16.048 | 0.45->23.26 | 0.5->34.738 | 0.55->67.7 | 0.56->113.88 | 0.57->191.79 | 0.58->312.38 , 0.01->9.5559 | 0.4->16.12 | 0.45->23.485 | 0.5->35.2 | 0.55->67.927 | 0.56->97.086 | 0.57->130.38 | 0.58->186.58

8 , 33 , dragonflyfull , absolute_improved , 64 , 4.0 , 3 , 1000 ,  , randperm , 64 ,  , UGAL_L ,  , 0.55 , 0.01->9.9383 | 0.4->20.952 | 0.45->29.12 | 0.5->55.137 | 0.53->145.13 | 0.54->206.54 | 0.55->297.77 , 0.01->9.9384 | 0.4->21.114 | 0.45->29.445 | 0.5->56.77 | 0.53->111.99 | 0.54->153.23 | 0.55->199.04
8 , 33 , dragonflyfull , absolute_improved , 64 , 4.0 , 3 , 1000 ,  , randperm , 64 ,  , UGAL_L_multi_tiered ,  , 0.57 , 0.01->9.6494 | 0.4->16.899 | 0.45->23.394 | 0.5->36.449 | 0.55->92.817 | 0.56->163.61 | 0.57->258.89 , 0.01->9.6488 | 0.4->16.997 | 0.45->23.652 | 0.5->36.944 | 0.55->84.204 | 0.56->120.5 | 0.57->176.56

8 , 33 , dragonflyfull , absolute_improved , 64 , 4.0 , 3 , 1000 ,  , randperm , 66 ,  , UGAL_L ,  , 0.56 , 0.01->9.9296 | 0.4->19.975 | 0.45->28.171 | 0.5->53.569 | 0.55->279.07 | 0.56->402.31 , 0.01->9.9317 | 0.4->20.13 | 0.45->28.455 | 0.5->54.331 | 0.55->190.83 | 0.56->238.12
8 , 33 , dragonflyfull , absolute_improved , 64 , 4.0 , 3 , 1000 ,  , randperm , 66 ,  , UGAL_L_multi_tiered ,  , 0.58 , 0.01->9.6471 | 0.4->17.291 | 0.45->23.123 | 0.5->35.808 | 0.55->71.354 | 0.56->112.92 | 0.57->210.16 | 0.58->349.8 , 0.01->9.6486 | 0.4->17.415 | 0.45->23.332 | 0.5->36.299 | 0.55->69.852 | 0.56->102.55 | 0.57->156.74 | 0.58->216.33

8 , 33 , dragonflyfull , absolute_improved , 64 , 4.0 , 3 , 1000 ,  , randperm , 68 ,  , UGAL_L ,  , 0.56 , 0.01->9.9626 | 0.4->18.75 | 0.45->27.093 | 0.5->49.544 | 0.55->233.1 | 0.56->352.51 , 0.01->9.9647 | 0.4->18.888 | 0.45->27.358 | 0.5->50.45 | 0.55->176.11 | 0.56->226.89
8 , 33 , dragonflyfull , absolute_improved , 64 , 4.0 , 3 , 1000 ,  , randperm , 68 ,  , UGAL_L_multi_tiered ,  , 0.58 , 0.01->9.6638 | 0.4->16.014 | 0.45->21.903 | 0.5->33.003 | 0.55->63.272 | 0.56->90.107 | 0.57->177.41 | 0.58->311.26 , 0.01->9.6648 | 0.4->16.095 | 0.45->22.107 | 0.5->33.409 | 0.55->63.72 | 0.56->89.309 | 0.57->142.46 | 0.58->215.22

8 , 33 , dragonflyfull , absolute_improved , 64 , 4.0 , 3 , 1000 ,  , randperm , 70 ,  , UGAL_L ,  , 0.56 , 0.01->9.9261 | 0.4->20.605 | 0.45->29.401 | 0.5->52.867 | 0.55->260.23 | 0.56->391.37 , 0.01->9.9287 | 0.4->20.743 | 0.45->29.677 | 0.5->53.587 | 0.55->203.75 | 0.56->261.92
8 , 33 , dragonflyfull , absolute_improved , 64 , 4.0 , 3 , 1000 ,  , randperm , 70 ,  , UGAL_L_multi_tiered ,  , 0.58 , 0.01->9.6437 | 0.4->17.192 | 0.45->22.619 | 0.5->35.782 | 0.55->71.709 | 0.56->116.13 | 0.57->237.69 | 0.58->388.11 , 0.01->9.6445 | 0.4->17.319 | 0.45->22.865 | 0.5->36.23 | 0.55->71.546 | 0.56->114.58 | 0.57->194.05 | 0.58->269.76

8 , 33 , dragonflyfull , absolute_improved , 64 , 4.0 , 3 , 1000 , 10 , uniform ,  ,  , UGAL_L ,  , 0.99 , 0.01->9.6806 | 0.99->133.47 , 0.01->9.6816 | 0.99->134.4
8 , 33 , dragonflyfull , absolute_improved , 64 , 4.0 , 3 , 1000 , 10 , uniform ,  ,  , UGAL_L_multi_tiered ,  , 0.99 , 0.01->9.5297 | 0.99->135.53 , 0.01->9.5296 | 0.99->136.48

8 , 33 , dragonflyfull , absolute_improved , 64 , 4.0 , 3 , 1000 , 12 , uniform ,  ,  , UGAL_L ,  , 0.99 , 0.01->9.6732 | 0.99->134.46 , 0.01->9.6736 | 0.99->135.45
8 , 33 , dragonflyfull , absolute_improved , 64 , 4.0 , 3 , 1000 , 12 , uniform ,  ,  , UGAL_L_multi_tiered ,  , 0.99 , 0.01->9.5234 | 0.99->135.92 , 0.01->9.5243 | 0.99->136.8

8 , 33 , dragonflyfull , absolute_improved , 64 , 4.0 , 3 , 1000 , 14 , uniform ,  ,  , UGAL_L ,  , 0.99 , 0.01->9.694 | 0.99->132.9 , 0.01->9.6969 | 0.99->133.84
8 , 33 , dragonflyfull , absolute_improved , 64 , 4.0 , 3 , 1000 , 14 , uniform ,  ,  , UGAL_L_multi_tiered ,  , 0.99 , 0.01->9.5224 | 0.99->136.1 , 0.01->9.5232 | 0.99->137.02

8 , 33 , dragonflyfull , absolute_improved , 64 , 4.0 , 3 , 1000 , 16 , uniform ,  ,  , UGAL_L ,  , 0.99 , 0.01->9.6936 | 0.99->134.99 , 0.01->9.6949 | 0.99->135.85
8 , 33 , dragonflyfull , absolute_improved , 64 , 4.0 , 3 , 1000 , 16 , uniform ,  ,  , UGAL_L_multi_tiered ,  , 0.99 , 0.01->9.5149 | 0.99->137.31 , 0.01->9.5156 | 0.99->138.3

8 , 33 , dragonflyfull , absolute_improved , 64 , 4.0 , 3 , 1000 , 18 , uniform ,  ,  , UGAL_L ,  , 0.99 , 0.01->9.6857 | 0.99->134.59 , 0.01->9.6866 | 0.99->135.54
8 , 33 , dragonflyfull , absolute_improved , 64 , 4.0 , 3 , 1000 , 18 , uniform ,  ,  , UGAL_L_multi_tiered ,  , 0.99 , 0.01->9.5181 | 0.99->131.44 , 0.01->9.5183 | 0.99->132.58

8 , 33 , dragonflyfull , absolute_improved , 64 , 4.0 , 3 , 1000 , 20 , uniform ,  ,  , UGAL_L ,  , 0.99 , 0.01->9.6757 | 0.99->134.28 , 0.01->9.6779 | 0.99->135.25
8 , 33 , dragonflyfull , absolute_improved , 64 , 4.0 , 3 , 1000 , 20 , uniform ,  ,  , UGAL_L_multi_tiered ,  , 0.99 , 0.01->9.5303 | 0.99->131.38 , 0.01->9.5306 | 0.99->132.34

