wait_for_tail_credit = 0;
vc_allocator = separable_input_first;
sw_allocator = separable_input_first;
alloc_iters = 1;
credit_delay = 2;
routing_delay = 0;
vc_alloc_delay = 1;
sw_alloc_delay = 1;
st_final_delay = 1;
input_speedup = 1;
output_speedup = 1;
internal_speedup = 4.0;
warmup_periods = 3;
sim_count = 1;
sample_period = 10000;
num_vcs = 8;
priority = none;
packet_size = 1;
injection_rate_uses_flits = 1;
df_a = 8;
df_arrangement = absolute_improved;
df_g = 0;
global_latency = 1;
local_latency = 1;
topology = dragonflyfull;
traffic = df_wc;
ugal_multiply_mode = pathlen_based;
vc_buf_size = 64;
df_g = 17;
df_wc_seed = 51;
routing_function = UGAL_G;
seed = 81;

defaultText, count, i-rate in config file, i-rate injected, i-rate accepted, flit latency, deadlock?, average_hop_length
simulation,         1,       0.5,   0.49995,   0.49997,    38.399,    38.398,         0,      6.0842
simulation,         2,      0.74,    0.4049,   0.45266,    1785.9,    964.65,         1,         0.0
simulation,         3,      0.62,   0.45122,   0.49235,     984.5,     665.8,         1,         0.0
simulation,         4,      0.56,   0.48338,   0.51067,    459.91,    385.23,         1,         0.0
simulation,         5,      0.53,   0.50033,   0.49948,    991.12,    315.65,         1,         0.0
simulation,         6,      0.51,   0.50999,      0.51,    44.056,    44.055,         0,      6.0927
simulation,         7,      0.52,   0.51998,      0.52,    54.186,    54.184,         0,      6.1014
simulation,         8,       0.1,  0.099989,  0.099991,    13.649,    13.649,         0,      5.3709
simulation,         9,       0.2,   0.20005,   0.20005,    15.466,    15.466,         0,      5.5725
simulation,        10,       0.3,   0.30005,   0.30005,    18.319,    18.319,         0,      5.8378
simulation,        11,       0.4,   0.39999,   0.39999,    22.572,    22.572,         0,      5.9866
simulation,        12,       0.5,   0.49995,   0.49997,    38.399,    38.398,         0,      6.0842
