vc_buf_size = 64;
wait_for_tail_credit = 0;
vc_allocator = separable_input_first;
sw_allocator = separable_input_first;
alloc_iters = 1;
credit_delay = 2;
routing_delay = 0;
vc_alloc_delay = 1;
sw_alloc_delay = 1;
st_final_delay = 1;
input_speedup = 1;
output_speedup = 1;
sim_count = 1;
num_vcs = 7;
priority = none;
packet_size = 1;
injection_rate_uses_flits = 1;
internal_speedup = 4.0;
warmup_periods = 3;
sample_period = 1000;
df_a = 8;
df_arrangement = absolute_improved;
df_g = 0;
multitiered_routing_threshold_0 = 10;
multitiered_routing_threshold_1 = 40;
seed = 11;
topology = dragonflyfull;
traffic = group_shift;
df_g = 9;
routing_function = UGAL_L;
shift_by_group = 2;

defaultText, count, i-rate in config file, i-rate injected, i-rate accepted, packet latency, flit latency, deadlock?
simulation,         1,      0.01,  0.010168,  0.010164,    10.214,    10.219,         0,  15551,  1964,  |4-> 0 , |5-> 0 , |6-> 0 ,,  |4-> 0 , |5-> 0 , |6-> 0 ,,  |1-> 0 , |2-> 20 , |3-> 63 , |4-> 1315 , |5-> 4948 , |6-> 9205 ,,  |1-> 0 , |2-> 3 , |3-> 12 , |4-> 174 , |5-> 621 , |6-> 1154 ,
simulation,         2,      0.99,    0.3414,    0.5888,    584.81,    576.04,         1,  0,  0,  ,  ,  ,  
simulation,         3,       0.5,     0.342,   0.46434,    555.79,    555.67,         1,  0,  0,  ,  ,  ,  
simulation,         4,      0.25,   0.25038,   0.25032,     54.29,    54.797,         0,  223579,  218329,  |4-> 0 , |5-> 0 , |6-> 0 ,,  |4-> 0 , |5-> 0 , |6-> 0 ,,  |1-> 0 , |2-> 178 , |3-> 620 , |4-> 14206 , |5-> 65397 , |6-> 143178 ,,  |1-> 0 , |2-> 578 , |3-> 1411 , |4-> 22264 , |5-> 73587 , |6-> 120489 ,
simulation,         5,      0.37,   0.35554,    0.3699,    292.11,     333.0,         0,  484963,  866403,  |4-> 0 , |5-> 0 , |6-> 0 ,,  |4-> 0 , |5-> 0 , |6-> 0 ,,  |1-> 0 , |2-> 35 , |3-> 629 , |4-> 22470 , |5-> 132015 , |6-> 329814 ,,  |1-> 0 , |2-> 2050 , |3-> 5690 , |4-> 89141 , |5-> 292622 , |6-> 476900 ,
simulation,         6,      0.43,    0.3688,   0.40972,    421.08,    487.83,         1,  0,  0,  ,  ,  ,  
simulation,         7,       0.4,      0.37,   0.39331,    441.56,    440.82,         1,  0,  0,  ,  ,  ,  
simulation,         8,      0.38,   0.36001,    0.3796,    385.57,    447.66,         0,  524443,  957628,  |4-> 0 , |5-> 0 , |6-> 0 ,,  |4-> 0 , |5-> 0 , |6-> 0 ,,  |1-> 0 , |2-> 23 , |3-> 659 , |4-> 24061 , |5-> 142619 , |6-> 357081 ,,  |1-> 0 , |2-> 2293 , |3-> 6157 , |4-> 98405 , |5-> 324131 , |6-> 526642 ,
simulation,         9,      0.39,   0.36537,   0.38797,    377.89,    380.34,         1,  0,  0,  ,  ,  ,  
simulation,        10,      0.35,   0.34747,   0.34996,    116.07,    124.04,         0,  400443,  689207,  |4-> 0 , |5-> 0 , |6-> 0 ,,  |4-> 0 , |5-> 0 , |6-> 0 ,,  |1-> 0 , |2-> 40 , |3-> 552 , |4-> 18904 , |5-> 108874 , |6-> 272073 ,,  |1-> 0 , |2-> 1648 , |3-> 4556 , |4-> 71026 , |5-> 234145 , |6-> 377832 ,
simulation,        11,       0.3,   0.30026,   0.30024,     62.35,    63.046,         0,  264500,  361357,  |4-> 0 , |5-> 0 , |6-> 0 ,,  |4-> 0 , |5-> 0 , |6-> 0 ,,  |1-> 0 , |2-> 88 , |3-> 512 , |4-> 14387 , |5-> 74468 , |6-> 175045 ,,  |1-> 0 , |2-> 847 , |3-> 2393 , |4-> 37310 , |5-> 122333 , |6-> 198474 ,
simulation,        13,       0.2,   0.20021,   0.20041,    34.948,      35.1,         0,  219172,  132098,  |4-> 0 , |5-> 0 , |6-> 0 ,,  |4-> 0 , |5-> 0 , |6-> 0 ,,  |1-> 0 , |2-> 255 , |3-> 865 , |4-> 16320 , |5-> 67060 , |6-> 134672 ,,  |1-> 0 , |2-> 260 , |3-> 798 , |4-> 12677 , |5-> 43528 , |6-> 74835 ,
