topology , vc_buf_size , internal_speedup , warmup_periods , sample_period , seed , traffic , perm_seed , shift_offset , shift_percentage , routing_function , multitiered_routing_threshold_0 , multitiered_routing_threshold_1 , saturationPoint , irate_vs_packet_latency , irate_vs_flit_latency
edison , 64 , 4.0 , 5 , 1000 , 24 , randperm , 46 ,  ,  , UGAL_L_restricted , 10 , 50 , 0.73 , 0.5->58.525 | 0.55->58.963 | 0.6->60.114 | 0.62->61.408 | 0.65->65.138 | 0.68->73.892 | 0.7->84.693 | 0.71->93.414 | 0.72->105.9 | 0.73->128.65 , 0.5->58.596 | 0.55->59.031 | 0.6->60.198 | 0.62->61.492 | 0.65->65.348 | 0.68->74.578 | 0.7->85.438 | 0.71->95.231 | 0.72->110.85 | 0.73->154.73

edison , 64 , 4.0 , 5 , 1000 , 25 , randperm , 47 ,  ,  , UGAL_L_restricted , 10 , 50 , 0.73 , 0.5->58.668 | 0.55->59.087 | 0.6->60.209 | 0.62->61.425 | 0.65->65.232 | 0.68->74.681 | 0.7->86.232 | 0.71->94.776 | 0.72->111.21 | 0.73->136.8 , 0.5->58.735 | 0.55->59.154 | 0.6->60.27 | 0.62->61.508 | 0.65->65.487 | 0.68->75.278 | 0.7->87.118 | 0.71->96.954 | 0.72->121.01 | 0.73->374.83

edison , 64 , 4.0 , 5 , 1000 , 26 , randperm , 48 ,  ,  , UGAL_L_restricted , 10 , 50 , 0.74 , 0.5->58.624 | 0.6->60.191 | 0.65->66.035 | 0.7->87.467 | 0.74->178.33 , 0.5->58.69 | 0.6->60.269 | 0.65->66.304 | 0.7->88.455 | 0.74->479.68

edison , 64 , 4.0 , 5 , 1000 , 27 , randperm , 49 ,  ,  , UGAL_L_restricted , 10 , 50 , 0.73 , 0.5->58.646 | 0.55->59.089 | 0.6->60.854 | 0.62->62.481 | 0.65->67.25 | 0.68->77.176 | 0.7->91.056 | 0.71->101.51 | 0.72->119.23 | 0.73->151.92 , 0.5->58.716 | 0.55->59.157 | 0.6->60.929 | 0.62->62.629 | 0.65->67.572 | 0.68->77.813 | 0.7->92.195 | 0.71->103.75 | 0.72->130.52 | 0.73->382.88

edison , 64 , 4.0 , 5 , 1000 , 28 , randperm , 50 ,  ,  , UGAL_L_restricted , 10 , 50 , 0.73 , 0.5->58.643 | 0.55->59.206 | 0.6->61.267 | 0.62->63.328 | 0.65->69.027 | 0.68->81.387 | 0.7->94.199 | 0.71->107.33 | 0.72->127.19 | 0.73->154.84 , 0.5->58.709 | 0.55->59.27 | 0.6->61.433 | 0.62->63.47 | 0.65->69.606 | 0.68->81.823 | 0.7->96.554 | 0.71->114.46 | 0.72->142.73 | 0.73->185.81

edison , 64 , 4.0 , 5 , 1000 , 29 , randperm , 51 ,  ,  , UGAL_L_restricted , 10 , 50 , 0.74 , 0.5->58.586 | 0.6->60.216 | 0.65->64.831 | 0.7->84.284 | 0.74->167.84 , 0.5->58.653 | 0.6->60.282 | 0.65->65.013 | 0.7->84.948 | 0.74->427.67

edison , 64 , 4.0 , 5 , 1000 , 24 , shift ,  , 2304 ,  , UGAL_L_restricted , 10 , 50 , 0.38 , 0.2->331.18 | 0.25->339.16 | 0.3->350.62 | 0.35->370.31 | 0.37->384.89 | 0.38->399.42 , 0.2->349.25 | 0.25->360.51 | 0.3->373.56 | 0.35->391.59 | 0.37->411.33 | 0.38->429.76

edison , 64 , 4.0 , 5 , 1000 , 25 , shift ,  , 2304 ,  , UGAL_L_restricted , 10 , 50 , 0.38 , 0.2->330.95 | 0.25->339.42 | 0.3->349.79 | 0.35->370.42 | 0.37->387.45 | 0.38->398.17 , 0.2->348.43 | 0.25->360.11 | 0.3->374.09 | 0.35->389.53 | 0.37->412.25 | 0.38->432.06

edison , 64 , 4.0 , 5 , 1000 , 26 , shift ,  , 2304 ,  , UGAL_L_restricted , 10 , 50 , 0.38 , 0.2->331.07 | 0.25->339.17 | 0.3->350.09 | 0.35->369.53 | 0.37->384.88 | 0.38->393.81 , 0.2->348.54 | 0.25->360.04 | 0.3->372.55 | 0.35->393.0 | 0.37->408.59 | 0.38->432.69

edison , 64 , 4.0 , 5 , 1000 , 27 , shift ,  , 2304 ,  , UGAL_L_restricted , 10 , 50 , 0.37 , 0.2->331.24 | 0.25->339.62 | 0.3->350.56 | 0.35->372.76 | 0.37->385.18 , 0.2->348.68 | 0.25->360.39 | 0.3->372.77 | 0.35->394.18 | 0.37->409.06

edison , 64 , 4.0 , 5 , 1000 , 28 , shift ,  , 2304 ,  , UGAL_L_restricted , 10 , 50 , 0.38 , 0.2->331.67 | 0.25->340.32 | 0.3->350.26 | 0.35->372.41 | 0.37->385.53 | 0.38->401.4 , 0.2->349.2 | 0.25->360.57 | 0.3->373.35 | 0.35->392.02 | 0.37->410.33 | 0.38->434.34

edison , 64 , 4.0 , 5 , 1000 , 29 , shift ,  , 2304 ,  , UGAL_L_restricted , 10 , 50 , 0.38 , 0.2->330.7 | 0.25->339.33 | 0.3->350.78 | 0.35->370.91 | 0.37->386.03 | 0.38->396.2 , 0.2->348.39 | 0.25->360.58 | 0.3->371.75 | 0.35->388.78 | 0.37->414.63 | 0.38->432.99

edison , 64 , 4.0 , 5 , 1000 , 24 , shift ,  , 384 ,  , UGAL_L_restricted , 10 , 50 , 0.37 , 0.2->334.52 | 0.25->344.02 | 0.3->357.69 | 0.35->382.59 | 0.37->405.14 , 0.2->351.73 | 0.25->365.18 | 0.3->381.09 | 0.35->407.42 | 0.37->437.04

edison , 64 , 4.0 , 5 , 1000 , 25 , shift ,  , 384 ,  , UGAL_L_restricted , 10 , 50 , 0.36 , 0.2->333.18 | 0.25->343.54 | 0.3->357.18 | 0.31->361.38 | 0.34->376.51 | 0.35->381.31 | 0.36->390.93 , 0.2->351.18 | 0.25->364.96 | 0.3->381.61 | 0.31->383.78 | 0.34->400.09 | 0.35->406.05 | 0.36->417.43

edison , 64 , 4.0 , 5 , 1000 , 26 , shift ,  , 384 ,  , UGAL_L_restricted , 10 , 50 , 0.37 , 0.2->333.68 | 0.25->343.77 | 0.3->357.26 | 0.35->384.51 | 0.37->400.11 , 0.2->351.77 | 0.25->365.11 | 0.3->380.31 | 0.35->407.61 | 0.37->427.53

edison , 64 , 4.0 , 5 , 1000 , 27 , shift ,  , 384 ,  , UGAL_L_restricted , 10 , 50 , 0.37 , 0.2->334.67 | 0.25->344.21 | 0.3->357.18 | 0.35->384.76 | 0.37->403.96 , 0.2->352.5 | 0.25->364.81 | 0.3->379.74 | 0.35->403.47 | 0.37->433.92

edison , 64 , 4.0 , 5 , 1000 , 28 , shift ,  , 384 ,  , UGAL_L_restricted , 10 , 50 , 0.36 , 0.2->334.33 | 0.25->344.36 | 0.3->357.8 | 0.31->362.18 | 0.34->375.69 | 0.35->384.76 | 0.36->393.96 , 0.2->352.49 | 0.25->365.31 | 0.3->379.48 | 0.31->385.05 | 0.34->400.11 | 0.35->407.93 | 0.36->418.15

edison , 64 , 4.0 , 5 , 1000 , 29 , shift ,  , 384 ,  , UGAL_L_restricted , 10 , 50 , 0.36 , 0.2->333.86 | 0.25->343.06 | 0.3->357.97 | 0.31->361.0 | 0.34->375.39 | 0.35->381.67 | 0.36->393.0 , 0.2->351.63 | 0.25->365.6 | 0.3->380.72 | 0.31->383.2 | 0.34->400.19 | 0.35->404.66 | 0.36->417.09

edison , 64 , 4.0 , 5 , 1000 , 24 , uniform , 46 ,  ,  , UGAL_L_restricted , 10 , 50 , 0.91 , 0.5->55.519 | 0.74->57.579 | 0.75->57.834 | 0.8->59.577 | 0.85->65.036 | 0.86->67.57 | 0.89->83.927 | 0.9->95.968 | 0.91->313.92 , 0.5->55.565 | 0.74->57.62 | 0.75->57.874 | 0.8->59.619 | 0.85->65.134 | 0.86->67.695 | 0.89->84.407 | 0.9->97.817 | 0.91->597.6

edison , 64 , 4.0 , 5 , 1000 , 25 , uniform , 47 ,  ,  , UGAL_L_restricted , 10 , 50 , 0.91 , 0.5->55.53 | 0.74->57.595 | 0.75->57.813 | 0.8->59.617 | 0.85->65.046 | 0.86->67.646 | 0.89->83.094 | 0.9->94.526 | 0.91->332.07 , 0.5->55.575 | 0.74->57.635 | 0.75->57.854 | 0.8->59.662 | 0.85->65.143 | 0.86->67.759 | 0.89->83.688 | 0.9->96.064 | 0.91->605.11

edison , 64 , 4.0 , 5 , 1000 , 26 , uniform , 48 ,  ,  , UGAL_L_restricted , 10 , 50 , 0.90 , 0.5->55.518 | 0.74->57.595 | 0.75->57.813 | 0.8->59.597 | 0.85->65.032 | 0.86->67.635 | 0.89->83.833 | 0.9->94.218 , 0.5->55.566 | 0.74->57.635 | 0.75->57.853 | 0.8->59.635 | 0.85->65.112 | 0.86->67.772 | 0.89->84.394 | 0.9->95.597

edison , 64 , 4.0 , 5 , 1000 , 27 , uniform , 49 ,  ,  , UGAL_L_restricted , 10 , 50 , 0.91 , 0.5->55.515 | 0.74->57.582 | 0.75->57.824 | 0.8->59.615 | 0.85->65.06 | 0.86->67.489 | 0.89->83.744 | 0.9->94.825 | 0.91->327.82 , 0.5->55.563 | 0.74->57.621 | 0.75->57.866 | 0.8->59.662 | 0.85->65.149 | 0.86->67.63 | 0.89->84.481 | 0.9->96.362 | 0.91->598.81

edison , 64 , 4.0 , 5 , 1000 , 28 , uniform , 50 ,  ,  , UGAL_L_restricted , 10 , 50 , 0.91 , 0.5->55.516 | 0.74->57.593 | 0.75->57.834 | 0.8->59.616 | 0.85->65.139 | 0.86->67.829 | 0.89->83.663 | 0.9->95.228 | 0.91->309.98 , 0.5->55.565 | 0.74->57.634 | 0.75->57.876 | 0.8->59.657 | 0.85->65.207 | 0.86->67.928 | 0.89->84.147 | 0.9->96.743 | 0.91->595.49

edison , 64 , 4.0 , 5 , 1000 , 29 , uniform , 51 ,  ,  , UGAL_L_restricted , 10 , 50 , 0.91 , 0.5->55.516 | 0.74->57.592 | 0.75->57.814 | 0.8->59.621 | 0.85->65.018 | 0.86->67.536 | 0.89->83.861 | 0.9->95.046 | 0.91->315.56 , 0.5->55.563 | 0.74->57.633 | 0.75->57.854 | 0.8->59.662 | 0.85->65.092 | 0.86->67.657 | 0.89->84.508 | 0.9->96.942 | 0.91->601.25

