vc_buf_size = 64;
wait_for_tail_credit = 0;
vc_allocator = separable_input_first;
sw_allocator = separable_input_first;
alloc_iters = 1;
credit_delay = 2;
routing_delay = 0;
vc_alloc_delay = 1;
sw_alloc_delay = 1;
st_final_delay = 1;
input_speedup = 1;
output_speedup = 1;
sim_count = 1;
num_vcs = 7;
priority = none;
packet_size = 1;
injection_rate_uses_flits = 1;
internal_speedup = 4.0;
warmup_periods = 3;
sample_period = 1000;
df_a = 8;
df_arrangement = absolute_improved;
df_g = 0;
multitiered_routing_threshold_0 = 10;
multitiered_routing_threshold_1 = 40;
topology = dragonflyfull;
traffic = uniform;
df_g = 25;
routing_function = PAR;
seed = 2;

defaultText, count, i-rate in config file, i-rate injected, i-rate accepted, packet latency, flit latency, deadlock?
simulation,         1,      0.01, 0.0099467, 0.0099483,    10.016,    10.018,         0,  80798,  5008,  |4-> 0 , |5-> 0 , |6-> 0 ,,  |4-> 0 , |5-> 0 , |6-> 0 ,,  |1-> 0 , |2-> 1649 , |3-> 501 , |4-> 5374 , |5-> 26429 , |6-> 46845 ,,  |1-> 0 , |2-> 112 , |3-> 25 , |4-> 367 , |5-> 1642 , |6-> 2862 ,
simulation,         2,      0.99,   0.76515,   0.78313,    621.58,    562.01,         1,  0,  0,  ,  ,  ,  
simulation,         3,       0.5,   0.49994,   0.49994,    13.928,    13.933,         0,  3603193,  556817,  |4-> 0 , |5-> 0 , |6-> 0 ,,  |4-> 0 , |5-> 0 , |6-> 0 ,,  |1-> 0 , |2-> 73094 , |3-> 20772 , |4-> 237380 , |5-> 1177957 , |6-> 2093990 ,,  |1-> 0 , |2-> 12623 , |3-> 3669 , |4-> 39999 , |5-> 187782 , |6-> 312744 ,
simulation,         4,      0.74,   0.73965,   0.74016,    34.801,    34.867,         0,  5493136,  847307,  |4-> 0 , |5-> 0 , |6-> 0 ,,  |4-> 0 , |5-> 0 , |6-> 0 ,,  |1-> 0 , |2-> 112081 , |3-> 31550 , |4-> 361507 , |5-> 1793151 , |6-> 3194847 ,,  |1-> 0 , |2-> 15921 , |3-> 5451 , |4-> 61322 , |5-> 287732 , |6-> 476881 ,
simulation,         5,      0.86,   0.77345,    0.8046,    492.29,    409.68,         1,  0,  0,  ,  ,  ,  
simulation,         6,       0.8,   0.77795,   0.79394,    235.84,    236.42,         0,  11982956,  1851924,  |4-> 0 , |5-> 0 , |6-> 0 ,,  |4-> 0 , |5-> 0 , |6-> 0 ,,  |1-> 0 , |2-> 242445 , |3-> 65711 , |4-> 765992 , |5-> 3884250 , |6-> 7024558 ,,  |1-> 0 , |2-> 40754 , |3-> 14850 , |4-> 154050 , |5-> 656977 , |6-> 985293 ,
simulation,         7,      0.83,    0.7754,   0.79985,    464.53,    379.23,         0,  12668253,  1992127,  |4-> 0 , |5-> 0 , |6-> 0 ,,  |4-> 0 , |5-> 0 , |6-> 0 ,,  |1-> 0 , |2-> 254059 , |3-> 68208 , |4-> 803056 , |5-> 4092115 , |6-> 7450815 ,,  |1-> 0 , |2-> 47188 , |3-> 16919 , |4-> 173551 , |5-> 714343 , |6-> 1040126 ,
simulation,         8,      0.84,   0.77466,   0.80072,    457.18,    374.12,         1,  0,  0,  ,  ,  ,  
simulation,        10,      0.75,   0.74906,   0.75023,    48.611,    48.775,         0,  5651856,  901400,  |4-> 0 , |5-> 0 , |6-> 0 ,,  |4-> 0 , |5-> 0 , |6-> 0 ,,  |1-> 0 , |2-> 115822 , |3-> 32102 , |4-> 370230 , |5-> 1842837 , |6-> 3290865 ,,  |1-> 0 , |2-> 16922 , |3-> 6155 , |4-> 66656 , |5-> 306897 , |6-> 504770 ,
simulation,        11,       0.7,   0.70004,   0.70012,    21.195,    21.206,         0,  5214833,  710765,  |4-> 0 , |5-> 0 , |6-> 0 ,,  |4-> 0 , |5-> 0 , |6-> 0 ,,  |1-> 0 , |2-> 105803 , |3-> 30253 , |4-> 342737 , |5-> 1703847 , |6-> 3032193 ,,  |1-> 0 , |2-> 14628 , |3-> 4611 , |4-> 52193 , |5-> 240715 , |6-> 398618 ,
simulation,        12,      0.65,   0.65009,   0.65018,    17.224,    17.235,         0,  4840995,  637493,  |4-> 0 , |5-> 0 , |6-> 0 ,,  |4-> 0 , |5-> 0 , |6-> 0 ,,  |1-> 0 , |2-> 97242 , |3-> 27607 , |4-> 318370 , |5-> 1581215 , |6-> 2816561 ,,  |1-> 0 , |2-> 13887 , |3-> 4263 , |4-> 46639 , |5-> 216355 , |6-> 356349 ,
