df_a , df_g , topology , df_arrangement , vc_buf_size , internal_speedup , seed , traffic , perm_seed , shift_by_group , routing_function , routing_threshold , saturationPoint , irate_vs_packet_latency , irate_vs_flit_latency
16 , 21 , dragonflyfull , absolute_improved , 64 , 2.0 , 11 , group_shift ,  , 12 , UGAL_L , 0 , 0.16 , 0.01->15.034 | 0.05->17.421 | 0.1->62.601 | 0.13->79.942 | 0.15->171.26 | 0.16->369.58 , 0.01->15.036 | 0.05->17.425 | 0.1->63.1 | 0.13->81.188 | 0.15->220.39 | 0.16->662.05
16 , 21 , dragonflyfull , absolute_improved , 64 , 2.0 , 11 , group_shift ,  , 12 , UGAL_L_two_hop , 0 , 0.16 , 0.01->15.017 | 0.05->17.345 | 0.1->61.603 | 0.13->78.148 | 0.15->158.35 | 0.16->295.89 , 0.01->15.019 | 0.05->17.35 | 0.1->62.073 | 0.13->79.064 | 0.15->217.74 | 0.16->470.96
16 , 21 , dragonflyfull , absolute_improved , 64 , 2.0 , 11 , group_shift ,  , 12 , UGAL_L_threshold , 100 , 0.16 , 0.01->15.017 | 0.05->17.345 | 0.1->61.603 | 0.13->78.148 | 0.15->158.35 | 0.16->295.89 , 0.01->15.019 | 0.05->17.35 | 0.1->62.073 | 0.13->79.064 | 0.15->217.74 | 0.16->470.96
16 , 21 , dragonflyfull , absolute_improved , 64 , 2.0 , 11 , group_shift ,  , 12 , UGAL_L_threshold , 20 , 0.16 , 0.01->15.017 | 0.05->17.345 | 0.1->61.59 | 0.13->77.243 | 0.15->110.89 | 0.16->218.7 , 0.01->15.019 | 0.05->17.35 | 0.1->62.062 | 0.13->78.324 | 0.15->116.62 | 0.16->344.19
16 , 21 , dragonflyfull , absolute_improved , 64 , 2.0 , 11 , group_shift ,  , 12 , UGAL_L_threshold , 40 , 0.16 , 0.01->15.017 | 0.05->17.345 | 0.1->61.624 | 0.13->77.952 | 0.15->121.87 | 0.16->205.99 , 0.01->15.019 | 0.05->17.35 | 0.1->62.119 | 0.13->78.947 | 0.15->131.45 | 0.16->311.84
16 , 21 , dragonflyfull , absolute_improved , 64 , 2.0 , 11 , group_shift ,  , 12 , UGAL_L_threshold , 50 , 0.16 , 0.01->15.017 | 0.05->17.345 | 0.1->61.552 | 0.13->77.874 | 0.15->125.43 | 0.16->213.59 , 0.01->15.019 | 0.05->17.35 | 0.1->62.044 | 0.13->78.909 | 0.15->133.1 | 0.16->288.4
16 , 21 , dragonflyfull , absolute_improved , 64 , 2.0 , 11 , group_shift ,  , 12 , UGAL_L_threshold , 60 , 0.16 , 0.01->15.017 | 0.05->17.345 | 0.1->61.611 | 0.13->77.997 | 0.15->129.31 | 0.16->216.02 , 0.01->15.019 | 0.05->17.35 | 0.1->62.102 | 0.13->79.056 | 0.15->144.15 | 0.16->304.7

16 , 21 , dragonflyfull , absolute_improved , 64 , 2.0 , 11 , group_shift ,  , 16 , UGAL_L , 0 , 0.16 , 0.01->15.053 | 0.05->17.451 | 0.1->62.829 | 0.13->80.219 | 0.15->168.45 | 0.16->366.39 , 0.01->15.056 | 0.05->17.455 | 0.1->63.347 | 0.13->81.464 | 0.15->217.82 | 0.16->677.75
16 , 21 , dragonflyfull , absolute_improved , 64 , 2.0 , 11 , group_shift ,  , 16 , UGAL_L_two_hop , 0 , 0.16 , 0.01->15.012 | 0.05->17.356 | 0.1->61.696 | 0.13->77.072 | 0.15->143.42 | 0.16->297.37 , 0.01->15.016 | 0.05->17.36 | 0.1->62.204 | 0.13->78.212 | 0.15->192.62 | 0.16->473.25
16 , 21 , dragonflyfull , absolute_improved , 64 , 2.0 , 11 , group_shift ,  , 16 , UGAL_L_threshold , 100 , 0.16 , 0.01->15.012 | 0.05->17.356 | 0.1->61.696 | 0.13->77.072 | 0.15->143.42 | 0.16->297.37 , 0.01->15.016 | 0.05->17.36 | 0.1->62.204 | 0.13->78.212 | 0.15->192.62 | 0.16->473.25
16 , 21 , dragonflyfull , absolute_improved , 64 , 2.0 , 11 , group_shift ,  , 16 , UGAL_L_threshold , 20 , 0.16 , 0.01->15.012 | 0.05->17.356 | 0.1->61.815 | 0.13->77.335 | 0.15->112.45 | 0.16->232.27 , 0.01->15.016 | 0.05->17.36 | 0.1->62.294 | 0.13->78.48 | 0.15->117.27 | 0.16->388.87
16 , 21 , dragonflyfull , absolute_improved , 64 , 2.0 , 11 , group_shift ,  , 16 , UGAL_L_threshold , 40 , 0.16 , 0.01->15.012 | 0.05->17.356 | 0.1->61.838 | 0.13->77.312 | 0.15->122.49 | 0.16->215.2 , 0.01->15.016 | 0.05->17.36 | 0.1->62.319 | 0.13->78.435 | 0.15->131.33 | 0.16->309.03
16 , 21 , dragonflyfull , absolute_improved , 64 , 2.0 , 11 , group_shift ,  , 16 , UGAL_L_threshold , 50 , 0.16 , 0.01->15.012 | 0.05->17.356 | 0.1->61.695 | 0.13->77.788 | 0.15->128.1 | 0.16->219.58 , 0.01->15.016 | 0.05->17.36 | 0.1->62.174 | 0.13->78.878 | 0.15->138.32 | 0.16->297.0
16 , 21 , dragonflyfull , absolute_improved , 64 , 2.0 , 11 , group_shift ,  , 16 , UGAL_L_threshold , 60 , 0.16 , 0.01->15.012 | 0.05->17.356 | 0.1->61.742 | 0.13->77.862 | 0.15->131.82 | 0.16->228.24 , 0.01->15.016 | 0.05->17.36 | 0.1->62.216 | 0.13->78.958 | 0.15->143.5 | 0.16->330.09

16 , 21 , dragonflyfull , absolute_improved , 64 , 2.0 , 11 , group_shift ,  , 19 , UGAL_L , 0 , 0.16 , 0.01->15.009 | 0.05->17.34 | 0.1->62.427 | 0.13->81.522 | 0.15->172.28 | 0.16->373.19 , 0.01->15.012 | 0.05->17.346 | 0.1->62.897 | 0.13->82.714 | 0.15->213.3 | 0.16->628.69
16 , 21 , dragonflyfull , absolute_improved , 64 , 2.0 , 11 , group_shift ,  , 19 , UGAL_L_two_hop , 0 , 0.16 , 0.01->14.983 | 0.05->17.235 | 0.1->61.449 | 0.13->78.414 | 0.15->165.66 | 0.16->307.61 , 0.01->14.985 | 0.05->17.239 | 0.1->61.893 | 0.13->79.489 | 0.15->236.86 | 0.16->502.71
16 , 21 , dragonflyfull , absolute_improved , 64 , 2.0 , 11 , group_shift ,  , 19 , UGAL_L_threshold , 100 , 0.16 , 0.01->14.983 | 0.05->17.235 | 0.1->61.449 | 0.13->78.414 | 0.15->165.66 | 0.16->307.61 , 0.01->14.985 | 0.05->17.239 | 0.1->61.893 | 0.13->79.489 | 0.15->236.86 | 0.16->502.71
16 , 21 , dragonflyfull , absolute_improved , 64 , 2.0 , 11 , group_shift ,  , 19 , UGAL_L_threshold , 20 , 0.16 , 0.01->14.983 | 0.05->17.235 | 0.1->61.489 | 0.13->78.444 | 0.15->113.93 | 0.16->236.31 , 0.01->14.985 | 0.05->17.239 | 0.1->61.91 | 0.13->79.543 | 0.15->118.11 | 0.16->395.25
16 , 21 , dragonflyfull , absolute_improved , 64 , 2.0 , 11 , group_shift ,  , 19 , UGAL_L_threshold , 40 , 0.16 , 0.01->14.983 | 0.05->17.235 | 0.1->61.402 | 0.13->78.85 | 0.15->125.16 | 0.16->211.07 , 0.01->14.985 | 0.05->17.239 | 0.1->61.837 | 0.13->79.835 | 0.15->131.98 | 0.16->298.62
16 , 21 , dragonflyfull , absolute_improved , 64 , 2.0 , 11 , group_shift ,  , 19 , UGAL_L_threshold , 50 , 0.16 , 0.01->14.983 | 0.05->17.235 | 0.1->61.543 | 0.13->78.32 | 0.15->127.67 | 0.16->211.06 , 0.01->14.985 | 0.05->17.239 | 0.1->61.852 | 0.13->79.391 | 0.15->137.21 | 0.16->301.67
16 , 21 , dragonflyfull , absolute_improved , 64 , 2.0 , 11 , group_shift ,  , 19 , UGAL_L_threshold , 60 , 0.16 , 0.01->14.983 | 0.05->17.235 | 0.1->61.419 | 0.13->78.825 | 0.15->132.34 | 0.16->228.69 , 0.01->14.985 | 0.05->17.239 | 0.1->61.845 | 0.13->79.852 | 0.15->148.85 | 0.16->331.36

16 , 21 , dragonflyfull , absolute_improved , 64 , 2.0 , 11 , group_shift ,  , 2 , UGAL_L , 0 , 0.16 , 0.01->15.009 | 0.05->17.338 | 0.1->62.523 | 0.13->81.122 | 0.15->170.4 | 0.16->364.2 , 0.01->15.012 | 0.05->17.341 | 0.1->63.003 | 0.13->82.282 | 0.15->212.49 | 0.16->643.41
16 , 21 , dragonflyfull , absolute_improved , 64 , 2.0 , 11 , group_shift ,  , 2 , UGAL_L_two_hop , 0 , 0.16 , 0.01->14.963 | 0.05->17.236 | 0.1->61.507 | 0.13->78.689 | 0.15->163.03 | 0.16->312.03 , 0.01->14.965 | 0.05->17.24 | 0.1->61.959 | 0.13->79.649 | 0.15->215.13 | 0.16->543.12
16 , 21 , dragonflyfull , absolute_improved , 64 , 2.0 , 11 , group_shift ,  , 2 , UGAL_L_threshold , 100 , 0.16 , 0.01->14.963 | 0.05->17.236 | 0.1->61.507 | 0.13->78.689 | 0.15->163.03 | 0.16->312.03 , 0.01->14.965 | 0.05->17.24 | 0.1->61.959 | 0.13->79.649 | 0.15->215.13 | 0.16->543.12
16 , 21 , dragonflyfull , absolute_improved , 64 , 2.0 , 11 , group_shift ,  , 2 , UGAL_L_threshold , 20 , 0.16 , 0.01->14.963 | 0.05->17.236 | 0.1->61.507 | 0.13->78.62 | 0.15->123.89 | 0.16->252.01 , 0.01->14.965 | 0.05->17.24 | 0.1->61.938 | 0.13->79.705 | 0.15->137.99 | 0.16->386.46
16 , 21 , dragonflyfull , absolute_improved , 64 , 2.0 , 11 , group_shift ,  , 2 , UGAL_L_threshold , 40 , 0.16 , 0.01->14.963 | 0.05->17.236 | 0.1->61.376 | 0.13->79.096 | 0.15->131.77 | 0.16->238.82 , 0.01->14.965 | 0.05->17.24 | 0.1->61.864 | 0.13->80.127 | 0.15->149.07 | 0.16->342.44
16 , 21 , dragonflyfull , absolute_improved , 64 , 2.0 , 11 , group_shift ,  , 2 , UGAL_L_threshold , 50 , 0.16 , 0.01->14.963 | 0.05->17.236 | 0.1->61.607 | 0.13->78.925 | 0.15->134.44 | 0.16->245.09 , 0.01->14.965 | 0.05->17.24 | 0.1->62.061 | 0.13->79.826 | 0.15->148.21 | 0.16->356.69
16 , 21 , dragonflyfull , absolute_improved , 64 , 2.0 , 11 , group_shift ,  , 2 , UGAL_L_threshold , 60 , 0.16 , 0.01->14.963 | 0.05->17.236 | 0.1->61.504 | 0.13->78.566 | 0.15->135.56 | 0.16->246.03 , 0.01->14.965 | 0.05->17.24 | 0.1->61.982 | 0.13->79.627 | 0.15->151.68 | 0.16->347.99

16 , 21 , dragonflyfull , absolute_improved , 64 , 2.0 , 11 , group_shift ,  , 6 , UGAL_L , 0 , 0.16 , 0.01->15.057 | 0.05->17.423 | 0.1->62.631 | 0.13->80.202 | 0.15->165.59 | 0.16->357.64 , 0.01->15.06 | 0.05->17.427 | 0.1->63.092 | 0.13->81.442 | 0.15->212.07 | 0.16->620.82
16 , 21 , dragonflyfull , absolute_improved , 64 , 2.0 , 11 , group_shift ,  , 6 , UGAL_L_two_hop , 0 , 0.16 , 0.01->15.009 | 0.05->17.341 | 0.1->61.491 | 0.13->77.436 | 0.15->155.91 | 0.16->300.79 , 0.01->15.013 | 0.05->17.346 | 0.1->61.964 | 0.13->78.542 | 0.15->222.13 | 0.16->506.79
16 , 21 , dragonflyfull , absolute_improved , 64 , 2.0 , 11 , group_shift ,  , 6 , UGAL_L_threshold , 100 , 0.16 , 0.01->15.009 | 0.05->17.341 | 0.1->61.491 | 0.13->77.436 | 0.15->155.91 | 0.16->300.79 , 0.01->15.013 | 0.05->17.346 | 0.1->61.964 | 0.13->78.542 | 0.15->222.13 | 0.16->506.79
16 , 21 , dragonflyfull , absolute_improved , 64 , 2.0 , 11 , group_shift ,  , 6 , UGAL_L_threshold , 20 , 0.16 , 0.01->15.009 | 0.05->17.341 | 0.1->61.624 | 0.13->77.172 | 0.15->110.79 | 0.16->220.25 , 0.01->15.013 | 0.05->17.346 | 0.1->62.082 | 0.13->78.289 | 0.15->115.75 | 0.16->379.64
16 , 21 , dragonflyfull , absolute_improved , 64 , 2.0 , 11 , group_shift ,  , 6 , UGAL_L_threshold , 40 , 0.16 , 0.01->15.009 | 0.05->17.341 | 0.1->61.514 | 0.13->77.263 | 0.15->125.36 | 0.16->207.82 , 0.01->15.013 | 0.05->17.346 | 0.1->61.978 | 0.13->78.371 | 0.15->136.46 | 0.16->291.77
16 , 21 , dragonflyfull , absolute_improved , 64 , 2.0 , 11 , group_shift ,  , 6 , UGAL_L_threshold , 50 , 0.16 , 0.01->15.009 | 0.05->17.341 | 0.1->61.506 | 0.13->77.151 | 0.15->128.66 | 0.16->216.29 , 0.01->15.013 | 0.05->17.346 | 0.1->61.987 | 0.13->78.176 | 0.15->137.6 | 0.16->300.4
16 , 21 , dragonflyfull , absolute_improved , 64 , 2.0 , 11 , group_shift ,  , 6 , UGAL_L_threshold , 60 , 0.16 , 0.01->15.009 | 0.05->17.341 | 0.1->61.481 | 0.13->77.152 | 0.15->131.25 | 0.16->224.8 , 0.01->15.013 | 0.05->17.346 | 0.1->61.946 | 0.13->78.273 | 0.15->145.15 | 0.16->324.31

16 , 21 , dragonflyfull , absolute_improved , 64 , 2.0 , 11 , group_shift ,  , 9 , UGAL_L , 0 , 0.15 , 0.01->15.032 | 0.05->17.427 | 0.1->62.814 | 0.13->80.611 | 0.14->98.098 | 0.15->174.39 , 0.01->15.036 | 0.05->17.431 | 0.1->63.341 | 0.13->81.829 | 0.14->100.04 | 0.15->231.09
16 , 21 , dragonflyfull , absolute_improved , 64 , 2.0 , 11 , group_shift ,  , 9 , UGAL_L_two_hop , 0 , 0.16 , 0.01->15.011 | 0.05->17.35 | 0.1->61.691 | 0.13->78.069 | 0.15->173.77 | 0.16->335.63 , 0.01->15.018 | 0.05->17.353 | 0.1->62.178 | 0.13->79.031 | 0.15->267.52 | 0.16->568.8
16 , 21 , dragonflyfull , absolute_improved , 64 , 2.0 , 11 , group_shift ,  , 9 , UGAL_L_threshold , 100 , 0.16 , 0.01->15.011 | 0.05->17.35 | 0.1->61.691 | 0.13->78.069 | 0.15->173.77 | 0.16->335.63 , 0.01->15.018 | 0.05->17.353 | 0.1->62.178 | 0.13->79.031 | 0.15->267.52 | 0.16->568.8
16 , 21 , dragonflyfull , absolute_improved , 64 , 2.0 , 11 , group_shift ,  , 9 , UGAL_L_threshold , 20 , 0.16 , 0.01->15.011 | 0.05->17.35 | 0.1->61.76 | 0.13->77.781 | 0.15->108.04 | 0.16->206.72 , 0.01->15.018 | 0.05->17.353 | 0.1->62.234 | 0.13->78.914 | 0.15->112.34 | 0.16->313.95
16 , 21 , dragonflyfull , absolute_improved , 64 , 2.0 , 11 , group_shift ,  , 9 , UGAL_L_threshold , 40 , 0.17 , 0.01->15.011 | 0.05->17.35 | 0.1->61.733 | 0.13->77.909 | 0.15->122.58 | 0.16->194.47 | 0.17->384.48 , 0.01->15.018 | 0.05->17.353 | 0.1->62.22 | 0.13->79.015 | 0.15->129.93 | 0.16->266.1 | 0.17->630.41
16 , 21 , dragonflyfull , absolute_improved , 64 , 2.0 , 11 , group_shift ,  , 9 , UGAL_L_threshold , 50 , 0.17 , 0.01->15.011 | 0.05->17.35 | 0.1->61.743 | 0.13->77.948 | 0.15->129.77 | 0.16->209.38 | 0.17->381.86 , 0.01->15.018 | 0.05->17.353 | 0.1->62.236 | 0.13->79.072 | 0.15->140.03 | 0.16->282.85 | 0.17->650.37
16 , 21 , dragonflyfull , absolute_improved , 64 , 2.0 , 11 , group_shift ,  , 9 , UGAL_L_threshold , 60 , 0.16 , 0.01->15.011 | 0.05->17.35 | 0.1->61.663 | 0.13->78.446 | 0.15->135.03 | 0.16->222.46 , 0.01->15.018 | 0.05->17.353 | 0.1->62.149 | 0.13->79.538 | 0.15->146.43 | 0.16->297.34

16 , 27 , dragonflyfull , absolute_improved , 64 , 2.0 , 11 , group_shift ,  , 12 , UGAL_L , 0 , 0.16 , 0.01->15.257 | 0.05->18.218 | 0.1->61.764 | 0.13->73.576 | 0.15->144.73 | 0.16->322.41 , 0.01->15.262 | 0.05->18.224 | 0.1->62.489 | 0.13->74.734 | 0.15->194.93 | 0.16->597.83
16 , 27 , dragonflyfull , absolute_improved , 64 , 2.0 , 11 , group_shift ,  , 12 , UGAL_L_two_hop , 0 , 0.15 , 0.01->15.187 | 0.05->18.054 | 0.1->60.801 | 0.13->89.447 | 0.14->161.54 | 0.15->269.71 , 0.01->15.19 | 0.05->18.06 | 0.1->61.478 | 0.13->118.79 | 0.14->254.02 | 0.15->425.32
16 , 27 , dragonflyfull , absolute_improved , 64 , 2.0 , 11 , group_shift ,  , 12 , UGAL_L_threshold , 100 , 0.15 , 0.01->15.187 | 0.05->18.054 | 0.1->60.801 | 0.13->89.447 | 0.14->161.54 | 0.15->269.71 , 0.01->15.19 | 0.05->18.06 | 0.1->61.478 | 0.13->118.79 | 0.14->254.02 | 0.15->425.32
16 , 27 , dragonflyfull , absolute_improved , 64 , 2.0 , 11 , group_shift ,  , 12 , UGAL_L_threshold , 20 , 0.17 , 0.01->15.187 | 0.05->18.054 | 0.1->60.822 | 0.13->72.825 | 0.15->93.587 | 0.16->159.7 | 0.17->319.63 , 0.01->15.19 | 0.05->18.06 | 0.1->61.523 | 0.13->73.891 | 0.15->98.524 | 0.16->226.84 | 0.17->551.98
16 , 27 , dragonflyfull , absolute_improved , 64 , 2.0 , 11 , group_shift ,  , 12 , UGAL_L_threshold , 40 , 0.17 , 0.01->15.187 | 0.05->18.054 | 0.1->60.855 | 0.13->79.269 | 0.15->112.73 | 0.16->172.78 | 0.17->273.42 , 0.01->15.19 | 0.05->18.06 | 0.1->61.518 | 0.13->80.544 | 0.15->124.16 | 0.16->258.08 | 0.17->414.55
16 , 27 , dragonflyfull , absolute_improved , 64 , 2.0 , 11 , group_shift ,  , 12 , UGAL_L_threshold , 50 , 0.17 , 0.01->15.187 | 0.05->18.054 | 0.1->60.859 | 0.13->80.146 | 0.15->126.39 | 0.16->183.35 | 0.17->283.91 , 0.01->15.19 | 0.05->18.06 | 0.1->61.523 | 0.13->81.47 | 0.15->155.52 | 0.16->246.52 | 0.17->423.78
16 , 27 , dragonflyfull , absolute_improved , 64 , 2.0 , 11 , group_shift ,  , 12 , UGAL_L_threshold , 60 , 0.17 , 0.01->15.187 | 0.05->18.054 | 0.1->60.762 | 0.13->82.016 | 0.15->135.47 | 0.16->196.25 | 0.17->312.41 , 0.01->15.19 | 0.05->18.06 | 0.1->61.447 | 0.13->83.344 | 0.15->158.5 | 0.16->257.91 | 0.17->481.14

16 , 27 , dragonflyfull , absolute_improved , 64 , 2.0 , 11 , group_shift ,  , 16 , UGAL_L , 0 , 0.16 , 0.01->15.291 | 0.05->18.315 | 0.1->61.566 | 0.13->72.965 | 0.15->139.41 | 0.16->317.44 , 0.01->15.295 | 0.05->18.322 | 0.1->62.261 | 0.13->74.116 | 0.15->159.88 | 0.16->605.48
16 , 27 , dragonflyfull , absolute_improved , 64 , 2.0 , 11 , group_shift ,  , 16 , UGAL_L_two_hop , 0 , 0.15 , 0.01->15.226 | 0.05->18.141 | 0.1->60.524 | 0.13->89.247 | 0.14->162.95 | 0.15->267.87 , 0.01->15.227 | 0.05->18.147 | 0.1->61.224 | 0.13->109.15 | 0.14->234.25 | 0.15->466.87
16 , 27 , dragonflyfull , absolute_improved , 64 , 2.0 , 11 , group_shift ,  , 16 , UGAL_L_threshold , 100 , 0.15 , 0.01->15.226 | 0.05->18.141 | 0.1->60.524 | 0.13->89.247 | 0.14->162.95 | 0.15->267.87 , 0.01->15.227 | 0.05->18.147 | 0.1->61.224 | 0.13->109.15 | 0.14->234.25 | 0.15->466.87
16 , 27 , dragonflyfull , absolute_improved , 64 , 2.0 , 11 , group_shift ,  , 16 , UGAL_L_threshold , 20 , 0.16 , 0.01->15.226 | 0.05->18.141 | 0.1->60.635 | 0.13->72.877 | 0.15->100.54 | 0.16->184.31 , 0.01->15.227 | 0.05->18.147 | 0.1->61.334 | 0.13->74.028 | 0.15->111.37 | 0.16->269.05
16 , 27 , dragonflyfull , absolute_improved , 64 , 2.0 , 11 , group_shift ,  , 16 , UGAL_L_threshold , 40 , 0.17 , 0.01->15.226 | 0.05->18.141 | 0.1->60.613 | 0.13->79.994 | 0.15->124.44 | 0.16->193.4 | 0.17->329.38 , 0.01->15.227 | 0.05->18.147 | 0.1->61.314 | 0.13->81.36 | 0.15->142.81 | 0.16->292.64 | 0.17->547.53
16 , 27 , dragonflyfull , absolute_improved , 64 , 2.0 , 11 , group_shift ,  , 16 , UGAL_L_threshold , 50 , 0.17 , 0.01->15.226 | 0.05->18.141 | 0.1->60.582 | 0.13->81.813 | 0.15->132.72 | 0.16->210.84 | 0.17->332.0 , 0.01->15.227 | 0.05->18.147 | 0.1->61.292 | 0.13->83.626 | 0.15->159.77 | 0.16->307.38 | 0.17->507.11
16 , 27 , dragonflyfull , absolute_improved , 64 , 2.0 , 11 , group_shift ,  , 16 , UGAL_L_threshold , 60 , 0.17 , 0.01->15.226 | 0.05->18.141 | 0.1->60.559 | 0.13->82.941 | 0.15->145.94 | 0.16->220.8 | 0.17->342.29 , 0.01->15.227 | 0.05->18.147 | 0.1->61.257 | 0.13->84.949 | 0.15->179.34 | 0.16->324.5 | 0.17->530.51

16 , 27 , dragonflyfull , absolute_improved , 64 , 2.0 , 11 , group_shift ,  , 19 , UGAL_L , 0 , 0.16 , 0.01->15.292 | 0.05->18.282 | 0.1->61.722 | 0.13->73.4 | 0.15->142.14 | 0.16->320.5 , 0.01->15.295 | 0.05->18.286 | 0.1->62.463 | 0.13->74.546 | 0.15->171.11 | 0.16->674.9
16 , 27 , dragonflyfull , absolute_improved , 64 , 2.0 , 11 , group_shift ,  , 19 , UGAL_L_two_hop , 0 , 0.15 , 0.01->15.249 | 0.05->18.115 | 0.1->60.658 | 0.13->89.494 | 0.14->162.69 | 0.15->271.76 , 0.01->15.252 | 0.05->18.119 | 0.1->61.308 | 0.13->108.1 | 0.14->241.85 | 0.15->410.04
16 , 27 , dragonflyfull , absolute_improved , 64 , 2.0 , 11 , group_shift ,  , 19 , UGAL_L_threshold , 100 , 0.15 , 0.01->15.249 | 0.05->18.115 | 0.1->60.658 | 0.13->89.494 | 0.14->162.69 | 0.15->271.76 , 0.01->15.252 | 0.05->18.119 | 0.1->61.308 | 0.13->108.1 | 0.14->241.85 | 0.15->410.04
16 , 27 , dragonflyfull , absolute_improved , 64 , 2.0 , 11 , group_shift ,  , 19 , UGAL_L_threshold , 20 , 0.16 , 0.01->15.249 | 0.05->18.115 | 0.1->60.767 | 0.13->72.969 | 0.15->101.02 | 0.16->186.59 , 0.01->15.252 | 0.05->18.119 | 0.1->61.446 | 0.13->74.071 | 0.15->110.44 | 0.16->293.0
16 , 27 , dragonflyfull , absolute_improved , 64 , 2.0 , 11 , group_shift ,  , 19 , UGAL_L_threshold , 40 , 0.17 , 0.01->15.249 | 0.05->18.115 | 0.1->60.592 | 0.13->79.356 | 0.15->117.22 | 0.16->191.87 | 0.17->322.47 , 0.01->15.252 | 0.05->18.119 | 0.1->61.28 | 0.13->80.573 | 0.15->133.44 | 0.16->292.35 | 0.17->517.04
16 , 27 , dragonflyfull , absolute_improved , 64 , 2.0 , 11 , group_shift ,  , 19 , UGAL_L_threshold , 50 , 0.17 , 0.01->15.249 | 0.05->18.115 | 0.1->60.67 | 0.13->81.184 | 0.15->129.45 | 0.16->197.56 | 0.17->327.04 , 0.01->15.252 | 0.05->18.119 | 0.1->61.329 | 0.13->82.439 | 0.15->153.0 | 0.16->292.97 | 0.17->505.19
16 , 27 , dragonflyfull , absolute_improved , 64 , 2.0 , 11 , group_shift ,  , 19 , UGAL_L_threshold , 60 , 0.17 , 0.01->15.249 | 0.05->18.115 | 0.1->60.673 | 0.13->81.391 | 0.15->138.7 | 0.16->212.42 | 0.17->342.68 , 0.01->15.252 | 0.05->18.119 | 0.1->61.335 | 0.13->83.021 | 0.15->165.86 | 0.16->331.69 | 0.17->528.47

16 , 27 , dragonflyfull , absolute_improved , 64 , 2.0 , 11 , group_shift ,  , 2 , UGAL_L , 0 , 0.16 , 0.01->15.264 | 0.05->18.264 | 0.1->61.846 | 0.13->73.56 | 0.15->148.01 | 0.16->334.02 , 0.01->15.268 | 0.05->18.268 | 0.1->62.568 | 0.13->74.745 | 0.15->181.2 | 0.16->615.19
16 , 27 , dragonflyfull , absolute_improved , 64 , 2.0 , 11 , group_shift ,  , 2 , UGAL_L_two_hop , 0 , 0.15 , 0.01->15.188 | 0.05->18.082 | 0.1->60.779 | 0.13->87.657 | 0.14->152.96 | 0.15->250.82 , 0.01->15.191 | 0.05->18.088 | 0.1->61.486 | 0.13->108.86 | 0.14->227.26 | 0.15->380.94
16 , 27 , dragonflyfull , absolute_improved , 64 , 2.0 , 11 , group_shift ,  , 2 , UGAL_L_threshold , 100 , 0.15 , 0.01->15.188 | 0.05->18.082 | 0.1->60.779 | 0.13->87.657 | 0.14->152.96 | 0.15->250.82 , 0.01->15.191 | 0.05->18.088 | 0.1->61.486 | 0.13->108.86 | 0.14->227.26 | 0.15->380.94
16 , 27 , dragonflyfull , absolute_improved , 64 , 2.0 , 11 , group_shift ,  , 2 , UGAL_L_threshold , 20 , 0.16 , 0.01->15.188 | 0.05->18.082 | 0.1->60.886 | 0.13->72.651 | 0.15->97.488 | 0.16->194.04 , 0.01->15.191 | 0.05->18.088 | 0.1->61.59 | 0.13->73.674 | 0.15->108.9 | 0.16->342.45
16 , 27 , dragonflyfull , absolute_improved , 64 , 2.0 , 11 , group_shift ,  , 2 , UGAL_L_threshold , 40 , 0.17 , 0.01->15.188 | 0.05->18.082 | 0.1->60.854 | 0.13->78.688 | 0.15->116.74 | 0.16->186.95 | 0.17->326.4 , 0.01->15.191 | 0.05->18.088 | 0.1->61.537 | 0.13->79.827 | 0.15->134.9 | 0.16->266.18 | 0.17->550.46
16 , 27 , dragonflyfull , absolute_improved , 64 , 2.0 , 11 , group_shift ,  , 2 , UGAL_L_threshold , 50 , 0.17 , 0.01->15.188 | 0.05->18.082 | 0.1->60.979 | 0.13->80.35 | 0.15->120.65 | 0.16->196.79 | 0.17->330.52 , 0.01->15.191 | 0.05->18.088 | 0.1->61.637 | 0.13->81.491 | 0.15->142.69 | 0.16->275.65 | 0.17->553.68
16 , 27 , dragonflyfull , absolute_improved , 64 , 2.0 , 11 , group_shift ,  , 2 , UGAL_L_threshold , 60 , 0.17 , 0.01->15.188 | 0.05->18.082 | 0.1->60.94 | 0.13->80.978 | 0.15->135.55 | 0.16->204.32 | 0.17->335.86 , 0.01->15.191 | 0.05->18.088 | 0.1->61.632 | 0.13->82.528 | 0.15->163.78 | 0.16->311.96 | 0.17->527.43

16 , 27 , dragonflyfull , absolute_improved , 64 , 2.0 , 11 , group_shift ,  , 6 , UGAL_L , 0 , 0.16 , 0.01->15.283 | 0.05->18.16 | 0.1->61.926 | 0.13->73.6 | 0.15->139.98 | 0.16->313.85 , 0.01->15.284 | 0.05->18.165 | 0.1->62.627 | 0.13->74.969 | 0.15->167.41 | 0.16->580.46
16 , 27 , dragonflyfull , absolute_improved , 64 , 2.0 , 11 , group_shift ,  , 6 , UGAL_L_two_hop , 0 , 0.15 , 0.01->15.22 | 0.05->18.004 | 0.1->60.945 | 0.13->89.226 | 0.14->156.66 | 0.15->258.92 , 0.01->15.222 | 0.05->18.008 | 0.1->61.645 | 0.13->105.93 | 0.14->248.39 | 0.15->414.0
16 , 27 , dragonflyfull , absolute_improved , 64 , 2.0 , 11 , group_shift ,  , 6 , UGAL_L_threshold , 100 , 0.15 , 0.01->15.22 | 0.05->18.004 | 0.1->60.945 | 0.13->89.226 | 0.14->156.66 | 0.15->258.92 , 0.01->15.222 | 0.05->18.008 | 0.1->61.645 | 0.13->105.93 | 0.14->248.39 | 0.15->414.0
16 , 27 , dragonflyfull , absolute_improved , 64 , 2.0 , 11 , group_shift ,  , 6 , UGAL_L_threshold , 20 , 0.16 , 0.01->15.22 | 0.05->18.004 | 0.1->61.07 | 0.13->73.691 | 0.15->96.772 | 0.16->178.67 , 0.01->15.222 | 0.05->18.008 | 0.1->61.71 | 0.13->74.829 | 0.15->103.16 | 0.16->290.94
16 , 27 , dragonflyfull , absolute_improved , 64 , 2.0 , 11 , group_shift ,  , 6 , UGAL_L_threshold , 40 , 0.17 , 0.01->15.22 | 0.05->18.004 | 0.1->60.917 | 0.13->79.394 | 0.15->117.07 | 0.16->186.08 | 0.17->309.31 , 0.01->15.222 | 0.05->18.008 | 0.1->61.605 | 0.13->80.482 | 0.15->129.92 | 0.16->259.52 | 0.17->504.39
16 , 27 , dragonflyfull , absolute_improved , 64 , 2.0 , 11 , group_shift ,  , 6 , UGAL_L_threshold , 50 , 0.17 , 0.01->15.22 | 0.05->18.004 | 0.1->60.948 | 0.13->81.516 | 0.15->131.04 | 0.16->198.63 | 0.17->312.34 , 0.01->15.222 | 0.05->18.008 | 0.1->61.643 | 0.13->82.709 | 0.15->155.62 | 0.16->297.45 | 0.17->503.12
16 , 27 , dragonflyfull , absolute_improved , 64 , 2.0 , 11 , group_shift ,  , 6 , UGAL_L_threshold , 60 , 0.17 , 0.01->15.22 | 0.05->18.004 | 0.1->61.044 | 0.13->82.527 | 0.15->137.91 | 0.16->208.22 | 0.17->332.71 , 0.01->15.222 | 0.05->18.008 | 0.1->61.705 | 0.13->83.892 | 0.15->162.3 | 0.16->289.16 | 0.17->505.71

16 , 27 , dragonflyfull , absolute_improved , 64 , 2.0 , 11 , group_shift ,  , 9 , UGAL_L , 0 , 0.16 , 0.01->15.289 | 0.05->18.199 | 0.1->61.702 | 0.13->73.414 | 0.15->137.71 | 0.16->312.21 , 0.01->15.294 | 0.05->18.204 | 0.1->62.415 | 0.13->74.525 | 0.15->167.61 | 0.16->550.03
16 , 27 , dragonflyfull , absolute_improved , 64 , 2.0 , 11 , group_shift ,  , 9 , UGAL_L_two_hop , 0 , 0.15 , 0.01->15.22 | 0.05->18.045 | 0.1->60.904 | 0.13->90.669 | 0.14->158.78 | 0.15->269.72 , 0.01->15.223 | 0.05->18.05 | 0.1->61.571 | 0.13->112.02 | 0.14->252.87 | 0.15->440.57
16 , 27 , dragonflyfull , absolute_improved , 64 , 2.0 , 11 , group_shift ,  , 9 , UGAL_L_threshold , 100 , 0.15 , 0.01->15.22 | 0.05->18.045 | 0.1->60.904 | 0.13->90.669 | 0.14->158.78 | 0.15->269.72 , 0.01->15.223 | 0.05->18.05 | 0.1->61.571 | 0.13->112.02 | 0.14->252.87 | 0.15->440.57
16 , 27 , dragonflyfull , absolute_improved , 64 , 2.0 , 11 , group_shift ,  , 9 , UGAL_L_threshold , 20 , 0.17 , 0.01->15.22 | 0.05->18.045 | 0.1->60.775 | 0.13->73.004 | 0.15->94.735 | 0.16->157.55 | 0.17->317.22 , 0.01->15.223 | 0.05->18.05 | 0.1->61.446 | 0.13->74.031 | 0.15->100.24 | 0.16->244.84 | 0.17->566.09
16 , 27 , dragonflyfull , absolute_improved , 64 , 2.0 , 11 , group_shift ,  , 9 , UGAL_L_threshold , 40 , 0.17 , 0.01->15.22 | 0.05->18.045 | 0.1->60.825 | 0.13->79.85 | 0.15->114.64 | 0.16->172.25 | 0.17->271.58 , 0.01->15.223 | 0.05->18.05 | 0.1->61.528 | 0.13->81.114 | 0.15->131.08 | 0.16->233.77 | 0.17->427.55
16 , 27 , dragonflyfull , absolute_improved , 64 , 2.0 , 11 , group_shift ,  , 9 , UGAL_L_threshold , 50 , 0.17 , 0.01->15.22 | 0.05->18.045 | 0.1->60.718 | 0.13->81.442 | 0.15->126.55 | 0.16->182.37 | 0.17->285.35 , 0.01->15.223 | 0.05->18.05 | 0.1->61.438 | 0.13->82.615 | 0.15->144.22 | 0.16->250.03 | 0.17->440.38
16 , 27 , dragonflyfull , absolute_improved , 64 , 2.0 , 11 , group_shift ,  , 9 , UGAL_L_threshold , 60 , 0.17 , 0.01->15.22 | 0.05->18.045 | 0.1->60.715 | 0.13->81.734 | 0.15->137.76 | 0.16->195.73 | 0.17->299.29 , 0.01->15.223 | 0.05->18.05 | 0.1->61.387 | 0.13->82.83 | 0.15->162.05 | 0.16->283.46 | 0.17->448.57

16 , 35 , dragonflyfull , absolute_improved , 64 , 2.0 , 11 , group_shift ,  , 12 , UGAL_L , 0 , 0.15 , 0.01->15.586 | 0.05->24.467 | 0.1->57.359 | 0.13->69.386 | 0.14->93.257 | 0.15->171.38 , 0.01->15.591 | 0.05->24.539 | 0.1->58.038 | 0.13->71.066 | 0.14->121.14 | 0.15->300.72
16 , 35 , dragonflyfull , absolute_improved , 64 , 2.0 , 11 , group_shift ,  , 12 , UGAL_L_two_hop , 0 , 0.14 , 0.01->15.492 | 0.05->23.198 | 0.1->56.912 | 0.13->144.3 | 0.14->226.02 , 0.01->15.496 | 0.05->23.243 | 0.1->57.498 | 0.13->232.92 | 0.14->340.14
16 , 35 , dragonflyfull , absolute_improved , 64 , 2.0 , 11 , group_shift ,  , 12 , UGAL_L_threshold , 100 , 0.14 , 0.01->15.492 | 0.05->23.198 | 0.1->56.912 | 0.13->144.3 | 0.14->226.02 , 0.01->15.496 | 0.05->23.243 | 0.1->57.498 | 0.13->232.92 | 0.14->340.14
16 , 35 , dragonflyfull , absolute_improved , 64 , 2.0 , 11 , group_shift ,  , 12 , UGAL_L_threshold , 20 , 0.16 , 0.01->15.492 | 0.05->22.977 | 0.1->56.545 | 0.13->64.362 | 0.15->84.802 | 0.16->147.87 , 0.01->15.496 | 0.05->23.014 | 0.1->57.193 | 0.13->65.416 | 0.15->107.74 | 0.16->265.2
16 , 35 , dragonflyfull , absolute_improved , 64 , 2.0 , 11 , group_shift ,  , 12 , UGAL_L_threshold , 40 , 0.17 , 0.01->15.492 | 0.05->23.453 | 0.1->57.114 | 0.13->71.427 | 0.15->96.567 | 0.16->141.38 | 0.17->221.75 , 0.01->15.496 | 0.05->23.508 | 0.1->57.761 | 0.13->73.109 | 0.15->120.59 | 0.16->193.45 | 0.17->398.24
16 , 35 , dragonflyfull , absolute_improved , 64 , 2.0 , 11 , group_shift ,  , 12 , UGAL_L_threshold , 50 , 0.17 , 0.01->15.492 | 0.05->23.326 | 0.1->57.093 | 0.13->74.282 | 0.15->106.33 | 0.16->148.22 | 0.17->223.49 , 0.01->15.496 | 0.05->23.376 | 0.1->57.714 | 0.13->76.261 | 0.15->136.23 | 0.16->214.92 | 0.17->352.85
16 , 35 , dragonflyfull , absolute_improved , 64 , 2.0 , 11 , group_shift ,  , 12 , UGAL_L_threshold , 60 , 0.17 , 0.01->15.492 | 0.05->23.228 | 0.1->56.747 | 0.13->77.554 | 0.15->115.66 | 0.16->156.35 | 0.17->231.84 , 0.01->15.496 | 0.05->23.28 | 0.1->57.39 | 0.13->79.615 | 0.15->145.29 | 0.16->211.3 | 0.17->335.59

16 , 35 , dragonflyfull , absolute_improved , 64 , 2.0 , 11 , group_shift ,  , 16 , UGAL_L , 0 , 0.15 , 0.01->15.578 | 0.05->25.355 | 0.1->57.219 | 0.13->70.553 | 0.14->93.755 | 0.15->176.21 , 0.01->15.582 | 0.05->25.428 | 0.1->57.897 | 0.13->73.343 | 0.14->126.08 | 0.15->330.98
16 , 35 , dragonflyfull , absolute_improved , 64 , 2.0 , 11 , group_shift ,  , 16 , UGAL_L_two_hop , 0 , 0.14 , 0.01->15.479 | 0.05->23.756 | 0.1->57.418 | 0.13->137.76 | 0.14->218.39 , 0.01->15.482 | 0.05->23.799 | 0.1->58.014 | 0.13->199.6 | 0.14->330.69
16 , 35 , dragonflyfull , absolute_improved , 64 , 2.0 , 11 , group_shift ,  , 16 , UGAL_L_threshold , 100 , 0.14 , 0.01->15.479 | 0.05->23.756 | 0.1->57.418 | 0.13->137.76 | 0.14->218.39 , 0.01->15.482 | 0.05->23.799 | 0.1->58.014 | 0.13->199.6 | 0.14->330.69
16 , 35 , dragonflyfull , absolute_improved , 64 , 2.0 , 11 , group_shift ,  , 16 , UGAL_L_threshold , 20 , 0.16 , 0.01->15.479 | 0.05->23.607 | 0.1->56.388 | 0.13->63.545 | 0.15->87.337 | 0.16->158.87 , 0.01->15.482 | 0.05->23.662 | 0.1->57.039 | 0.13->64.465 | 0.15->106.92 | 0.16->307.84
16 , 35 , dragonflyfull , absolute_improved , 64 , 2.0 , 11 , group_shift ,  , 16 , UGAL_L_threshold , 40 , 0.17 , 0.01->15.479 | 0.05->23.684 | 0.1->57.388 | 0.13->71.296 | 0.15->98.785 | 0.16->147.65 | 0.17->228.77 , 0.01->15.482 | 0.05->23.737 | 0.1->57.96 | 0.13->72.871 | 0.15->121.16 | 0.16->217.65 | 0.17->390.58
16 , 35 , dragonflyfull , absolute_improved , 64 , 2.0 , 11 , group_shift ,  , 16 , UGAL_L_threshold , 50 , 0.17 , 0.01->15.479 | 0.05->23.594 | 0.1->57.311 | 0.13->73.683 | 0.15->110.92 | 0.16->161.42 | 0.17->235.9 , 0.01->15.482 | 0.05->23.642 | 0.1->58.016 | 0.13->75.312 | 0.15->144.63 | 0.16->226.76 | 0.17->360.32
16 , 35 , dragonflyfull , absolute_improved , 64 , 2.0 , 11 , group_shift ,  , 16 , UGAL_L_threshold , 60 , 0.17 , 0.01->15.479 | 0.05->23.842 | 0.1->57.247 | 0.13->77.307 | 0.15->119.52 | 0.16->174.22 | 0.17->248.8 , 0.01->15.482 | 0.05->23.888 | 0.1->57.876 | 0.13->79.793 | 0.15->154.59 | 0.16->248.6 | 0.17->360.26

16 , 35 , dragonflyfull , absolute_improved , 64 , 2.0 , 11 , group_shift ,  , 19 , UGAL_L , 0 , 0.15 , 0.01->15.589 | 0.05->25.161 | 0.1->57.236 | 0.13->67.062 | 0.14->83.123 | 0.15->161.29 , 0.01->15.592 | 0.05->25.222 | 0.1->57.913 | 0.13->68.318 | 0.14->93.601 | 0.15->288.09
16 , 35 , dragonflyfull , absolute_improved , 64 , 2.0 , 11 , group_shift ,  , 19 , UGAL_L_two_hop , 0 , 0.14 , 0.01->15.481 | 0.05->23.647 | 0.1->57.473 | 0.13->154.81 | 0.14->247.19 , 0.01->15.486 | 0.05->23.687 | 0.1->58.138 | 0.13->249.16 | 0.14->374.08
16 , 35 , dragonflyfull , absolute_improved , 64 , 2.0 , 11 , group_shift ,  , 19 , UGAL_L_threshold , 100 , 0.14 , 0.01->15.481 | 0.05->23.647 | 0.1->57.473 | 0.13->154.81 | 0.14->247.19 , 0.01->15.486 | 0.05->23.687 | 0.1->58.138 | 0.13->249.16 | 0.14->374.08
16 , 35 , dragonflyfull , absolute_improved , 64 , 2.0 , 11 , group_shift ,  , 19 , UGAL_L_threshold , 20 , 0.16 , 0.01->15.481 | 0.05->23.883 | 0.1->56.75 | 0.13->64.686 | 0.15->90.958 | 0.16->167.33 , 0.01->15.486 | 0.05->23.936 | 0.1->57.431 | 0.13->65.768 | 0.15->111.85 | 0.16->286.28
16 , 35 , dragonflyfull , absolute_improved , 64 , 2.0 , 11 , group_shift ,  , 19 , UGAL_L_threshold , 40 , 0.17 , 0.01->15.481 | 0.05->23.447 | 0.1->57.056 | 0.13->73.921 | 0.15->108.21 | 0.16->170.94 | 0.17->278.23 , 0.01->15.486 | 0.05->23.497 | 0.1->57.7 | 0.13->75.556 | 0.15->143.43 | 0.16->285.07 | 0.17->445.81
16 , 35 , dragonflyfull , absolute_improved , 64 , 2.0 , 11 , group_shift ,  , 19 , UGAL_L_threshold , 50 , 0.17 , 0.01->15.481 | 0.05->23.69 | 0.1->56.902 | 0.13->77.833 | 0.15->119.84 | 0.16->183.73 | 0.17->274.29 , 0.01->15.486 | 0.05->23.728 | 0.1->57.504 | 0.13->79.699 | 0.15->151.81 | 0.16->293.06 | 0.17->437.19
16 , 35 , dragonflyfull , absolute_improved , 64 , 2.0 , 11 , group_shift ,  , 19 , UGAL_L_threshold , 60 , 0.17 , 0.01->15.481 | 0.05->23.665 | 0.1->57.147 | 0.13->82.253 | 0.15->134.89 | 0.16->197.14 | 0.17->287.83 , 0.01->15.486 | 0.05->23.707 | 0.1->57.801 | 0.13->84.305 | 0.15->174.07 | 0.16->281.93 | 0.17->438.01

16 , 35 , dragonflyfull , absolute_improved , 64 , 2.0 , 11 , group_shift ,  , 2 , UGAL_L , 0 , 0.15 , 0.01->15.555 | 0.05->23.142 | 0.1->57.748 | 0.13->70.375 | 0.14->95.252 | 0.15->182.45 , 0.01->15.559 | 0.05->23.174 | 0.1->58.434 | 0.13->71.93 | 0.14->119.16 | 0.15->314.81
16 , 35 , dragonflyfull , absolute_improved , 64 , 2.0 , 11 , group_shift ,  , 2 , UGAL_L_two_hop , 0 , 0.15 , 0.01->15.415 | 0.05->22.305 | 0.1->57.005 | 0.13->120.78 | 0.14->183.26 | 0.15->273.38 , 0.01->15.418 | 0.05->22.34 | 0.1->57.664 | 0.13->168.68 | 0.14->257.01 | 0.15->416.99
16 , 35 , dragonflyfull , absolute_improved , 64 , 2.0 , 11 , group_shift ,  , 2 , UGAL_L_threshold , 100 , 0.15 , 0.01->15.415 | 0.05->22.305 | 0.1->57.005 | 0.13->120.78 | 0.14->183.26 | 0.15->273.38 , 0.01->15.418 | 0.05->22.34 | 0.1->57.664 | 0.13->168.68 | 0.14->257.01 | 0.15->416.99
16 , 35 , dragonflyfull , absolute_improved , 64 , 2.0 , 11 , group_shift ,  , 2 , UGAL_L_threshold , 20 , 0.16 , 0.01->15.415 | 0.05->22.391 | 0.1->56.958 | 0.13->64.919 | 0.15->94.498 | 0.16->185.26 , 0.01->15.418 | 0.05->22.421 | 0.1->57.615 | 0.13->65.92 | 0.15->119.81 | 0.16->366.22
16 , 35 , dragonflyfull , absolute_improved , 64 , 2.0 , 11 , group_shift ,  , 2 , UGAL_L_threshold , 40 , 0.17 , 0.01->15.415 | 0.05->22.453 | 0.1->57.179 | 0.13->70.368 | 0.15->102.7 | 0.16->170.68 | 0.17->287.73 , 0.01->15.418 | 0.05->22.489 | 0.1->58.009 | 0.13->71.821 | 0.15->125.3 | 0.16->272.54 | 0.17->498.38
16 , 35 , dragonflyfull , absolute_improved , 64 , 2.0 , 11 , group_shift ,  , 2 , UGAL_L_threshold , 50 , 0.17 , 0.01->15.415 | 0.05->22.308 | 0.1->57.077 | 0.13->72.255 | 0.15->112.34 | 0.16->181.39 | 0.17->292.6 , 0.01->15.418 | 0.05->22.338 | 0.1->57.685 | 0.13->73.956 | 0.15->143.32 | 0.16->285.51 | 0.17->511.45
16 , 35 , dragonflyfull , absolute_improved , 64 , 2.0 , 11 , group_shift ,  , 2 , UGAL_L_threshold , 60 , 0.17 , 0.01->15.415 | 0.05->22.248 | 0.1->57.255 | 0.13->74.275 | 0.15->120.66 | 0.16->185.79 | 0.17->309.25 , 0.01->15.418 | 0.05->22.28 | 0.1->57.911 | 0.13->76.102 | 0.15->155.8 | 0.16->281.84 | 0.17->510.93

16 , 35 , dragonflyfull , absolute_improved , 64 , 2.0 , 11 , group_shift ,  , 6 , UGAL_L , 0 , 0.16 , 0.01->15.559 | 0.05->23.486 | 0.1->57.597 | 0.13->67.577 | 0.15->151.86 | 0.16->307.23 , 0.01->15.563 | 0.05->23.538 | 0.1->58.28 | 0.13->68.838 | 0.15->241.11 | 0.16->618.77
16 , 35 , dragonflyfull , absolute_improved , 64 , 2.0 , 11 , group_shift ,  , 6 , UGAL_L_two_hop , 0 , 0.14 , 0.01->15.444 | 0.05->22.309 | 0.1->57.187 | 0.13->128.7 | 0.14->202.33 , 0.01->15.448 | 0.05->22.339 | 0.1->57.745 | 0.13->192.7 | 0.14->302.68
16 , 35 , dragonflyfull , absolute_improved , 64 , 2.0 , 11 , group_shift ,  , 6 , UGAL_L_threshold , 100 , 0.14 , 0.01->15.444 | 0.05->22.309 | 0.1->57.187 | 0.13->128.7 | 0.14->202.33 , 0.01->15.448 | 0.05->22.339 | 0.1->57.745 | 0.13->192.7 | 0.14->302.68
16 , 35 , dragonflyfull , absolute_improved , 64 , 2.0 , 11 , group_shift ,  , 6 , UGAL_L_threshold , 20 , 0.16 , 0.01->15.444 | 0.05->22.339 | 0.1->56.862 | 0.13->64.328 | 0.15->88.625 | 0.16->170.24 , 0.01->15.448 | 0.05->22.372 | 0.1->57.478 | 0.13->65.314 | 0.15->107.38 | 0.16->330.19
16 , 35 , dragonflyfull , absolute_improved , 64 , 2.0 , 11 , group_shift ,  , 6 , UGAL_L_threshold , 40 , 0.17 , 0.01->15.444 | 0.05->22.082 | 0.1->57.151 | 0.13->71.26 | 0.15->96.216 | 0.16->156.17 | 0.17->282.76 , 0.01->15.448 | 0.05->22.113 | 0.1->57.772 | 0.13->72.506 | 0.15->119.48 | 0.16->257.76 | 0.17->506.7
16 , 35 , dragonflyfull , absolute_improved , 64 , 2.0 , 11 , group_shift ,  , 6 , UGAL_L_threshold , 50 , 0.17 , 0.01->15.444 | 0.05->22.229 | 0.1->57.112 | 0.13->74.319 | 0.15->108.74 | 0.16->168.66 | 0.17->281.65 , 0.01->15.448 | 0.05->22.258 | 0.1->57.664 | 0.13->75.769 | 0.15->129.12 | 0.16->260.78 | 0.17->465.92
16 , 35 , dragonflyfull , absolute_improved , 64 , 2.0 , 11 , group_shift ,  , 6 , UGAL_L_threshold , 60 , 0.17 , 0.01->15.444 | 0.05->22.293 | 0.1->57.412 | 0.13->77.987 | 0.15->116.45 | 0.16->172.38 | 0.17->282.29 , 0.01->15.448 | 0.05->22.315 | 0.1->57.984 | 0.13->79.574 | 0.15->145.26 | 0.16->255.63 | 0.17->462.97

16 , 35 , dragonflyfull , absolute_improved , 64 , 2.0 , 11 , group_shift ,  , 9 , UGAL_L , 0 , 0.15 , 0.01->15.568 | 0.05->24.177 | 0.1->57.436 | 0.13->70.61 | 0.14->95.874 | 0.15->178.05 , 0.01->15.57 | 0.05->24.238 | 0.1->58.316 | 0.13->73.343 | 0.14->126.59 | 0.15->339.57
16 , 35 , dragonflyfull , absolute_improved , 64 , 2.0 , 11 , group_shift ,  , 9 , UGAL_L_two_hop , 0 , 0.14 , 0.01->15.429 | 0.05->22.745 | 0.1->57.362 | 0.13->134.94 | 0.14->210.09 , 0.01->15.433 | 0.05->22.795 | 0.1->57.971 | 0.13->202.36 | 0.14->321.33
16 , 35 , dragonflyfull , absolute_improved , 64 , 2.0 , 11 , group_shift ,  , 9 , UGAL_L_threshold , 100 , 0.14 , 0.01->15.429 | 0.05->22.745 | 0.1->57.362 | 0.13->134.94 | 0.14->210.09 , 0.01->15.433 | 0.05->22.795 | 0.1->57.971 | 0.13->202.36 | 0.14->321.33
16 , 35 , dragonflyfull , absolute_improved , 64 , 2.0 , 11 , group_shift ,  , 9 , UGAL_L_threshold , 20 , 0.16 , 0.01->15.429 | 0.05->22.592 | 0.1->56.822 | 0.13->64.681 | 0.15->85.339 | 0.16->157.8 , 0.01->15.433 | 0.05->22.626 | 0.1->57.486 | 0.13->65.692 | 0.15->103.94 | 0.16->279.18
16 , 35 , dragonflyfull , absolute_improved , 64 , 2.0 , 11 , group_shift ,  , 9 , UGAL_L_threshold , 40 , 0.17 , 0.01->15.429 | 0.05->22.888 | 0.1->57.321 | 0.13->72.612 | 0.15->99.322 | 0.16->150.97 | 0.17->252.52 , 0.01->15.433 | 0.05->22.921 | 0.1->57.958 | 0.13->74.134 | 0.15->123.2 | 0.16->221.03 | 0.17->459.37
16 , 35 , dragonflyfull , absolute_improved , 64 , 2.0 , 11 , group_shift ,  , 9 , UGAL_L_threshold , 50 , 0.17 , 0.01->15.429 | 0.05->22.802 | 0.1->57.299 | 0.13->74.885 | 0.15->111.61 | 0.16->165.39 | 0.17->250.29 , 0.01->15.433 | 0.05->22.849 | 0.1->57.899 | 0.13->76.529 | 0.15->137.5 | 0.16->251.62 | 0.17->427.65
16 , 35 , dragonflyfull , absolute_improved , 64 , 2.0 , 11 , group_shift ,  , 9 , UGAL_L_threshold , 60 , 0.17 , 0.01->15.429 | 0.05->22.733 | 0.1->57.04 | 0.13->78.249 | 0.15->117.67 | 0.16->171.8 | 0.17->260.39 , 0.01->15.433 | 0.05->22.783 | 0.1->57.696 | 0.13->80.58 | 0.15->146.8 | 0.16->244.38 | 0.17->405.39

16 , 21 , dragonflyfull , absolute_improved , 64 , 2.0 , 11 , randperm , 60 ,  , UGAL_L , 0 , 0.66 , 0.01->14.021 | 0.5->20.358 | 0.55->25.73 | 0.6->42.749 | 0.62->81.253 | 0.65->233.84 | 0.66->316.31 , 0.01->14.023 | 0.5->20.392 | 0.55->25.831 | 0.6->43.822 | 0.62->70.077 | 0.65->145.52 | 0.66->172.97
16 , 21 , dragonflyfull , absolute_improved , 64 , 2.0 , 11 , randperm , 60 ,  , UGAL_L_two_hop , 0 , 0.67 , 0.01->13.999 | 0.5->20.046 | 0.55->24.848 | 0.6->36.927 | 0.62->61.711 | 0.65->178.23 | 0.66->245.09 | 0.67->332.5 , 0.01->14.001 | 0.5->20.073 | 0.55->24.949 | 0.6->37.319 | 0.62->60.516 | 0.65->117.49 | 0.66->143.06 | 0.67->180.71
16 , 21 , dragonflyfull , absolute_improved , 64 , 2.0 , 11 , randperm , 60 ,  , UGAL_L_threshold , 100 , 0.67 , 0.01->13.999 | 0.5->20.046 | 0.55->24.848 | 0.6->36.927 | 0.62->62.524 | 0.65->178.42 | 0.66->240.65 | 0.67->333.93 , 0.01->14.001 | 0.5->20.073 | 0.55->24.949 | 0.6->37.319 | 0.62->60.259 | 0.65->116.84 | 0.66->144.29 | 0.67->180.17
16 , 21 , dragonflyfull , absolute_improved , 64 , 2.0 , 11 , randperm , 60 ,  , UGAL_L_threshold , 20 , 0.66 , 0.01->13.999 | 0.5->20.022 | 0.55->24.849 | 0.6->39.506 | 0.62->72.202 | 0.65->211.88 | 0.66->289.69 , 0.01->14.001 | 0.5->20.055 | 0.55->24.95 | 0.6->40.899 | 0.62->64.32 | 0.65->131.13 | 0.66->166.29
16 , 21 , dragonflyfull , absolute_improved , 64 , 2.0 , 11 , randperm , 60 ,  , UGAL_L_threshold , 40 , 0.67 , 0.01->13.999 | 0.5->20.09 | 0.55->24.806 | 0.6->37.303 | 0.62->62.572 | 0.65->187.34 | 0.66->264.24 | 0.67->350.5 , 0.01->14.001 | 0.5->20.122 | 0.55->24.916 | 0.6->37.958 | 0.62->58.913 | 0.65->119.81 | 0.66->151.47 | 0.67->185.99
16 , 21 , dragonflyfull , absolute_improved , 64 , 2.0 , 11 , randperm , 60 ,  , UGAL_L_threshold , 50 , 0.67 , 0.01->13.999 | 0.5->20.017 | 0.55->24.762 | 0.6->36.882 | 0.62->63.433 | 0.65->184.94 | 0.66->249.66 | 0.67->344.51 , 0.01->14.001 | 0.5->20.051 | 0.55->24.864 | 0.6->37.222 | 0.62->58.527 | 0.65->117.54 | 0.66->147.39 | 0.67->184.98
16 , 21 , dragonflyfull , absolute_improved , 64 , 2.0 , 11 , randperm , 60 ,  , UGAL_L_threshold , 60 , 0.67 , 0.01->13.999 | 0.5->20.154 | 0.55->24.896 | 0.6->37.313 | 0.62->62.879 | 0.65->184.59 | 0.66->250.69 | 0.67->339.04 , 0.01->14.001 | 0.5->20.187 | 0.55->24.995 | 0.6->37.628 | 0.62->59.397 | 0.65->117.32 | 0.66->146.0 | 0.67->183.01

16 , 21 , dragonflyfull , absolute_improved , 64 , 2.0 , 11 , randperm , 62 ,  , UGAL_L , 0 , 0.66 , 0.01->14.02 | 0.5->20.95 | 0.55->28.296 | 0.6->86.49 | 0.62->140.18 | 0.65->291.84 | 0.66->368.84 , 0.01->14.023 | 0.5->21.018 | 0.55->28.663 | 0.6->59.659 | 0.62->83.232 | 0.65->140.0 | 0.66->166.64
16 , 21 , dragonflyfull , absolute_improved , 64 , 2.0 , 11 , randperm , 62 ,  , UGAL_L_two_hop , 0 , 0.67 , 0.01->13.997 | 0.5->20.572 | 0.55->26.324 | 0.6->68.825 | 0.62->113.46 | 0.65->243.43 | 0.66->310.53 | 0.67->382.22 , 0.01->14.0 | 0.5->20.62 | 0.55->26.499 | 0.6->53.908 | 0.62->73.929 | 0.65->124.24 | 0.66->151.74 | 0.67->177.5
16 , 21 , dragonflyfull , absolute_improved , 64 , 2.0 , 11 , randperm , 62 ,  , UGAL_L_threshold , 100 , 0.67 , 0.01->13.997 | 0.5->20.572 | 0.55->26.324 | 0.6->69.716 | 0.62->119.5 | 0.65->242.84 | 0.66->311.97 | 0.67->378.94 , 0.01->14.0 | 0.5->20.62 | 0.55->26.499 | 0.6->53.856 | 0.62->73.81 | 0.65->124.2 | 0.66->157.29 | 0.67->179.07
16 , 21 , dragonflyfull , absolute_improved , 64 , 2.0 , 11 , randperm , 62 ,  , UGAL_L_threshold , 20 , 0.66 , 0.01->13.997 | 0.5->20.625 | 0.55->26.843 | 0.6->76.979 | 0.62->130.97 | 0.65->278.86 | 0.66->348.86 , 0.01->14.0 | 0.5->20.677 | 0.55->27.412 | 0.6->55.284 | 0.62->78.374 | 0.65->133.71 | 0.66->159.14
16 , 21 , dragonflyfull , absolute_improved , 64 , 2.0 , 11 , randperm , 62 ,  , UGAL_L_threshold , 40 , 0.66 , 0.01->13.997 | 0.5->20.637 | 0.55->26.241 | 0.6->71.506 | 0.62->119.43 | 0.65->259.24 | 0.66->323.88 , 0.01->14.0 | 0.5->20.688 | 0.55->26.414 | 0.6->53.62 | 0.62->75.489 | 0.65->126.89 | 0.66->152.92
16 , 21 , dragonflyfull , absolute_improved , 64 , 2.0 , 11 , randperm , 62 ,  , UGAL_L_threshold , 50 , 0.66 , 0.01->13.997 | 0.5->20.584 | 0.55->26.379 | 0.6->70.776 | 0.62->119.86 | 0.65->252.82 | 0.66->314.34 , 0.01->14.0 | 0.5->20.636 | 0.55->26.577 | 0.6->52.491 | 0.62->74.901 | 0.65->126.07 | 0.66->148.33
16 , 21 , dragonflyfull , absolute_improved , 64 , 2.0 , 11 , randperm , 62 ,  , UGAL_L_threshold , 60 , 0.66 , 0.01->13.997 | 0.5->20.55 | 0.55->26.353 | 0.6->69.121 | 0.62->119.65 | 0.65->247.74 | 0.66->307.5 , 0.01->14.0 | 0.5->20.608 | 0.55->26.478 | 0.6->53.118 | 0.62->74.502 | 0.65->124.24 | 0.66->150.63

16 , 21 , dragonflyfull , absolute_improved , 64 , 2.0 , 11 , randperm , 64 ,  , UGAL_L , 0 , 0.67 , 0.01->14.008 | 0.5->19.192 | 0.55->23.374 | 0.6->34.485 | 0.62->54.043 | 0.65->162.3 | 0.66->234.87 | 0.67->300.04 , 0.01->14.01 | 0.5->19.215 | 0.55->23.455 | 0.6->34.717 | 0.62->53.017 | 0.65->114.41 | 0.66->143.08 | 0.67->172.47
16 , 21 , dragonflyfull , absolute_improved , 64 , 2.0 , 11 , randperm , 64 ,  , UGAL_L_two_hop , 0 , 0.68 , 0.01->14.003 | 0.5->19.032 | 0.55->22.728 | 0.6->32.215 | 0.62->43.04 | 0.65->126.83 | 0.68->314.01 , 0.01->14.006 | 0.5->19.055 | 0.55->22.79 | 0.6->32.425 | 0.62->43.715 | 0.65->98.639 | 0.68->184.01
16 , 21 , dragonflyfull , absolute_improved , 64 , 2.0 , 11 , randperm , 64 ,  , UGAL_L_threshold , 100 , 0.68 , 0.01->14.003 | 0.5->19.032 | 0.55->22.728 | 0.6->32.215 | 0.62->43.04 | 0.65->123.53 | 0.68->309.02 , 0.01->14.006 | 0.5->19.055 | 0.55->22.79 | 0.6->32.425 | 0.62->43.715 | 0.65->96.985 | 0.68->180.81
16 , 21 , dragonflyfull , absolute_improved , 64 , 2.0 , 11 , randperm , 64 ,  , UGAL_L_threshold , 20 , 0.67 , 0.01->14.003 | 0.5->19.024 | 0.55->22.765 | 0.6->32.552 | 0.62->46.686 | 0.65->145.32 | 0.66->211.28 | 0.67->288.17 , 0.01->14.006 | 0.5->19.046 | 0.55->22.825 | 0.6->32.776 | 0.62->46.331 | 0.65->105.69 | 0.66->136.58 | 0.67->171.24
16 , 21 , dragonflyfull , absolute_improved , 64 , 2.0 , 11 , randperm , 64 ,  , UGAL_L_threshold , 40 , 0.68 , 0.01->14.003 | 0.5->19.004 | 0.55->22.574 | 0.6->32.375 | 0.62->44.667 | 0.65->132.46 | 0.68->335.51 , 0.01->14.006 | 0.5->19.029 | 0.55->22.646 | 0.6->32.615 | 0.62->44.489 | 0.65->97.314 | 0.68->189.95
16 , 21 , dragonflyfull , absolute_improved , 64 , 2.0 , 11 , randperm , 64 ,  , UGAL_L_threshold , 50 , 0.68 , 0.01->14.003 | 0.5->19.009 | 0.55->22.711 | 0.6->32.163 | 0.62->43.906 | 0.65->126.25 | 0.68->331.62 , 0.01->14.006 | 0.5->19.03 | 0.55->22.781 | 0.6->32.346 | 0.62->43.943 | 0.65->96.582 | 0.68->189.28
16 , 21 , dragonflyfull , absolute_improved , 64 , 2.0 , 11 , randperm , 64 ,  , UGAL_L_threshold , 60 , 0.68 , 0.01->14.003 | 0.5->18.988 | 0.55->22.656 | 0.6->32.24 | 0.62->43.371 | 0.65->123.53 | 0.68->324.31 , 0.01->14.006 | 0.5->19.011 | 0.55->22.725 | 0.6->32.467 | 0.62->43.787 | 0.65->96.457 | 0.68->187.91

16 , 21 , dragonflyfull , absolute_improved , 64 , 2.0 , 11 , randperm , 66 ,  , UGAL_L , 0 , 0.68 , 0.01->13.977 | 0.5->19.634 | 0.55->24.233 | 0.6->44.414 | 0.62->74.46 | 0.65->184.72 | 0.68->374.61 , 0.01->13.979 | 0.5->19.657 | 0.55->24.326 | 0.6->43.158 | 0.62->61.524 | 0.65->113.63 | 0.68->200.33
16 , 21 , dragonflyfull , absolute_improved , 64 , 2.0 , 11 , randperm , 66 ,  , UGAL_L_two_hop , 0 , 0.68 , 0.01->13.949 | 0.5->19.35 | 0.55->23.46 | 0.6->36.742 | 0.62->57.279 | 0.65->139.36 | 0.68->321.03 , 0.01->13.951 | 0.5->19.376 | 0.55->23.528 | 0.6->37.907 | 0.62->50.119 | 0.65->97.133 | 0.68->182.91
16 , 21 , dragonflyfull , absolute_improved , 64 , 2.0 , 11 , randperm , 66 ,  , UGAL_L_threshold , 100 , 0.68 , 0.01->13.949 | 0.5->19.35 | 0.55->23.46 | 0.6->36.742 | 0.62->57.265 | 0.65->139.88 | 0.68->323.45 , 0.01->13.951 | 0.5->19.376 | 0.55->23.528 | 0.6->37.907 | 0.62->50.093 | 0.65->96.706 | 0.68->182.26
16 , 21 , dragonflyfull , absolute_improved , 64 , 2.0 , 11 , randperm , 66 ,  , UGAL_L_threshold , 20 , 0.68 , 0.01->13.949 | 0.5->19.378 | 0.55->23.554 | 0.6->38.375 | 0.62->67.521 | 0.65->169.04 | 0.68->358.6 , 0.01->13.951 | 0.5->19.406 | 0.55->23.639 | 0.6->39.132 | 0.62->55.768 | 0.65->108.01 | 0.68->195.5
16 , 21 , dragonflyfull , absolute_improved , 64 , 2.0 , 11 , randperm , 66 ,  , UGAL_L_threshold , 40 , 0.68 , 0.01->13.949 | 0.5->19.303 | 0.55->23.479 | 0.6->37.701 | 0.62->57.927 | 0.65->154.74 | 0.68->336.24 , 0.01->13.951 | 0.5->19.327 | 0.55->23.577 | 0.6->38.279 | 0.62->51.807 | 0.65->102.76 | 0.68->188.37
16 , 21 , dragonflyfull , absolute_improved , 64 , 2.0 , 11 , randperm , 66 ,  , UGAL_L_threshold , 50 , 0.68 , 0.01->13.949 | 0.5->19.401 | 0.55->23.568 | 0.6->37.367 | 0.62->58.443 | 0.65->155.25 | 0.68->329.89 , 0.01->13.951 | 0.5->19.423 | 0.55->23.658 | 0.6->37.949 | 0.62->51.782 | 0.65->101.87 | 0.68->184.77
16 , 21 , dragonflyfull , absolute_improved , 64 , 2.0 , 11 , randperm , 66 ,  , UGAL_L_threshold , 60 , 0.68 , 0.01->13.949 | 0.5->19.299 | 0.55->23.551 | 0.6->37.302 | 0.62->57.806 | 0.65->144.53 | 0.68->326.7 , 0.01->13.951 | 0.5->19.322 | 0.55->23.642 | 0.6->37.676 | 0.62->51.502 | 0.65->100.95 | 0.68->181.09

16 , 21 , dragonflyfull , absolute_improved , 64 , 2.0 , 11 , randperm , 68 ,  , UGAL_L , 0 , 0.68 , 0.01->13.939 | 0.5->18.977 | 0.55->22.655 | 0.6->37.359 | 0.62->54.391 | 0.65->157.56 | 0.68->374.81 , 0.01->13.94 | 0.5->18.994 | 0.55->22.761 | 0.6->35.281 | 0.62->48.89 | 0.65->110.07 | 0.68->206.62
16 , 21 , dragonflyfull , absolute_improved , 64 , 2.0 , 11 , randperm , 68 ,  , UGAL_L_two_hop , 0 , 0.68 , 0.01->13.925 | 0.5->18.74 | 0.55->21.919 | 0.6->32.989 | 0.62->42.673 | 0.65->121.72 | 0.68->311.21 , 0.01->13.925 | 0.5->18.761 | 0.55->21.972 | 0.6->33.059 | 0.62->42.335 | 0.65->93.377 | 0.68->183.03
16 , 21 , dragonflyfull , absolute_improved , 64 , 2.0 , 11 , randperm , 68 ,  , UGAL_L_threshold , 100 , 0.68 , 0.01->13.925 | 0.5->18.74 | 0.55->21.919 | 0.6->32.989 | 0.62->42.673 | 0.65->118.58 | 0.68->320.0 , 0.01->13.925 | 0.5->18.761 | 0.55->21.972 | 0.6->33.059 | 0.62->42.335 | 0.65->92.831 | 0.68->185.61
16 , 21 , dragonflyfull , absolute_improved , 64 , 2.0 , 11 , randperm , 68 ,  , UGAL_L_threshold , 20 , 0.68 , 0.01->13.925 | 0.5->18.755 | 0.55->22.079 | 0.6->35.666 | 0.62->52.862 | 0.65->139.77 | 0.68->355.06 , 0.01->13.925 | 0.5->18.776 | 0.55->22.144 | 0.6->33.581 | 0.62->44.575 | 0.65->102.5 | 0.68->199.91
16 , 21 , dragonflyfull , absolute_improved , 64 , 2.0 , 11 , randperm , 68 ,  , UGAL_L_threshold , 40 , 0.68 , 0.01->13.925 | 0.5->18.784 | 0.55->22.13 | 0.6->34.616 | 0.62->45.597 | 0.65->127.62 | 0.68->331.35 , 0.01->13.925 | 0.5->18.805 | 0.55->22.172 | 0.6->33.345 | 0.62->43.009 | 0.65->97.011 | 0.68->189.13
16 , 21 , dragonflyfull , absolute_improved , 64 , 2.0 , 11 , randperm , 68 ,  , UGAL_L_threshold , 50 , 0.68 , 0.01->13.925 | 0.5->18.797 | 0.55->22.034 | 0.6->33.841 | 0.62->45.688 | 0.65->122.71 | 0.68->332.47 , 0.01->13.925 | 0.5->18.816 | 0.55->22.09 | 0.6->33.318 | 0.62->42.917 | 0.65->95.048 | 0.68->186.72
16 , 21 , dragonflyfull , absolute_improved , 64 , 2.0 , 11 , randperm , 68 ,  , UGAL_L_threshold , 60 , 0.68 , 0.01->13.925 | 0.5->18.85 | 0.55->21.953 | 0.6->34.614 | 0.62->44.834 | 0.65->126.44 | 0.68->325.41 , 0.01->13.925 | 0.5->18.87 | 0.55->21.998 | 0.6->33.354 | 0.62->43.014 | 0.65->96.646 | 0.68->185.24

16 , 21 , dragonflyfull , absolute_improved , 64 , 2.0 , 11 , randperm , 70 ,  , UGAL_L , 0 , 0.65 , 0.01->13.976 | 0.5->20.864 | 0.55->26.652 | 0.6->70.323 | 0.62->132.67 | 0.65->316.32 , 0.01->13.979 | 0.5->20.928 | 0.55->26.808 | 0.6->57.725 | 0.62->86.679 | 0.65->160.89
16 , 21 , dragonflyfull , absolute_improved , 64 , 2.0 , 11 , randperm , 70 ,  , UGAL_L_two_hop , 0 , 0.66 , 0.01->13.982 | 0.5->20.554 | 0.55->25.939 | 0.6->54.194 | 0.62->109.17 | 0.65->262.91 | 0.66->340.87 , 0.01->13.984 | 0.5->20.611 | 0.55->26.062 | 0.6->50.684 | 0.62->76.591 | 0.65->140.56 | 0.66->169.65
16 , 21 , dragonflyfull , absolute_improved , 64 , 2.0 , 11 , randperm , 70 ,  , UGAL_L_threshold , 100 , 0.66 , 0.01->13.982 | 0.5->20.554 | 0.55->25.939 | 0.6->54.192 | 0.62->107.29 | 0.65->261.35 | 0.66->336.46 , 0.01->13.984 | 0.5->20.611 | 0.55->26.062 | 0.6->50.746 | 0.62->76.144 | 0.65->138.78 | 0.66->168.06
16 , 21 , dragonflyfull , absolute_improved , 64 , 2.0 , 11 , randperm , 70 ,  , UGAL_L_threshold , 20 , 0.66 , 0.01->13.982 | 0.5->20.563 | 0.55->25.938 | 0.6->62.085 | 0.62->124.06 | 0.65->299.3 | 0.66->372.83 , 0.01->13.984 | 0.5->20.612 | 0.55->26.086 | 0.6->54.038 | 0.62->83.805 | 0.65->155.06 | 0.66->184.96
16 , 21 , dragonflyfull , absolute_improved , 64 , 2.0 , 11 , randperm , 70 ,  , UGAL_L_threshold , 40 , 0.66 , 0.01->13.982 | 0.5->20.596 | 0.55->25.933 | 0.6->60.347 | 0.62->116.78 | 0.65->279.09 | 0.66->351.97 , 0.01->13.984 | 0.5->20.64 | 0.55->26.064 | 0.6->51.996 | 0.62->80.959 | 0.65->144.64 | 0.66->174.03
16 , 21 , dragonflyfull , absolute_improved , 64 , 2.0 , 11 , randperm , 70 ,  , UGAL_L_threshold , 50 , 0.66 , 0.01->13.982 | 0.5->20.62 | 0.55->25.858 | 0.6->57.421 | 0.62->113.89 | 0.65->270.2 | 0.66->346.29 , 0.01->13.984 | 0.5->20.674 | 0.55->26.006 | 0.6->50.861 | 0.62->79.8 | 0.65->143.28 | 0.66->176.61
16 , 21 , dragonflyfull , absolute_improved , 64 , 2.0 , 11 , randperm , 70 ,  , UGAL_L_threshold , 60 , 0.66 , 0.01->13.982 | 0.5->20.598 | 0.55->25.984 | 0.6->58.471 | 0.62->114.83 | 0.65->274.25 | 0.66->340.87 , 0.01->13.984 | 0.5->20.645 | 0.55->26.11 | 0.6->51.084 | 0.62->79.14 | 0.65->143.59 | 0.66->167.86

16 , 27 , dragonflyfull , absolute_improved , 64 , 2.0 , 11 , randperm , 60 ,  , UGAL_L , 0 , 0.65 , 0.01->14.094 | 0.5->20.972 | 0.55->27.245 | 0.6->45.119 | 0.62->88.766 | 0.65->295.38 , 0.01->14.095 | 0.5->21.015 | 0.55->27.361 | 0.6->45.232 | 0.62->76.99 | 0.65->182.59
16 , 27 , dragonflyfull , absolute_improved , 64 , 2.0 , 11 , randperm , 60 ,  , UGAL_L_two_hop , 0 , 0.66 , 0.01->14.07 | 0.5->20.623 | 0.55->26.297 | 0.6->40.534 | 0.62->63.968 | 0.65->222.23 | 0.66->310.0 , 0.01->14.072 | 0.5->20.658 | 0.55->26.419 | 0.6->40.926 | 0.62->61.515 | 0.65->144.42 | 0.66->184.98
16 , 27 , dragonflyfull , absolute_improved , 64 , 2.0 , 11 , randperm , 60 ,  , UGAL_L_threshold , 100 , 0.66 , 0.01->14.07 | 0.5->20.623 | 0.55->26.297 | 0.6->40.534 | 0.62->64.282 | 0.65->220.65 | 0.66->308.89 , 0.01->14.072 | 0.5->20.658 | 0.55->26.419 | 0.6->40.926 | 0.62->61.258 | 0.65->143.46 | 0.66->185.09
16 , 27 , dragonflyfull , absolute_improved , 64 , 2.0 , 11 , randperm , 60 ,  , UGAL_L_threshold , 20 , 0.65 , 0.01->14.07 | 0.5->20.601 | 0.55->26.35 | 0.6->41.474 | 0.62->70.447 | 0.65->265.74 , 0.01->14.072 | 0.5->20.641 | 0.55->26.47 | 0.6->41.878 | 0.62->67.109 | 0.65->166.43
16 , 27 , dragonflyfull , absolute_improved , 64 , 2.0 , 11 , randperm , 60 ,  , UGAL_L_threshold , 40 , 0.66 , 0.01->14.07 | 0.5->20.551 | 0.55->26.344 | 0.6->40.841 | 0.62->64.465 | 0.65->227.62 | 0.66->322.34 , 0.01->14.072 | 0.5->20.589 | 0.55->26.474 | 0.6->41.227 | 0.62->62.386 | 0.65->151.2 | 0.66->198.38
16 , 27 , dragonflyfull , absolute_improved , 64 , 2.0 , 11 , randperm , 60 ,  , UGAL_L_threshold , 50 , 0.66 , 0.01->14.07 | 0.5->20.544 | 0.55->26.392 | 0.6->40.731 | 0.62->65.635 | 0.65->223.22 | 0.66->322.69 , 0.01->14.072 | 0.5->20.581 | 0.55->26.514 | 0.6->41.098 | 0.62->61.582 | 0.65->148.8 | 0.66->197.7
16 , 27 , dragonflyfull , absolute_improved , 64 , 2.0 , 11 , randperm , 60 ,  , UGAL_L_threshold , 60 , 0.66 , 0.01->14.07 | 0.5->20.496 | 0.55->26.46 | 0.6->41.281 | 0.62->63.553 | 0.65->220.25 | 0.66->311.72 , 0.01->14.072 | 0.5->20.529 | 0.55->26.586 | 0.6->41.452 | 0.62->61.717 | 0.65->147.2 | 0.66->193.07

16 , 27 , dragonflyfull , absolute_improved , 64 , 2.0 , 11 , randperm , 62 ,  , UGAL_L , 0 , 0.65 , 0.01->14.043 | 0.5->21.118 | 0.55->27.911 | 0.6->53.524 | 0.62->109.88 | 0.65->312.72 , 0.01->14.044 | 0.5->21.17 | 0.55->28.05 | 0.6->52.291 | 0.62->88.88 | 0.65->180.84
16 , 27 , dragonflyfull , absolute_improved , 64 , 2.0 , 11 , randperm , 62 ,  , UGAL_L_two_hop , 0 , 0.67 , 0.01->13.999 | 0.5->20.681 | 0.55->26.84 | 0.6->44.078 | 0.62->79.103 | 0.65->242.37 | 0.66->323.82 | 0.67->415.12 , 0.01->14.002 | 0.5->20.723 | 0.55->26.975 | 0.6->44.641 | 0.62->71.208 | 0.65->148.71 | 0.66->182.1 | 0.67->219.49
16 , 27 , dragonflyfull , absolute_improved , 64 , 2.0 , 11 , randperm , 62 ,  , UGAL_L_threshold , 100 , 0.67 , 0.01->13.999 | 0.5->20.681 | 0.55->26.84 | 0.6->44.078 | 0.62->79.508 | 0.65->241.34 | 0.66->321.67 | 0.67->417.42 , 0.01->14.002 | 0.5->20.723 | 0.55->26.975 | 0.6->44.641 | 0.62->71.998 | 0.65->148.46 | 0.66->181.15 | 0.67->216.44
16 , 27 , dragonflyfull , absolute_improved , 64 , 2.0 , 11 , randperm , 62 ,  , UGAL_L_threshold , 20 , 0.66 , 0.01->13.999 | 0.5->20.749 | 0.55->26.949 | 0.6->45.345 | 0.62->96.523 | 0.65->288.19 | 0.66->384.8 , 0.01->14.002 | 0.5->20.79 | 0.55->27.065 | 0.6->46.092 | 0.62->78.802 | 0.65->170.59 | 0.66->205.91
16 , 27 , dragonflyfull , absolute_improved , 64 , 2.0 , 11 , randperm , 62 ,  , UGAL_L_threshold , 40 , 0.66 , 0.01->13.999 | 0.5->20.707 | 0.55->26.902 | 0.6->43.518 | 0.62->79.387 | 0.65->251.26 | 0.66->343.18 , 0.01->14.002 | 0.5->20.745 | 0.55->27.031 | 0.6->44.117 | 0.62->70.526 | 0.65->157.88 | 0.66->188.42
16 , 27 , dragonflyfull , absolute_improved , 64 , 2.0 , 11 , randperm , 62 ,  , UGAL_L_threshold , 50 , 0.66 , 0.01->13.999 | 0.5->20.637 | 0.55->26.933 | 0.6->43.293 | 0.62->78.606 | 0.65->250.65 | 0.66->336.32 , 0.01->14.002 | 0.5->20.677 | 0.55->27.068 | 0.6->43.899 | 0.62->70.102 | 0.65->153.25 | 0.66->188.44
16 , 27 , dragonflyfull , absolute_improved , 64 , 2.0 , 11 , randperm , 62 ,  , UGAL_L_threshold , 60 , 0.67 , 0.01->13.999 | 0.5->20.753 | 0.55->26.952 | 0.6->43.439 | 0.62->77.88 | 0.65->245.02 | 0.66->326.11 | 0.67->416.04 , 0.01->14.002 | 0.5->20.796 | 0.55->27.07 | 0.6->43.856 | 0.62->70.648 | 0.65->150.56 | 0.66->185.69 | 0.67->220.38

16 , 27 , dragonflyfull , absolute_improved , 64 , 2.0 , 11 , randperm , 64 ,  , UGAL_L , 0 , 0.65 , 0.01->14.056 | 0.5->21.214 | 0.55->27.635 | 0.6->51.738 | 0.62->102.54 | 0.65->288.52 , 0.01->14.06 | 0.5->21.263 | 0.55->27.773 | 0.6->50.733 | 0.62->81.409 | 0.65->172.5
16 , 27 , dragonflyfull , absolute_improved , 64 , 2.0 , 11 , randperm , 64 ,  , UGAL_L_two_hop , 0 , 0.66 , 0.01->14.041 | 0.5->20.804 | 0.55->26.595 | 0.6->42.416 | 0.62->69.981 | 0.65->212.16 | 0.66->290.33 , 0.01->14.045 | 0.5->20.849 | 0.55->26.72 | 0.6->43.13 | 0.62->64.71 | 0.65->138.17 | 0.66->174.86
16 , 27 , dragonflyfull , absolute_improved , 64 , 2.0 , 11 , randperm , 64 ,  , UGAL_L_threshold , 100 , 0.67 , 0.01->14.041 | 0.5->20.804 | 0.55->26.595 | 0.6->42.416 | 0.62->69.679 | 0.65->213.06 | 0.66->290.76 | 0.67->375.66 , 0.01->14.045 | 0.5->20.849 | 0.55->26.72 | 0.6->43.13 | 0.62->64.757 | 0.65->136.38 | 0.66->170.99 | 0.67->207.45
16 , 27 , dragonflyfull , absolute_improved , 64 , 2.0 , 11 , randperm , 64 ,  , UGAL_L_threshold , 20 , 0.66 , 0.01->14.041 | 0.5->20.838 | 0.55->26.665 | 0.6->45.174 | 0.62->84.628 | 0.65->258.38 | 0.66->349.85 , 0.01->14.045 | 0.5->20.882 | 0.55->26.783 | 0.6->45.454 | 0.62->71.073 | 0.65->157.92 | 0.66->199.6
16 , 27 , dragonflyfull , absolute_improved , 64 , 2.0 , 11 , randperm , 64 ,  , UGAL_L_threshold , 40 , 0.66 , 0.01->14.041 | 0.5->20.869 | 0.55->26.557 | 0.6->43.051 | 0.62->72.566 | 0.65->224.53 | 0.66->305.77 , 0.01->14.045 | 0.5->20.908 | 0.55->26.686 | 0.6->43.741 | 0.62->64.954 | 0.65->145.31 | 0.66->179.37
16 , 27 , dragonflyfull , absolute_improved , 64 , 2.0 , 11 , randperm , 64 ,  , UGAL_L_threshold , 50 , 0.66 , 0.01->14.041 | 0.5->20.888 | 0.55->26.643 | 0.6->43.033 | 0.62->69.254 | 0.65->220.06 | 0.66->298.12 , 0.01->14.045 | 0.5->20.936 | 0.55->26.76 | 0.6->43.853 | 0.62->63.948 | 0.65->142.67 | 0.66->177.42
16 , 27 , dragonflyfull , absolute_improved , 64 , 2.0 , 11 , randperm , 64 ,  , UGAL_L_threshold , 60 , 0.66 , 0.01->14.041 | 0.5->20.777 | 0.55->26.662 | 0.6->42.472 | 0.62->68.503 | 0.65->216.82 | 0.66->289.03 , 0.01->14.045 | 0.5->20.823 | 0.55->26.776 | 0.6->43.1 | 0.62->63.482 | 0.65->142.13 | 0.66->174.64

16 , 27 , dragonflyfull , absolute_improved , 64 , 2.0 , 11 , randperm , 66 ,  , UGAL_L , 0 , 0.65 , 0.01->14.079 | 0.5->21.345 | 0.55->28.048 | 0.6->58.516 | 0.62->124.11 | 0.65->326.57 , 0.01->14.08 | 0.5->21.397 | 0.55->28.183 | 0.6->55.157 | 0.62->89.661 | 0.65->183.13
16 , 27 , dragonflyfull , absolute_improved , 64 , 2.0 , 11 , randperm , 66 ,  , UGAL_L_two_hop , 0 , 0.66 , 0.01->14.045 | 0.5->21.042 | 0.55->26.893 | 0.6->44.848 | 0.62->90.511 | 0.65->262.23 | 0.66->346.8 , 0.01->14.048 | 0.5->21.09 | 0.55->27.03 | 0.6->45.715 | 0.62->75.549 | 0.65->158.86 | 0.66->195.9
16 , 27 , dragonflyfull , absolute_improved , 64 , 2.0 , 11 , randperm , 66 ,  , UGAL_L_threshold , 100 , 0.66 , 0.01->14.045 | 0.5->21.042 | 0.55->26.893 | 0.6->44.995 | 0.62->93.386 | 0.65->254.9 | 0.66->349.74 , 0.01->14.048 | 0.5->21.09 | 0.55->27.03 | 0.6->45.88 | 0.62->75.847 | 0.65->157.63 | 0.66->195.88
16 , 27 , dragonflyfull , absolute_improved , 64 , 2.0 , 11 , randperm , 66 ,  , UGAL_L_threshold , 20 , 0.65 , 0.01->14.045 | 0.5->20.995 | 0.55->27.158 | 0.6->51.65 | 0.62->107.96 | 0.65->305.51 , 0.01->14.048 | 0.5->21.041 | 0.55->27.288 | 0.6->49.908 | 0.62->81.045 | 0.65->173.0
16 , 27 , dragonflyfull , absolute_improved , 64 , 2.0 , 11 , randperm , 66 ,  , UGAL_L_threshold , 40 , 0.65 , 0.01->14.045 | 0.5->21.016 | 0.55->27.029 | 0.6->46.693 | 0.62->96.532 | 0.65->269.43 , 0.01->14.048 | 0.5->21.061 | 0.55->27.163 | 0.6->46.636 | 0.62->76.372 | 0.65->159.67
16 , 27 , dragonflyfull , absolute_improved , 64 , 2.0 , 11 , randperm , 66 ,  , UGAL_L_threshold , 50 , 0.66 , 0.01->14.045 | 0.5->20.989 | 0.55->26.941 | 0.6->46.552 | 0.62->90.847 | 0.65->261.85 | 0.66->349.74 , 0.01->14.048 | 0.5->21.033 | 0.55->27.065 | 0.6->46.879 | 0.62->75.1 | 0.65->158.16 | 0.66->200.58
16 , 27 , dragonflyfull , absolute_improved , 64 , 2.0 , 11 , randperm , 66 ,  , UGAL_L_threshold , 60 , 0.66 , 0.01->14.045 | 0.5->21.033 | 0.55->27.071 | 0.6->45.945 | 0.62->94.734 | 0.65->263.3 | 0.66->349.54 , 0.01->14.048 | 0.5->21.078 | 0.55->27.182 | 0.6->46.203 | 0.62->76.379 | 0.65->158.81 | 0.66->202.3

16 , 27 , dragonflyfull , absolute_improved , 64 , 2.0 , 11 , randperm , 68 ,  , UGAL_L , 0 , 0.64 , 0.01->14.083 | 0.45->18.774 | 0.5->21.832 | 0.55->29.93 | 0.6->71.996 | 0.62->156.56 | 0.63->220.98 | 0.64->297.55 , 0.01->14.084 | 0.45->18.797 | 0.5->21.886 | 0.55->30.131 | 0.6->63.792 | 0.62->111.32 | 0.63->136.4 | 0.64->169.59
16 , 27 , dragonflyfull , absolute_improved , 64 , 2.0 , 11 , randperm , 68 ,  , UGAL_L_two_hop , 0 , 0.65 , 0.01->14.057 | 0.5->21.434 | 0.55->28.78 | 0.6->50.187 | 0.62->105.56 | 0.65->298.26 , 0.01->14.059 | 0.5->21.495 | 0.55->28.941 | 0.6->50.419 | 0.62->86.114 | 0.65->168.94
16 , 27 , dragonflyfull , absolute_improved , 64 , 2.0 , 11 , randperm , 68 ,  , UGAL_L_threshold , 100 , 0.65 , 0.01->14.057 | 0.5->21.434 | 0.55->28.78 | 0.6->50.025 | 0.62->106.17 | 0.65->296.14 , 0.01->14.059 | 0.5->21.495 | 0.55->28.941 | 0.6->50.401 | 0.62->86.165 | 0.65->170.14
16 , 27 , dragonflyfull , absolute_improved , 64 , 2.0 , 11 , randperm , 68 ,  , UGAL_L_threshold , 20 , 0.64 , 0.01->14.057 | 0.45->18.497 | 0.5->21.358 | 0.55->28.793 | 0.6->62.338 | 0.62->134.13 | 0.63->195.15 | 0.64->268.87 , 0.01->14.059 | 0.45->18.516 | 0.5->21.41 | 0.55->28.971 | 0.6->57.005 | 0.62->100.01 | 0.63->126.16 | 0.64->159.14
16 , 27 , dragonflyfull , absolute_improved , 64 , 2.0 , 11 , randperm , 68 ,  , UGAL_L_threshold , 40 , 0.65 , 0.01->14.057 | 0.5->21.461 | 0.55->28.728 | 0.6->54.622 | 0.62->111.38 | 0.65->322.66 , 0.01->14.059 | 0.5->21.51 | 0.55->28.878 | 0.6->52.513 | 0.62->90.896 | 0.65->177.89
16 , 27 , dragonflyfull , absolute_improved , 64 , 2.0 , 11 , randperm , 68 ,  , UGAL_L_threshold , 50 , 0.65 , 0.01->14.057 | 0.5->21.302 | 0.55->28.903 | 0.6->50.664 | 0.62->109.96 | 0.65->307.61 , 0.01->14.059 | 0.5->21.359 | 0.55->29.067 | 0.6->50.639 | 0.62->88.983 | 0.65->173.42
16 , 27 , dragonflyfull , absolute_improved , 64 , 2.0 , 11 , randperm , 68 ,  , UGAL_L_threshold , 60 , 0.65 , 0.01->14.057 | 0.5->21.492 | 0.55->28.823 | 0.6->50.486 | 0.62->108.01 | 0.65->308.11 , 0.01->14.059 | 0.5->21.552 | 0.55->28.985 | 0.6->50.871 | 0.62->86.392 | 0.65->169.49

16 , 27 , dragonflyfull , absolute_improved , 64 , 2.0 , 11 , randperm , 70 ,  , UGAL_L , 0 , 0.65 , 0.01->14.054 | 0.5->21.431 | 0.55->27.67 | 0.6->55.567 | 0.62->109.65 | 0.65->278.45 , 0.01->14.055 | 0.5->21.484 | 0.55->27.828 | 0.6->51.725 | 0.62->80.641 | 0.65->164.32
16 , 27 , dragonflyfull , absolute_improved , 64 , 2.0 , 11 , randperm , 70 ,  , UGAL_L_two_hop , 0 , 0.66 , 0.01->14.019 | 0.5->20.941 | 0.55->26.488 | 0.6->42.116 | 0.62->68.194 | 0.65->205.84 | 0.66->283.22 , 0.01->14.021 | 0.5->20.991 | 0.55->26.614 | 0.6->43.073 | 0.62->63.014 | 0.65->133.71 | 0.66->169.42
16 , 27 , dragonflyfull , absolute_improved , 64 , 2.0 , 11 , randperm , 70 ,  , UGAL_L_threshold , 100 , 0.67 , 0.01->14.019 | 0.5->20.941 | 0.55->26.488 | 0.6->42.093 | 0.62->67.755 | 0.65->208.27 | 0.66->281.51 | 0.67->360.17 , 0.01->14.021 | 0.5->20.991 | 0.55->26.614 | 0.6->43.125 | 0.62->62.702 | 0.65->134.33 | 0.66->170.11 | 0.67->197.61
16 , 27 , dragonflyfull , absolute_improved , 64 , 2.0 , 11 , randperm , 70 ,  , UGAL_L_threshold , 20 , 0.66 , 0.01->14.019 | 0.5->20.971 | 0.55->26.614 | 0.6->49.917 | 0.62->92.261 | 0.65->250.98 | 0.66->338.13 , 0.01->14.021 | 0.5->21.027 | 0.55->26.72 | 0.6->47.507 | 0.62->70.656 | 0.65->150.47 | 0.66->187.93
16 , 27 , dragonflyfull , absolute_improved , 64 , 2.0 , 11 , randperm , 70 ,  , UGAL_L_threshold , 40 , 0.66 , 0.01->14.019 | 0.5->21.049 | 0.55->26.668 | 0.6->43.328 | 0.62->78.013 | 0.65->224.96 | 0.66->297.37 , 0.01->14.021 | 0.5->21.102 | 0.55->26.797 | 0.6->44.062 | 0.62->65.247 | 0.65->142.76 | 0.66->173.56
16 , 27 , dragonflyfull , absolute_improved , 64 , 2.0 , 11 , randperm , 70 ,  , UGAL_L_threshold , 50 , 0.66 , 0.01->14.019 | 0.5->21.009 | 0.55->26.618 | 0.6->43.445 | 0.62->74.85 | 0.65->213.9 | 0.66->293.79 , 0.01->14.021 | 0.5->21.06 | 0.55->26.747 | 0.6->43.915 | 0.62->64.616 | 0.65->136.8 | 0.66->172.38
16 , 27 , dragonflyfull , absolute_improved , 64 , 2.0 , 11 , randperm , 70 ,  , UGAL_L_threshold , 60 , 0.66 , 0.01->14.019 | 0.5->20.989 | 0.55->26.575 | 0.6->43.142 | 0.62->72.615 | 0.65->215.81 | 0.66->289.58 , 0.01->14.021 | 0.5->21.041 | 0.55->26.696 | 0.6->43.491 | 0.62->64.207 | 0.65->137.92 | 0.66->169.91

16 , 35 , dragonflyfull , absolute_improved , 64 , 2.0 , 11 , randperm , 60 ,  , UGAL_L , 0 , 0.62 , 0.01->14.146 | 0.45->20.849 | 0.5->25.752 | 0.55->36.68 | 0.6->152.13 | 0.62->298.79 , 0.01->14.151 | 0.45->20.9 | 0.5->25.871 | 0.55->36.885 | 0.6->99.729 | 0.62->163.19
16 , 35 , dragonflyfull , absolute_improved , 64 , 2.0 , 11 , randperm , 60 ,  , UGAL_L_two_hop , 0 , 0.64 , 0.01->14.119 | 0.45->20.232 | 0.5->24.524 | 0.55->32.85 | 0.6->92.432 | 0.62->194.06 | 0.63->277.73 | 0.64->376.94 , 0.01->14.121 | 0.45->20.277 | 0.5->24.628 | 0.55->33.084 | 0.6->74.023 | 0.62->122.6 | 0.63->156.35 | 0.64->191.3
16 , 35 , dragonflyfull , absolute_improved , 64 , 2.0 , 11 , randperm , 60 ,  , UGAL_L_threshold , 100 , 0.64 , 0.01->14.119 | 0.45->20.232 | 0.5->24.524 | 0.55->32.85 | 0.6->92.829 | 0.62->192.26 | 0.63->272.19 | 0.64->375.51 , 0.01->14.121 | 0.45->20.277 | 0.5->24.628 | 0.55->33.084 | 0.6->72.597 | 0.62->123.72 | 0.63->154.16 | 0.64->191.24
16 , 35 , dragonflyfull , absolute_improved , 64 , 2.0 , 11 , randperm , 60 ,  , UGAL_L_threshold , 20 , 0.63 , 0.01->14.119 | 0.45->20.228 | 0.5->24.534 | 0.55->33.228 | 0.6->117.98 | 0.62->250.99 | 0.63->354.57 , 0.01->14.121 | 0.45->20.272 | 0.5->24.635 | 0.55->33.433 | 0.6->83.784 | 0.62->143.22 | 0.63->187.16
16 , 35 , dragonflyfull , absolute_improved , 64 , 2.0 , 11 , randperm , 60 ,  , UGAL_L_threshold , 40 , 0.63 , 0.01->14.119 | 0.45->20.256 | 0.5->24.541 | 0.55->33.119 | 0.6->91.726 | 0.62->200.84 | 0.63->290.55 , 0.01->14.121 | 0.45->20.292 | 0.5->24.633 | 0.55->33.315 | 0.6->72.719 | 0.62->123.72 | 0.63->159.59
16 , 35 , dragonflyfull , absolute_improved , 64 , 2.0 , 11 , randperm , 60 ,  , UGAL_L_threshold , 50 , 0.63 , 0.01->14.119 | 0.45->20.218 | 0.5->24.571 | 0.55->33.11 | 0.6->90.459 | 0.62->195.26 | 0.63->278.62 , 0.01->14.121 | 0.45->20.256 | 0.5->24.665 | 0.55->33.305 | 0.6->73.113 | 0.62->122.77 | 0.63->156.21
16 , 35 , dragonflyfull , absolute_improved , 64 , 2.0 , 11 , randperm , 60 ,  , UGAL_L_threshold , 60 , 0.64 , 0.01->14.119 | 0.45->20.231 | 0.5->24.597 | 0.55->33.027 | 0.6->88.529 | 0.62->194.51 | 0.63->279.82 | 0.64->373.15 , 0.01->14.121 | 0.45->20.265 | 0.5->24.695 | 0.55->33.233 | 0.6->72.104 | 0.62->122.31 | 0.63->155.78 | 0.64->193.66

16 , 35 , dragonflyfull , absolute_improved , 64 , 2.0 , 11 , randperm , 62 ,  , UGAL_L , 0 , 0.62 , 0.01->14.149 | 0.45->20.959 | 0.5->26.35 | 0.55->38.672 | 0.6->159.75 | 0.62->312.24 , 0.01->14.152 | 0.45->21.016 | 0.5->26.502 | 0.55->38.811 | 0.6->106.26 | 0.62->172.98
16 , 35 , dragonflyfull , absolute_improved , 64 , 2.0 , 11 , randperm , 62 ,  , UGAL_L_two_hop , 0 , 0.64 , 0.01->14.108 | 0.45->20.116 | 0.5->24.753 | 0.55->33.87 | 0.6->89.743 | 0.62->195.79 | 0.63->280.77 | 0.64->378.3 , 0.01->14.111 | 0.45->20.154 | 0.5->24.857 | 0.55->34.114 | 0.6->74.972 | 0.62->126.53 | 0.63->160.89 | 0.64->198.44
16 , 35 , dragonflyfull , absolute_improved , 64 , 2.0 , 11 , randperm , 62 ,  , UGAL_L_threshold , 100 , 0.64 , 0.01->14.108 | 0.45->20.116 | 0.5->24.753 | 0.55->33.87 | 0.6->90.779 | 0.62->197.14 | 0.63->278.08 | 0.64->376.86 , 0.01->14.111 | 0.45->20.154 | 0.5->24.857 | 0.55->34.114 | 0.6->74.918 | 0.62->126.73 | 0.63->160.05 | 0.64->200.41
16 , 35 , dragonflyfull , absolute_improved , 64 , 2.0 , 11 , randperm , 62 ,  , UGAL_L_threshold , 20 , 0.63 , 0.01->14.108 | 0.45->20.158 | 0.5->25.098 | 0.55->35.107 | 0.6->126.6 | 0.62->262.93 | 0.63->370.33 , 0.01->14.111 | 0.45->20.201 | 0.5->25.139 | 0.55->35.246 | 0.6->88.4 | 0.62->152.96 | 0.63->194.49
16 , 35 , dragonflyfull , absolute_improved , 64 , 2.0 , 11 , randperm , 62 ,  , UGAL_L_threshold , 40 , 0.63 , 0.01->14.108 | 0.45->20.103 | 0.5->24.83 | 0.55->33.904 | 0.6->94.138 | 0.62->208.33 | 0.63->299.62 , 0.01->14.111 | 0.45->20.143 | 0.5->24.942 | 0.55->34.136 | 0.6->76.334 | 0.62->129.32 | 0.63->167.9
16 , 35 , dragonflyfull , absolute_improved , 64 , 2.0 , 11 , randperm , 62 ,  , UGAL_L_threshold , 50 , 0.63 , 0.01->14.108 | 0.45->20.17 | 0.5->24.886 | 0.55->33.756 | 0.6->91.952 | 0.62->202.16 | 0.63->285.77 , 0.01->14.111 | 0.45->20.21 | 0.5->24.988 | 0.55->33.96 | 0.6->75.335 | 0.62->126.03 | 0.63->160.89
16 , 35 , dragonflyfull , absolute_improved , 64 , 2.0 , 11 , randperm , 62 ,  , UGAL_L_threshold , 60 , 0.64 , 0.01->14.108 | 0.45->20.133 | 0.5->24.888 | 0.55->33.964 | 0.6->90.995 | 0.62->196.72 | 0.63->277.15 | 0.64->378.92 , 0.01->14.111 | 0.45->20.174 | 0.5->24.994 | 0.55->34.203 | 0.6->75.607 | 0.62->126.48 | 0.63->159.02 | 0.64->200.44

16 , 35 , dragonflyfull , absolute_improved , 64 , 2.0 , 11 , randperm , 64 ,  , UGAL_L , 0 , 0.63 , 0.01->14.136 | 0.45->20.445 | 0.5->24.943 | 0.55->34.617 | 0.6->113.83 | 0.62->248.99 | 0.63->343.65 , 0.01->14.139 | 0.45->20.498 | 0.5->25.032 | 0.55->34.807 | 0.6->87.417 | 0.62->150.89 | 0.63->190.42
16 , 35 , dragonflyfull , absolute_improved , 64 , 2.0 , 11 , randperm , 64 ,  , UGAL_L_two_hop , 0 , 0.64 , 0.01->14.092 | 0.45->19.847 | 0.5->23.791 | 0.55->32.222 | 0.6->66.196 | 0.62->151.83 | 0.63->224.98 | 0.64->320.85 , 0.01->14.094 | 0.45->19.887 | 0.5->23.863 | 0.55->32.373 | 0.6->63.2 | 0.62->106.87 | 0.63->142.13 | 0.64->180.6
16 , 35 , dragonflyfull , absolute_improved , 64 , 2.0 , 11 , randperm , 64 ,  , UGAL_L_threshold , 100 , 0.64 , 0.01->14.092 | 0.45->19.847 | 0.5->23.791 | 0.55->32.222 | 0.6->65.145 | 0.62->151.39 | 0.63->224.19 | 0.64->313.74 , 0.01->14.094 | 0.45->19.887 | 0.5->23.863 | 0.55->32.373 | 0.6->62.672 | 0.62->106.69 | 0.63->140.89 | 0.64->178.25
16 , 35 , dragonflyfull , absolute_improved , 64 , 2.0 , 11 , randperm , 64 ,  , UGAL_L_threshold , 20 , 0.63 , 0.01->14.092 | 0.45->19.819 | 0.5->23.769 | 0.55->31.953 | 0.6->84.336 | 0.62->207.66 | 0.63->299.81 , 0.01->14.094 | 0.45->19.864 | 0.5->23.862 | 0.55->32.144 | 0.6->71.935 | 0.62->131.5 | 0.63->173.15
16 , 35 , dragonflyfull , absolute_improved , 64 , 2.0 , 11 , randperm , 64 ,  , UGAL_L_threshold , 40 , 0.64 , 0.01->14.092 | 0.45->19.861 | 0.5->23.733 | 0.55->32.066 | 0.6->66.385 | 0.62->158.05 | 0.63->235.46 | 0.64->339.31 , 0.01->14.094 | 0.45->19.9 | 0.5->23.823 | 0.55->32.257 | 0.6->62.897 | 0.62->111.0 | 0.63->145.98 | 0.64->189.22
16 , 35 , dragonflyfull , absolute_improved , 64 , 2.0 , 11 , randperm , 64 ,  , UGAL_L_threshold , 50 , 0.64 , 0.01->14.092 | 0.45->19.847 | 0.5->23.715 | 0.55->31.91 | 0.6->64.164 | 0.62->149.83 | 0.63->225.9 | 0.64->326.52 , 0.01->14.094 | 0.45->19.889 | 0.5->23.806 | 0.55->32.044 | 0.6->61.94 | 0.62->107.28 | 0.63->142.22 | 0.64->186.65
16 , 35 , dragonflyfull , absolute_improved , 64 , 2.0 , 11 , randperm , 64 ,  , UGAL_L_threshold , 60 , 0.64 , 0.01->14.092 | 0.45->19.872 | 0.5->23.733 | 0.55->31.959 | 0.6->63.732 | 0.62->151.49 | 0.63->224.05 | 0.64->318.21 , 0.01->14.094 | 0.45->19.909 | 0.5->23.82 | 0.55->32.155 | 0.6->61.312 | 0.62->106.47 | 0.63->141.51 | 0.64->182.33

16 , 35 , dragonflyfull , absolute_improved , 64 , 2.0 , 11 , randperm , 66 ,  , UGAL_L , 0 , 0.63 , 0.01->14.16 | 0.45->20.596 | 0.5->25.371 | 0.55->35.724 | 0.6->124.07 | 0.62->264.9 | 0.63->367.57 , 0.01->14.163 | 0.45->20.644 | 0.5->25.481 | 0.55->35.782 | 0.6->92.198 | 0.62->163.88 | 0.63->202.72
16 , 35 , dragonflyfull , absolute_improved , 64 , 2.0 , 11 , randperm , 66 ,  , UGAL_L_two_hop , 0 , 0.64 , 0.01->14.113 | 0.45->19.967 | 0.5->24.314 | 0.55->33.47 | 0.6->73.39 | 0.62->166.15 | 0.63->246.42 | 0.64->341.82 , 0.01->14.116 | 0.45->20.012 | 0.5->24.488 | 0.55->33.038 | 0.6->64.487 | 0.62->117.62 | 0.63->155.03 | 0.64->195.07
16 , 35 , dragonflyfull , absolute_improved , 64 , 2.0 , 11 , randperm , 66 ,  , UGAL_L_threshold , 100 , 0.64 , 0.01->14.113 | 0.45->19.967 | 0.5->24.314 | 0.55->33.35 | 0.6->73.577 | 0.62->164.49 | 0.63->244.69 | 0.64->338.62 , 0.01->14.116 | 0.45->20.012 | 0.5->24.488 | 0.55->32.989 | 0.6->64.239 | 0.62->116.05 | 0.63->154.28 | 0.64->194.5
16 , 35 , dragonflyfull , absolute_improved , 64 , 2.0 , 11 , randperm , 66 ,  , UGAL_L_threshold , 20 , 0.63 , 0.01->14.113 | 0.45->19.895 | 0.5->24.154 | 0.55->32.561 | 0.6->91.54 | 0.62->223.96 | 0.63->330.5 , 0.01->14.116 | 0.45->19.937 | 0.5->24.252 | 0.55->32.756 | 0.6->76.874 | 0.62->147.18 | 0.63->189.76
16 , 35 , dragonflyfull , absolute_improved , 64 , 2.0 , 11 , randperm , 66 ,  , UGAL_L_threshold , 40 , 0.64 , 0.01->14.113 | 0.45->19.966 | 0.5->24.074 | 0.55->32.115 | 0.6->73.117 | 0.62->171.89 | 0.63->263.76 | 0.64->370.26 , 0.01->14.116 | 0.45->20.007 | 0.5->24.181 | 0.55->32.307 | 0.6->65.113 | 0.62->122.0 | 0.63->167.74 | 0.64->206.78
16 , 35 , dragonflyfull , absolute_improved , 64 , 2.0 , 11 , randperm , 66 ,  , UGAL_L_threshold , 50 , 0.64 , 0.01->14.113 | 0.45->19.931 | 0.5->24.163 | 0.55->32.099 | 0.6->71.316 | 0.62->165.62 | 0.63->252.97 | 0.64->354.15 , 0.01->14.116 | 0.45->19.974 | 0.5->24.248 | 0.55->32.317 | 0.6->63.504 | 0.62->119.57 | 0.63->160.56 | 0.64->203.29
16 , 35 , dragonflyfull , absolute_improved , 64 , 2.0 , 11 , randperm , 66 ,  , UGAL_L_threshold , 60 , 0.64 , 0.01->14.113 | 0.45->19.939 | 0.5->24.103 | 0.55->32.173 | 0.6->69.252 | 0.62->164.99 | 0.63->245.1 | 0.64->347.29 , 0.01->14.116 | 0.45->19.985 | 0.5->24.208 | 0.55->32.347 | 0.6->62.695 | 0.62->119.53 | 0.63->159.27 | 0.64->199.86

16 , 35 , dragonflyfull , absolute_improved , 64 , 2.0 , 11 , randperm , 68 ,  , UGAL_L , 0 , 0.63 , 0.01->14.149 | 0.45->20.33 | 0.5->24.704 | 0.55->34.472 | 0.6->109.92 | 0.62->238.55 | 0.63->327.52 , 0.01->14.151 | 0.45->20.382 | 0.5->24.816 | 0.55->34.689 | 0.6->87.136 | 0.62->148.0 | 0.63->180.87
16 , 35 , dragonflyfull , absolute_improved , 64 , 2.0 , 11 , randperm , 68 ,  , UGAL_L_two_hop , 0 , 0.64 , 0.01->14.11 | 0.45->19.873 | 0.5->23.609 | 0.55->31.966 | 0.6->64.454 | 0.62->141.86 | 0.63->211.95 | 0.64->299.14 , 0.01->14.112 | 0.45->19.914 | 0.5->23.691 | 0.55->32.032 | 0.6->59.052 | 0.62->104.61 | 0.63->138.93 | 0.64->175.26
16 , 35 , dragonflyfull , absolute_improved , 64 , 2.0 , 11 , randperm , 68 ,  , UGAL_L_threshold , 100 , 0.64 , 0.01->14.11 | 0.45->19.873 | 0.5->23.609 | 0.55->31.966 | 0.6->65.062 | 0.62->141.32 | 0.63->209.66 | 0.64->297.48 , 0.01->14.112 | 0.45->19.914 | 0.5->23.691 | 0.55->32.032 | 0.6->58.872 | 0.62->103.65 | 0.63->137.53 | 0.64->174.17
16 , 35 , dragonflyfull , absolute_improved , 64 , 2.0 , 11 , randperm , 68 ,  , UGAL_L_threshold , 20 , 0.63 , 0.01->14.11 | 0.45->19.83 | 0.5->23.645 | 0.55->31.717 | 0.6->73.438 | 0.62->197.69 | 0.63->288.86 , 0.01->14.112 | 0.45->19.875 | 0.5->23.734 | 0.55->31.906 | 0.6->68.394 | 0.62->129.69 | 0.63->166.77
16 , 35 , dragonflyfull , absolute_improved , 64 , 2.0 , 11 , randperm , 68 ,  , UGAL_L_threshold , 40 , 0.64 , 0.01->14.11 | 0.45->19.864 | 0.5->23.631 | 0.55->31.461 | 0.6->64.535 | 0.62->151.05 | 0.63->222.34 | 0.64->324.09 , 0.01->14.112 | 0.45->19.899 | 0.5->23.71 | 0.55->31.679 | 0.6->60.475 | 0.62->109.76 | 0.63->141.96 | 0.64->182.5
16 , 35 , dragonflyfull , absolute_improved , 64 , 2.0 , 11 , randperm , 68 ,  , UGAL_L_threshold , 50 , 0.64 , 0.01->14.11 | 0.45->19.844 | 0.5->23.645 | 0.55->31.628 | 0.6->63.836 | 0.62->145.45 | 0.63->215.91 | 0.64->309.73 , 0.01->14.112 | 0.45->19.882 | 0.5->23.733 | 0.55->31.832 | 0.6->59.554 | 0.62->106.92 | 0.63->140.16 | 0.64->180.84
16 , 35 , dragonflyfull , absolute_improved , 64 , 2.0 , 11 , randperm , 68 ,  , UGAL_L_threshold , 60 , 0.64 , 0.01->14.11 | 0.45->19.841 | 0.5->23.559 | 0.55->31.472 | 0.6->63.579 | 0.62->140.94 | 0.63->211.22 | 0.64->301.99 , 0.01->14.112 | 0.45->19.881 | 0.5->23.652 | 0.55->31.698 | 0.6->58.881 | 0.62->105.75 | 0.63->137.26 | 0.64->176.12

16 , 35 , dragonflyfull , absolute_improved , 64 , 2.0 , 11 , randperm , 70 ,  , UGAL_L , 0 , 0.63 , 0.01->14.159 | 0.45->19.995 | 0.5->24.029 | 0.55->32.354 | 0.6->82.969 | 0.62->195.98 | 0.63->283.98 , 0.01->14.164 | 0.45->20.029 | 0.5->24.119 | 0.55->32.556 | 0.6->73.083 | 0.62->128.46 | 0.63->167.54
16 , 35 , dragonflyfull , absolute_improved , 64 , 2.0 , 11 , randperm , 70 ,  , UGAL_L_two_hop , 0 , 0.64 , 0.01->14.114 | 0.45->19.363 | 0.5->22.986 | 0.55->30.176 | 0.6->58.495 | 0.62->128.43 | 0.63->186.4 | 0.64->266.75 , 0.01->14.116 | 0.45->19.395 | 0.5->23.058 | 0.55->30.353 | 0.6->55.393 | 0.62->92.453 | 0.63->123.31 | 0.64->158.67
16 , 35 , dragonflyfull , absolute_improved , 64 , 2.0 , 11 , randperm , 70 ,  , UGAL_L_threshold , 100 , 0.64 , 0.01->14.114 | 0.45->19.363 | 0.5->22.986 | 0.55->30.176 | 0.6->55.409 | 0.62->126.35 | 0.63->182.6 | 0.64->263.09 , 0.01->14.116 | 0.45->19.395 | 0.5->23.058 | 0.55->30.353 | 0.6->54.173 | 0.62->91.797 | 0.63->123.02 | 0.64->156.8
16 , 35 , dragonflyfull , absolute_improved , 64 , 2.0 , 11 , randperm , 70 ,  , UGAL_L_threshold , 20 , 0.64 , 0.01->14.114 | 0.45->19.411 | 0.5->22.952 | 0.55->30.187 | 0.6->63.997 | 0.62->156.47 | 0.63->238.38 | 0.64->343.06 , 0.01->14.116 | 0.45->19.443 | 0.5->23.022 | 0.55->30.355 | 0.6->60.52 | 0.62->110.69 | 0.63->148.65 | 0.64->192.7
16 , 35 , dragonflyfull , absolute_improved , 64 , 2.0 , 11 , randperm , 70 ,  , UGAL_L_threshold , 40 , 0.64 , 0.01->14.114 | 0.45->19.372 | 0.5->22.91 | 0.55->30.161 | 0.6->53.089 | 0.62->125.14 | 0.63->185.94 | 0.64->275.03 , 0.01->14.116 | 0.45->19.399 | 0.5->22.995 | 0.55->30.332 | 0.6->54.096 | 0.62->91.236 | 0.63->124.61 | 0.64->165.24
16 , 35 , dragonflyfull , absolute_improved , 64 , 2.0 , 11 , randperm , 70 ,  , UGAL_L_threshold , 50 , 0.65 , 0.01->14.114 | 0.5->22.917 | 0.55->30.168 | 0.6->53.545 | 0.62->122.1 | 0.65->365.87 , 0.01->14.116 | 0.5->22.992 | 0.55->30.326 | 0.6->54.134 | 0.62->91.293 | 0.65->199.68
16 , 35 , dragonflyfull , absolute_improved , 64 , 2.0 , 11 , randperm , 70 ,  , UGAL_L_threshold , 60 , 0.64 , 0.01->14.114 | 0.45->19.392 | 0.5->22.973 | 0.55->30.212 | 0.6->52.99 | 0.62->123.04 | 0.63->178.8 | 0.64->259.66 , 0.01->14.116 | 0.45->19.419 | 0.5->23.053 | 0.55->30.36 | 0.6->54.35 | 0.62->90.392 | 0.63->122.28 | 0.64->158.66

