vc_buf_size = 64;
wait_for_tail_credit = 0;
vc_allocator = separable_input_first;
sw_allocator = separable_input_first;
alloc_iters = 1;
credit_delay = 2;
routing_delay = 0;
vc_alloc_delay = 1;
sw_alloc_delay = 1;
st_final_delay = 1;
input_speedup = 1;
output_speedup = 1;
sim_count = 1;
num_vcs = 7;
priority = none;
packet_size = 1;
injection_rate_uses_flits = 1;
internal_speedup = 4.0;
warmup_periods = 3;
sample_period = 1000;
df_a = 8;
df_arrangement = absolute_improved;
global_latency = 1;
local_latency = 1;
multitiered_routing_threshold_0 = 10;
multitiered_routing_threshold_1 = 40;
topology = dragonflyfull;
traffic = group_shift;
df_g = 25;
routing_function = UGAL_L;
shift_by_group = 6;

defaultText, count, i-rate in config file, i-rate injected, i-rate accepted, packet latency, flit latency, deadlock?
simulation,         1,      0.01,  0.010026,   0.01003,    10.948,    10.948,         0,  37249,  10934,  |4-> 0 , |5-> 0 , |6-> 0 ,,  |4-> 0 , |5-> 0 , |6-> 0 ,,  |1-> 0 , |2-> 49 , |3-> 477 , |4-> 3366 , |5-> 10149 , |6-> 23208 ,,  |1-> 0 , |2-> 19 , |3-> 158 , |4-> 1031 , |5-> 3133 , |6-> 6593 ,
simulation,         2,      0.99,   0.28493,   0.50387,    507.01,    489.91,         1,  0,  0,  ,  ,  ,  
simulation,         3,       0.5,   0.33671,   0.39364,    657.08,    653.62,         1,  0,  0,  ,  ,  ,  
simulation,         4,      0.25,   0.24993,   0.24991,    38.486,    39.019,         0,  244041,  1208065,  |4-> 0 , |5-> 0 , |6-> 0 ,,  |4-> 0 , |5-> 0 , |6-> 0 ,,  |1-> 0 , |2-> 148 , |3-> 1939 , |4-> 16818 , |5-> 61830 , |6-> 163306 ,,  |1-> 0 , |2-> 1791 , |3-> 17101 , |4-> 113076 , |5-> 339260 , |6-> 736837 ,
simulation,         5,      0.37,   0.33224,   0.35497,    453.38,    448.91,         1,  0,  0,  ,  ,  ,  
simulation,         6,      0.31,   0.30224,   0.31001,    161.83,    217.86,         0,  488483,  3036186,  |4-> 0 , |5-> 0 , |6-> 0 ,,  |4-> 0 , |5-> 0 , |6-> 0 ,,  |1-> 0 , |2-> 186 , |3-> 3198 , |4-> 30211 , |5-> 120396 , |6-> 334492 ,,  |1-> 0 , |2-> 4647 , |3-> 43163 , |4-> 285380 , |5-> 852446 , |6-> 1850550 ,
simulation,         7,      0.34,   0.32198,    0.3357,    367.75,    380.89,         0,  516833,  3434573,  |4-> 0 , |5-> 0 , |6-> 0 ,,  |4-> 0 , |5-> 0 , |6-> 0 ,,  |1-> 0 , |2-> 184 , |3-> 3237 , |4-> 31460 , |5-> 127029 , |6-> 354923 ,,  |1-> 0 , |2-> 5426 , |3-> 48910 , |4-> 322160 , |5-> 962687 , |6-> 2095390 ,
simulation,         8,      0.35,    0.3256,   0.34205,    333.45,    329.95,         1,  0,  0,  ,  ,  ,  
simulation,        10,       0.3,    0.2948,       0.3,    115.29,    147.74,         0,  455300,  2747744,  |4-> 0 , |5-> 0 , |6-> 0 ,,  |4-> 0 , |5-> 0 , |6-> 0 ,,  |1-> 0 , |2-> 173 , |3-> 3009 , |4-> 28369 , |5-> 112355 , |6-> 311394 ,,  |1-> 0 , |2-> 4175 , |3-> 39179 , |4-> 257647 , |5-> 770323 , |6-> 1676420 ,
simulation,        12,       0.2,   0.19985,   0.19987,    36.734,    37.233,         0,  206755,  778183,  |4-> 0 , |5-> 0 , |6-> 0 ,,  |4-> 0 , |5-> 0 , |6-> 0 ,,  |1-> 0 , |2-> 198 , |3-> 1947 , |4-> 15361 , |5-> 52974 , |6-> 136275 ,,  |1-> 0 , |2-> 1225 , |3-> 11076 , |4-> 73022 , |5-> 219738 , |6-> 473122 ,
