vc_buf_size = 64;
wait_for_tail_credit = 0;
vc_allocator = separable_input_first;
sw_allocator = separable_input_first;
alloc_iters = 1;
credit_delay = 2;
routing_delay = 0;
vc_alloc_delay = 1;
sw_alloc_delay = 1;
st_final_delay = 1;
input_speedup = 1;
output_speedup = 1;
sim_count = 1;
num_vcs = 7;
priority = none;
packet_size = 1;
injection_rate_uses_flits = 1;
internal_speedup = 4.0;
warmup_periods = 3;
sample_period = 10000;
df_a = 8;
df_arrangement = absolute_improved;
df_g = 0;
global_latency = 10;
local_latency = 10;
multitiered_routing_threshold_0 = 10;
multitiered_routing_threshold_1 = 40;
seed = 11;
topology = dragonflyfull;
traffic = randperm;
df_g = 29;
perm_seed = 64;
routing_function = UGAL_L_multi_tiered;

defaultText, count, i-rate in config file, i-rate injected, i-rate accepted, packet latency, flit latency, deadlock?
simulation,         1,      0.01,  0.010012,  0.010011,    36.261,    36.263,         0,  420334,  135023,  |4-> 406246 , |5-> 0 , |6-> 0 ,,  |4-> 129772 , |5-> 0 , |6-> 0 ,,  |1-> 0 , |2-> 15061 , |3-> 41353 , |4-> 363920 , |5-> 0 , |6-> 0 ,,  |1-> 0 , |2-> 5575 , |3-> 13119 , |4-> 116329 , |5-> 0 , |6-> 0 ,
simulation,         2,      0.99,   0.55502,   0.60341,    1578.9,    753.61,         1,  0,  0,  ,  ,  ,  
simulation,         3,       0.5,   0.49999,       0.5,    92.034,    78.267,         0,  20504876,  11812887,  |4-> 490393 , |5-> 17887523 , |6-> 1361148 ,,  |4-> 10638 , |5-> 8078380 , |6-> 3370711 ,,  |1-> 0 , |2-> 776510 , |3-> 408045 , |4-> 3932980 , |5-> 14637547 , |6-> 749794 ,,  |1-> 0 , |2-> 359897 , |3-> 172600 , |4-> 1834665 , |5-> 7632657 , |6-> 1813068 ,
simulation,         4,      0.74,   0.55126,   0.58846,     867.0,    546.88,         1,  0,  0,  ,  ,  ,  
simulation,         5,      0.62,   0.54478,   0.56907,    448.58,    340.36,         1,  0,  0,  ,  ,  ,  
simulation,         6,      0.56,   0.53903,   0.53918,    694.94,    248.62,         1,  0,  0,  ,  ,  ,  
simulation,         7,      0.53,   0.52538,   0.52538,    470.19,    123.42,         1,  0,  0,  ,  ,  ,  
simulation,         8,      0.51,   0.50911,   0.50911,    239.56,    89.082,         0,  42064385,  25678306,  |4-> 743895 , |5-> 35591257 , |6-> 4131106 ,,  |4-> 11873 , |5-> 15712496 , |6-> 9197368 ,,  |1-> 0 , |2-> 1619574 , |3-> 796081 , |4-> 7735434 , |5-> 29638563 , |6-> 2274733 ,,  |1-> 0 , |2-> 770782 , |3-> 360165 , |4-> 3806950 , |5-> 15812544 , |6-> 4927865 ,
simulation,         9,      0.52,   0.51777,   0.51779,    296.72,    104.54,         1,  0,  0,  ,  ,  ,  
simulation,        11,      0.45,   0.45015,   0.45015,    54.998,    55.023,         0,  16954679,  8087371,  |4-> 1267961 , |5-> 14989300 , |6-> 100351 ,,  |4-> 40745 , |5-> 7091882 , |6-> 683653 ,,  |1-> 0 , |2-> 607694 , |3-> 422829 , |4-> 3983420 , |5-> 11885740 , |6-> 54996 ,,  |1-> 0 , |2-> 276366 , |3-> 133295 , |4-> 1435671 , |5-> 5861312 , |6-> 380727 ,
simulation,        12,       0.4,   0.40011,    0.4001,    47.713,    47.727,         0,  15505522,  6720197,  |4-> 2612714 , |5-> 12347922 , |6-> 14285 ,,  |4-> 148644 , |5-> 6113943 , |6-> 217651 ,,  |1-> 0 , |2-> 543043 , |3-> 506755 , |4-> 4690719 , |5-> 9756699 , |6-> 8306 ,,  |1-> 0 , |2-> 244854 , |3-> 122315 , |4-> 1309614 , |5-> 4921616 , |6-> 121798 ,
simulation,        13,      0.35,    0.3501,   0.35011,    43.216,    43.225,         0,  13739065,  5694101,  |4-> 4365542 , |5-> 8912774 , |6-> 1518 ,,  |4-> 413015 , |5-> 5028798 , |6-> 37698 ,,  |1-> 0 , |2-> 473943 , |3-> 624787 , |4-> 5611776 , |5-> 7027529 , |6-> 1030 ,,  |1-> 0 , |2-> 219193 , |3-> 126290 , |4-> 1324346 , |5-> 4003216 , |6-> 21056 ,
