vc_buf_size = 64;
wait_for_tail_credit = 0;
vc_allocator = separable_input_first;
sw_allocator = separable_input_first;
alloc_iters = 1;
credit_delay = 2;
routing_delay = 0;
vc_alloc_delay = 1;
sw_alloc_delay = 1;
st_final_delay = 1;
input_speedup = 1;
output_speedup = 1;
sim_count = 1;
num_vcs = 7;
priority = none;
packet_size = 1;
injection_rate_uses_flits = 1;
internal_speedup = 4.0;
warmup_periods = 3;
sample_period = 1000;
df_a = 8;
df_arrangement = absolute_improved;
global_latency = 1;
local_latency = 1;
multitiered_routing_threshold_0 = 10;
multitiered_routing_threshold_1 = 40;
topology = dragonflyfull;
traffic = group_shift;
df_g = 9;
routing_function = UGAL_L;
shift_by_group = 2;

defaultText, count, i-rate in config file, i-rate injected, i-rate accepted, packet latency, flit latency, deadlock?
simulation,         1,      0.01,  0.009956, 0.0099606,    10.176,     10.18,         0,  15439,  1811,  |4-> 0 , |5-> 0 , |6-> 0 ,,  |4-> 0 , |5-> 0 , |6-> 0 ,,  |1-> 0 , |2-> 25 , |3-> 63 , |4-> 1271 , |5-> 4833 , |6-> 9247 ,,  |1-> 0 , |2-> 0 , |3-> 9 , |4-> 160 , |5-> 585 , |6-> 1057 ,
simulation,         2,      0.99,   0.34389,   0.59153,    583.71,    575.13,         1,  0,  0,  ,  ,  ,  
simulation,         3,       0.5,   0.34234,   0.46474,     551.6,    551.47,         1,  0,  0,  ,  ,  ,  
simulation,         4,      0.25,    0.2501,   0.25011,    54.372,    54.845,         0,  223733,  217699,  |4-> 0 , |5-> 0 , |6-> 0 ,,  |4-> 0 , |5-> 0 , |6-> 0 ,,  |1-> 0 , |2-> 193 , |3-> 659 , |4-> 14476 , |5-> 65496 , |6-> 142909 ,,  |1-> 0 , |2-> 498 , |3-> 1367 , |4-> 21941 , |5-> 73566 , |6-> 120327 ,
simulation,         5,      0.37,   0.35471,   0.36956,    297.15,    342.72,         0,  499543,  892257,  |4-> 0 , |5-> 0 , |6-> 0 ,,  |4-> 0 , |5-> 0 , |6-> 0 ,,  |1-> 0 , |2-> 34 , |3-> 655 , |4-> 22641 , |5-> 135590 , |6-> 340623 ,,  |1-> 0 , |2-> 2201 , |3-> 5731 , |4-> 92679 , |5-> 302436 , |6-> 489210 ,
simulation,         6,      0.43,   0.36661,   0.40926,    421.81,    486.99,         1,  0,  0,  ,  ,  ,  
simulation,         7,       0.4,   0.36725,   0.39117,    462.13,     460.6,         1,  0,  0,  ,  ,  ,  
simulation,         8,      0.38,   0.35876,   0.37922,    396.87,    449.59,         0,  509371,  924561,  |4-> 0 , |5-> 0 , |6-> 0 ,,  |4-> 0 , |5-> 0 , |6-> 0 ,,  |1-> 0 , |2-> 27 , |3-> 649 , |4-> 23554 , |5-> 137554 , |6-> 347587 ,,  |1-> 0 , |2-> 2209 , |3-> 5938 , |4-> 95423 , |5-> 312377 , |6-> 508614 ,
simulation,         9,      0.39,    0.3649,   0.38746,    381.54,     383.6,         1,  0,  0,  ,  ,  ,  
simulation,        10,      0.35,    0.3461,   0.34958,    121.68,    132.21,         0,  406947,  695056,  |4-> 0 , |5-> 0 , |6-> 0 ,,  |4-> 0 , |5-> 0 , |6-> 0 ,,  |1-> 0 , |2-> 42 , |3-> 546 , |4-> 19025 , |5-> 110700 , |6-> 276634 ,,  |1-> 0 , |2-> 1620 , |3-> 4412 , |4-> 72131 , |5-> 235105 , |6-> 381788 ,
simulation,        11,       0.3,   0.29987,   0.29986,    62.195,    62.859,         0,  263833,  359068,  |4-> 0 , |5-> 0 , |6-> 0 ,,  |4-> 0 , |5-> 0 , |6-> 0 ,,  |1-> 0 , |2-> 116 , |3-> 494 , |4-> 14376 , |5-> 74330 , |6-> 174517 ,,  |1-> 0 , |2-> 853 , |3-> 2367 , |4-> 37262 , |5-> 121278 , |6-> 197308 ,
simulation,        13,       0.2,    0.2001,   0.20013,    34.469,    34.568,         0,  218696,  130970,  |4-> 0 , |5-> 0 , |6-> 0 ,,  |4-> 0 , |5-> 0 , |6-> 0 ,,  |1-> 0 , |2-> 268 , |3-> 795 , |4-> 16378 , |5-> 66814 , |6-> 134441 ,,  |1-> 0 , |2-> 289 , |3-> 813 , |4-> 12599 , |5-> 42959 , |6-> 74310 ,
