vc_buf_size = 64;
wait_for_tail_credit = 0;
vc_allocator = separable_input_first;
sw_allocator = separable_input_first;
alloc_iters = 1;
credit_delay = 2;
routing_delay = 0;
vc_alloc_delay = 1;
sw_alloc_delay = 1;
st_final_delay = 1;
input_speedup = 1;
output_speedup = 1;
sim_count = 1;
num_vcs = 7;
priority = none;
packet_size = 1;
injection_rate_uses_flits = 1;
internal_speedup = 4.0;
warmup_periods = 3;
sample_period = 10000;
df_a = 8;
df_arrangement = absolute_improved;
df_g = 0;
global_latency = 10;
local_latency = 10;
multitiered_routing_threshold_0 = 10;
multitiered_routing_threshold_1 = 40;
seed = 11;
topology = dragonflyfull;
traffic = group_shift;
df_g = 31;
routing_function = PAR_multi_tiered;
shift_by_group = 4;

defaultText, count, i-rate in config file, i-rate injected, i-rate accepted, packet latency, flit latency, deadlock?
simulation,         1,      0.01, 0.0099998,  0.010001,    46.671,    46.674,         0,  473283,  439042,  |4-> 473283 , |5-> 0 , |6-> 0 ,,  |4-> 439042 , |5-> 0 , |6-> 0 ,,  |1-> 0 , |2-> 218 , |3-> 70726 , |4-> 402339 , |5-> 0 , |6-> 0 ,,  |1-> 0 , |2-> 260 , |3-> 52974 , |4-> 385808 , |5-> 0 , |6-> 0 ,
simulation,         2,      0.99,   0.33388,     0.381,    3171.2,    1232.5,         1,  0,  0,  ,  ,  ,  
simulation,         3,       0.5,   0.40696,   0.44212,    747.92,    581.98,         1,  0,  0,  ,  ,  ,  
simulation,         4,      0.25,   0.24999,   0.24999,    66.202,    66.208,         0,  8469380,  13041167,  |4-> 17174 , |5-> 7472956 , |6-> 979250 ,,  |4-> 5628 , |5-> 7608248 , |6-> 5427291 ,,  |1-> 0 , |2-> 8 , |3-> 353620 , |4-> 1825161 , |5-> 5661596 , |6-> 628995 ,,  |1-> 0 , |2-> 819 , |3-> 300553 , |4-> 1767419 , |5-> 7903413 , |6-> 3068963 ,
simulation,         5,      0.37,   0.37013,   0.37012,    84.701,    84.715,         0,  8520890,  20242969,  |4-> 3526 , |5-> 5231317 , |6-> 3286047 ,,  |4-> 5457 , |5-> 7623635 , |6-> 12613877 ,,  |1-> 0 , |2-> 0 , |3-> 334255 , |4-> 1659015 , |5-> 4525669 , |6-> 2001951 ,,  |1-> 0 , |2-> 545 , |3-> 417978 , |4-> 2336811 , |5-> 10202776 , |6-> 7284859 ,
simulation,         6,      0.43,   0.42497,   0.42501,    481.95,    170.86,         1,  0,  0,  ,  ,  ,  
simulation,         7,       0.4,   0.40008,    0.4001,    95.604,    95.626,         0,  7296188,  22049213,  |4-> 3505 , |5-> 1283481 , |6-> 6009202 ,,  |4-> 5650 , |5-> 1713059 , |6-> 20330504 ,,  |1-> 0 , |2-> 1 , |3-> 169447 , |4-> 851948 , |5-> 2705797 , |6-> 3568995 ,,  |1-> 0 , |2-> 477 , |3-> 335785 , |4-> 1931932 , |5-> 7871603 , |6-> 11909416 ,
simulation,         8,      0.41,   0.41008,   0.41008,    107.11,    105.83,         0,  7286054,  23710469,  |4-> 3625 , |5-> 740733 , |6-> 6541696 ,,  |4-> 5740 , |5-> 989440 , |6-> 22715289 ,,  |1-> 0 , |2-> 0 , |3-> 150451 , |4-> 759693 , |5-> 2495944 , |6-> 3879966 ,,  |1-> 0 , |2-> 509 , |3-> 351717 , |4-> 2007579 , |5-> 8023125 , |6-> 13327539 ,
simulation,         9,      0.42,    0.4172,   0.41726,    395.56,    154.28,         1,  0,  0,  ,  ,  ,  
simulation,        11,      0.35,   0.35009,   0.35009,    79.201,    79.211,         0,  9119931,  19034726,  |4-> 3604 , |5-> 6935504 , |6-> 2180823 ,,  |4-> 5464 , |5-> 9687889 , |6-> 9341373 ,,  |1-> 0 , |2-> 0 , |3-> 404635 , |4-> 2000928 , |5-> 5332193 , |6-> 1382175 ,,  |1-> 0 , |2-> 642 , |3-> 434178 , |4-> 2415974 , |5-> 10879182 , |6-> 5304750 ,
simulation,        12,       0.3,   0.30009,   0.30009,    71.677,    71.682,         0,  9403435,  16028838,  |4-> 3975 , |5-> 7539294 , |6-> 1860166 ,,  |4-> 5389 , |5-> 8113805 , |6-> 7909644 ,,  |1-> 0 , |2-> 2 , |3-> 425192 , |4-> 2078567 , |5-> 5701017 , |6-> 1198657 ,,  |1-> 0 , |2-> 599 , |3-> 338408 , |4-> 1972163 , |5-> 9273675 , |6-> 4443993 ,
