vc_buf_size = 64;
wait_for_tail_credit = 0;
vc_allocator = separable_input_first;
sw_allocator = separable_input_first;
alloc_iters = 1;
credit_delay = 2;
routing_delay = 0;
vc_alloc_delay = 1;
sw_alloc_delay = 1;
st_final_delay = 1;
input_speedup = 1;
output_speedup = 1;
sim_count = 1;
num_vcs = 7;
priority = none;
packet_size = 1;
injection_rate_uses_flits = 1;
internal_speedup = 4.0;
warmup_periods = 3;
sample_period = 10000;
df_a = 8;
df_arrangement = absolute_improved;
df_g = 0;
global_latency = 10;
local_latency = 10;
multitiered_routing_threshold_0 = 10;
multitiered_routing_threshold_1 = 40;
seed = 11;
topology = dragonflyfull;
traffic = group_shift;
df_g = 9;
routing_function = UGAL_L_multi_tiered;
shift_by_group = 4;

defaultText, count, i-rate in config file, i-rate injected, i-rate accepted, packet latency, flit latency, deadlock?
simulation,         1,      0.01,  0.010011,  0.010011,    38.182,    38.185,         0,  123806,  49440,  |4-> 123806 , |5-> 0 , |6-> 0 ,,  |4-> 49440 , |5-> 0 , |6-> 0 ,,  |1-> 0 , |2-> 1664 , |3-> 18516 , |4-> 103626 , |5-> 0 , |6-> 0 ,,  |1-> 0 , |2-> 776 , |3-> 7759 , |4-> 40905 , |5-> 0 , |6-> 0 ,
simulation,         2,      0.99,   0.44406,    0.4916,    2448.8,    947.23,         1,  0,  0,  ,  ,  ,  
simulation,         3,       0.5,   0.41932,   0.44749,    666.55,    506.71,         1,  0,  0,  ,  ,  ,  
simulation,         4,      0.25,   0.24987,   0.24987,    88.556,    88.605,         0,  2169875,  2163629,  |4-> 291646 , |5-> 1878229 , |6-> 0 ,,  |4-> 68368 , |5-> 1553295 , |6-> 541966 ,,  |1-> 0 , |2-> 13467 , |3-> 190755 , |4-> 1185428 , |5-> 780225 , |6-> 0 ,,  |1-> 0 , |2-> 25772 , |3-> 228597 , |4-> 1214743 , |5-> 659412 , |6-> 35105 ,
simulation,         5,      0.37,   0.36215,   0.36249,    530.17,    347.77,         1,  0,  0,  ,  ,  ,  
simulation,         6,      0.31,    0.3097,   0.30971,    107.55,     107.7,         0,  2176129,  3206538,  |4-> 7042 , |5-> 2126353 , |6-> 42734 ,,  |4-> 2002 , |5-> 2473316 , |6-> 731220 ,,  |1-> 0 , |2-> 8402 , |3-> 148213 , |4-> 1052016 , |5-> 962142 , |6-> 5356 ,,  |1-> 0 , |2-> 38713 , |3-> 343389 , |4-> 1782775 , |5-> 997969 , |6-> 43692 ,
simulation,         7,      0.34,   0.33895,   0.33958,    288.08,    268.43,         0,  3787979,  6462738,  |4-> 5173 , |5-> 2852419 , |6-> 930387 ,,  |4-> 1694 , |5-> 3852218 , |6-> 2608826 ,,  |1-> 0 , |2-> 9733 , |3-> 216596 , |4-> 1716222 , |5-> 1701219 , |6-> 144209 ,,  |1-> 0 , |2-> 77623 , |3-> 703389 , |4-> 3596433 , |5-> 1996997 , |6-> 88296 ,
simulation,         8,      0.35,   0.34635,   0.34652,    533.32,    328.22,         1,  0,  0,  ,  ,  ,  
simulation,        10,       0.3,   0.29975,   0.29976,    104.48,     104.6,         0,  2175650,  3033422,  |4-> 9233 , |5-> 2156132 , |6-> 10285 ,,  |4-> 2464 , |5-> 2365895 , |6-> 665063 ,,  |1-> 0 , |2-> 9197 , |3-> 153594 , |4-> 1060214 , |5-> 951486 , |6-> 1159 ,,  |1-> 0 , |2-> 36517 , |3-> 322406 , |4-> 1687226 , |5-> 945123 , |6-> 42150 ,
simulation,        12,       0.2,   0.19981,   0.19983,    60.255,    60.271,         0,  2156817,  1306278,  |4-> 1992103 , |5-> 164714 , |6-> 0 ,,  |4-> 676192 , |5-> 277189 , |6-> 352897 ,,  |1-> 0 , |2-> 27302 , |3-> 308425 , |4-> 1748662 , |5-> 72428 , |6-> 0 ,,  |1-> 0 , |2-> 17312 , |3-> 165763 , |4-> 877866 , |5-> 221727 , |6-> 23610 ,
