vc_buf_size = 64;
wait_for_tail_credit = 0;
vc_allocator = separable_input_first;
sw_allocator = separable_input_first;
alloc_iters = 1;
credit_delay = 2;
routing_delay = 0;
vc_alloc_delay = 1;
sw_alloc_delay = 1;
st_final_delay = 1;
input_speedup = 1;
output_speedup = 1;
sim_count = 1;
num_vcs = 7;
priority = none;
packet_size = 1;
injection_rate_uses_flits = 1;
internal_speedup = 4.0;
warmup_periods = 3;
sample_period = 1000;
df_a = 8;
df_arrangement = absolute_improved;
df_g = 33;
global_latency = 1;
local_latency = 1;
multitiered_routing_threshold_0 = 10;
multitiered_routing_threshold_1 = 40;
topology = dragonflyfull;
traffic = randperm;
df_g = 33;
perm_seed = 60;
routing_function = UGAL_L_multi_tiered;

defaultText, count, i-rate in config file, i-rate injected, i-rate accepted, packet latency, flit latency, deadlock?
simulation,         1,      0.01, 0.0099858,  0.009983,    9.5428,    9.5439,         0,  57422,  5851,  |4-> 55515 , |5-> 0 , |6-> 0 ,,  |4-> 5674 , |5-> 0 , |6-> 0 ,,  |1-> 0 , |2-> 2003 , |3-> 4823 , |4-> 50596 , |5-> 0 , |6-> 0 ,,  |1-> 0 , |2-> 184 , |3-> 491 , |4-> 5176 , |5-> 0 , |6-> 0 ,
simulation,         2,      0.99,   0.55185,   0.56385,    847.72,    778.55,         1,  0,  0,  ,  ,  ,  
simulation,         3,       0.5,   0.49961,   0.49992,    34.949,    35.424,         0,  2496122,  1561883,  |4-> 2171128 , |5-> 222843 , |6-> 12534 ,,  |4-> 908648 , |5-> 506814 , |6-> 97227 ,,  |1-> 0 , |2-> 93630 , |3-> 202715 , |4-> 2010567 , |5-> 182489 , |6-> 6721 ,,  |1-> 0 , |2-> 50651 , |3-> 83075 , |4-> 922000 , |5-> 448564 , |6-> 57593 ,
simulation,         4,      0.74,   0.55175,   0.59106,    464.43,    462.95,         1,  0,  0,  ,  ,  ,  
simulation,         5,      0.62,   0.55355,   0.56445,    436.59,    364.21,         1,  0,  0,  ,  ,  ,  
simulation,         6,      0.56,    0.5539,   0.55631,    138.38,    107.08,         0,  5759869,  5642292,  |4-> 2616578 , |5-> 2406934 , |6-> 493139 ,,  |4-> 714647 , |5-> 3358456 , |6-> 1419546 ,,  |1-> 0 , |2-> 250108 , |3-> 285312 , |4-> 2827821 , |5-> 2115502 , |6-> 281126 ,,  |1-> 0 , |2-> 152381 , |3-> 115531 , |4-> 1292915 , |5-> 3244376 , |6-> 837089 ,
simulation,         7,      0.59,   0.55788,   0.56715,    261.49,    227.96,         1,  0,  0,  ,  ,  ,  
simulation,         8,      0.57,   0.55834,   0.56287,    213.78,    155.01,         0,  6062334,  6659702,  |4-> 1972091 , |5-> 2912173 , |6-> 915498 ,,  |4-> 486467 , |5-> 3718740 , |6-> 2276250 ,,  |1-> 0 , |2-> 269107 , |3-> 235875 , |4-> 2359263 , |5-> 2668904 , |6-> 529185 ,,  |1-> 0 , |2-> 181165 , |3-> 107439 , |4-> 1206563 , |5-> 3833844 , |6-> 1330691 ,
simulation,         9,      0.58,   0.55948,   0.56619,    341.89,    213.12,         0,  6353076,  7648175,  |4-> 1409439 , |5-> 3082808 , |6-> 1580778 ,,  |4-> 326221 , |5-> 3670091 , |6-> 3443543 ,,  |1-> 0 , |2-> 285969 , |3-> 192301 , |4-> 1924306 , |5-> 3033540 , |6-> 916960 ,,  |1-> 0 , |2-> 211424 , |3-> 99792 , |4-> 1136914 , |5-> 4192848 , |6-> 2007197 ,
simulation,        10,      0.55,   0.54686,   0.54849,    88.457,    78.328,         0,  4659416,  4092084,  |4-> 2697223 , |5-> 1548230 , |6-> 224059 ,,  |4-> 825917 , |5-> 2389426 , |6-> 766558 ,,  |1-> 0 , |2-> 195975 , |3-> 274331 , |4-> 2734277 , |5-> 1327503 , |6-> 127330 ,,  |1-> 0 , |2-> 112486 , |3-> 107327 , |4-> 1193871 , |5-> 2226578 , |6-> 451822 ,
simulation,        12,      0.45,   0.44967,   0.44978,    23.222,    23.421,         0,  1925735,  1031663,  |4-> 1818229 , |5-> 39761 , |6-> 3115 ,,  |4-> 835927 , |5-> 130551 , |6-> 28798 ,,  |1-> 0 , |2-> 67902 , |3-> 166662 , |4-> 1656560 , |5-> 32944 , |6-> 1667 ,,  |1-> 0 , |2-> 37624 , |3-> 71539 , |4-> 788171 , |5-> 117230 , |6-> 17099 ,
simulation,        13,       0.4,   0.39973,   0.39987,    16.979,     17.09,         0,  1719793,  854964,  |4-> 1655155 , |5-> 8191 , |6-> 2 ,,  |4-> 779160 , |5-> 39720 , |6-> 4631 ,,  |1-> 0 , |2-> 59471 , |3-> 149756 , |4-> 1503982 , |5-> 6584 , |6-> 0 ,,  |1-> 0 , |2-> 32637 , |3-> 64828 , |4-> 720519 , |5-> 34198 , |6-> 2782 ,
