vc_buf_size = 64;
wait_for_tail_credit = 0;
vc_allocator = separable_input_first;
sw_allocator = separable_input_first;
alloc_iters = 1;
credit_delay = 2;
routing_delay = 0;
vc_alloc_delay = 1;
sw_alloc_delay = 1;
st_final_delay = 1;
input_speedup = 1;
output_speedup = 1;
sim_count = 1;
num_vcs = 7;
priority = none;
packet_size = 1;
injection_rate_uses_flits = 1;
internal_speedup = 4.0;
warmup_periods = 3;
sample_period = 1000;
df_a = 8;
df_arrangement = absolute_improved;
df_g = 0;
multitiered_routing_threshold_0 = 10;
multitiered_routing_threshold_1 = 40;
seed = 11;
topology = dragonflyfull;
traffic = group_shift;
df_g = 13;
routing_function = UGAL_L_multi_tiered;
shift_by_group = 8;

defaultText, count, i-rate in config file, i-rate injected, i-rate accepted, packet latency, flit latency, deadlock?
simulation,         1,      0.01,  0.009972, 0.0099688,    9.9414,    9.9427,         0,  21517,  3610,  |4-> 21517 , |5-> 0 , |6-> 0 ,,  |4-> 3610 , |5-> 0 , |6-> 0 ,,  |1-> 0 , |2-> 31 , |3-> 3390 , |4-> 18096 , |5-> 0 , |6-> 0 ,,  |1-> 0 , |2-> 4 , |3-> 551 , |4-> 3055 , |5-> 0 , |6-> 0 ,
simulation,         2,      0.99,   0.39837,   0.63031,    492.28,    474.91,         1,  0,  0,  ,  ,  ,  
simulation,         3,       0.5,   0.40851,   0.43511,    286.47,    529.95,         1,  0,  0,  ,  ,  ,  
simulation,         4,      0.25,   0.24992,   0.24994,    42.365,    42.887,         0,  225307,  416716,  |4-> 219713 , |5-> 5594 , |6-> 0 ,,  |4-> 314994 , |5-> 22723 , |6-> 78999 ,,  |1-> 0 , |2-> 259 , |3-> 35357 , |4-> 185939 , |5-> 3752 , |6-> 0 ,,  |1-> 0 , |2-> 547 , |3-> 54025 , |4-> 293752 , |5-> 52651 , |6-> 15741 ,
simulation,         5,      0.37,   0.36902,   0.36989,    61.039,    65.031,         0,  396107,  1269953,  |4-> 85485 , |5-> 294401 , |6-> 16221 ,,  |4-> 123443 , |5-> 892107 , |6-> 254403 ,,  |1-> 0 , |2-> 172 , |3-> 21422 , |4-> 160264 , |5-> 212189 , |6-> 2060 ,,  |1-> 0 , |2-> 1027 , |3-> 93454 , |4-> 512422 , |5-> 614255 , |6-> 48795 ,
simulation,         6,      0.43,   0.39979,   0.41007,    353.27,    318.85,         1,  0,  0,  ,  ,  ,  
simulation,         7,       0.4,    0.3902,   0.39784,    202.98,    207.88,         0,  538522,  1847198,  |4-> 60088 , |5-> 339432 , |6-> 139002 ,,  |4-> 81460 , |5-> 1099938 , |6-> 665800 ,,  |1-> 0 , |2-> 116 , |3-> 20573 , |4-> 176246 , |5-> 310965 , |6-> 30622 ,,  |1-> 0 , |2-> 1306 , |3-> 123454 , |4-> 679907 , |5-> 921728 , |6-> 120803 ,
simulation,         8,      0.41,   0.39352,   0.40318,    334.95,    284.71,         0,  600683,  2082507,  |4-> 55307 , |5-> 366877 , |6-> 178499 ,,  |4-> 74021 , |5-> 1211382 , |6-> 797104 ,,  |1-> 0 , |2-> 100 , |3-> 21226 , |4-> 189513 , |5-> 351020 , |6-> 38824 ,,  |1-> 0 , |2-> 1456 , |3-> 136248 , |4-> 752817 , |5-> 1046155 , |6-> 145831 ,
simulation,         9,      0.42,   0.39726,   0.40745,    287.72,    269.19,         1,  0,  0,  ,  ,  ,  
simulation,        11,      0.35,   0.34957,   0.34961,    49.744,    50.433,         0,  276365,  821780,  |4-> 91539 , |5-> 180177 , |6-> 4649 ,,  |4-> 137172 , |5-> 533302 , |6-> 151306 ,,  |1-> 0 , |2-> 153 , |3-> 18995 , |4-> 130842 , |5-> 125918 , |6-> 457 ,,  |1-> 0 , |2-> 777 , |3-> 65236 , |4-> 359277 , |5-> 366767 , |6-> 29723 ,
simulation,        12,       0.3,    0.2997,   0.29963,     43.84,    44.378,         0,  263118,  636264,  |4-> 195570 , |5-> 67548 , |6-> 0 ,,  |4-> 310215 , |5-> 214634 , |6-> 111415 ,,  |1-> 0 , |2-> 258 , |3-> 32760 , |4-> 184225 , |5-> 45875 , |6-> 0 ,,  |1-> 0 , |2-> 751 , |3-> 68512 , |4-> 369800 , |5-> 175126 , |6-> 22075 ,
