df_a , df_g , topology , df_arrangement , num_vcs , vc_allocation_mode , vc_buf_size , internal_speedup , warmup_periods , sample_period , seed , traffic , perm_seed , df_wc_seed , shift_by_group , shift_percentage , shift_offset , routing_function , five_hop_percentage , ugal_multiply_mode , global_latency , local_latency , saturationPoint , irate_vs_packet_latency , irate_vs_flit_latency , avg_hop_len
16 , 33 , dragonflyfull , absolute_improved , 4 , optimum , 32 , 2.0 , 3 , 10000 , 80 , group_shift , -1 , -1 , 1 , -1 , -1 , UGAL_L , -1 , pathlen_based , 15 , 10 , 0.12 , 0.05->65.19 | 0.07->93.337 | 0.1->122.64 | 0.1->122.64 | 0.11->132.56 | 0.12->160.12 , 0.05->65.2 | 0.07->93.351 | 0.1->122.77 | 0.1->122.77 | 0.11->132.79 | 0.12->160.87 , 0.05->5.1543 | 0.07->5.5559 | 0.1->5.9065 | 0.1->5.9065 | 0.11->5.9814 | 0.12->6.0439
16 , 33 , dragonflyfull , absolute_improved , 4 , optimum , 32 , 2.0 , 3 , 10000 , 80 , group_shift , -1 , -1 , 1 , -1 , -1 , UGAL_L_restricted_src_only , -1 , pathlen_based , 15 , 10 , 0.18 , 0.05->56.75 | 0.1->84.273 | 0.13->95.165 | 0.15->100.83 | 0.16->108.5 | 0.17->126.03 | 0.18->281.37 , 0.05->56.754 | 0.1->84.305 | 0.13->95.265 | 0.15->101.0 | 0.16->104.98 | 0.17->107.87 | 0.18->142.69 , 0.05->4.6019 | 0.1->4.8421 | 0.13->4.9241 | 0.15->4.9589 | 0.16->4.9726 | 0.17->4.9846 | 0.18->4.9947
16 , 33 , dragonflyfull , absolute_improved , 4 , optimum , 32 , 2.0 , 3 , 10000 , 80 , group_shift , -1 , -1 , 1 , -1 , -1 , UGAL_G , -1 , pathlen_based , 15 , 10 , 0.13 , 0.05->73.993 | 0.1->79.728 | 0.13->79.362 , 0.05->74.002 | 0.1->79.736 | 0.13->79.369 , 0.05->5.9042 | 0.1->6.0348 | 0.13->6.07
16 , 33 , dragonflyfull , absolute_improved , 4 , optimum , 32 , 2.0 , 3 , 10000 , 80 , group_shift , -1 , -1 , 1 , -1 , -1 , UGAL_G_restricted_src_only , -1 , pathlen_based , 15 , 10 , 0.19 , 0.05->61.39 | 0.1->64.733 | 0.13->66.133 | 0.15->66.271 | 0.19->74.144 , 0.05->61.393 | 0.1->64.735 | 0.13->66.138 | 0.15->66.277 | 0.19->74.165 , 0.05->4.8755 | 0.1->4.9288 | 0.13->4.9513 | 0.15->4.9576 | 0.19->4.9618
16 , 33 , dragonflyfull , absolute_improved , 5 , optimum , 32 , 2.0 , 3 , 10000 , 80 , group_shift , -1 , -1 , 1 , -1 , -1 , PAR , -1 , pathlen_based , 15 , 10 , 0.16 , 0.05->79.101 | 0.1->81.142 | 0.13->82.731 | 0.15->84.495 | 0.16->86.809 , 0.05->79.117 | 0.1->81.155 | 0.13->82.744 | 0.15->84.506 | 0.16->86.857 , 0.05->6.4013 | 0.1->6.4642 | 0.13->6.5111 | 0.15->6.5542 | 0.16->6.5834
16 , 33 , dragonflyfull , absolute_improved , 5 , optimum , 32 , 2.0 , 3 , 10000 , 80 , group_shift , -1 , -1 , 1 , -1 , -1 , PAR_restricted_src_only , -1 , pathlen_based , 15 , 10 , 0.22 , 0.05->67.257 | 0.1->68.539 | 0.13->69.491 | 0.15->70.106 | 0.19->71.608 | 0.2->72.247 | 0.22->75.093 , 0.05->67.264 | 0.1->68.545 | 0.13->69.498 | 0.15->70.112 | 0.19->71.614 | 0.2->72.252 | 0.22->75.105 , 0.05->5.4094 | 0.1->5.4463 | 0.13->5.4717 | 0.15->5.4875 | 0.19->5.5203 | 0.2->5.5324 | 0.22->5.5495

