vc_buf_size = 64;
wait_for_tail_credit = 0;
vc_allocator = separable_input_first;
sw_allocator = separable_input_first;
alloc_iters = 1;
credit_delay = 2;
routing_delay = 0;
vc_alloc_delay = 1;
sw_alloc_delay = 1;
st_final_delay = 1;
input_speedup = 1;
output_speedup = 1;
sim_count = 1;
num_vcs = 7;
priority = none;
packet_size = 1;
injection_rate_uses_flits = 1;
internal_speedup = 4.0;
warmup_periods = 3;
sample_period = 10000;
df_a = 8;
df_arrangement = absolute_improved;
df_g = 0;
global_latency = 10;
latency_thres = 1000.0;
local_latency = 10;
topology = dragonflyfull;
traffic = uniform;
df_g = 33;
routing_function = UGAL_L;
seed = 92;

defaultText, count, i-rate in config file, i-rate injected, i-rate accepted, packet latency, flit latency, deadlock?
simulation,         1,       0.5,   0.49998,   0.49998,    36.266,    36.268,         0,  0,  0,  ,  ,  ,  
simulation,         2,      0.74,   0.74004,   0.74005,    38.702,    38.703,         0,  0,  0,  ,  ,  ,  
simulation,         3,      0.86,   0.85998,   0.85998,    43.467,    43.469,         0,  0,  0,  ,  ,  ,  
simulation,         4,      0.92,      0.92,   0.91999,    50.664,    50.668,         0,  0,  0,  ,  ,  ,  
simulation,         5,      0.95,   0.94998,   0.94998,    59.814,    59.823,         0,  0,  0,  ,  ,  ,  
simulation,         6,      0.97,      0.97,   0.97001,    74.856,    74.878,         0,  0,  0,  ,  ,  ,  
simulation,         7,      0.98,   0.98005,   0.98001,    92.922,    92.945,         0,  0,  0,  ,  ,  ,  
simulation,         9,       0.9,       0.9,   0.90001,      47.4,    47.403,         0,  0,  0,  ,  ,  ,  
simulation,        10,      0.85,      0.85,   0.85001,      42.8,    42.802,         0,  0,  0,  ,  ,  ,  
simulation,        11,       0.8,   0.80001,   0.80001,     40.39,    40.392,         0,  0,  0,  ,  ,  ,  
