vc_buf_size = 64;
wait_for_tail_credit = 0;
vc_allocator = separable_input_first;
sw_allocator = separable_input_first;
alloc_iters = 1;
credit_delay = 2;
routing_delay = 0;
vc_alloc_delay = 1;
sw_alloc_delay = 1;
st_final_delay = 1;
input_speedup = 1;
output_speedup = 1;
sim_count = 1;
num_vcs = 7;
priority = none;
packet_size = 1;
injection_rate_uses_flits = 1;
internal_speedup = 4.0;
warmup_periods = 3;
sample_period = 10000;
df_a = 8;
df_arrangement = absolute_improved;
df_g = 0;
global_latency = 10;
local_latency = 10;
multitiered_routing_threshold_0 = 10;
multitiered_routing_threshold_1 = 40;
topology = dragonflyfull;
traffic = uniform;
df_g = 13;
routing_function = PAR_multi_tiered;
seed = 8;

defaultText, count, i-rate in config file, i-rate injected, i-rate accepted, packet latency, flit latency, deadlock?
simulation,         1,      0.01,  0.010041,  0.010041,    37.541,    37.544,         0,  342903,  73541,  |4-> 329008 , |5-> 0 , |6-> 0 ,,  |4-> 70546 , |5-> 0 , |6-> 0 ,,  |1-> 0 , |2-> 15366 , |3-> 42131 , |4-> 285406 , |5-> 0 , |6-> 0 ,,  |1-> 0 , |2-> 3345 , |3-> 9146 , |4-> 61050 , |5-> 0 , |6-> 0 ,
simulation,         2,      0.99,   0.92919,   0.94612,    575.64,    297.07,         1,  0,  0,  ,  ,  ,  
simulation,         3,       0.5,   0.50015,   0.50015,    36.095,    36.099,         0,  21207657,  880479,  |4-> 6662516 , |5-> 13739604 , |6-> 0 ,,  |4-> 22572 , |5-> 825277 , |6-> 0 ,,  |1-> 0 , |2-> 859825 , |3-> 1496855 , |4-> 10702371 , |5-> 8148606 , |6-> 0 ,,  |1-> 0 , |2-> 34715 , |3-> 49534 , |4-> 337057 , |5-> 459173 , |6-> 0 ,
simulation,         4,      0.74,   0.74001,   0.74001,    38.621,    38.623,         0,  32149932,  782131,  |4-> 893676 , |5-> 30036241 , |6-> 1321 ,,  |4-> 1541 , |5-> 753904 , |6-> 1453 ,,  |1-> 0 , |2-> 1278546 , |3-> 1539280 , |4-> 11484520 , |5-> 17847353 , |6-> 233 ,,  |1-> 0 , |2-> 27161 , |3-> 45957 , |4-> 299987 , |5-> 408717 , |6-> 309 ,
simulation,         5,      0.86,   0.85999,      0.86,    46.537,    46.541,         0,  37213935,  1116533,  |4-> 114565 , |5-> 34470685 , |6-> 1209020 ,,  |4-> 1581 , |5-> 749388 , |6-> 337823 ,,  |1-> 0 , |2-> 1485675 , |3-> 1695058 , |4-> 12731775 , |5-> 21069793 , |6-> 231634 ,,  |1-> 0 , |2-> 30206 , |3-> 59106 , |4-> 399008 , |5-> 564293 , |6-> 63920 ,
simulation,         6,      0.92,   0.92002,      0.92,    64.244,    64.261,         0,  38920966,  1861655,  |4-> 22369 , |5-> 29636629 , |6-> 7764136 ,,  |4-> 1568 , |5-> 286408 , |6-> 1519484 ,,  |1-> 0 , |2-> 1562955 , |3-> 1688755 , |4-> 12747459 , |5-> 21386704 , |6-> 1535093 ,,  |1-> 0 , |2-> 58117 , |3-> 95496 , |4-> 629188 , |5-> 855544 , |6-> 223310 ,
simulation,         7,      0.95,   0.95001,   0.94998,    91.558,    91.601,         0,  38920294,  2635815,  |4-> 14345 , |5-> 21416943 , |6-> 15996194 ,,  |4-> 1653 , |5-> 51536 , |6-> 2469493 ,,  |1-> 0 , |2-> 1552142 , |3-> 1561327 , |4-> 11999152 , |5-> 20561562 , |6-> 3246111 ,,  |1-> 0 , |2-> 119725 , |3-> 156282 , |4-> 967217 , |5-> 1124315 , |6-> 268276 ,
simulation,         8,      0.97,   0.92765,   0.92821,    865.02,    340.38,         1,  0,  0,  ,  ,  ,  
simulation,         9,      0.96,   0.92872,    0.9311,    722.73,    322.56,         1,  0,  0,  ,  ,  ,  
simulation,        11,       0.9,   0.89997,   0.89999,    55.892,      55.9,         0,  38467208,  1554363,  |4-> 36938 , |5-> 32065747 , |6-> 4888134 ,,  |4-> 1662 , |5-> 460083 , |6-> 1052882 ,,  |1-> 0 , |2-> 1542462 , |3-> 1706612 , |4-> 12838114 , |5-> 21423406 , |6-> 956614 ,,  |1-> 0 , |2-> 42864 , |3-> 76553 , |4-> 522758 , |5-> 738468 , |6-> 173720 ,
simulation,        12,      0.85,   0.85001,   0.84999,    45.152,    45.155,         0,  36826893,  1045397,  |4-> 147609 , |5-> 34515450 , |6-> 760031 ,,  |4-> 1649 , |5-> 784605 , |6-> 231990 ,,  |1-> 0 , |2-> 1469433 , |3-> 1681674 , |4-> 12650524 , |5-> 20881025 , |6-> 144237 ,,  |1-> 0 , |2-> 29525 , |3-> 56441 , |4-> 380571 , |5-> 533766 , |6-> 45094 ,
simulation,        13,       0.8,   0.79998,   0.79997,    40.957,    40.961,         0,  34785496,  849955,  |4-> 388979 , |5-> 33023423 , |6-> 50925 ,,  |4-> 1541 , |5-> 795584 , |6-> 27716 ,,  |1-> 0 , |2-> 1385125 , |3-> 1613802 , |4-> 12131359 , |5-> 19645877 , |6-> 9333 ,,  |1-> 0 , |2-> 27169 , |3-> 48987 , |4-> 324142 , |5-> 444139 , |6-> 5518 ,
