vc_buf_size = 64;
wait_for_tail_credit = 0;
vc_allocator = separable_input_first;
sw_allocator = separable_input_first;
alloc_iters = 1;
credit_delay = 2;
routing_delay = 0;
vc_alloc_delay = 1;
sw_alloc_delay = 1;
st_final_delay = 1;
input_speedup = 1;
output_speedup = 1;
sim_count = 1;
num_vcs = 7;
priority = none;
packet_size = 1;
injection_rate_uses_flits = 1;
internal_speedup = 4.0;
warmup_periods = 3;
sample_period = 1000;
df_a = 16;
df_arrangement = absolute_improved;
df_g = 27;
multitiered_routing_threshold_0 = 10;
multitiered_routing_threshold_1 = 40;
seed = 11;
topology = dragonflyfull;
traffic = group_shift;
routing_function = PAR;
shift_by_group = 2;

defaultText, count, i-rate in config file, i-rate injected, i-rate accepted, packet latency, flit latency, deadlock?
simulation,         1,      0.01,  0.010038,  0.010039,    13.701,    13.703,         0,  288085,  86565,  |4-> 0 , |5-> 0 , |6-> 0 ,,  |4-> 0 , |5-> 0 , |6-> 0 ,,  |1-> 0 , |2-> 38 , |3-> 224 , |4-> 6389 , |5-> 57526 , |6-> 223908 ,,  |1-> 0 , |2-> 5 , |3-> 73 , |4-> 1925 , |5-> 17816 , |6-> 66746 ,
simulation,         2,      0.99,    0.3653,   0.59838,    600.77,    574.82,         1,  0,  0,  ,  ,  ,  
simulation,         3,       0.5,   0.35591,   0.44206,    533.54,    531.37,         1,  0,  0,  ,  ,  ,  
simulation,         4,      0.25,   0.25002,   0.25003,    33.129,    33.382,         0,  3840807,  4472120,  |4-> 0 , |5-> 0 , |6-> 0 ,,  |4-> 0 , |5-> 0 , |6-> 0 ,,  |1-> 0 , |2-> 526 , |3-> 2119 , |4-> 80957 , |5-> 724533 , |6-> 3032672 ,,  |1-> 0 , |2-> 569 , |3-> 4169 , |4-> 108078 , |5-> 937969 , |6-> 3421335 ,
simulation,         5,      0.37,   0.36849,   0.36959,    95.067,    98.324,         0,  7667579,  13910832,  |4-> 0 , |5-> 0 , |6-> 0 ,,  |4-> 0 , |5-> 0 , |6-> 0 ,,  |1-> 0 , |2-> 901 , |3-> 3504 , |4-> 149625 , |5-> 1413658 , |6-> 6099891 ,,  |1-> 0 , |2-> 2292 , |3-> 11990 , |4-> 346681 , |5-> 2895920 , |6-> 10653949 ,
simulation,         6,      0.43,   0.36658,   0.39699,    393.04,    483.36,         1,  0,  0,  ,  ,  ,  
simulation,         7,       0.4,   0.36356,    0.3807,    381.31,    360.22,         1,  0,  0,  ,  ,  ,  
simulation,         8,      0.38,   0.37386,   0.37938,    164.86,     183.5,         0,  9714238,  18928505,  |4-> 0 , |5-> 0 , |6-> 0 ,,  |4-> 0 , |5-> 0 , |6-> 0 ,,  |1-> 0 , |2-> 996 , |3-> 4027 , |4-> 177714 , |5-> 1757319 , |6-> 7774182 ,,  |1-> 0 , |2-> 3446 , |3-> 16691 , |4-> 481933 , |5-> 3957827 , |6-> 14468608 ,
simulation,         9,      0.39,   0.37597,   0.38622,    226.33,    223.11,         1,  0,  0,  ,  ,  ,  
simulation,        10,      0.35,   0.34977,   0.34995,    66.685,     68.28,         0,  5806050,  9271507,  |4-> 0 , |5-> 0 , |6-> 0 ,,  |4-> 0 , |5-> 0 , |6-> 0 ,,  |1-> 0 , |2-> 901 , |3-> 3181 , |4-> 122973 , |5-> 1094929 , |6-> 4584066 ,,  |1-> 0 , |2-> 1386 , |3-> 8009 , |4-> 222835 , |5-> 1914932 , |6-> 7124345 ,
simulation,        11,       0.3,   0.29998,   0.29999,    36.561,     36.91,         0,  4395022,  5578905,  |4-> 0 , |5-> 0 , |6-> 0 ,,  |4-> 0 , |5-> 0 , |6-> 0 ,,  |1-> 0 , |2-> 665 , |3-> 2515 , |4-> 94691 , |5-> 836229 , |6-> 3460922 ,,  |1-> 0 , |2-> 645 , |3-> 5020 , |4-> 130725 , |5-> 1160082 , |6-> 4282433 ,
simulation,        13,       0.2,   0.19998,   0.19999,    32.012,    32.221,         0,  3282999,  3404032,  |4-> 0 , |5-> 0 , |6-> 0 ,,  |4-> 0 , |5-> 0 , |6-> 0 ,,  |1-> 0 , |2-> 441 , |3-> 1789 , |4-> 66818 , |5-> 616113 , |6-> 2597838 ,,  |1-> 0 , |2-> 451 , |3-> 3308 , |4-> 84815 , |5-> 723287 , |6-> 2592171 ,
