df_a , df_g , topology , df_arrangement , vc_buf_size , internal_speedup , warmup_periods , sample_period , seed , traffic , perm_seed , shift_by_group , routing_function , routing_threshold , multitiered_routing_threshold_0 , multitiered_routing_threshold_1 , saturationPoint , irate_vs_packet_latency , irate_vs_flit_latency
8 , 17 , dragonflyfull , absolute_improved , 64 , 4.0 , 3 , 10000 , 90 , group_shift , -1 , 1 , UGAL_L , -1 , 5 , -1 , 0.33 , 0.15->84.687 | 0.2->95.02 | 0.25->102.7 | 0.3->112.67 | 0.31->116.19 | 0.32->124.24 | 0.33->224.45 , 0.15->84.705 | 0.2->95.087 | 0.25->102.83 | 0.3->112.95 | 0.31->116.5 | 0.32->124.6 | 0.33->223.16
8 , 17 , dragonflyfull , absolute_improved , 64 , 4.0 , 3 , 10000 , 90 , group_shift , -1 , 1 , UGAL_L_multi_tiered , -1 , 5 , 32 , 0.33 , 0.15->74.076 | 0.2->82.428 | 0.25->88.75 | 0.3->102.12 | 0.31->104.93 | 0.32->108.57 | 0.33->125.62 , 0.15->74.097 | 0.2->82.486 | 0.25->88.858 | 0.3->102.35 | 0.31->105.18 | 0.32->108.88 | 0.33->126.28
8 , 17 , dragonflyfull , absolute_improved , 64 , 4.0 , 3 , 10000 , 90 , group_shift , -1 , 1 , UGAL_L_multi_tiered , -1 , 5 , 40 , 0.34 , 0.2->82.422 | 0.25->88.054 | 0.3->95.181 | 0.31->97.952 | 0.34->318.67 , 0.2->82.482 | 0.25->88.161 | 0.3->95.36 | 0.31->98.172 | 0.34->252.51
8 , 17 , dragonflyfull , absolute_improved , 64 , 4.0 , 3 , 10000 , 90 , group_shift , -1 , 1 , UGAL_L_multi_tiered , -1 , 5 , 50 , 0.34 , 0.2->82.462 | 0.25->88.075 | 0.3->93.007 | 0.31->94.115 | 0.34->274.01 , 0.2->82.516 | 0.25->88.189 | 0.3->93.189 | 0.31->94.309 | 0.34->191.79
8 , 17 , dragonflyfull , absolute_improved , 64 , 4.0 , 3 , 10000 , 90 , group_shift , -1 , 1 , PAR , -1 , 5 , -1 , 0.43 , 0.25->67.299 | 0.3->74.115 | 0.35->84.726 | 0.37->92.245 | 0.4->102.37 | 0.43->383.97 , 0.25->67.306 | 0.3->74.117 | 0.35->84.729 | 0.37->92.254 | 0.4->102.38 | 0.43->147.27
8 , 17 , dragonflyfull , absolute_improved , 64 , 4.0 , 3 , 10000 , 90 , group_shift , -1 , 1 , PAR_multi_tiered , -1 , 5 , 32 , 0.45 , 0.25->58.77 | 0.3->65.004 | 0.35->71.906 | 0.37->76.173 | 0.4->86.536 | 0.43->137.56 | 0.44->239.65 | 0.45->463.83 , 0.25->58.777 | 0.3->65.01 | 0.35->71.909 | 0.37->76.179 | 0.4->86.546 | 0.43->105.15 | 0.44->119.27 | 0.45->140.07
8 , 17 , dragonflyfull , absolute_improved , 64 , 4.0 , 3 , 10000 , 90 , group_shift , -1 , 1 , PAR_multi_tiered , -1 , 5 , 40 , 0.45 , 0.25->57.785 | 0.3->63.131 | 0.35->71.143 | 0.37->75.031 | 0.4->83.46 | 0.43->125.5 | 0.44->205.69 | 0.45->404.33 , 0.25->57.79 | 0.3->63.137 | 0.35->71.146 | 0.37->75.034 | 0.4->83.47 | 0.43->101.94 | 0.44->114.25 | 0.45->130.72
8 , 17 , dragonflyfull , absolute_improved , 64 , 4.0 , 3 , 10000 , 90 , group_shift , -1 , 1 , PAR_multi_tiered , -1 , 5 , 50 , 0.45 , 0.25->57.623 | 0.3->61.246 | 0.35->68.726 | 0.37->73.395 | 0.4->82.16 | 0.43->92.121 | 0.44->134.53 | 0.45->273.2 , 0.25->57.627 | 0.3->61.249 | 0.35->68.729 | 0.37->73.397 | 0.4->82.168 | 0.43->92.169 | 0.44->105.45 | 0.45->113.37

8 , 17 , dragonflyfull , absolute_improved , 64 , 4.0 , 3 , 10000 , 90 , group_shift , -1 , 4 , UGAL_L , -1 , 5 , -1 , 0.33 , 0.15->84.43 | 0.2->94.729 | 0.25->102.42 | 0.3->113.02 | 0.31->116.61 | 0.32->124.05 | 0.33->224.83 , 0.15->84.449 | 0.2->94.788 | 0.25->102.55 | 0.3->113.29 | 0.31->116.94 | 0.32->124.49 | 0.33->226.46
8 , 17 , dragonflyfull , absolute_improved , 64 , 4.0 , 3 , 10000 , 90 , group_shift , -1 , 4 , UGAL_L_multi_tiered , -1 , 5 , 32 , 0.34 , 0.2->84.109 | 0.25->90.743 | 0.3->103.23 | 0.31->105.94 | 0.34->471.49 , 0.2->84.171 | 0.25->90.863 | 0.3->103.46 | 0.31->106.2 | 0.34->284.61
8 , 17 , dragonflyfull , absolute_improved , 64 , 4.0 , 3 , 10000 , 90 , group_shift , -1 , 4 , UGAL_L_multi_tiered , -1 , 5 , 40 , 0.34 , 0.2->84.119 | 0.25->90.508 | 0.3->97.462 | 0.31->100.67 | 0.34->309.36 , 0.2->84.181 | 0.25->90.63 | 0.3->97.665 | 0.31->100.91 | 0.34->243.53
8 , 17 , dragonflyfull , absolute_improved , 64 , 4.0 , 3 , 10000 , 90 , group_shift , -1 , 4 , UGAL_L_multi_tiered , -1 , 5 , 50 , 0.34 , 0.2->84.122 | 0.25->90.688 | 0.3->96.723 | 0.31->98.139 | 0.34->151.0 , 0.2->84.184 | 0.25->90.818 | 0.3->96.923 | 0.31->98.368 | 0.34->149.03
8 , 17 , dragonflyfull , absolute_improved , 64 , 4.0 , 3 , 10000 , 90 , group_shift , -1 , 4 , PAR , -1 , 5 , -1 , 0.42 , 0.25->67.392 | 0.3->74.254 | 0.35->85.519 | 0.37->93.606 | 0.4->105.11 | 0.41->136.82 | 0.42->327.14 , 0.25->67.398 | 0.3->74.255 | 0.35->85.523 | 0.37->93.613 | 0.4->105.1 | 0.41->122.14 | 0.42->147.41
8 , 17 , dragonflyfull , absolute_improved , 64 , 4.0 , 3 , 10000 , 90 , group_shift , -1 , 4 , PAR_multi_tiered , -1 , 5 , 32 , 0.44 , 0.25->58.953 | 0.3->65.253 | 0.35->71.891 | 0.37->75.776 | 0.4->85.896 | 0.43->97.717 | 0.44->151.64 , 0.25->58.958 | 0.3->65.257 | 0.35->71.895 | 0.37->75.779 | 0.4->85.907 | 0.43->97.764 | 0.44->120.67
8 , 17 , dragonflyfull , absolute_improved , 64 , 4.0 , 3 , 10000 , 90 , group_shift , -1 , 4 , PAR_multi_tiered , -1 , 5 , 40 , 0.45 , 0.25->57.83 | 0.3->63.236 | 0.35->71.333 | 0.37->74.9 | 0.4->83.228 | 0.43->93.22 | 0.44->99.905 | 0.45->395.59 , 0.25->57.834 | 0.3->63.241 | 0.35->71.335 | 0.37->74.903 | 0.4->83.236 | 0.43->93.236 | 0.44->99.979 | 0.45->149.42
8 , 17 , dragonflyfull , absolute_improved , 64 , 4.0 , 3 , 10000 , 90 , group_shift , -1 , 4 , PAR_multi_tiered , -1 , 5 , 50 , 0.46 , 0.25->57.598 | 0.3->61.187 | 0.35->68.781 | 0.37->73.575 | 0.4->82.179 | 0.43->90.313 | 0.45->102.08 | 0.46->361.79 , 0.25->57.602 | 0.3->61.191 | 0.35->68.783 | 0.37->73.578 | 0.4->82.18 | 0.43->90.326 | 0.45->102.12 | 0.46->151.65

8 , 17 , dragonflyfull , absolute_improved , 64 , 4.0 , 3 , 10000 , 90 , group_shift , -1 , 9 , UGAL_L , -1 , 5 , -1 , 0.33 , 0.15->84.624 | 0.2->95.113 | 0.25->103.0 | 0.3->113.86 | 0.31->117.62 | 0.32->124.91 | 0.33->248.84 , 0.15->84.645 | 0.2->95.179 | 0.25->103.13 | 0.3->114.14 | 0.31->117.95 | 0.32->125.38 | 0.33->251.71
8 , 17 , dragonflyfull , absolute_improved , 64 , 4.0 , 3 , 10000 , 90 , group_shift , -1 , 9 , UGAL_L_multi_tiered , -1 , 5 , 32 , 0.34 , 0.2->84.75 | 0.25->91.394 | 0.3->103.79 | 0.31->106.36 | 0.34->163.39 , 0.2->84.809 | 0.25->91.512 | 0.3->104.03 | 0.31->106.64 | 0.34->163.96
8 , 17 , dragonflyfull , absolute_improved , 64 , 4.0 , 3 , 10000 , 90 , group_shift , -1 , 9 , UGAL_L_multi_tiered , -1 , 5 , 40 , 0.34 , 0.2->84.781 | 0.25->90.938 | 0.3->97.876 | 0.31->100.96 | 0.34->161.29 , 0.2->84.845 | 0.25->91.057 | 0.3->98.089 | 0.31->101.2 | 0.34->153.44
8 , 17 , dragonflyfull , absolute_improved , 64 , 4.0 , 3 , 10000 , 90 , group_shift , -1 , 9 , UGAL_L_multi_tiered , -1 , 5 , 50 , 0.34 , 0.2->84.812 | 0.25->90.941 | 0.3->96.623 | 0.31->98.093 | 0.34->121.94 , 0.2->84.876 | 0.25->91.068 | 0.3->96.823 | 0.31->98.308 | 0.34->122.98
8 , 17 , dragonflyfull , absolute_improved , 64 , 4.0 , 3 , 10000 , 90 , group_shift , -1 , 9 , PAR , -1 , 5 , -1 , 0.41 , 0.25->67.631 | 0.3->74.597 | 0.35->87.04 | 0.37->95.037 | 0.4->119.27 | 0.41->240.19 , 0.25->67.638 | 0.3->74.598 | 0.35->87.042 | 0.37->95.041 | 0.4->115.62 | 0.41->142.72
8 , 17 , dragonflyfull , absolute_improved , 64 , 4.0 , 3 , 10000 , 90 , group_shift , -1 , 9 , PAR_multi_tiered , -1 , 5 , 32 , 0.45 , 0.25->59.509 | 0.3->65.57 | 0.35->71.887 | 0.37->75.611 | 0.4->85.232 | 0.43->97.092 | 0.44->130.4 | 0.45->406.16 , 0.25->59.515 | 0.3->65.574 | 0.35->71.889 | 0.37->75.613 | 0.4->85.233 | 0.43->97.102 | 0.44->121.36 | 0.45->159.61
8 , 17 , dragonflyfull , absolute_improved , 64 , 4.0 , 3 , 10000 , 90 , group_shift , -1 , 9 , PAR_multi_tiered , -1 , 5 , 40 , 0.45 , 0.25->58.429 | 0.3->63.766 | 0.35->71.472 | 0.37->74.83 | 0.4->82.958 | 0.43->93.298 | 0.44->105.31 | 0.45->310.57 , 0.25->58.435 | 0.3->63.768 | 0.35->71.475 | 0.37->74.833 | 0.4->82.961 | 0.43->93.308 | 0.44->104.98 | 0.45->151.09
8 , 17 , dragonflyfull , absolute_improved , 64 , 4.0 , 3 , 10000 , 90 , group_shift , -1 , 9 , PAR_multi_tiered , -1 , 5 , 50 , 0.46 , 0.25->58.221 | 0.3->61.822 | 0.35->69.16 | 0.37->73.796 | 0.4->81.606 | 0.43->90.723 | 0.45->114.08 | 0.46->361.4 , 0.25->58.225 | 0.3->61.825 | 0.35->69.164 | 0.37->73.798 | 0.4->81.607 | 0.43->90.727 | 0.45->111.41 | 0.46->151.45

8 , 17 , dragonflyfull , absolute_improved , 64 , 4.0 , 3 , 10000 , 90 , group_shift , -1 , 13 , UGAL_L , -1 , 5 , -1 , 0.33 , 0.15->84.525 | 0.2->94.82 | 0.25->102.48 | 0.3->112.5 | 0.31->115.84 | 0.32->122.29 | 0.33->178.61 , 0.15->84.546 | 0.2->94.883 | 0.25->102.61 | 0.3->112.76 | 0.31->116.15 | 0.32->122.66 | 0.33->178.87
8 , 17 , dragonflyfull , absolute_improved , 64 , 4.0 , 3 , 10000 , 90 , group_shift , -1 , 13 , UGAL_L_multi_tiered , -1 , 5 , 32 , 0.34 , 0.2->83.473 | 0.25->89.834 | 0.3->102.73 | 0.31->105.24 | 0.34->452.0 , 0.2->83.534 | 0.25->89.951 | 0.3->102.97 | 0.31->105.5 | 0.34->245.55
8 , 17 , dragonflyfull , absolute_improved , 64 , 4.0 , 3 , 10000 , 90 , group_shift , -1 , 13 , UGAL_L_multi_tiered , -1 , 5 , 40 , 0.34 , 0.2->83.452 | 0.25->89.369 | 0.3->96.185 | 0.31->98.808 | 0.34->249.76 , 0.2->83.51 | 0.25->89.488 | 0.3->96.385 | 0.31->99.039 | 0.34->205.46
8 , 17 , dragonflyfull , absolute_improved , 64 , 4.0 , 3 , 10000 , 90 , group_shift , -1 , 13 , UGAL_L_multi_tiered , -1 , 5 , 50 , 0.34 , 0.2->83.433 | 0.25->89.343 | 0.3->94.698 | 0.31->95.958 | 0.34->134.29 , 0.2->83.493 | 0.25->89.455 | 0.3->94.877 | 0.31->96.17 | 0.34->131.92
8 , 17 , dragonflyfull , absolute_improved , 64 , 4.0 , 3 , 10000 , 90 , group_shift , -1 , 13 , PAR , -1 , 5 , -1 , 0.44 , 0.25->67.306 | 0.3->74.025 | 0.35->84.36 | 0.37->90.946 | 0.4->100.95 | 0.43->187.12 | 0.44->396.61 , 0.25->67.311 | 0.3->74.027 | 0.35->84.363 | 0.37->90.95 | 0.4->100.95 | 0.43->124.95 | 0.44->147.2
8 , 17 , dragonflyfull , absolute_improved , 64 , 4.0 , 3 , 10000 , 90 , group_shift , -1 , 13 , PAR_multi_tiered , -1 , 5 , 32 , 0.46 , 0.25->58.968 | 0.3->65.14 | 0.35->71.684 | 0.37->75.713 | 0.4->84.489 | 0.43->94.686 | 0.45->112.99 | 0.46->250.87 , 0.25->58.974 | 0.3->65.144 | 0.35->71.686 | 0.37->75.716 | 0.4->84.496 | 0.43->94.699 | 0.45->110.35 | 0.46->140.36
8 , 17 , dragonflyfull , absolute_improved , 64 , 4.0 , 3 , 10000 , 90 , group_shift , -1 , 13 , PAR_multi_tiered , -1 , 5 , 40 , 0.46 , 0.25->57.953 | 0.3->63.104 | 0.35->71.189 | 0.37->74.898 | 0.4->82.178 | 0.43->91.305 | 0.45->110.51 | 0.46->226.65 , 0.25->57.958 | 0.3->63.108 | 0.35->71.192 | 0.37->74.902 | 0.4->82.185 | 0.43->91.322 | 0.45->107.68 | 0.46->138.72
8 , 17 , dragonflyfull , absolute_improved , 64 , 4.0 , 3 , 10000 , 90 , group_shift , -1 , 13 , PAR_multi_tiered , -1 , 5 , 50 , 0.47 , 0.25->57.729 | 0.3->61.189 | 0.35->68.492 | 0.37->73.516 | 0.4->81.176 | 0.43->89.149 | 0.45->97.806 | 0.46->113.96 | 0.47->328.72 , 0.25->57.734 | 0.3->61.192 | 0.35->68.495 | 0.37->73.521 | 0.4->81.185 | 0.43->89.161 | 0.45->97.848 | 0.46->111.38 | 0.47->144.77

8 , 17 , dragonflyfull , absolute_improved , 64 , 4.0 , 3 , 10000 , 90 , randperm , 74 , -1 , UGAL_L , -1 , 5 , -1 , 0.59 , 0.45->42.918 | 0.5->47.199 | 0.55->132.52 | 0.56->215.74 | 0.59->446.38 , 0.45->42.93 | 0.5->47.216 | 0.55->60.248 | 0.56->63.223 | 0.59->84.229
8 , 17 , dragonflyfull , absolute_improved , 64 , 4.0 , 3 , 10000 , 90 , randperm , 74 , -1 , UGAL_L_multi_tiered , -1 , 5 , 32 , 0.61 , 0.45->40.618 | 0.5->44.291 | 0.55->50.958 | 0.56->53.147 | 0.59->73.874 | 0.6->273.66 | 0.61->485.65 , 0.45->40.624 | 0.5->44.305 | 0.55->50.982 | 0.56->53.19 | 0.59->65.77 | 0.6->79.235 | 0.61->90.404
8 , 17 , dragonflyfull , absolute_improved , 64 , 4.0 , 3 , 10000 , 90 , randperm , 74 , -1 , UGAL_L_multi_tiered , -1 , 5 , 40 , 0.61 , 0.45->40.609 | 0.5->44.188 | 0.55->50.466 | 0.56->52.54 | 0.59->66.787 | 0.6->178.53 | 0.61->390.81 , 0.45->40.617 | 0.5->44.2 | 0.55->50.485 | 0.56->52.569 | 0.59->63.81 | 0.6->77.402 | 0.61->84.942
8 , 17 , dragonflyfull , absolute_improved , 64 , 4.0 , 3 , 10000 , 90 , randperm , 74 , -1 , UGAL_L_multi_tiered , -1 , 5 , 50 , 0.61 , 0.45->40.609 | 0.5->44.261 | 0.55->50.342 | 0.56->52.278 | 0.59->64.148 | 0.6->166.69 | 0.61->395.44 , 0.45->40.617 | 0.5->44.273 | 0.55->50.365 | 0.56->52.306 | 0.59->63.111 | 0.6->73.251 | 0.61->81.854
8 , 17 , dragonflyfull , absolute_improved , 64 , 4.0 , 3 , 10000 , 90 , randperm , 74 , -1 , PAR , -1 , 5 , -1 , 0.64 , 0.45->43.461 | 0.5->44.888 | 0.55->48.271 | 0.6->57.582 | 0.62->66.677 | 0.63->74.884 | 0.64->110.6 , 0.45->43.47 | 0.5->44.898 | 0.55->48.283 | 0.6->57.6 | 0.62->66.713 | 0.63->74.917 | 0.64->94.449
8 , 17 , dragonflyfull , absolute_improved , 64 , 4.0 , 3 , 10000 , 90 , randperm , 74 , -1 , PAR_multi_tiered , -1 , 5 , 32 , 0.66 , 0.5->42.508 | 0.55->44.626 | 0.6->50.419 | 0.62->55.682 | 0.65->74.387 | 0.66->145.4 , 0.5->42.516 | 0.55->44.634 | 0.6->50.434 | 0.62->55.695 | 0.65->74.422 | 0.66->96.477
8 , 17 , dragonflyfull , absolute_improved , 64 , 4.0 , 3 , 10000 , 90 , randperm , 74 , -1 , PAR_multi_tiered , -1 , 5 , 40 , 0.66 , 0.5->42.451 | 0.55->44.413 | 0.6->49.149 | 0.62->53.225 | 0.65->68.273 | 0.66->102.66 , 0.5->42.458 | 0.55->44.421 | 0.6->49.157 | 0.62->53.24 | 0.65->68.305 | 0.66->85.367
8 , 17 , dragonflyfull , absolute_improved , 64 , 4.0 , 3 , 10000 , 90 , randperm , 74 , -1 , PAR_multi_tiered , -1 , 5 , 50 , 0.67 , 0.5->42.462 | 0.55->44.391 | 0.6->48.71 | 0.62->52.077 | 0.65->62.477 | 0.66->71.066 | 0.67->207.77 , 0.5->42.469 | 0.55->44.397 | 0.6->48.717 | 0.62->52.091 | 0.65->62.499 | 0.66->71.103 | 0.67->134.46

8 , 17 , dragonflyfull , absolute_improved , 64 , 4.0 , 3 , 10000 , 90 , randperm , 76 , -1 , UGAL_L , -1 , 5 , -1 , 0.60 , 0.45->42.166 | 0.5->45.98 | 0.55->55.774 | 0.56->59.129 | 0.59->199.64 | 0.6->341.78 , 0.45->42.175 | 0.5->45.994 | 0.55->55.804 | 0.56->59.17 | 0.59->82.102 | 0.6->95.241
8 , 17 , dragonflyfull , absolute_improved , 64 , 4.0 , 3 , 10000 , 90 , randperm , 76 , -1 , UGAL_L_multi_tiered , -1 , 5 , 32 , 0.61 , 0.45->40.548 | 0.5->43.399 | 0.55->51.394 | 0.56->53.571 | 0.59->91.159 | 0.6->228.31 | 0.61->458.07 , 0.45->40.555 | 0.5->43.406 | 0.55->51.419 | 0.56->53.599 | 0.59->71.08 | 0.6->82.067 | 0.61->96.869
8 , 17 , dragonflyfull , absolute_improved , 64 , 4.0 , 3 , 10000 , 90 , randperm , 76 , -1 , UGAL_L_multi_tiered , -1 , 5 , 40 , 0.61 , 0.45->40.545 | 0.5->43.262 | 0.55->51.172 | 0.56->53.14 | 0.59->70.171 | 0.6->209.2 | 0.61->377.04 , 0.45->40.551 | 0.5->43.269 | 0.55->51.193 | 0.56->53.172 | 0.59->67.592 | 0.6->78.697 | 0.61->91.5
8 , 17 , dragonflyfull , absolute_improved , 64 , 4.0 , 3 , 10000 , 90 , randperm , 76 , -1 , UGAL_L_multi_tiered , -1 , 5 , 50 , 0.61 , 0.45->40.523 | 0.5->43.286 | 0.55->51.118 | 0.56->53.158 | 0.59->62.652 | 0.6->144.93 | 0.61->311.73 , 0.45->40.529 | 0.5->43.296 | 0.55->51.14 | 0.56->53.187 | 0.59->62.713 | 0.6->78.653 | 0.61->85.544
8 , 17 , dragonflyfull , absolute_improved , 64 , 4.0 , 3 , 10000 , 90 , randperm , 76 , -1 , PAR , -1 , 5 , -1 , 0.64 , 0.45->43.823 | 0.5->45.385 | 0.55->49.618 | 0.6->59.276 | 0.62->68.052 | 0.63->75.907 | 0.64->100.19 , 0.45->43.833 | 0.5->45.395 | 0.55->49.63 | 0.6->59.302 | 0.62->68.088 | 0.63->75.949 | 0.64->100.32
8 , 17 , dragonflyfull , absolute_improved , 64 , 4.0 , 3 , 10000 , 90 , randperm , 76 , -1 , PAR_multi_tiered , -1 , 5 , 32 , 0.65 , 0.5->42.977 | 0.55->45.738 | 0.6->52.214 | 0.62->57.639 | 0.65->79.674 , 0.5->42.983 | 0.55->45.747 | 0.6->52.232 | 0.62->57.663 | 0.65->79.74
8 , 17 , dragonflyfull , absolute_improved , 64 , 4.0 , 3 , 10000 , 90 , randperm , 76 , -1 , PAR_multi_tiered , -1 , 5 , 40 , 0.66 , 0.5->42.928 | 0.55->45.52 | 0.6->51.06 | 0.62->55.139 | 0.65->72.938 | 0.66->321.26 , 0.5->42.935 | 0.55->45.529 | 0.6->51.074 | 0.62->55.161 | 0.65->72.972 | 0.66->134.05
8 , 17 , dragonflyfull , absolute_improved , 64 , 4.0 , 3 , 10000 , 90 , randperm , 76 , -1 , PAR_multi_tiered , -1 , 5 , 50 , 0.66 , 0.5->42.931 | 0.55->45.474 | 0.6->50.704 | 0.62->54.233 | 0.65->65.211 | 0.66->88.858 , 0.5->42.938 | 0.55->45.483 | 0.6->50.716 | 0.62->54.249 | 0.65->65.239 | 0.66->78.783

