input_speedup = 1;
warmup_periods = 3;
alloc_iters = 1;
st_final_delay = 1;
sw_allocator = separable_input_first;
injection_rate_uses_flits = 1;
vc_alloc_delay = 1;
vc_allocator = separable_input_first;
credit_delay = 2;
priority = none;
sim_count = 1;
output_speedup = 1;
wait_for_tail_credit = 0;
sw_alloc_delay = 1;
routing_delay = 0;
internal_speedup = 4.0;
packet_size = 1;
num_vcs = 7;
sample_period = 1000;
vc_buf_size = 64;
df_a = 8;
df_arrangement = absolute_improved;
df_g = 0;
multitiered_routing_threshold_0 = 10;
multitiered_routing_threshold_1 = 40;
topology = dragonflyfull;
traffic = uniform;
df_g = 22;
routing_function = UGAL_L_multi_tiered;
seed = 2;

defaultText, count, i-rate in config file, i-rate injected, i-rate accepted, packet latency, flit latency, deadlock?
simulation,         1,      0.01,  0.010024,  0.010018,    9.4746,    9.4759,         0,  39776,  2257,  |4-> 38212 , |5-> 0 , |6-> 0 ,,  |4-> 2162 , |5-> 0 , |6-> 0 ,,  |1-> 0 , |2-> 1696 , |3-> 4188 , |4-> 33892 , |5-> 0 , |6-> 0 ,,  |1-> 0 , |2-> 102 , |3-> 242 , |4-> 1913 , |5-> 0 , |6-> 0 ,
simulation,         2,      0.99,   0.70663,    0.7373,    607.88,    530.24,         1,  0,  0,  ,  ,  ,  
simulation,         3,       0.5,   0.50035,   0.50039,     11.74,    11.741,         0,  1775645,  333061,  |4-> 1705666 , |5-> 411 , |6-> 0 ,,  |4-> 316012 , |5-> 2701 , |6-> 0 ,,  |1-> 0 , |2-> 74919 , |3-> 193445 , |4-> 1506996 , |5-> 285 , |6-> 0 ,,  |1-> 0 , |2-> 15289 , |3-> 35127 , |4-> 280565 , |5-> 2080 , |6-> 0 ,
simulation,         4,      0.74,   0.71727,   0.72991,     207.2,    185.13,         0,  5429984,  1652324,  |4-> 2307569 , |5-> 2066000 , |6-> 826277 ,,  |4-> 196809 , |5-> 877359 , |6-> 525789 ,,  |1-> 0 , |2-> 238579 , |3-> 307206 , |4-> 2572216 , |5-> 1921579 , |6-> 390404 ,,  |1-> 0 , |2-> 54818 , |3-> 67233 , |4-> 498548 , |5-> 842364 , |6-> 189361 ,
simulation,         5,      0.86,   0.70958,   0.73298,    497.89,    466.94,         1,  0,  0,  ,  ,  ,  
simulation,         6,       0.8,   0.71159,    0.7348,    462.32,    366.27,         1,  0,  0,  ,  ,  ,  
simulation,         7,      0.77,   0.71409,   0.73216,    354.81,    278.38,         1,  0,  0,  ,  ,  ,  
simulation,         8,      0.75,   0.71607,    0.7311,    301.94,    237.41,         0,  5733604,  1827302,  |4-> 2160301 , |5-> 2193988 , |6-> 1136517 ,,  |4-> 171421 , |5-> 911131 , |6-> 684426 ,,  |1-> 0 , |2-> 250934 , |3-> 295600 , |4-> 2501597 , |5-> 2147185 , |6-> 538288 ,,  |1-> 0 , |2-> 62850 , |3-> 69117 , |4-> 517566 , |5-> 936644 , |6-> 241125 ,
simulation,         9,      0.76,   0.71642,   0.73314,    383.07,    276.12,         0,  5590021,  1819503,  |4-> 1915240 , |5-> 2121100 , |6-> 1318669 ,,  |4-> 144362 , |5-> 857966 , |6-> 755915 ,,  |1-> 0 , |2-> 242484 , |3-> 268822 , |4-> 2284853 , |5-> 2167521 , |6-> 626341 ,,  |1-> 0 , |2-> 63650 , |3-> 66310 , |4-> 496446 , |5-> 933138 , |6-> 259959 ,
simulation,        11,       0.7,   0.70013,   0.70032,    21.786,    21.865,         0,  2546325,  449774,  |4-> 2375193 , |5-> 67466 , |6-> 55 ,,  |4-> 291958 , |5-> 121022 , |6-> 20696 ,,  |1-> 0 , |2-> 110892 , |3-> 269712 , |4-> 2116758 , |5-> 48963 , |6-> 0 ,,  |1-> 0 , |2-> 17069 , |3-> 35782 , |4-> 285978 , |5-> 101748 , |6-> 9197 ,
simulation,        12,      0.65,   0.65025,   0.65024,    14.257,    14.261,         0,  2357349,  388641,  |4-> 2239670 , |5-> 22719 , |6-> 0 ,,  |4-> 321602 , |5-> 51427 , |6-> 5 ,,  |1-> 0 , |2-> 101752 , |3-> 254035 , |4-> 1984764 , |5-> 16798 , |6-> 0 ,,  |1-> 0 , |2-> 16645 , |3-> 36951 , |4-> 295958 , |5-> 39084 , |6-> 3 ,
simulation,        13,       0.6,   0.60004,   0.60005,    12.966,    12.968,         0,  2166170,  364169,  |4-> 2073609 , |5-> 6939 , |6-> 0 ,,  |4-> 328689 , |5-> 20378 , |6-> 0 ,,  |1-> 0 , |2-> 92005 , |3-> 234570 , |4-> 1834513 , |5-> 5082 , |6-> 0 ,,  |1-> 0 , |2-> 16108 , |3-> 37160 , |4-> 295471 , |5-> 15430 , |6-> 0 ,
