vc_buf_size = 64;
wait_for_tail_credit = 0;
vc_allocator = separable_input_first;
sw_allocator = separable_input_first;
alloc_iters = 1;
credit_delay = 2;
routing_delay = 0;
vc_alloc_delay = 1;
sw_alloc_delay = 1;
st_final_delay = 1;
input_speedup = 1;
output_speedup = 1;
sim_count = 1;
num_vcs = 7;
priority = none;
packet_size = 1;
injection_rate_uses_flits = 1;
internal_speedup = 4.0;
warmup_periods = 3;
sample_period = 10000;
df_a = 8;
df_arrangement = absolute_improved;
df_g = 0;
global_latency = 10;
local_latency = 10;
multitiered_routing_threshold_0 = 10;
multitiered_routing_threshold_1 = 40;
seed = 11;
topology = dragonflyfull;
traffic = group_shift;
df_g = 15;
routing_function = UGAL_L;
shift_by_group = 6;

defaultText, count, i-rate in config file, i-rate injected, i-rate accepted, packet latency, flit latency, deadlock?
simulation,         1,      0.01,  0.010056,  0.010058,    45.404,    45.412,         0,  187949,  101394,  |4-> 0 , |5-> 0 , |6-> 0 ,,  |4-> 0 , |5-> 0 , |6-> 0 ,,  |1-> 0 , |2-> 21 , |3-> 1221 , |4-> 12573 , |5-> 62982 , |6-> 111152 ,,  |1-> 0 , |2-> 9 , |3-> 712 , |4-> 7652 , |5-> 35184 , |6-> 57837 ,
simulation,         2,      0.99,   0.34892,    0.3963,    3099.3,    1186.6,         1,  0,  0,  ,  ,  ,  
simulation,         3,       0.5,   0.35957,   0.39613,    1161.4,    789.52,         1,  0,  0,  ,  ,  ,  
simulation,         4,      0.25,   0.25011,    0.2501,    105.09,    105.21,         0,  2055347,  5179613,  |4-> 0 , |5-> 0 , |6-> 0 ,,  |4-> 0 , |5-> 0 , |6-> 0 ,,  |1-> 0 , |2-> 164 , |3-> 8526 , |4-> 108998 , |5-> 650512 , |6-> 1287147 ,,  |1-> 0 , |2-> 627 , |3-> 40207 , |4-> 399667 , |5-> 1799083 , |6-> 2940029 ,
simulation,         5,      0.37,    0.3359,   0.35086,    782.71,     608.3,         1,  0,  0,  ,  ,  ,  
simulation,         6,      0.31,   0.30572,    0.3061,    526.62,    268.51,         1,  0,  0,  ,  ,  ,  
simulation,         7,      0.28,   0.28012,   0.28011,    112.22,    112.41,         0,  2063037,  6065471,  |4-> 0 , |5-> 0 , |6-> 0 ,,  |4-> 0 , |5-> 0 , |6-> 0 ,,  |1-> 0 , |2-> 142 , |3-> 7410 , |4-> 102206 , |5-> 644803 , |6-> 1308476 ,,  |1-> 0 , |2-> 752 , |3-> 47310 , |4-> 470031 , |5-> 2107853 , |6-> 3439525 ,
simulation,         8,      0.29,   0.29015,   0.29015,    120.02,    120.39,         0,  2117677,  6520949,  |4-> 0 , |5-> 0 , |6-> 0 ,,  |4-> 0 , |5-> 0 , |6-> 0 ,,  |1-> 0 , |2-> 136 , |3-> 6985 , |4-> 101208 , |5-> 658392 , |6-> 1350956 ,,  |1-> 0 , |2-> 742 , |3-> 51253 , |4-> 506289 , |5-> 2266401 , |6-> 3696264 ,
simulation,         9,       0.3,   0.29857,   0.29869,    345.09,    188.88,         0,  4532708,  14508055,  |4-> 0 , |5-> 0 , |6-> 0 ,,  |4-> 0 , |5-> 0 , |6-> 0 ,,  |1-> 0 , |2-> 226 , |3-> 13312 , |4-> 208931 , |5-> 1399391 , |6-> 2910848 ,,  |1-> 0 , |2-> 1879 , |3-> 114754 , |4-> 1130713 , |5-> 5049482 , |6-> 8211227 ,
simulation,        12,       0.2,   0.20009,   0.20008,    95.314,    95.371,         0,  2051739,  3731847,  |4-> 0 , |5-> 0 , |6-> 0 ,,  |4-> 0 , |5-> 0 , |6-> 0 ,,  |1-> 0 , |2-> 187 , |3-> 9556 , |4-> 116036 , |5-> 657974 , |6-> 1267986 ,,  |1-> 0 , |2-> 494 , |3-> 29396 , |4-> 291342 , |5-> 1302230 , |6-> 2108385 ,
simulation,        13,      0.15,   0.15009,   0.15009,    81.292,    81.309,         0,  2047007,  2285342,  |4-> 0 , |5-> 0 , |6-> 0 ,,  |4-> 0 , |5-> 0 , |6-> 0 ,,  |1-> 0 , |2-> 183 , |3-> 10430 , |4-> 122368 , |5-> 666241 , |6-> 1247785 ,,  |1-> 0 , |2-> 270 , |3-> 18755 , |4-> 182293 , |5-> 801021 , |6-> 1283003 ,
