routing_delay = 0;
alloc_iters = 1;
credit_delay = 2;
num_vcs = 7;
sim_count = 1;
output_speedup = 1;
vc_alloc_delay = 1;
input_speedup = 1;
sample_period = 10000;
packet_size = 1;
internal_speedup = 4.0;
sw_allocator = separable_input_first;
vc_buf_size = 64;
warmup_periods = 3;
injection_rate_uses_flits = 1;
st_final_delay = 1;
vc_allocator = separable_input_first;
sw_alloc_delay = 1;
priority = none;
wait_for_tail_credit = 0;
df_a = 8;
df_arrangement = absolute_improved;
df_g = 0;
global_latency = 10;
local_latency = 10;
multitiered_routing_threshold_0 = 10;
multitiered_routing_threshold_1 = 40;
topology = dragonflyfull;
traffic = uniform;
df_g = 31;
routing_function = PAR;
seed = 6;

defaultText, count, i-rate in config file, i-rate injected, i-rate accepted, packet latency, flit latency, deadlock?
simulation,         1,      0.01,  0.010012,  0.010013,    44.456,    44.464,         0,  815965,  190432,  |4-> 0 , |5-> 0 , |6-> 0 ,,  |4-> 0 , |5-> 0 , |6-> 0 ,,  |1-> 0 , |2-> 13581 , |3-> 4628 , |4-> 53801 , |5-> 268258 , |6-> 475697 ,,  |1-> 0 , |2-> 3472 , |3-> 1153 , |4-> 13269 , |5-> 63407 , |6-> 109131 ,
simulation,         2,      0.99,   0.91752,   0.93688,    726.33,    358.27,         1,  0,  0,  ,  ,  ,  
simulation,         3,       0.5,    0.5002,   0.50021,    37.625,     37.63,         0,  52315574,  1826509,  |4-> 0 , |5-> 0 , |6-> 0 ,,  |4-> 0 , |5-> 0 , |6-> 0 ,,  |1-> 0 , |2-> 820932 , |3-> 287225 , |4-> 3441037 , |5-> 17188852 , |6-> 30577528 ,,  |1-> 0 , |2-> 27407 , |3-> 14683 , |4-> 152241 , |5-> 647568 , |6-> 984610 ,
simulation,         4,      0.74,   0.74007,   0.74007,    39.994,    39.998,         0,  79231506,  1458010,  |4-> 0 , |5-> 0 , |6-> 0 ,,  |4-> 0 , |5-> 0 , |6-> 0 ,,  |1-> 0 , |2-> 1239205 , |3-> 434742 , |4-> 5215074 , |5-> 26030942 , |6-> 46311543 ,,  |1-> 0 , |2-> 20758 , |3-> 14979 , |4-> 142051 , |5-> 549366 , |6-> 730856 ,
simulation,         5,      0.86,   0.86002,   0.86003,    46.587,     46.59,         0,  92229334,  1618737,  |4-> 0 , |5-> 0 , |6-> 0 ,,  |4-> 0 , |5-> 0 , |6-> 0 ,,  |1-> 0 , |2-> 1441027 , |3-> 505613 , |4-> 6065922 , |5-> 30286975 , |6-> 53929797 ,,  |1-> 0 , |2-> 21942 , |3-> 17872 , |4-> 166329 , |5-> 623613 , |6-> 788981 ,
simulation,         6,      0.92,   0.91497,   0.91564,    403.96,    218.91,         0,  167118022,  6954445,  |4-> 0 , |5-> 0 , |6-> 0 ,,  |4-> 0 , |5-> 0 , |6-> 0 ,,  |1-> 0 , |2-> 2659364 , |3-> 882936 , |4-> 10766237 , |5-> 54546842 , |6-> 98262643 ,,  |1-> 0 , |2-> 79974 , |3-> 87621 , |4-> 788470 , |5-> 2792924 , |6-> 3205456 ,
simulation,         7,      0.95,   0.91934,   0.92114,    745.21,    384.31,         1,  0,  0,  ,  ,  ,  
simulation,         8,      0.93,   0.92002,   0.92108,    501.05,     282.1,         1,  0,  0,  ,  ,  ,  
simulation,         9,       0.9,       0.9,       0.9,    54.977,    54.983,         0,  95960978,  2140037,  |4-> 0 , |5-> 0 , |6-> 0 ,,  |4-> 0 , |5-> 0 , |6-> 0 ,,  |1-> 0 , |2-> 1505016 , |3-> 524165 , |4-> 6299325 , |5-> 31493239 , |6-> 56139233 ,,  |1-> 0 , |2-> 28570 , |3-> 22082 , |4-> 211235 , |5-> 809104 , |6-> 1069046 ,
simulation,        10,      0.85,   0.85007,   0.85007,    45.524,    45.527,         0,  91201749,  1568028,  |4-> 0 , |5-> 0 , |6-> 0 ,,  |4-> 0 , |5-> 0 , |6-> 0 ,,  |1-> 0 , |2-> 1424187 , |3-> 499142 , |4-> 5989540 , |5-> 29958640 , |6-> 53330240 ,,  |1-> 0 , |2-> 21656 , |3-> 17174 , |4-> 161100 , |5-> 604572 , |6-> 763526 ,
simulation,        11,       0.8,   0.80008,   0.80009,     42.09,    42.093,         0,  85843447,  1449755,  |4-> 0 , |5-> 0 , |6-> 0 ,,  |4-> 0 , |5-> 0 , |6-> 0 ,,  |1-> 0 , |2-> 1341175 , |3-> 469321 , |4-> 5646340 , |5-> 28194698 , |6-> 50191913 ,,  |1-> 0 , |2-> 19662 , |3-> 15601 , |4-> 147245 , |5-> 554486 , |6-> 712761 ,
simulation,        12,      0.75,    0.7501,   0.75011,    40.256,    40.259,         0,  80343805,  1447614,  |4-> 0 , |5-> 0 , |6-> 0 ,,  |4-> 0 , |5-> 0 , |6-> 0 ,,  |1-> 0 , |2-> 1255306 , |3-> 440333 , |4-> 5288342 , |5-> 26391903 , |6-> 46967921 ,,  |1-> 0 , |2-> 20007 , |3-> 14993 , |4-> 141899 , |5-> 546363 , |6-> 724352 ,
