vc_buf_size = 64;
wait_for_tail_credit = 0;
vc_allocator = separable_input_first;
sw_allocator = separable_input_first;
alloc_iters = 1;
credit_delay = 2;
routing_delay = 0;
vc_alloc_delay = 1;
sw_alloc_delay = 1;
st_final_delay = 1;
input_speedup = 1;
output_speedup = 1;
internal_speedup = 4.0;
warmup_periods = 3;
sim_count = 1;
sample_period = 5000;
num_vcs = 7;
priority = none;
packet_size = 1;
injection_rate_uses_flits = 1;
df_a = 8;
df_arrangement = absolute_improved;
df_g = 0;
global_latency = 1;
local_latency = 1;
topology = dragonflyfull;
traffic = df_wc;
ugal_multiply_mode = one_vs_two;
df_g = 9;
df_wc_seed = 62;
routing_function = UGAL_G_restricted;
seed = 92;

defaultText, count, i-rate in config file, i-rate injected, i-rate accepted, flit latency, deadlock?, average_hop_length
simulation,         1,       0.5,   0.50006,   0.50011,    19.346,    19.346,         0,      4.6692
simulation,         2,      0.74,   0.54238,   0.61903,    549.35,    461.06,         1,         0.0
simulation,         3,      0.62,   0.55523,   0.55532,    1009.3,    401.67,         1,         0.0
simulation,         4,      0.56,   0.55988,   0.55996,    37.285,    37.286,         0,      4.7187
simulation,         5,      0.59,   0.55627,   0.55513,    592.22,    313.19,         1,         0.0
simulation,         6,      0.57,   0.55774,   0.55724,    491.62,    209.48,         1,         0.0
simulation,         7,       0.1,  0.099967,  0.099966,    11.271,    11.271,         0,      4.4214
simulation,         8,       0.2,   0.19992,   0.19992,     12.09,     12.09,         0,      4.4633
simulation,         9,       0.3,   0.30027,   0.30028,    13.197,    13.197,         0,       4.502
simulation,        10,       0.4,   0.40006,   0.40009,    15.221,     15.22,         0,      4.5864
simulation,        11,       0.5,   0.50006,   0.50011,    19.346,    19.346,         0,      4.6692
