vc_buf_size = 64;
wait_for_tail_credit = 0;
vc_allocator = separable_input_first;
sw_allocator = separable_input_first;
alloc_iters = 1;
credit_delay = 2;
routing_delay = 0;
vc_alloc_delay = 1;
sw_alloc_delay = 1;
st_final_delay = 1;
input_speedup = 1;
output_speedup = 1;
sim_count = 1;
num_vcs = 7;
priority = none;
packet_size = 1;
injection_rate_uses_flits = 1;
internal_speedup = 4.0;
warmup_periods = 3;
sample_period = 10000;
df_a = 8;
df_arrangement = absolute_improved;
df_g = 0;
global_latency = 10;
latency_thres = 1000.0;
local_latency = 10;
seed = 90;
topology = dragonflyfull;
traffic = randperm;
df_g = 17;
perm_seed = 70;
routing_function = UGAL_L;

defaultText, count, i-rate in config file, i-rate injected, i-rate accepted, packet latency, flit latency, deadlock?
simulation,         1,       0.5,   0.49997,   0.49997,    48.007,    48.022,         0,  0,  0,  ,  ,  ,  
simulation,         2,      0.74,    0.6199,   0.63678,    1213.0,     482.0,         1,  0,  0,  ,  ,  ,  
simulation,         3,      0.62,   0.61005,   0.61004,    761.33,    161.85,         1,  0,  0,  ,  ,  ,  
simulation,         4,      0.56,   0.55903,   0.55905,    270.35,    62.363,         0,  0,  0,  ,  ,  ,  
simulation,         5,      0.59,    0.5868,   0.58681,    717.62,    85.996,         0,  0,  0,  ,  ,  ,  
simulation,         6,       0.6,   0.59625,   0.59625,    858.94,     96.34,         0,  0,  0,  ,  ,  ,  
simulation,         7,      0.61,   0.60479,   0.60477,     395.9,    117.96,         1,  0,  0,  ,  ,  ,  
simulation,         9,      0.55,   0.54919,   0.54918,    215.47,    58.574,         0,  0,  0,  ,  ,  ,  
simulation,        11,      0.45,   0.44994,   0.44994,    43.656,    43.666,         0,  0,  0,  ,  ,  ,  
