vc_buf_size = 64;
wait_for_tail_credit = 0;
vc_allocator = separable_input_first;
sw_allocator = separable_input_first;
alloc_iters = 1;
credit_delay = 2;
routing_delay = 0;
vc_alloc_delay = 1;
sw_alloc_delay = 1;
st_final_delay = 1;
input_speedup = 1;
output_speedup = 1;
sim_count = 1;
num_vcs = 7;
priority = none;
packet_size = 1;
injection_rate_uses_flits = 1;
internal_speedup = 4.0;
warmup_periods = 3;
sample_period = 1000;
df_a = 16;
df_arrangement = absolute_improved;
global_latency = 10;
local_latency = 1;
multitiered_routing_threshold_0 = 10;
multitiered_routing_threshold_1 = 40;
seed = 11;
topology = dragonflyfull;
traffic = group_shift;
df_g = 21;
routing_function = UGAL_L;
shift_by_group = 2;

defaultText, count, i-rate in config file, i-rate injected, i-rate accepted, packet latency, flit latency, deadlock?
simulation,         1,      0.01,  0.010001,  0.010006,    21.106,    21.119,         0,  138916,  23543,  |4-> 0 , |5-> 0 , |6-> 0 ,,  |4-> 0 , |5-> 0 , |6-> 0 ,,  |1-> 0 , |2-> 22 , |3-> 104 , |4-> 3323 , |5-> 27851 , |6-> 107616 ,,  |1-> 0 , |2-> 3 , |3-> 11 , |4-> 515 , |5-> 4712 , |6-> 18302 ,
simulation,         2,      0.99,   0.17218,   0.42095,    650.14,    649.72,         1,  0,  0,  ,  ,  ,  
simulation,         3,       0.5,   0.18567,   0.43381,     429.2,    429.19,         1,  0,  0,  ,  ,  ,  
simulation,         4,      0.25,   0.14802,   0.24999,    616.49,    616.49,         1,  0,  0,  ,  ,  ,  
simulation,         5,      0.13,   0.12991,   0.12993,    84.172,    85.117,         0,  1040786,  1529289,  |4-> 0 , |5-> 0 , |6-> 0 ,,  |4-> 0 , |5-> 0 , |6-> 0 ,,  |1-> 0 , |2-> 187 , |3-> 904 , |4-> 27556 , |5-> 217206 , |6-> 794933 ,,  |1-> 0 , |2-> 204 , |3-> 1064 , |4-> 33419 , |5-> 294979 , |6-> 1199623 ,
simulation,         6,      0.19,   0.15631,   0.18979,    422.81,    477.57,         1,  0,  0,  ,  ,  ,  
simulation,         7,      0.16,    0.1553,   0.15994,    264.88,    415.02,         0,  2647636,  5046767,  |4-> 0 , |5-> 0 , |6-> 0 ,,  |4-> 0 , |5-> 0 , |6-> 0 ,,  |1-> 0 , |2-> 120 , |3-> 808 , |4-> 40506 , |5-> 454568 , |6-> 2151634 ,,  |1-> 0 , |2-> 1067 , |3-> 5165 , |4-> 142207 , |5-> 1082573 , |6-> 3815755 ,
simulation,         8,      0.17,   0.15807,   0.16992,    357.64,    363.07,         1,  0,  0,  ,  ,  ,  
simulation,         9,      0.15,   0.14911,   0.14993,    142.48,    150.12,         0,  1665642,  3013911,  |4-> 0 , |5-> 0 , |6-> 0 ,,  |4-> 0 , |5-> 0 , |6-> 0 ,,  |1-> 0 , |2-> 168 , |3-> 776 , |4-> 30419 , |5-> 303238 , |6-> 1331041 ,,  |1-> 0 , |2-> 594 , |3-> 2790 , |4-> 80148 , |5-> 631450 , |6-> 2298929 ,
simulation,        10,       0.1,  0.099885,  0.099889,    61.496,    61.764,         0,  867189,  792937,  |4-> 0 , |5-> 0 , |6-> 0 ,,  |4-> 0 , |5-> 0 , |6-> 0 ,,  |1-> 0 , |2-> 218 , |3-> 850 , |4-> 23911 , |5-> 184655 , |6-> 657555 ,,  |1-> 0 , |2-> 81 , |3-> 452 , |4-> 15452 , |5-> 146961 , |6-> 629991 ,
simulation,        11,      0.05,  0.049985,  0.049976,    24.221,    24.236,         0,  557784,  254538,  |4-> 0 , |5-> 0 , |6-> 0 ,,  |4-> 0 , |5-> 0 , |6-> 0 ,,  |1-> 0 , |2-> 81 , |3-> 444 , |4-> 13972 , |5-> 113748 , |6-> 429539 ,,  |1-> 0 , |2-> 43 , |3-> 176 , |4-> 5367 , |5-> 48512 , |6-> 200440 ,
