vc_buf_size = 64;
wait_for_tail_credit = 0;
vc_allocator = separable_input_first;
sw_allocator = separable_input_first;
alloc_iters = 1;
credit_delay = 2;
routing_delay = 0;
vc_alloc_delay = 1;
sw_alloc_delay = 1;
st_final_delay = 1;
input_speedup = 1;
output_speedup = 1;
sim_count = 1;
num_vcs = 7;
priority = none;
packet_size = 1;
injection_rate_uses_flits = 1;
internal_speedup = 4.0;
warmup_periods = 3;
sample_period = 10000;
df_a = 8;
df_arrangement = absolute_improved;
df_g = 0;
global_latency = 10;
local_latency = 10;
multitiered_routing_threshold_0 = 10;
multitiered_routing_threshold_1 = 40;
seed = 11;
topology = dragonflyfull;
traffic = randperm;
df_g = 15;
perm_seed = 62;
routing_function = UGAL_L;

defaultText, count, i-rate in config file, i-rate injected, i-rate accepted, packet latency, flit latency, deadlock?
simulation,         1,      0.01,  0.010056,  0.010058,    39.008,    39.017,         0,  228258,  59238,  |4-> 0 , |5-> 0 , |6-> 0 ,,  |4-> 0 , |5-> 0 , |6-> 0 ,,  |1-> 0 , |2-> 11729 , |3-> 1436 , |4-> 15249 , |5-> 72557 , |6-> 127287 ,,  |1-> 0 , |2-> 4060 , |3-> 431 , |4-> 4202 , |5-> 18722 , |6-> 31823 ,
simulation,         2,      0.99,   0.64377,   0.69039,    1356.2,     626.0,         1,  0,  0,  ,  ,  ,  
simulation,         3,       0.5,   0.50028,   0.50028,    45.683,    45.698,         0,  11766226,  2615342,  |4-> 0 , |5-> 0 , |6-> 0 ,,  |4-> 0 , |5-> 0 , |6-> 0 ,,  |1-> 0 , |2-> 601539 , |3-> 71237 , |4-> 764394 , |5-> 3734236 , |6-> 6594820 ,,  |1-> 0 , |2-> 184957 , |3-> 19710 , |4-> 197572 , |5-> 859127 , |6-> 1353976 ,
simulation,         4,      0.74,   0.64255,   0.67057,    502.77,    344.81,         1,  0,  0,  ,  ,  ,  
simulation,         5,      0.62,   0.61644,   0.61648,     345.2,    102.64,         1,  0,  0,  ,  ,  ,  
simulation,         6,      0.56,   0.56034,   0.56034,    54.226,    54.252,         0,  12814832,  3301944,  |4-> 0 , |5-> 0 , |6-> 0 ,,  |4-> 0 , |5-> 0 , |6-> 0 ,,  |1-> 0 , |2-> 665025 , |3-> 77133 , |4-> 830666 , |5-> 4066370 , |6-> 7175638 ,,  |1-> 0 , |2-> 216448 , |3-> 25043 , |4-> 248274 , |5-> 1084243 , |6-> 1727936 ,
simulation,         7,      0.59,   0.58935,   0.58934,    173.95,    68.532,         0,  28513434,  8344031,  |4-> 0 , |5-> 0 , |6-> 0 ,,  |4-> 0 , |5-> 0 , |6-> 0 ,,  |1-> 0 , |2-> 1493505 , |3-> 171059 , |4-> 1837148 , |5-> 9027875 , |6-> 15983847 ,,  |1-> 0 , |2-> 524235 , |3-> 62637 , |4-> 628953 , |5-> 2745754 , |6-> 4382452 ,
simulation,         8,       0.6,   0.59897,   0.59897,    262.08,    72.514,         0,  33279122,  10288031,  |4-> 0 , |5-> 0 , |6-> 0 ,,  |4-> 0 , |5-> 0 , |6-> 0 ,,  |1-> 0 , |2-> 1751519 , |3-> 198933 , |4-> 2138894 , |5-> 10521216 , |6-> 18668560 ,,  |1-> 0 , |2-> 634080 , |3-> 77231 , |4-> 777598 , |5-> 3390301 , |6-> 5408821 ,
simulation,         9,      0.61,   0.60849,    0.6085,    360.34,     82.46,         0,  39015119,  12870595,  |4-> 0 , |5-> 0 , |6-> 0 ,,  |4-> 0 , |5-> 0 , |6-> 0 ,,  |1-> 0 , |2-> 2061630 , |3-> 231674 , |4-> 2498879 , |5-> 12317400 , |6-> 21905536 ,,  |1-> 0 , |2-> 782298 , |3-> 96942 , |4-> 973767 , |5-> 4251046 , |6-> 6766542 ,
simulation,        11,      0.55,   0.55034,   0.55033,    52.078,    52.109,         0,  12678641,  3162954,  |4-> 0 , |5-> 0 , |6-> 0 ,,  |4-> 0 , |5-> 0 , |6-> 0 ,,  |1-> 0 , |2-> 655779 , |3-> 76674 , |4-> 821586 , |5-> 4023639 , |6-> 7100963 ,,  |1-> 0 , |2-> 210459 , |3-> 23881 , |4-> 237555 , |5-> 1036502 , |6-> 1654557 ,
simulation,        13,      0.45,   0.45025,   0.45023,    42.056,    42.065,         0,  10656334,  2260903,  |4-> 0 , |5-> 0 , |6-> 0 ,,  |4-> 0 , |5-> 0 , |6-> 0 ,,  |1-> 0 , |2-> 539833 , |3-> 64622 , |4-> 692838 , |5-> 3385271 , |6-> 5973770 ,,  |1-> 0 , |2-> 166688 , |3-> 17438 , |4-> 172041 , |5-> 741134 , |6-> 1163602 ,
