vc_buf_size = 64;
wait_for_tail_credit = 0;
vc_allocator = separable_input_first;
sw_allocator = separable_input_first;
alloc_iters = 1;
credit_delay = 2;
routing_delay = 0;
vc_alloc_delay = 1;
sw_alloc_delay = 1;
st_final_delay = 1;
input_speedup = 1;
output_speedup = 1;
sim_count = 1;
num_vcs = 7;
priority = none;
packet_size = 1;
injection_rate_uses_flits = 1;
internal_speedup = 4.0;
warmup_periods = 3;
sample_period = 10000;
df_a = 8;
df_arrangement = absolute_improved;
df_g = 0;
global_latency = 10;
local_latency = 10;
multitiered_routing_threshold_0 = 10;
multitiered_routing_threshold_1 = 40;
seed = 11;
topology = dragonflyfull;
traffic = group_shift;
df_g = 17;
routing_function = PAR_multi_tiered;
shift_by_group = 6;

defaultText, count, i-rate in config file, i-rate injected, i-rate accepted, packet latency, flit latency, deadlock?
simulation,         1,      0.01,  0.010051,  0.010053,    45.616,    45.621,         0,  315590,  212660,  |4-> 315590 , |5-> 0 , |6-> 0 ,,  |4-> 212660 , |5-> 0 , |6-> 0 ,,  |1-> 0 , |2-> 964 , |3-> 45681 , |4-> 268945 , |5-> 0 , |6-> 0 ,,  |1-> 0 , |2-> 502 , |3-> 26733 , |4-> 185425 , |5-> 0 , |6-> 0 ,
simulation,         2,      0.99,   0.41658,    0.4635,    2804.0,    1007.0,         1,  0,  0,  ,  ,  ,  
simulation,         3,       0.5,   0.46938,   0.47949,    508.59,    327.96,         1,  0,  0,  ,  ,  ,  
simulation,         4,      0.25,   0.25011,   0.25011,    58.813,    58.817,         0,  7036969,  6216974,  |4-> 627180 , |5-> 6406267 , |6-> 3522 ,,  |4-> 40216 , |5-> 5845810 , |6-> 330948 ,,  |1-> 0 , |2-> 7788 , |3-> 390868 , |4-> 2312772 , |5-> 4324241 , |6-> 1300 ,,  |1-> 0 , |2-> 4620 , |3-> 214610 , |4-> 1682475 , |5-> 4210160 , |6-> 105109 ,
simulation,         5,      0.37,   0.37016,   0.37015,    74.966,    74.966,         0,  9483529,  10057606,  |4-> 5051 , |5-> 7581166 , |6-> 1897312 ,,  |4-> 3743 , |5-> 3134126 , |6-> 6919737 ,,  |1-> 0 , |2-> 8394 , |3-> 424677 , |4-> 2486969 , |5-> 5828655 , |6-> 734834 ,,  |1-> 0 , |2-> 5987 , |3-> 285124 , |4-> 2180775 , |5-> 5516228 , |6-> 2069492 ,
simulation,         6,      0.43,   0.43024,   0.43022,    92.761,    92.763,         0,  9076066,  12039470,  |4-> 3889 , |5-> 4800473 , |6-> 4271704 ,,  |4-> 3722 , |5-> 2823295 , |6-> 9212453 ,,  |1-> 0 , |2-> 6737 , |3-> 348613 , |4-> 2094620 , |5-> 5020764 , |6-> 1605332 ,,  |1-> 0 , |2-> 7662 , |3-> 373086 , |4-> 2594139 , |5-> 6317335 , |6-> 2747248 ,
simulation,         7,      0.46,   0.45624,    0.4564,    505.06,    195.22,         1,  0,  0,  ,  ,  ,  
simulation,         8,      0.44,   0.44024,   0.44023,    99.903,    99.954,         0,  8777055,  12515563,  |4-> 3944 , |5-> 3212330 , |6-> 5560781 ,,  |4-> 3965 , |5-> 1829680 , |6-> 10681918 ,,  |1-> 0 , |2-> 5890 , |3-> 296717 , |4-> 1845792 , |5-> 4607489 , |6-> 2021167 ,,  |1-> 0 , |2-> 7954 , |3-> 391097 , |4-> 2637648 , |5-> 6251784 , |6-> 3227080 ,
simulation,         9,      0.45,     0.449,   0.44905,    287.86,    150.14,         0,  15672872,  24224404,  |4-> 4436 , |5-> 3391997 , |6-> 12276439 ,,  |4-> 4416 , |5-> 1842409 , |6-> 22377579 ,,  |1-> 0 , |2-> 8743 , |3-> 464437 , |4-> 2989044 , |5-> 7825033 , |6-> 4385615 ,,  |1-> 0 , |2-> 15822 , |3-> 767328 , |4-> 5031194 , |5-> 11605880 , |6-> 6804180 ,
simulation,        11,       0.4,   0.40014,   0.40013,    82.385,     82.39,         0,  9607343,  11041719,  |4-> 4078 , |5-> 6955573 , |6-> 2647692 ,,  |4-> 3750 , |5-> 3467026 , |6-> 7570943 ,,  |1-> 0 , |2-> 8556 , |3-> 420815 , |4-> 2450609 , |5-> 5685336 , |6-> 1042027 ,,  |1-> 0 , |2-> 6820 , |3-> 323916 , |4-> 2409085 , |5-> 6066230 , |6-> 2235668 ,
simulation,        12,      0.35,   0.35018,   0.35017,    71.653,    71.654,         0,  9205354,  9401130,  |4-> 7876 , |5-> 7527571 , |6-> 1669907 ,,  |4-> 3623 , |5-> 2964282 , |6-> 6433225 ,,  |1-> 0 , |2-> 8212 , |3-> 412184 , |4-> 2423905 , |5-> 5720586 , |6-> 640467 ,,  |1-> 0 , |2-> 5647 , |3-> 266517 , |4-> 2048299 , |5-> 5152257 , |6-> 1928410 ,
simulation,        13,       0.3,   0.30022,   0.30022,      64.0,    64.002,         0,  8225939,  7767193,  |4-> 80174 , |5-> 7816728 , |6-> 329037 ,,  |4-> 5121 , |5-> 4907617 , |6-> 2854455 ,,  |1-> 0 , |2-> 7283 , |3-> 380456 , |4-> 2303824 , |5-> 5411129 , |6-> 123247 ,,  |1-> 0 , |2-> 5424 , |3-> 243721 , |4-> 1891555 , |5-> 4741164 , |6-> 885329 ,
