vc_buf_size = 64;
wait_for_tail_credit = 0;
vc_allocator = separable_input_first;
sw_allocator = separable_input_first;
alloc_iters = 1;
credit_delay = 2;
routing_delay = 0;
vc_alloc_delay = 1;
sw_alloc_delay = 1;
st_final_delay = 1;
input_speedup = 1;
output_speedup = 1;
sim_count = 1;
num_vcs = 7;
priority = none;
packet_size = 1;
injection_rate_uses_flits = 1;
internal_speedup = 4.0;
warmup_periods = 3;
sample_period = 10000;
df_a = 8;
df_arrangement = absolute_improved;
df_g = 0;
global_latency = 10;
local_latency = 10;
multitiered_routing_threshold_0 = 10;
multitiered_routing_threshold_1 = 40;
seed = 11;
topology = dragonflyfull;
traffic = randperm;
df_g = 19;
perm_seed = 62;
routing_function = min;

defaultText, count, i-rate in config file, i-rate injected, i-rate accepted, packet latency, flit latency, deadlock?
simulation,         1,      0.01,  0.010055,  0.010055,    33.392,    33.394,         0,  0,  0,  |4-> 0 , |5-> 0 , |6-> 0 ,,  |4-> 0 , |5-> 0 , |6-> 0 ,,  |1-> 0 , |2-> 0 , |3-> 0 , |4-> 0 , |5-> 0 , |6-> 0 ,,  |1-> 0 , |2-> 0 , |3-> 0 , |4-> 0 , |5-> 0 , |6-> 0 ,
simulation,         2,      0.99,   0.54472,   0.59099,    1731.7,    741.78,         1,  0,  0,  ,  ,  ,  
simulation,         3,       0.5,   0.44875,    0.4573,    667.57,    317.85,         1,  0,  0,  ,  ,  ,  
simulation,         4,      0.25,    0.2501,   0.25011,    41.549,    41.561,         0,  0,  0,  |4-> 0 , |5-> 0 , |6-> 0 ,,  |4-> 0 , |5-> 0 , |6-> 0 ,,  |1-> 0 , |2-> 0 , |3-> 0 , |4-> 0 , |5-> 0 , |6-> 0 ,,  |1-> 0 , |2-> 0 , |3-> 0 , |4-> 0 , |5-> 0 , |6-> 0 ,
simulation,         5,      0.37,   0.36249,   0.36253,    430.52,    154.17,         1,  0,  0,  ,  ,  ,  
simulation,         6,      0.31,   0.30784,   0.30784,    375.38,     81.35,         1,  0,  0,  ,  ,  ,  
simulation,         7,      0.28,   0.27907,   0.27907,    314.14,    77.034,         0,  0,  0,  |4-> 0 , |5-> 0 , |6-> 0 ,,  |4-> 0 , |5-> 0 , |6-> 0 ,,  |1-> 0 , |2-> 0 , |3-> 0 , |4-> 0 , |5-> 0 , |6-> 0 ,,  |1-> 0 , |2-> 0 , |3-> 0 , |4-> 0 , |5-> 0 , |6-> 0 ,
simulation,         8,      0.29,   0.28872,   0.28874,    430.21,    83.855,         0,  0,  0,  |4-> 0 , |5-> 0 , |6-> 0 ,,  |4-> 0 , |5-> 0 , |6-> 0 ,,  |1-> 0 , |2-> 0 , |3-> 0 , |4-> 0 , |5-> 0 , |6-> 0 ,,  |1-> 0 , |2-> 0 , |3-> 0 , |4-> 0 , |5-> 0 , |6-> 0 ,
simulation,         9,       0.3,   0.29833,   0.29833,    331.41,    82.506,         1,  0,  0,  ,  ,  ,  
simulation,        12,       0.2,   0.20009,   0.20009,    33.812,    33.813,         0,  0,  0,  |4-> 0 , |5-> 0 , |6-> 0 ,,  |4-> 0 , |5-> 0 , |6-> 0 ,,  |1-> 0 , |2-> 0 , |3-> 0 , |4-> 0 , |5-> 0 , |6-> 0 ,,  |1-> 0 , |2-> 0 , |3-> 0 , |4-> 0 , |5-> 0 , |6-> 0 ,
simulation,        13,      0.15,   0.15015,   0.15014,    33.647,    33.649,         0,  0,  0,  |4-> 0 , |5-> 0 , |6-> 0 ,,  |4-> 0 , |5-> 0 , |6-> 0 ,,  |1-> 0 , |2-> 0 , |3-> 0 , |4-> 0 , |5-> 0 , |6-> 0 ,,  |1-> 0 , |2-> 0 , |3-> 0 , |4-> 0 , |5-> 0 , |6-> 0 ,
