vc_buf_size = 64;
wait_for_tail_credit = 0;
vc_allocator = separable_input_first;
sw_allocator = separable_input_first;
alloc_iters = 1;
credit_delay = 2;
routing_delay = 0;
vc_alloc_delay = 1;
sw_alloc_delay = 1;
st_final_delay = 1;
input_speedup = 1;
output_speedup = 1;
sim_count = 1;
num_vcs = 7;
priority = none;
packet_size = 1;
injection_rate_uses_flits = 1;
internal_speedup = 4.0;
warmup_periods = 3;
sample_period = 1000;
df_a = 8;
df_arrangement = absolute_improved;
df_g = 33;
global_latency = 1;
local_latency = 1;
multitiered_routing_threshold_0 = 10;
multitiered_routing_threshold_1 = 40;
topology = dragonflyfull;
traffic = randperm;
df_g = 22;
perm_seed = 68;
routing_function = UGAL_L_multi_tiered;

defaultText, count, i-rate in config file, i-rate injected, i-rate accepted, packet latency, flit latency, deadlock?
simulation,         1,      0.01,  0.010027,  0.010025,    9.5323,     9.533,         0,  38952,  3333,  |4-> 37648 , |5-> 0 , |6-> 0 ,,  |4-> 3203 , |5-> 0 , |6-> 0 ,,  |1-> 0 , |2-> 1418 , |3-> 4204 , |4-> 33330 , |5-> 0 , |6-> 0 ,,  |1-> 0 , |2-> 143 , |3-> 362 , |4-> 2828 , |5-> 0 , |6-> 0 ,
simulation,         2,      0.99,    0.5781,   0.59509,    747.07,    687.93,         1,  0,  0,  ,  ,  ,  
simulation,         3,       0.5,   0.49951,   0.49965,    25.863,    26.137,         0,  1483038,  713678,  |4-> 1376509 , |5-> 55521 , |6-> 2520 ,,  |4-> 495646 , |5-> 157313 , |6-> 37305 ,,  |1-> 0 , |2-> 53274 , |3-> 155784 , |4-> 1232124 , |5-> 40954 , |6-> 902 ,,  |1-> 0 , |2-> 25039 , |3-> 56093 , |4-> 481754 , |5-> 134495 , |6-> 16297 ,
simulation,         4,      0.74,   0.57819,   0.59221,    169.51,     476.3,         1,  0,  0,  ,  ,  ,  
simulation,         5,      0.62,   0.57342,   0.57951,    317.61,    255.09,         1,  0,  0,  ,  ,  ,  
simulation,         6,      0.56,   0.55818,   0.55875,    60.223,    55.842,         0,  3088698,  2064432,  |4-> 2261036 , |5-> 657841 , |6-> 56039 ,,  |4-> 571398 , |5-> 1111723 , |6-> 325771 ,,  |1-> 0 , |2-> 122027 , |3-> 264082 , |4-> 2170761 , |5-> 509643 , |6-> 22185 ,,  |1-> 0 , |2-> 58338 , |3-> 91485 , |4-> 801195 , |5-> 971773 , |6-> 141641 ,
simulation,         7,      0.59,   0.57255,   0.57836,     284.0,    171.89,         0,  5295554,  4519397,  |4-> 2628136 , |5-> 1778228 , |6-> 684966 ,,  |4-> 458204 , |5-> 2207180 , |6-> 1729479 ,,  |1-> 0 , |2-> 215339 , |3-> 338975 , |4-> 2841856 , |5-> 1617931 , |6-> 281453 ,,  |1-> 0 , |2-> 128854 , |3-> 125564 , |4-> 1132717 , |5-> 2387263 , |6-> 744999 ,
simulation,         8,       0.6,   0.57243,   0.57864,    219.22,    188.54,         1,  0,  0,  ,  ,  ,  
simulation,        10,      0.55,   0.54888,   0.54937,    46.763,    45.657,         0,  2039063,  1244928,  |4-> 1626465 , |5-> 319016 , |6-> 21006 ,,  |4-> 455147 , |5-> 595377 , |6-> 159369 ,,  |1-> 0 , |2-> 78331 , |3-> 187016 , |4-> 1522383 , |5-> 243274 , |6-> 8059 ,,  |1-> 0 , |2-> 36923 , |3-> 63786 , |4-> 559941 , |5-> 514111 , |6-> 70167 ,
simulation,        12,      0.45,   0.44968,   0.44968,    18.404,    18.541,         0,  1366270,  598910,  |4-> 1308178 , |5-> 13643 , |6-> 1327 ,,  |4-> 505629 , |5-> 57330 , |6-> 14721 ,,  |1-> 0 , |2-> 47556 , |3-> 146862 , |4-> 1161055 , |5-> 10237 , |6-> 560 ,,  |1-> 0 , |2-> 22784 , |3-> 54576 , |4-> 465692 , |5-> 49777 , |6-> 6081 ,
