vc_buf_size = 64;
wait_for_tail_credit = 0;
vc_allocator = separable_input_first;
sw_allocator = separable_input_first;
alloc_iters = 1;
credit_delay = 2;
routing_delay = 0;
vc_alloc_delay = 1;
sw_alloc_delay = 1;
st_final_delay = 1;
input_speedup = 1;
output_speedup = 1;
sim_count = 1;
num_vcs = 7;
priority = none;
packet_size = 1;
injection_rate_uses_flits = 1;
internal_speedup = 4.0;
warmup_periods = 3;
sample_period = 1000;
df_a = 8;
df_arrangement = absolute_improved;
df_g = 33;
global_latency = 1;
local_latency = 1;
multitiered_routing_threshold_0 = 10;
multitiered_routing_threshold_1 = 40;
topology = dragonflyfull;
traffic = randperm;
df_g = 13;
perm_seed = 64;
routing_function = UGAL_L_multi_tiered;

defaultText, count, i-rate in config file, i-rate injected, i-rate accepted, packet latency, flit latency, deadlock?
simulation,         1,      0.01,  0.010037,  0.010042,    9.3352,     9.336,         0,  23162,  1562,  |4-> 21302 , |5-> 0 , |6-> 0 ,,  |4-> 1378 , |5-> 0 , |6-> 0 ,,  |1-> 0 , |2-> 1940 , |3-> 2926 , |4-> 18296 , |5-> 0 , |6-> 0 ,,  |1-> 0 , |2-> 191 , |3-> 188 , |4-> 1183 , |5-> 0 , |6-> 0 ,
simulation,         2,      0.99,   0.71808,    0.7484,    541.22,    495.36,         1,  0,  0,  ,  ,  ,  
simulation,         3,       0.5,   0.49922,   0.49919,    13.951,    13.999,         0,  961488,  295352,  |4-> 891757 , |5-> 1476 , |6-> 0 ,,  |4-> 252042 , |5-> 6277 , |6-> 1389 ,,  |1-> 0 , |2-> 71398 , |3-> 125519 , |4-> 763736 , |5-> 835 , |6-> 0 ,,  |1-> 0 , |2-> 36358 , |3-> 33207 , |4-> 221034 , |5-> 4549 , |6-> 204 ,
simulation,         4,      0.74,   0.71451,   0.72079,    317.46,    169.88,         0,  3610451,  1994311,  |4-> 1380700 , |5-> 1359566 , |6-> 607144 ,,  |4-> 148796 , |5-> 881215 , |6-> 752545 ,,  |1-> 0 , |2-> 270942 , |3-> 290737 , |4-> 1841957 , |5-> 1084822 , |6-> 121993 ,,  |1-> 0 , |2-> 214446 , |3-> 102543 , |4-> 689086 , |5-> 854651 , |6-> 133585 ,
simulation,         5,      0.86,    0.7181,   0.73239,    476.04,     413.4,         1,  0,  0,  ,  ,  ,  
simulation,         6,       0.8,   0.71937,   0.72632,    453.22,    299.36,         1,  0,  0,  ,  ,  ,  
simulation,         7,      0.77,   0.71825,   0.72388,    319.13,    227.83,         1,  0,  0,  ,  ,  ,  
simulation,         8,      0.75,   0.71648,   0.72289,    414.77,    200.82,         0,  3799488,  2163638,  |4-> 1285022 , |5-> 1467624 , |6-> 770123 ,,  |4-> 128348 , |5-> 897967 , |6-> 903315 ,,  |1-> 0 , |2-> 284737 , |3-> 289597 , |4-> 1842090 , |5-> 1227935 , |6-> 155129 ,,  |1-> 0 , |2-> 236861 , |3-> 108748 , |4-> 726117 , |5-> 933137 , |6-> 158775 ,
simulation,         9,      0.76,   0.71863,   0.72484,    266.97,    200.38,         1,  0,  0,  ,  ,  ,  
simulation,        11,       0.7,   0.69747,   0.69878,     61.07,    58.005,         0,  2462352,  1118980,  |4-> 1568609 , |5-> 649138 , |6-> 67208 ,,  |4-> 243698 , |5-> 596725 , |6-> 159773 ,,  |1-> 0 , |2-> 184436 , |3-> 259411 , |4-> 1596015 , |5-> 410444 , |6-> 12046 ,,  |1-> 0 , |2-> 120504 , |3-> 70756 , |4-> 480223 , |5-> 417649 , |6-> 29848 ,
simulation,        12,      0.65,    0.6495,   0.64947,    24.686,    24.846,         0,  1264271,  452825,  |4-> 1067078 , |5-> 105282 , |6-> 1304 ,,  |4-> 232612 , |5-> 155913 , |6-> 13011 ,,  |1-> 0 , |2-> 94853 , |3-> 155544 , |4-> 952243 , |5-> 61369 , |6-> 262 ,,  |1-> 0 , |2-> 52127 , |3-> 38811 , |4-> 263300 , |5-> 96512 , |6-> 2075 ,
simulation,        13,       0.6,   0.59942,   0.59946,    18.227,     18.29,         0,  1161328,  377790,  |4-> 1045517 , |5-> 33021 , |6-> 125 ,,  |4-> 262553 , |5-> 64781 , |6-> 5904 ,,  |1-> 0 , |2-> 86476 , |3-> 149936 , |4-> 905749 , |5-> 19167 , |6-> 0 ,,  |1-> 0 , |2-> 45340 , |3-> 37524 , |4-> 252983 , |5-> 41033 , |6-> 910 ,
